{
    "common": {
        "effectAttachShape": {
            "$type": "ConfigEffectAttachSkinnedMesh",
            "mesh": "EffectMesh"
        },
        "mass": 10000.0,
        "height": 7.0,
        "viewSize": 2.0,
        "affectedByWorld": true,
        "checkInSurface": true,
        "shouldPauseAnimatorBeforeReady": true,
        "useGrassDisplacement": true,
        "muteElementStickUI": true,
        "clearAIOnSetLightDeactive": true,
        "FEPPLDIAIFJ": true,
        "NNCDDDJPEGJ": true
    },
    "model": {
        "bornEffect": "none",
        "attachEffect": "",
        "AIIEHEGCLIM": false
    },
    "dither": {
        "showDitherDuration": 2.0
    },
    "combat": {
        "property": {
            "endureType": "Monster_Demiboss_Other",
            "weight": 200.0
        },
        "beHit": {
            "hitBloodEffect": ""
        },
        "combatLock": {
            "lockShape": "CircleLockEnemy",
            "lockType": "Boss_Lv5"
        },
        "die": {
            "hasAnimatorDie": true,
            "dieEndTime": 3.200000047683716,
            "dieForceDisappearTime": 3.200000047683716,
            "dieDisappearEffect": "",
            "LFLHBBLFMNL": true,
            "DNOKPNKKHLO": true,
            "ILIIAFJADIB": true,
            "HABEAIAAGLF": true,
            "LEHDFPPJPKJ": true
        },
        "animEvents": {
            "LaserAtk": {
                "attackPattern": {
                    "$type": "ConfigAttackBox",
                    "triggerType": "TriggerNoRepeat",
                    "ignoreMassive": true,
                    "born": {
                        "$type": "ConfigBornBySelf",
                        "offset": {
                            "AMODPKJAIGF": 0.0,
                            "DBJCBJPOOAP": 1.5,
                            "JDFJGADACKC": 3.0
                        }
                    },
                    "size": {
                        "AMODPKJAIGF": 2.0,
                        "DBJCBJPOOAP": 3.0,
                        "JDFJGADACKC": 42.0
                    }
                },
                "attackInfo": {
                    "attackTag": "",
                    "attenuationTag": "",
                    "attenuationGroup": "default",
                    "attackProperty": {
                        "EHFOGJFHDPE": 0.699999988079071,
                        "GDADKLDBGIM": 0.0,
                        "bonusCriticalHurt": 50.0,
                        "strikeType": "Pierce",
                        "enBreak": 50.0,
                        "attackType": "Melee"
                    },
                    "hitPattern": {
                        "onHitEffectName": "Eff_Monster_Monolith_Starchild_Lance_LinkAtk_Damage",
                        "hitImpulseType": "LV4",
                        "canBeDefenceHalt": true
                    },
                    "forceCameraShake": true,
                    "cameraShake": {
                        "shakeType": "CustomVector",
                        "shakeRange": 0.30000001192092896,
                        "shakeTime": 0.10000000149011612,
                        "shakeDir": {
                            "z": 1.0
                        }
                    }
                }
            }
        }
    },
    "equipController": {
        "sheathPoint": "",
        "attachPoints": {
            "equip01": "WeaponR",
            "equip02": "WeaponL"
        }
    },
    "abilities": [
        {
            "abilityID": "",
            "abilityName": "Monster_Monolith_Starchild_Hide",
            "abilityOverride": ""
        },
        {
            "abilityID": "",
            "abilityName": "Monster_Monolith_Starchild_PartController",
            "abilityOverride": ""
        },
        {
            "abilityID": "",
            "abilityName": "Monster_Monolith_Starchild_ReleaseLance",
            "abilityOverride": ""
        },
        {
            "abilityID": "",
            "abilityName": "Monster_Monolith_Starchild_ResetPart",
            "abilityOverride": ""
        },
        {
            "abilityID": "",
            "abilityName": "Monster_Monolith_Starchild_ReleaseShield",
            "abilityOverride": ""
        },
        {
            "abilityID": "",
            "abilityName": "Monster_Monolith_Starchild_ReleaseDrone",
            "abilityOverride": ""
        },
        {
            "abilityID": "",
            "abilityName": "Monster_Monolith_Starchild_Alert",
            "abilityOverride": ""
        },
        {
            "abilityID": "",
            "abilityName": "Monster_Monolith_Starchild_OutOfBattle",
            "abilityOverride": ""
        },
        {
            "abilityID": "",
            "abilityName": "Monster_Monolith_Starchild_ClearPart",
            "abilityOverride": ""
        },
        {
            "abilityID": "",
            "abilityName": "Monster_Monolith_Starchild_OverCharge",
            "abilityOverride": ""
        },
        {
            "abilityID": "",
            "abilityName": "Monster_Monolith_Starchild_Steer",
            "abilityOverride": ""
        },
        {
            "abilityID": "",
            "abilityName": "Monster_Monolith_Starchild_ShieldLaserAttack",
            "abilityOverride": ""
        },
        {
            "abilityID": "",
            "abilityName": "Monster_Monolith_Starchild_SpearLaserAttack",
            "abilityOverride": ""
        },
        {
            "abilityID": "",
            "abilityName": "Monster_Monolith_Starchild_ShieldLanceAtk_ChargeDamage",
            "abilityOverride": ""
        },
        {
            "abilityID": "",
            "abilityName": "Monster_Monolith_Starchild_SpearShieldAttack",
            "abilityOverride": ""
        },
        {
            "abilityID": "",
            "abilityName": "Monster_Monolith_Starchild_Weak",
            "abilityOverride": ""
        },
        {
            "abilityID": "",
            "abilityName": "Monster_Monolith_Starchild_Initial",
            "abilityOverride": ""
        },
        {
            "abilityID": "",
            "abilityName": "Monster_Monolith_Starchild_PoseControl",
            "abilityOverride": ""
        },
        {
            "abilityID": "",
            "abilityName": "Monster_Monolith_Starchild_HideChargeBar",
            "abilityOverride": ""
        },
        {
            "abilityID": "",
            "abilityName": "Monster_Monolith_Starchild_PartCharge",
            "abilityOverride": ""
        },
        {
            "abilityID": "",
            "abilityName": "Monster_Monolith_Starchild_ShieldLanceAtk",
            "abilityOverride": ""
        },
        {
            "abilityID": "",
            "abilityName": "Monster_Monolith_Starchild_FireAngryLance",
            "abilityOverride": ""
        },
        {
            "abilityID": "",
            "abilityName": "Monster_Monolith_Starchild_ReleaseShieldPush",
            "abilityOverride": ""
        },
        {
            "abilityID": "",
            "abilityName": "Monster_Monolith_Starchild_PartRotateAlways",
            "abilityOverride": ""
        },
        {
            "abilityID": "",
            "abilityName": "Monster_Monolith_Starchild_OverCharge_Attack",
            "abilityOverride": ""
        },
        {
            "abilityID": "",
            "abilityName": "Monster_Monolith_Starchild_FullPowerAttack_FireAreaAttack",
            "abilityOverride": ""
        },
        {
            "abilityID": "",
            "abilityName": "Monster_Monolith_Starchild_FullPowerAttack_ReleaseBullet",
            "abilityOverride": ""
        },
        {
            "abilityID": "",
            "abilityName": "Monster_Monolith_ShieldPush_WindZone",
            "abilityOverride": ""
        },
        {
            "abilityID": "",
            "abilityName": "Test_MAni",
            "abilityOverride": ""
        }
    ],
    "stateLayers": {
        "defaultLayer": {
            "$type": "ConfigNormalStateLayer",
            "layerIndexName": "",
            "stateIDs": {
                "Born": {
                    "$type": "ConfigMonsterStateIDInfo",
                    "animatorStates": {
                        "Born": []
                    },
                    "canSyncMove": true,
                    "resetAnimatorTriggerOnExit": [
                        "DoSkill"
                    ]
                },
                "StandbyFree": {
                    "$type": "ConfigMonsterStateIDInfo",
                    "animatorStates": {
                        "StandbyFree": []
                    },
                    "canDoSkill": true,
                    "canSyncMove": true,
                    "resetAnimatorTriggerOnExit": [
                        "DoSkill"
                    ]
                },
                "NormalIdle": {
                    "$type": "ConfigMonsterStateIDInfo",
                    "animatorStates": {
                        "Standby": []
                    },
                    "canDoSkill": true,
                    "canSyncMove": true,
                    "resetAnimatorTriggerOnExit": [
                        "DoSkill"
                    ]
                },
                "NormalMove": {
                    "$type": "ConfigMonsterStateIDInfo",
                    "animatorStates": {
                        "WalkForward": []
                    },
                    "canDoSkill": true,
                    "canSyncMove": true,
                    "resetAnimatorTriggerOnExit": [
                        "DoSkill"
                    ],
                    "canSteer": true
                },
                "RandomMove": {
                    "$type": "ConfigMonsterStateIDInfo",
                    "animatorStates": {
                        "RandomMove": []
                    },
                    "canDoSkill": true,
                    "canSyncMove": true,
                    "resetAnimatorTriggerOnExit": [
                        "DoSkill"
                    ],
                    "canSteer": true
                },
                "Turn_Left": {
                    "$type": "ConfigMonsterStateIDInfo",
                    "animatorStates": {
                        "Turn_Left": []
                    },
                    "canDoSkill": true,
                    "canSyncMove": true,
                    "resetAnimatorTriggerOnExit": [
                        "DoSkill"
                    ]
                },
                "Turn_Right": {
                    "$type": "ConfigMonsterStateIDInfo",
                    "animatorStates": {
                        "Turn_Right": []
                    },
                    "canDoSkill": true,
                    "canSyncMove": true,
                    "resetAnimatorTriggerOnExit": [
                        "DoSkill"
                    ]
                },
                "BeHit": {
                    "$type": "ConfigMonsterStateIDInfo",
                    "animatorStates": {
                        "Hit_L": [],
                        "Hit_H": []
                    },
                    "resetAnimatorTriggerOnEnter": [
                        "BeHit"
                    ],
                    "resetAnimatorTriggerOnExit": [
                        "DoSkill"
                    ]
                },
                "Run": {
                    "$type": "ConfigMonsterStateIDInfo",
                    "animatorStates": {
                        "Run": []
                    },
                    "canDoSkill": true,
                    "canSyncMove": true,
                    "resetAnimatorTriggerOnExit": [
                        "DoSkill"
                    ],
                    "canSteer": true
                },
                "RunFree": {
                    "$type": "ConfigMonsterStateIDInfo",
                    "animatorStates": {
                        "RunFree": []
                    },
                    "canDoSkill": true,
                    "canSyncMove": true,
                    "resetAnimatorTriggerOnExit": [
                        "DoSkill"
                    ],
                    "canSteer": true
                },
                "BeHitThrow": {
                    "$type": "ConfigMonsterStateIDInfo",
                    "animatorStates": {
                        "HitThrow": [],
                        "HitThrowDrop": [],
                        "HitThrowToGround": []
                    },
                    "resetAnimatorTriggerOnEnter": [
                        "BeHit",
                        "HitAir2HitDrop"
                    ],
                    "resetAnimatorTriggerOnExit": [
                        "DoSkill"
                    ]
                },
                "Struggle": {
                    "$type": "ConfigMonsterStateIDInfo",
                    "animatorStates": {
                        "Struggle": []
                    },
                    "resetAnimatorTriggerOnEnter": [
                        "BeHit",
                        "HitAir2HitDrop"
                    ],
                    "resetAnimatorTriggerOnExit": [
                        "DoSkill"
                    ]
                },
                "Die": {
                    "$type": "ConfigMonsterStateIDInfo",
                    "animatorStates": {
                        "Die": [
                            "Monster_Monolith_Starchild_Die",
                            "Audio_Monster_Monolith_Starchild_Die"
                        ]
                    }
                },
                "Alert": {
                    "$type": "ConfigMonsterStateIDInfo",
                    "animatorStates": {
                        "Alert": []
                    },
                    "resetAnimatorTriggerOnExit": [
                        "BeHit",
                        "DoSkill"
                    ],
                    "canSteer": true
                },
                "Alert_AS": {
                    "$type": "ConfigMonsterStateIDInfo",
                    "animatorStates": {
                        "Alert_AS": [
                            "Audio_Monster_Monolith_Starchild_Alert"
                        ]
                    },
                    "resetAnimatorTriggerOnExit": [
                        "BeHit",
                        "DoSkill"
                    ],
                    "canSteer": true
                },
                "Test1": {
                    "$type": "ConfigMonsterStateIDInfo",
                    "animatorStates": {
                        "Test1": []
                    },
                    "resetAnimatorTriggerOnExit": [
                        "BeHit",
                        "DoSkill"
                    ],
                    "canSteer": true
                },
                "Test2": {
                    "$type": "ConfigMonsterStateIDInfo",
                    "animatorStates": {
                        "Test2": []
                    },
                    "resetAnimatorTriggerOnExit": [
                        "BeHit",
                        "DoSkill"
                    ],
                    "canSteer": true
                },
                "SpearAttack": {
                    "$type": "ConfigMonsterStateIDInfo",
                    "animatorStates": {
                        "SpearAttack": [
                            "Monster_Monolith_Starchild_LanceAttack",
                            "Audio_Monster_Monolith_Starchild_SpearAttack"
                        ]
                    },
                    "resetAnimatorTriggerOnExit": [
                        "BeHit",
                        "DoSkill"
                    ],
                    "canSteer": true
                },
                "ShieldPush": {
                    "$type": "ConfigMonsterStateIDInfo",
                    "animatorStates": {
                        "ShieldPush": [
                            "Monster_Monolith_Starchild_ShieldPush",
                            "Audio_Monster_Monolith_Starchild_ShieldPush"
                        ]
                    },
                    "cullingModelAlwaysAnimate": true,
                    "resetAnimatorTriggerOnExit": [
                        "BeHit",
                        "DoSkill"
                    ],
                    "canSteer": true
                },
                "LaserAttack": {
                    "$type": "ConfigMonsterStateIDInfo",
                    "animatorStates": {
                        "LaserAttack": [
                            "Monster_Monolith_Starchild_LaserAttack",
                            "Audio_Monster_Monolith_Starchild_Laser"
                        ]
                    },
                    "resetAnimatorTriggerOnExit": [
                        "BeHit",
                        "DoSkill"
                    ],
                    "canSteer": true
                },
                "FullPowerAttack": {
                    "$type": "ConfigMonsterStateIDInfo",
                    "animatorStates": {
                        "FullPowerAttack": [
                            "Monster_Monolith_Starchild_FullPowerAttack_BS",
                            "Monster_Monolith_Starchild_FullPowerAttack",
                            "Audio_Monster_Monolith_Starchild_FullPowerAttack"
                        ]
                    },
                    "resetAnimatorTriggerOnExit": [
                        "BeHit",
                        "DoSkill"
                    ],
                    "canSteer": true
                },
                "Charge_BS": {
                    "$type": "ConfigMonsterStateIDInfo",
                    "animatorStates": {
                        "Charge_BS": []
                    },
                    "resetAnimatorTriggerOnExit": [
                        "BeHit",
                        "DoSkill"
                    ]
                },
                "Charge_Loop": {
                    "$type": "ConfigMonsterStateIDInfo",
                    "animatorStates": {
                        "Charge_Loop": []
                    },
                    "resetAnimatorTriggerOnExit": [
                        "BeHit",
                        "DoSkill"
                    ]
                },
                "Charge_AS": {
                    "$type": "ConfigMonsterStateIDInfo",
                    "animatorStates": {
                        "Charge_AS": []
                    },
                    "resetAnimatorTriggerOnExit": [
                        "BeHit",
                        "DoSkill"
                    ]
                },
                "OverCharge_BS": {
                    "$type": "ConfigMonsterStateIDInfo",
                    "animatorStates": {
                        "OverCharge_BS": [
                            "Monster_Monolith_Starchild_OverCharge_BS",
                            "Audio_Monster_Monolith_Starchild_OverCharge_BS"
                        ]
                    },
                    "resetAnimatorTriggerOnExit": [
                        "BeHit",
                        "DoSkill"
                    ],
                    "canSteer": true
                },
                "OverCharge_Loop": {
                    "$type": "ConfigMonsterStateIDInfo",
                    "animatorStates": {
                        "OverCharge_Loop": []
                    },
                    "resetAnimatorTriggerOnExit": [
                        "BeHit",
                        "DoSkill"
                    ],
                    "canSteer": true
                },
                "OverCharge_AS": {
                    "$type": "ConfigMonsterStateIDInfo",
                    "animatorStates": {
                        "OverCharge_AS": [
                            "Monster_Monolith_Starchild_OverCharge_Attack",
                            "Audio_Monster_Monolith_Starchild_OverCharge_AS"
                        ]
                    },
                    "resetAnimatorTriggerOnExit": [
                        "BeHit",
                        "DoSkill"
                    ],
                    "canSteer": true
                },
                "ShieldLaserAttack": {
                    "$type": "ConfigMonsterStateIDInfo",
                    "animatorStates": {
                        "ShieldLaserAttack": [
                            "Monster_Monolith_Starchild_ShieldLaserAttack",
                            "Audio_Monster_Monolith_Starchild_ShieldLaserAttack"
                        ]
                    },
                    "resetAnimatorTriggerOnExit": [
                        "BeHit",
                        "DoSkill"
                    ],
                    "canSteer": true
                },
                "SpearLaserAttack": {
                    "$type": "ConfigMonsterStateIDInfo",
                    "animatorStates": {
                        "SpearLaserAttack": [
                            "Monster_Monolith_Starchild_SpearLaserAttack",
                            "Audio_Monster_Monolith_Starchild_SpearLaserAttack"
                        ]
                    },
                    "resetAnimatorTriggerOnExit": [
                        "BeHit",
                        "DoSkill"
                    ],
                    "canSteer": true
                },
                "SpearShieldAttack": {
                    "$type": "ConfigMonsterStateIDInfo",
                    "animatorStates": {
                        "SpearShieldAttack": [
                            "Audio_Monster_Monolith_Starchild_SpearShieldAttack"
                        ]
                    },
                    "resetAnimatorTriggerOnExit": [
                        "BeHit",
                        "DoSkill"
                    ],
                    "canSteer": true
                },
                "SpearShieldAttack_BS": {
                    "$type": "ConfigMonsterStateIDInfo",
                    "animatorStates": {
                        "SpearShieldAttack_BS": [
                            "Audio_Monster_Monolith_Starchild_SpearShieldAttack_BS"
                        ]
                    },
                    "resetAnimatorTriggerOnExit": [
                        "BeHit",
                        "DoSkill"
                    ],
                    "canSteer": true
                },
                "SpearShieldAttack_AS": {
                    "$type": "ConfigMonsterStateIDInfo",
                    "animatorStates": {
                        "SpearShieldAttack_AS": [
                            "Audio_Monster_Monolith_Starchild_SpearShieldAttack_AS"
                        ]
                    },
                    "resetAnimatorTriggerOnExit": [
                        "BeHit",
                        "DoSkill"
                    ],
                    "canSteer": true
                },
                "ResetPart": {
                    "$type": "ConfigMonsterStateIDInfo",
                    "animatorStates": {
                        "ResetPart": [
                            "Monster_Monolith_Starchild_ResetPart"
                        ]
                    },
                    "resetAnimatorTriggerOnExit": [
                        "BeHit",
                        "DoSkill"
                    ],
                    "canSteer": true
                },
                "SpearSeperate": {
                    "$type": "ConfigMonsterStateIDInfo",
                    "animatorStates": {
                        "SpearSeperate": [
                            "Monster_Monolith_Starchild_ReleaseLance",
                            "Audio_Monster_Monolith_Starchild_SpearSeperate"
                        ]
                    },
                    "resetAnimatorTriggerOnExit": [
                        "BeHit",
                        "DoSkill"
                    ],
                    "canSteer": true
                },
                "ShieldSeperate_BS": {
                    "$type": "ConfigMonsterStateIDInfo",
                    "animatorStates": {
                        "ShieldSeperate_BS": [
                            "Monster_Monolith_Starchild_ReleaseShield_BS",
                            "Audio_Monster_Monolith_Starchild_ShieldSeperate_BS"
                        ]
                    },
                    "resetAnimatorTriggerOnExit": [
                        "BeHit",
                        "DoSkill"
                    ],
                    "canSteer": true
                },
                "ShieldSeperate_Loop": {
                    "$type": "ConfigMonsterStateIDInfo",
                    "animatorStates": {
                        "ShieldSeperate_Loop": []
                    },
                    "cullingModelAlwaysAnimate": true,
                    "resetAnimatorTriggerOnExit": [
                        "BeHit",
                        "DoSkill"
                    ],
                    "canSteer": true
                },
                "ShieldSeperate_AS": {
                    "$type": "ConfigMonsterStateIDInfo",
                    "animatorStates": {
                        "ShieldSeperate_AS": [
                            "Monster_Monolith_Starchild_ReleaseShield"
                        ]
                    },
                    "resetAnimatorTriggerOnExit": [
                        "BeHit",
                        "DoSkill"
                    ],
                    "canSteer": true
                },
                "DroneSeperate": {
                    "$type": "ConfigMonsterStateIDInfo",
                    "animatorStates": {
                        "DroneSeperate": [
                            "Monster_Monolith_Starchild_ReleaseDrone"
                        ]
                    },
                    "resetAnimatorTriggerOnExit": [
                        "BeHit",
                        "DoSkill"
                    ],
                    "canSteer": true
                },
                "Test_AllHide": {
                    "$type": "ConfigMonsterStateIDInfo",
                    "animatorStates": {
                        "Test_AllHide": []
                    },
                    "resetAnimatorTriggerOnExit": [
                        "BeHit",
                        "DoSkill"
                    ],
                    "canSteer": true
                },
                "Test_LanceHide": {
                    "$type": "ConfigMonsterStateIDInfo",
                    "animatorStates": {
                        "Test_LanceHide": []
                    },
                    "resetAnimatorTriggerOnExit": [
                        "BeHit",
                        "DoSkill"
                    ],
                    "canSteer": true
                },
                "Test_ShieldHide": {
                    "$type": "ConfigMonsterStateIDInfo",
                    "animatorStates": {
                        "Test_ShieldHide": []
                    },
                    "resetAnimatorTriggerOnExit": [
                        "BeHit",
                        "DoSkill"
                    ],
                    "canSteer": true
                },
                "Test_DroneHide": {
                    "$type": "ConfigMonsterStateIDInfo",
                    "animatorStates": {
                        "Test_DroneHide": []
                    },
                    "resetAnimatorTriggerOnExit": [
                        "BeHit",
                        "DoSkill"
                    ],
                    "canSteer": true
                },
                "Weak_BS": {
                    "$type": "ConfigMonsterStateIDInfo",
                    "animatorStates": {
                        "Weak_BS": [
                            "Audio_Monster_Monolith_Starchild_Weak_BS"
                        ]
                    },
                    "resetAnimatorTriggerOnExit": [
                        "BeHit",
                        "DoSkill"
                    ],
                    "canSteer": true
                },
                "Weak_Loop": {
                    "$type": "ConfigMonsterStateIDInfo",
                    "animatorStates": {
                        "Weak_Loop": []
                    },
                    "resetAnimatorTriggerOnExit": [
                        "BeHit",
                        "DoSkill"
                    ],
                    "canSteer": true
                },
                "Weak_AS": {
                    "$type": "ConfigMonsterStateIDInfo",
                    "animatorStates": {
                        "Weak_AS": [
                            "Audio_Monster_Monolith_Starchild_Weak_AS"
                        ]
                    },
                    "resetAnimatorTriggerOnExit": [
                        "BeHit",
                        "DoSkill"
                    ],
                    "canSteer": true
                }
            }
        }
    },
    "billboard": {
        "$type": "ConfigCombatBillboard",
        "attachPoint": "BillboardAttach",
        "offsetType": "Character",
        "showHPBar": true,
        "forceShowDistance": 50.0,
        "size": "Big"
    },
    "initialPoses": {
        "Default": {
            "initialPoseID": 1
        }
    },
    "aibeta": {
        "enable": true,
        "sensing": {
            "settings": {
                "DefaultSetting": {
                    "viewRange": 25.0,
                    "feelRange": 10.0
                },
                "NeverCombat": {
                    "enableVision": false,
                    "hearAttractionRange": 0.0,
                    "feelRange": 0.0
                },
                "LowAlert": {
                    "viewRange": 10.0
                }
            },
            "templates": {
                "DefaultTemplate": {
                    "DefaultPoses": "DefaultSetting",
                    "1001": "DefaultSetting",
                    "1002": "LowAlert",
                    "1003": "DefaultSetting"
                },
                "NeverCombatTemplate": {
                    "DefaultPoses": "NeverCombat"
                }
            }
        },
        "neurons": {
            "DefaultSetting": [
                "HIT"
            ],
            "NeverCombat": []
        },
        "threat": {
            "clearThreatByTargetOutOfZone": true,
            "clearThreatTimerByTargetOutOfZone": 4.0,
            "viewAttenuation": [
                {
                    "x": 10.0,
                    "y": 2.0
                },
                {
                    "x": 15.0,
                    "y": 0.800000011920929
                },
                {
                    "x": 20.0,
                    "y": 0.5
                },
                {
                    "x": 25.0,
                    "y": 0.30000001192092896
                },
                {
                    "x": 30.0,
                    "y": 0.20000000298023224
                }
            ],
            "resistTauntLevel": "Monster_TauntLevel_5"
        },
        "defendArea": {
            "defendRange": 50.0
        },
        "network": {
            "syncSkill": true
        },
        "skillGroupCDConfigs": [
            {
                "skillGroupCDID": 0,
                "skillGroupCDTime": 5.0
            },
            {
                "skillGroupCDID": 1,
                "skillGroupCDTime": 10.0
            },
            {
                "skillGroupCDID": 2,
                "skillGroupCDTime": 15.0
            }
        ],
        "skillSetting": {
            "skillEliteSet": {
                "1": [
                    106,
                    203
                ],
                "2": [
                    107,
                    203
                ],
                "3": [
                    201,
                    202
                ],
                "4": [
                    201,
                    202,
                    203
                ]
            }
        },
        "skills": {
            "1": {
                "name": "OnAlert",
                "skillType": "OnAlert",
                "publicCDGroup": "",
                "ignoreGCD": true,
                "triggerGCD": false,
                "stateIDs": [
                    "Alert",
                    "Alert_AS"
                ],
                "skillQueryingTime": 3.0,
                "flagTargetReachable": "10",
                "flagSelfOnTemplateCollider": "01",
                "flagSelfInZone": "10",
                "flagTargetInZone": "11"
            },
            "101": {
                "name": "SpearAttack",
                "priority": 3,
                "castCondition": {
                    "pose": [
                        101,
                        201
                    ],
                    "pickRangeMax": 50.0
                },
                "cd": 10.0,
                "initialCD": 5.0,
                "publicCDGroup": "",
                "ignoreGCD": true,
                "stateIDs": [
                    "SpearAttack"
                ],
                "skillQueryingTime": 3.0,
                "flagTargetReachable": "11",
                "flagSelfOnTemplateCollider": "01",
                "flagSelfInZone": "10",
                "flagTargetInZone": "11"
            },
            "102": {
                "name": "ShieldPush",
                "priority": 3,
                "castCondition": {
                    "pose": [
                        101,
                        201
                    ],
                    "pickRangeMax": 7.0
                },
                "cd": 10.0,
                "initialCD": 5.0,
                "publicCDGroup": "",
                "ignoreGCD": true,
                "triggerGCD": false,
                "stateIDs": [
                    "ShieldPush"
                ],
                "skillQueryingTime": 3.0,
                "flagTargetReachable": "10",
                "flagSelfOnTemplateCollider": "01",
                "flagSelfInZone": "10",
                "flagTargetInZone": "11"
            },
            "103": {
                "name": "LaserAttack",
                "priority": 3,
                "castCondition": {
                    "pose": [
                        101,
                        201
                    ],
                    "pickRangeMin": 5.0,
                    "pickRangeMax": 50.0
                },
                "cd": 10.0,
                "initialCD": 5.0,
                "publicCDGroup": "",
                "ignoreGCD": true,
                "stateIDs": [
                    "LaserAttack"
                ],
                "skillQueryingTime": 3.0,
                "flagTargetReachable": "11",
                "flagSelfOnTemplateCollider": "01",
                "flagSelfInZone": "10",
                "flagTargetInZone": "11"
            },
            "201": {
                "name": "ReleaseSpear",
                "priority": 2,
                "castCondition": {
                    "pose": [
                        102
                    ],
                    "needReInitCD": true,
                    "pickRangeMax": 50.0
                },
                "cd": 10.0,
                "publicCDGroup": "",
                "ALJOJAMBLBE": false,
                "skillGroupCDID": 1,
                "stateIDs": [
                    "SpearSeperate"
                ],
                "skillQueryingTime": 3.0,
                "flagTargetReachable": "11",
                "flagSelfOnTemplateCollider": "01",
                "flagSelfInZone": "10",
                "flagTargetInZone": "11"
            },
            "202": {
                "name": "ShieldSeperate",
                "priority": 2,
                "castCondition": {
                    "pose": [
                        102
                    ],
                    "needReInitCD": true,
                    "pickRangeMax": 50.0
                },
                "cd": 10.0,
                "publicCDGroup": "",
                "ALJOJAMBLBE": false,
                "skillGroupCDID": 1,
                "stateIDs": [
                    "ShieldSeperate_BS",
                    "ShieldSeperate_Loop",
                    "ShieldSeperate_AS"
                ],
                "skillQueryingTime": 3.0,
                "flagTargetReachable": "10",
                "flagSelfOnTemplateCollider": "01",
                "flagSelfInZone": "10",
                "flagTargetInZone": "11"
            },
            "203": {
                "name": "DroneSeperate",
                "priority": 3,
                "castCondition": {
                    "pose": [
                        102
                    ],
                    "needReInitCD": true,
                    "pickRangeMax": 50.0
                },
                "cd": 5.0,
                "publicCDGroup": "",
                "ALJOJAMBLBE": false,
                "stateIDs": [
                    "DroneSeperate"
                ],
                "skillQueryingTime": 3.0,
                "flagTargetReachable": "11",
                "flagSelfOnTemplateCollider": "01",
                "flagSelfInZone": "10",
                "flagTargetInZone": "11"
            },
            "104": {
                "name": "FullPowerAttack",
                "priority": 1,
                "castCondition": {
                    "pose": [
                        101
                    ],
                    "needReInitCD": true,
                    "pickRangeMax": 30.0
                },
                "cd": 30.0,
                "publicCDGroup": "",
                "ignoreGCD": true,
                "stateIDs": [
                    "FullPowerAttack"
                ],
                "skillQueryingTime": 3.0,
                "flagTargetReachable": "11",
                "flagSelfOnTemplateCollider": "01",
                "flagSelfInZone": "10",
                "flagTargetInZone": "11"
            },
            "105": {
                "name": "OverCharge",
                "castCondition": {
                    "pose": [
                        103
                    ],
                    "pickRangeMax": 50.0
                },
                "cd": 90.0,
                "initialCD": 90.0,
                "publicCDGroup": "",
                "ALJOJAMBLBE": false,
                "stateIDs": [
                    "OverCharge_BS",
                    "OverCharge_Loop",
                    "OverCharge_AS"
                ],
                "skillQueryingTime": 3.0,
                "flagTargetReachable": "11",
                "flagSelfOnTemplateCollider": "01",
                "flagSelfInZone": "10",
                "flagTargetInZone": "11"
            },
            "106": {
                "name": "ShieldLaserAttack",
                "priority": 2,
                "castCondition": {
                    "pose": [
                        104
                    ],
                    "pickRangeMin": 5.0,
                    "pickRangeMax": 50.0
                },
                "cd": 15.0,
                "publicCDGroup": "",
                "ignoreGCD": true,
                "stateIDs": [
                    "ShieldLaserAttack"
                ],
                "skillQueryingTime": 3.0,
                "flagTargetReachable": "11",
                "flagSelfOnTemplateCollider": "01",
                "flagSelfInZone": "10",
                "flagTargetInZone": "11"
            },
            "107": {
                "name": "SpearLaserAttack",
                "priority": 2,
                "castCondition": {
                    "pose": [
                        104
                    ],
                    "pickRangeMax": 50.0
                },
                "cd": 15.0,
                "publicCDGroup": "",
                "ignoreGCD": true,
                "stateIDs": [
                    "SpearLaserAttack"
                ],
                "skillQueryingTime": 3.0,
                "flagTargetReachable": "11",
                "flagSelfOnTemplateCollider": "01",
                "flagSelfInZone": "10",
                "flagTargetInZone": "11"
            },
            "108": {
                "name": "SpearShieldAttack",
                "priority": 2,
                "castCondition": {
                    "pose": [
                        104
                    ],
                    "pickRangeMax": 50.0
                },
                "cd": 15.0,
                "publicCDGroup": "",
                "ignoreGCD": true,
                "stateIDs": [
                    "SpearShieldAttack",
                    "SpearShieldAttack_BS",
                    "SpearShieldAttack_AS"
                ],
                "skillQueryingTime": 3.0,
                "flagTargetReachable": "11",
                "flagSelfOnTemplateCollider": "01",
                "flagSelfInZone": "10",
                "flagTargetInZone": "11"
            },
            "109": {
                "name": "Charge",
                "castCondition": {
                    "pose": [
                        999
                    ],
                    "pickRangeMax": 50.0
                },
                "cd": 10.0,
                "initialCD": 5.0,
                "publicCDGroup": "",
                "stateIDs": [
                    "Charge_BS",
                    "Charge_Loop",
                    "Charge_AS"
                ],
                "skillQueryingTime": 3.0,
                "flagTargetReachable": "10",
                "flagSelfOnTemplateCollider": "01",
                "flagSelfInZone": "10",
                "flagTargetInZone": "11"
            },
            "9001": {
                "name": "ResetPart",
                "faceTarget": true,
                "castCondition": {
                    "pose": [
                        999
                    ],
                    "pickRangeMax": 50.0
                },
                "cd": 10.0,
                "initialCD": 5.0,
                "publicCDGroup": "",
                "ignoreGCD": true,
                "triggerGCD": false,
                "stateIDs": [
                    "ResetPart"
                ],
                "skillQueryingTime": 3.0,
                "flagTargetReachable": "10",
                "flagSelfOnTemplateCollider": "01",
                "flagSelfInZone": "10",
                "flagTargetInZone": "11"
            },
            "10001": {
                "name": "ResetPart",
                "faceTarget": true,
                "castCondition": {
                    "pose": [
                        99999
                    ],
                    "pickRangeMax": 50.0
                },
                "cd": 10.0,
                "initialCD": 5.0,
                "publicCDGroup": "",
                "ignoreGCD": true,
                "triggerGCD": false,
                "stateIDs": [
                    "ResetPart"
                ],
                "skillQueryingTime": 3.0,
                "flagTargetReachable": "10",
                "flagSelfOnTemplateCollider": "01",
                "flagSelfInZone": "10",
                "flagTargetInZone": "11"
            },
            "10002": {
                "name": "ResetPart",
                "faceTarget": true,
                "castCondition": {
                    "pose": [
                        99999
                    ],
                    "pickRangeMax": 50.0
                },
                "cd": 10.0,
                "initialCD": 5.0,
                "publicCDGroup": "",
                "ignoreGCD": true,
                "triggerGCD": false,
                "stateIDs": [
                    "ResetPart"
                ],
                "skillQueryingTime": 3.0,
                "flagTargetReachable": "10",
                "flagSelfOnTemplateCollider": "01",
                "flagSelfInZone": "10",
                "flagTargetInZone": "11"
            },
            "10003": {
                "name": "ResetPart",
                "faceTarget": true,
                "castCondition": {
                    "pose": [
                        99999
                    ],
                    "pickRangeMax": 50.0
                },
                "cd": 10.0,
                "initialCD": 5.0,
                "publicCDGroup": "",
                "ignoreGCD": true,
                "triggerGCD": false,
                "stateIDs": [
                    "ResetPart"
                ],
                "skillQueryingTime": 3.0,
                "flagTargetReachable": "10",
                "flagSelfOnTemplateCollider": "01",
                "flagSelfInZone": "10",
                "flagTargetInZone": "11"
            },
            "10004": {
                "name": "ResetPart",
                "faceTarget": true,
                "castCondition": {
                    "pose": [
                        99999
                    ],
                    "pickRangeMax": 50.0
                },
                "cd": 10.0,
                "initialCD": 5.0,
                "publicCDGroup": "",
                "ignoreGCD": true,
                "triggerGCD": false,
                "stateIDs": [
                    "ResetPart"
                ],
                "skillQueryingTime": 3.0,
                "flagTargetReachable": "10",
                "flagSelfOnTemplateCollider": "01",
                "flagSelfInZone": "10",
                "flagTargetInZone": "11"
            },
            "10005": {
                "name": "ResetPart",
                "faceTarget": true,
                "castCondition": {
                    "pose": [
                        99999
                    ],
                    "pickRangeMax": 50.0
                },
                "cd": 10.0,
                "initialCD": 5.0,
                "publicCDGroup": "",
                "ignoreGCD": true,
                "triggerGCD": false,
                "stateIDs": [
                    "ResetPart"
                ],
                "skillQueryingTime": 3.0,
                "flagTargetReachable": "10",
                "flagSelfOnTemplateCollider": "01",
                "flagSelfInZone": "10",
                "flagTargetInZone": "11"
            }
        },
        "skillGCD": 0.10000000149011612,
        "returnToBornTactic": {
            "enable": true,
            "defaultSetting": {
                "fadeoutBeginTime": 0.0,
                "fadeoutEndTime": 3.5
            }
        },
        "meleeChargeTactic": {
            "enable": true,
            "condition": {
                "pose": [
                    101,
                    102,
                    103,
                    201
                ]
            },
            "defaultSetting": {
                "speedLevel": 1,
                "startDistanceMin": 30.0,
                "startDistanceMax": 99.0,
                "stopDistance": 15.0,
                "innerDistance": 0.0
            }
        }
    },
    "inputKeys": [
        {
            "keyID": 101,
            "inputKeyCode": 257,
            "abilityName": ""
        },
        {
            "keyID": 102,
            "inputKeyCode": 258,
            "abilityName": ""
        },
        {
            "keyID": 103,
            "inputKeyCode": 259,
            "abilityName": ""
        },
        {
            "keyID": 104,
            "inputKeyCode": 260,
            "abilityName": ""
        },
        {
            "keyID": 105,
            "inputKeyCode": 261,
            "abilityName": ""
        },
        {
            "keyID": 106,
            "inputKeyCode": 262,
            "abilityName": ""
        },
        {
            "keyID": 107,
            "inputKeyCode": 263,
            "abilityName": ""
        },
        {
            "keyID": 108,
            "inputKeyCode": 264,
            "abilityName": ""
        },
        {
            "keyID": 109,
            "inputKeyCode": 265,
            "abilityName": ""
        },
        {
            "keyID": 201,
            "inputKeyCode": 266,
            "abilityName": ""
        },
        {
            "keyID": 202,
            "inputKeyCode": 267,
            "abilityName": ""
        },
        {
            "keyID": 203,
            "inputKeyCode": 268,
            "abilityName": ""
        },
        {
            "keyID": 10001,
            "inputKeyCode": 269,
            "abilityName": ""
        },
        {
            "keyID": 10002,
            "inputKeyCode": 270,
            "abilityName": ""
        },
        {
            "keyID": 10003,
            "inputKeyCode": 271,
            "abilityName": ""
        },
        {
            "keyID": 10004,
            "inputKeyCode": 272,
            "abilityName": ""
        },
        {
            "keyID": 10005,
            "inputKeyCode": 273,
            "abilityName": ""
        },
        {
            "keyID": 9001,
            "inputKeyCode": 274,
            "abilityName": ""
        }
    ],
    "move": {
        "$type": "ConfigAnimatorMove",
        "velocityForce": {
            "excludeForces": [
                "RetreatAirType",
                "RetreatType",
                "WindZoneType"
            ]
        },
        "facingMove": "FourDirection",
        "DNAOCNDMCPI": true
    },
    "audio": {
        "animAudio": {
            "onTransitionIn": [
                {
                    "currentStateName": "WalkForward",
                    "audioEvent": {
                        "text": "Play_sfx_monster_Monolith_Starchild_walk_Loop"
                    },
                    "otherStateNames": [
                        "WalkForward"
                    ],
                    "usage": "Except"
                },
                {
                    "currentStateName": "RandomMove",
                    "audioEvent": {
                        "text": "Play_sfx_monster_Monolith_Starchild_walk_Loop"
                    },
                    "otherStateNames": [
                        "RandomMove"
                    ],
                    "usage": "Except"
                },
                {
                    "currentStateName": "Run",
                    "audioEvent": {
                        "text": "Play_sfx_monster_Monolith_Starchild_walk_Loop"
                    },
                    "otherStateNames": [
                        "Run"
                    ],
                    "usage": "Except"
                },
                {
                    "currentStateName": "RunFree",
                    "audioEvent": {
                        "text": "Play_sfx_monster_Monolith_Starchild_walk_Loop"
                    },
                    "otherStateNames": [
                        "RunFree"
                    ],
                    "usage": "Except"
                }
            ],
            "onTransitionOut": [
                {
                    "currentStateName": "WalkForward",
                    "audioEvent": {
                        "text": "Stop_sfx_monster_Monolith_Starchild_walk_Loop"
                    },
                    "otherStateNames": [
                        "WalkForward"
                    ],
                    "usage": "Except"
                },
                {
                    "currentStateName": "RandomMove",
                    "audioEvent": {
                        "text": "Stop_sfx_monster_Monolith_Starchild_walk_Loop"
                    },
                    "otherStateNames": [
                        "RandomMove"
                    ],
                    "usage": "Except"
                },
                {
                    "currentStateName": "Run",
                    "audioEvent": {
                        "text": "Stop_sfx_monster_Monolith_Starchild_walk_Loop"
                    },
                    "otherStateNames": [
                        "Run"
                    ],
                    "usage": "Except"
                },
                {
                    "currentStateName": "RunFree",
                    "audioEvent": {
                        "text": "Stop_sfx_monster_Monolith_Starchild_walk_Loop"
                    },
                    "otherStateNames": [
                        "RunFree"
                    ],
                    "usage": "Except"
                }
            ]
        },
        "disableEvent": {
            "text": ""
        },
        "destroyEvent": {
            "text": ""
        }
    },
    "cameraAdjust": {
        "default": {
            "$type": "ConfigSpecialCamera",
            "priority": 1.0,
            "enterRadius": 25.0,
            "exitRadius": 30.0,
            "heightAdjust": 0.75,
            "fov": 47.5,
            "zoom": 8.0,
            "sphericalY": 10.0,
            "lockSphericalY": false,
            "sphericalYUp": 50.0,
            "sphericalYDown": 50.0,
            "autoTurnStartMin": 50.0,
            "autoTurnStartMax": 40.0,
            "autoTurnEndMin": 100.0,
            "autoTurnEndMax": 145.0,
            "HAMIAGIOHHH": "CircleR25",
            "CNLEABGOKFG": "CircleR30"
        }
    }
}