{
    "common": {
        "effectAttachShape": {
            "$type": "ConfigEffectAttachSkinnedMesh",
            "mesh": "EffectMesh"
        },
        "mass": 30.0,
        "height": 1.7000000476837158,
        "modelHeight": 1.7000000476837158,
        "viewSize": 1.100000023841858,
        "affectedByWorld": true,
        "checkInSurface": true,
        "scale": 1.100000023841858,
        "useGrassDisplacement": true,
        "clearAIOnSetLightDeactive": true,
        "FEPPLDIAIFJ": true,
        "NNCDDDJPEGJ": true
    },
    "headControl": {
        "$type": "ConfigHeadControl",
        "useHeadControl": true,
        "maxYawDegree": 60.0,
        "maxPitchDegree": 30.0,
        "animStates": [
            "NormalIdle/Standby",
            "NormalMove/WalkForward",
            "NormalMove/WalkBack",
            "NormalMove/WalkRight",
            "NormalMove/WalkLeft",
            "NormalMove/Run",
            "Turn/TurnLeft",
            "Turn/TurnRight"
        ]
    },
    "model": {
        "bornEffect": "Eff_Monster_Common_Born",
        "attachEffect": ""
    },
    "dither": {
        "showDitherDuration": 1.0
    },
    "combat": {
        "property": {
            "endureType": "Monster_Minion",
            "weight": 70.0
        },
        "beHit": {
            "hitBloodEffect": ""
        },
        "combatLock": {
            "lockShape": "CircleLockEnemy",
            "lockType": "Avatar&Monster_Lv4"
        },
        "die": {
            "hasAnimatorDie": true,
            "dieEndTime": 2.0,
            "dieForceDisappearTime": 8.0,
            "dieDisappearEffect": "Eff_Death_Sand_Eremite",
            "dieShaderData": "EremiteSandDie",
            "dieShaderEnableDurationTime": 1.0,
            "useRagDoll": true,
            "ragDollDieEndTimeDelay": 8.0,
            "LFLHBBLFMNL": true,
            "DNOKPNKKHLO": true,
            "ILIIAFJADIB": true,
            "MDKFHDHIKGH": true,
            "HABEAIAAGLF": true,
            "LEHDFPPJPKJ": true
        }
    },
    "equipController": {
        "sheathPoint": "",
        "attachPoints": {
            "equip01": "WeaponR",
            "equip02": "WeaponL"
        }
    },
    "abilities": [
        {
            "abilityID": "",
            "abilityName": "Eremite_TurnState_AnimatorSteer",
            "abilityOverride": ""
        },
        {
            "abilityID": "",
            "abilityName": "Eremite_Crossbow_AnimatorSteer",
            "abilityOverride": ""
        },
        {
            "abilityID": "",
            "abilityName": "Eremite_ReturnToBorn",
            "abilityOverride": ""
        },
        {
            "abilityID": "",
            "abilityName": "Eremite_Equip_Display_Manager",
            "abilityOverride": ""
        },
        {
            "abilityID": "",
            "abilityName": "Eremite_Equip_SheathWeapon",
            "abilityOverride": ""
        },
        {
            "abilityID": "",
            "abilityName": "Eremite_Crossbow_ProjectileShoot_Load",
            "abilityOverride": ""
        },
        {
            "abilityID": "",
            "abilityName": "Eremite_Crossbow_SingleShoot_Fire",
            "abilityOverride": ""
        },
        {
            "abilityID": "",
            "abilityName": "Eremite_Crossbow_RapidShoot_Fire",
            "abilityOverride": ""
        },
        {
            "abilityID": "",
            "abilityName": "Eremite_Crossbow_Fire_Dendro_Bomb",
            "abilityOverride": ""
        },
        {
            "abilityID": "",
            "abilityName": "Eremite_Crossbow_Fire_Dendro_Bomb_Hov",
            "abilityOverride": ""
        },
        {
            "abilityID": "",
            "abilityName": "Eremite_Universal_Alert",
            "abilityOverride": ""
        },
        {
            "abilityID": "",
            "abilityName": "Eremite_Gambling_Logic",
            "abilityOverride": ""
        },
        {
            "abilityID": "",
            "abilityName": "Eremite_FreePose_Display_Manager",
            "abilityOverride": ""
        },
        {
            "abilityID": "",
            "abilityName": "Eremite_FreePose_Male_Drinking_Display_Manager",
            "abilityOverride": ""
        }
    ],
    "stateLayers": {
        "defaultLayer": {
            "$type": "ConfigNormalStateLayer",
            "layerIndexName": "",
            "stateIDs": {
                "NormalIdle": {
                    "$type": "ConfigMonsterStateIDInfo",
                    "animatorStates": {
                        "Standby": []
                    },
                    "canDoSkill": true,
                    "canSyncMove": true,
                    "resetAnimatorTriggerOnExit": [
                        "DoSkill"
                    ]
                },
                "NormalBorn": {
                    "$type": "ConfigMonsterStateIDInfo",
                    "animatorStates": {
                        "Born": []
                    },
                    "canDoSkill": true,
                    "resetAnimatorTriggerOnExit": [
                        "DoSkill"
                    ]
                },
                "NormalMove": {
                    "$type": "ConfigMonsterStateIDInfo",
                    "animatorStates": {
                        "WalkForward": [
                            "Audio_Monste_Eremite_Male_Standard_Crossbow_01_walk"
                        ],
                        "WalkBack": [
                            "Audio_Monste_Eremite_Male_Standard_Crossbow_01_walk"
                        ],
                        "WalkRight": [
                            "Audio_Monste_Eremite_Male_Standard_Crossbow_01_walk"
                        ],
                        "WalkLeft": [
                            "Audio_Monste_Eremite_Male_Standard_Crossbow_01_walk"
                        ],
                        "Run": [
                            "Audio_Monste_Eremite_Male_Standard_Crossbow_01_run"
                        ]
                    },
                    "canDoSkill": true,
                    "canSyncMove": true,
                    "resetAnimatorTriggerOnExit": [
                        "DoSkill"
                    ],
                    "canSteer": true
                },
                "Turn": {
                    "$type": "ConfigMonsterStateIDInfo",
                    "animatorStates": {
                        "TurnLeft": [
                            "Audio_Monste_Eremite_Male_Standard_Crossbow_01_walk"
                        ],
                        "TurnRight": [
                            "Audio_Monste_Eremite_Male_Standard_Crossbow_01_walk"
                        ]
                    },
                    "canDoSkill": true,
                    "canSyncMove": true,
                    "resetAnimatorTriggerOnExit": [
                        "DoSkill"
                    ],
                    "canSteer": true
                },
                "BeHit": {
                    "$type": "ConfigMonsterStateIDInfo",
                    "animatorStates": {
                        "Hit_L": [],
                        "Hit_H": [
                            "Audio_Monste_Eremite_Male_Standard_Crossbow_01_hit_H"
                        ]
                    },
                    "resetAnimatorTriggerOnEnter": [
                        "BeHit"
                    ],
                    "resetAnimatorTriggerOnExit": [
                        "DoSkill"
                    ]
                },
                "BeHitThrow": {
                    "$type": "ConfigMonsterStateIDInfo",
                    "animatorStates": {
                        "HitThrow": [],
                        "HitThrowDrop": []
                    },
                    "resetAnimatorTriggerOnEnter": [
                        "BeHit",
                        "HitAir2HitDrop"
                    ],
                    "resetAnimatorTriggerOnExit": [
                        "DoSkill",
                        "BeHit"
                    ],
                    "setAnimatorBoolean": [
                        {
                            "name": "AirDie"
                        }
                    ]
                },
                "BeHitThrowToStandby": {
                    "$type": "ConfigMonsterStateIDInfo",
                    "animatorStates": {
                        "HitThrowToGround": [
                            "Audio_Monste_Eremite_Male_Standard_Crossbow_01_hitthrowtoground"
                        ]
                    },
                    "resetAnimatorTriggerOnEnter": [
                        "BeHit",
                        "HitAir2HitDrop"
                    ],
                    "resetAnimatorTriggerOnExit": [
                        "DoSkill",
                        "BeHit"
                    ],
                    "setAnimatorBoolean": [
                        {
                            "name": "AirDie",
                            "normalizeEnd": 0.5
                        }
                    ]
                },
                "Struggle": {
                    "$type": "ConfigMonsterStateIDInfo",
                    "animatorStates": {
                        "Struggle": []
                    },
                    "resetAnimatorTriggerOnEnter": [
                        "BeHit",
                        "HitAir2HitDrop"
                    ],
                    "resetAnimatorTriggerOnExit": [
                        "DoSkill"
                    ]
                },
                "Die": {
                    "$type": "ConfigMonsterStateIDInfo",
                    "animatorStates": {
                        "Die1": [
                            "Monster_Eremite_Crossbow_Die",
                            "Audio_Monste_Eremite_Male_Standard_Crossbow_01_die_NoVO"
                        ],
                        "Die2": [
                            "Monster_Eremite_Crossbow_Die",
                            "Audio_Monste_Eremite_Male_Standard_Crossbow_01_die_NoVO"
                        ],
                        "SwimDie_BS": [],
                        "SwimDie": [
                            "Monster_Eremite_SwimDie"
                        ],
                        "SwimDie_AS": []
                    }
                },
                "Die_RagDoll": {
                    "$type": "ConfigMonsterStateIDInfo",
                    "animatorStates": {
                        "AirDie": [
                            "Monster_Eremite_AirDie"
                        ]
                    },
                    "enableRagDoll": true
                },
                "Alert": {
                    "$type": "ConfigMonsterStateIDInfo",
                    "animatorStates": {
                        "Alert": [
                            "Monster_Eremite_Crossbow_ShowWeapon",
                            "Monster_Eremite_Clear_FreePoseMark",
                            "Audio_Monste_Eremite_Male_Standard_Crossbow_01_rapidshoot_alert_NoVO"
                        ]
                    },
                    "addEndure": 0.0,
                    "resetAnimatorTriggerOnExit": [
                        "BeHit",
                        "DoSkill"
                    ]
                },
                "Crossleg_Alert": {
                    "$type": "ConfigMonsterStateIDInfo",
                    "animatorStates": {
                        "CrosslegAlert": [
                            "Monster_Eremite_Crossbow_ShowWeapon_SpecialAlert",
                            "Monster_Eremite_Clear_FreePoseMark",
                            "Audio_Monste_Eremite_Male_Standard_Crossbow_01_crosslegalert_NoVO"
                        ]
                    },
                    "addEndure": 0.0,
                    "resetAnimatorTriggerOnExit": [
                        "BeHit",
                        "DoSkill"
                    ]
                },
                "SheathWeapon": {
                    "$type": "ConfigMonsterStateIDInfo",
                    "animatorStates": {
                        "SheathWeapon": [
                            "Monster_Eremite_Crossbow_SheathWeapon",
                            "Audio_Monste_Eremite_Male_Standard_Crossbow_01_sheathweapon"
                        ]
                    },
                    "resetAnimatorTriggerOnExit": [
                        "BeHit",
                        "DoSkill"
                    ]
                },
                "SingleShoot_Aim": {
                    "$type": "ConfigMonsterStateIDInfo",
                    "animatorStates": {
                        "SingleShoot_Aim": [
                            "Audio_Monste_Eremite_Male_Standard_Crossbow_01_rapidshoot_aim01"
                        ]
                    },
                    "resetAnimatorTriggerOnExit": [
                        "BeHit",
                        "DoSkill"
                    ]
                },
                "SingleShoot_Fire": {
                    "$type": "ConfigMonsterStateIDInfo",
                    "animatorStates": {
                        "SingleShoot_Fire": [
                            "Monster_Eremite_Crossbow_SingleShoot_Fire",
                            "Audio_Monste_Eremite_Male_Standard_Crossbow_01_projectshoot_fire01"
                        ]
                    },
                    "resetAnimatorTriggerOnExit": [
                        "BeHit",
                        "DoSkill"
                    ]
                },
                "SingleShoot_Exit": {
                    "$type": "ConfigMonsterStateIDInfo",
                    "animatorStates": {
                        "SingleShoot_Exit": [
                            "Audio_Monste_Eremite_Male_Standard_Crossbow_01_projectshoot_fire01"
                        ]
                    },
                    "resetAnimatorTriggerOnExit": [
                        "BeHit",
                        "DoSkill"
                    ]
                },
                "FastShoot_BS": {
                    "$type": "ConfigMonsterStateIDInfo",
                    "animatorStates": {
                        "FastShoot_BS": [
                            "Audio_Monste_Eremite_Male_Standard_Crossbow_01_rapidshoot_aim01"
                        ]
                    },
                    "resetAnimatorTriggerOnExit": [
                        "BeHit",
                        "DoSkill"
                    ]
                },
                "FastShoot": {
                    "$type": "ConfigMonsterStateIDInfo",
                    "animatorStates": {
                        "FastShoot": [
                            "Monster_Eremite_Crossbow_SingleShoot_Fire",
                            "Audio_Monste_Eremite_Male_Standard_Crossbow_01_projectshoot_fire01"
                        ]
                    },
                    "resetAnimatorTriggerOnExit": [
                        "BeHit",
                        "DoSkill"
                    ]
                },
                "RapidShoot_BS": {
                    "$type": "ConfigMonsterStateIDInfo",
                    "animatorStates": {
                        "RapidShoot_BS": [
                            "Audio_Monste_Eremite_Male_Standard_Crossbow_01_Rapidshoot_BS_NoVO"
                        ]
                    },
                    "resetAnimatorTriggerOnExit": [
                        "BeHit",
                        "DoSkill",
                        "RapidShootEndTrigger"
                    ]
                },
                "RapidShoot_Loop": {
                    "$type": "ConfigMonsterStateIDInfo",
                    "animatorStates": {
                        "RapidShoot_Aim": [
                            "Audio_Monste_Eremite_Male_Standard_Crossbow_01_rapidshoot_aim01"
                        ],
                        "RapidShoot_Fire": [
                            "Monster_Eremite_Crossbow_RapidShoot_Fire",
                            "Audio_Monste_Eremite_Male_Standard_Crossbow_01_rapidshoot_fire"
                        ]
                    },
                    "resetAnimatorTriggerOnExit": [
                        "BeHit",
                        "DoSkill"
                    ]
                },
                "RapidShoot_AS": {
                    "$type": "ConfigMonsterStateIDInfo",
                    "animatorStates": {
                        "RapidShoot_AS": [
                            "Audio_Monste_Eremite_Male_Standard_Crossbow_01_rapidshoot_AS"
                        ]
                    },
                    "resetAnimatorTriggerOnExit": [
                        "BeHit",
                        "DoSkill",
                        "RapidShootEndTrigger"
                    ]
                },
                "RapidShoot_AS_Loaded": {
                    "$type": "ConfigMonsterStateIDInfo",
                    "animatorStates": {
                        "RapidShoot_AS_Loaded": []
                    },
                    "resetAnimatorTriggerOnExit": [
                        "BeHit",
                        "DoSkill",
                        "RapidShootEndTrigger"
                    ]
                },
                "ProjectileShoot_Load": {
                    "$type": "ConfigMonsterStateIDInfo",
                    "animatorStates": {
                        "ProjectileShoot_Load": [
                            "Monster_Eremite_Crossbow_ProjectileShoot_Load",
                            "Audio_Monste_Eremite_Male_Standard_Crossbow_01_rapidshoot_AS_loaded_NoVO"
                        ]
                    },
                    "resetAnimatorTriggerOnExit": [
                        "BeHit",
                        "DoSkill"
                    ]
                },
                "ProjectileShoot_Aim01": {
                    "$type": "ConfigMonsterStateIDInfo",
                    "animatorStates": {
                        "ProjectileShoot_Aim01": [
                            "Audio_Monste_Eremite_Male_Standard_Crossbow_01_rapidshoot_aim01"
                        ]
                    },
                    "resetAnimatorTriggerOnExit": [
                        "BeHit",
                        "DoSkill"
                    ]
                },
                "ProjectileShoot_Aim02": {
                    "$type": "ConfigMonsterStateIDInfo",
                    "animatorStates": {
                        "ProjectileShoot_Aim02": [
                            "Audio_Monste_Eremite_Male_Standard_Crossbow_01_rapidshoot_aim02"
                        ]
                    },
                    "resetAnimatorTriggerOnExit": [
                        "BeHit",
                        "DoSkill"
                    ]
                },
                "ProjectileShoot_Fire01": {
                    "$type": "ConfigMonsterStateIDInfo",
                    "animatorStates": {
                        "ProjectileShoot_Fire01": [
                            "Monster_Eremite_Crossbow_ProjectileShoot_Fire_Hov",
                            "Audio_Monste_Eremite_Male_Standard_Crossbow_01_projectshoot_fire01"
                        ]
                    },
                    "resetAnimatorTriggerOnExit": [
                        "BeHit",
                        "DoSkill",
                        "ProjectileTrigger"
                    ]
                },
                "ProjectileShoot_Fire02": {
                    "$type": "ConfigMonsterStateIDInfo",
                    "animatorStates": {
                        "ProjectileShoot_Fire02": [
                            "Monster_Eremite_Crossbow_ProjectileShoot_Fire",
                            "Audio_Monste_Eremite_Male_Standard_Crossbow_01_projectshoot_fire02"
                        ]
                    },
                    "resetAnimatorTriggerOnExit": [
                        "BeHit",
                        "DoSkill",
                        "ProjectileTrigger"
                    ]
                },
                "FreePose_HoldArm_Idle": {
                    "$type": "ConfigMonsterStateIDInfo",
                    "animatorStates": {
                        "HoldArm_Idle": []
                    },
                    "canDoSkill": true,
                    "resetAnimatorTriggerOnExit": [
                        "BeHit",
                        "DoSkill"
                    ]
                },
                "FreePose_Downcast_Idle": {
                    "$type": "ConfigMonsterStateIDInfo",
                    "animatorStates": {
                        "Downcast_Idle": []
                    },
                    "canDoSkill": true,
                    "resetAnimatorTriggerOnExit": [
                        "BeHit",
                        "DoSkill"
                    ]
                },
                "FreePose_LeanOnWall_Idle": {
                    "$type": "ConfigMonsterStateIDInfo",
                    "animatorStates": {
                        "LeanOnWall_Idle": []
                    },
                    "canDoSkill": true,
                    "resetAnimatorTriggerOnExit": [
                        "BeHit",
                        "DoSkill"
                    ]
                },
                "FreePose_Arrange_Idle": {
                    "$type": "ConfigMonsterStateIDInfo",
                    "animatorStates": {
                        "Arrange_Idle": []
                    },
                    "canDoSkill": true,
                    "resetAnimatorTriggerOnExit": [
                        "BeHit",
                        "DoSkill"
                    ]
                },
                "FreePose_Investigate_Idle": {
                    "$type": "ConfigMonsterStateIDInfo",
                    "animatorStates": {
                        "Investigate_Idle": []
                    },
                    "canDoSkill": true,
                    "resetAnimatorTriggerOnExit": [
                        "BeHit",
                        "DoSkill"
                    ]
                },
                "FreePose_StandingTalk_Idle": {
                    "$type": "ConfigMonsterStateIDInfo",
                    "animatorStates": {
                        "StandingTalk_Idle": []
                    },
                    "canDoSkill": true,
                    "resetAnimatorTriggerOnExit": [
                        "BeHit",
                        "DoSkill"
                    ]
                },
                "FreePose_StandingTalk_Skill": {
                    "$type": "ConfigMonsterStateIDInfo",
                    "animatorStates": {
                        "StandingTalk01_Skill": [],
                        "StandingTalk02_Skill": [],
                        "StandingTalk03_Skill": []
                    },
                    "canDoSkill": true,
                    "resetAnimatorTriggerOnExit": [
                        "BeHit",
                        "DoSkill"
                    ]
                },
                "FreePose_Crossleg_Idle": {
                    "$type": "ConfigMonsterStateIDInfo",
                    "animatorStates": {
                        "Crossleg_Idle": []
                    },
                    "canDoSkill": true,
                    "resetAnimatorTriggerOnExit": [
                        "BeHit",
                        "DoSkill"
                    ]
                },
                "FreePose_Crossleg_Chat_Skill": {
                    "$type": "ConfigMonsterStateIDInfo",
                    "animatorStates": {
                        "Crossleg_Chat01_Skill": [
                            "Audio_Monste_Eremite_Male_Standard_Crossbow_01_chat01"
                        ],
                        "Crossleg_Chat02_Skill": [
                            "Audio_Monste_Eremite_Male_Standard_Crossbow_01_chat02"
                        ]
                    },
                    "canDoSkill": true,
                    "resetAnimatorTriggerOnExit": [
                        "BeHit",
                        "DoSkill"
                    ]
                },
                "FreePose_Crossleg_Drink_Skill": {
                    "$type": "ConfigMonsterStateIDInfo",
                    "animatorStates": {
                        "Crossleg_Drink_Skill_01": [
                            "Audio_Monste_Eremite_Male_Standard_Crossbow_01_drink"
                        ],
                        "Crossleg_Drink_Skill_02": [],
                        "Crossleg_Drink_Skill_03": [
                            "Monster_Eremite_Drinking_WaterDrop"
                        ],
                        "Crossleg_Drink_Skill_04": [],
                        "Crossleg_Drink_Skill_05": []
                    },
                    "canDoSkill": true,
                    "resetAnimatorTriggerOnExit": [
                        "BeHit",
                        "DoSkill"
                    ]
                },
                "FreePose_Crossleg_Sleeping_Skill": {
                    "$type": "ConfigMonsterStateIDInfo",
                    "animatorStates": {
                        "Crossleg_Sleeping_Skill": []
                    },
                    "canDoSkill": true,
                    "resetAnimatorTriggerOnExit": [
                        "BeHit",
                        "DoSkill"
                    ]
                },
                "FreePose_Crossleg_Gambling_Bet_Skill": {
                    "$type": "ConfigMonsterStateIDInfo",
                    "animatorStates": {
                        "Crossleg_Gambling_Bet_Skill": [
                            "Audio_Monste_Eremite_Male_Standard_Crossbow_Gamebling_bet"
                        ]
                    },
                    "canDoSkill": true,
                    "resetAnimatorTriggerOnExit": [
                        "BeHit",
                        "DoSkill"
                    ]
                },
                "FreePose_Crossleg_Gambling_Roll": {
                    "$type": "ConfigMonsterStateIDInfo",
                    "animatorStates": {
                        "Crossleg_Gambling_Roll": [
                            "Monster_Eremite_Gambling_GetResult",
                            "Audio_Monste_Eremite_Male_Standard_Crossbow_Gamebling_Roll"
                        ]
                    },
                    "canDoSkill": true,
                    "resetAnimatorTriggerOnExit": [
                        "BeHit",
                        "DoSkill"
                    ]
                },
                "FreePose_Crossleg_Gambling_Lose": {
                    "$type": "ConfigMonsterStateIDInfo",
                    "animatorStates": {
                        "Crossleg_Gambling_Lose": [
                            "Audio_Monste_Eremite_Male_Standard_Crossbow_01_gambling_lose"
                        ]
                    },
                    "canDoSkill": true,
                    "resetAnimatorTriggerOnExit": [
                        "BeHit",
                        "DoSkill"
                    ]
                },
                "FreePose_Crossleg_Gambling_Win": {
                    "$type": "ConfigMonsterStateIDInfo",
                    "animatorStates": {
                        "Crossleg_Gambling_Win": [
                            "Audio_Monste_Eremite_Male_Standard_Crossbow_01_gambling_win"
                        ]
                    },
                    "canDoSkill": true,
                    "resetAnimatorTriggerOnExit": [
                        "BeHit",
                        "DoSkill"
                    ]
                },
                "FreePose_Crossleg_PlayDaff_Idle": {
                    "$type": "ConfigMonsterStateIDInfo",
                    "animatorStates": {
                        "Crossleg_PlayDaff_Idle": []
                    },
                    "canDoSkill": true,
                    "resetAnimatorTriggerOnExit": [
                        "BeHit",
                        "DoSkill"
                    ]
                },
                "FreePose_Crossleg_PlayOud_Idle": {
                    "$type": "ConfigMonsterStateIDInfo",
                    "animatorStates": {
                        "Crossleg_OudIdle": [],
                        "Crossleg_PlayOud_BS": [],
                        "Crossleg_PlayOud_Loop": [],
                        "Crossleg_PlayOud_AS": []
                    },
                    "canDoSkill": true,
                    "resetAnimatorTriggerOnExit": [
                        "BeHit",
                        "DoSkill"
                    ]
                }
            }
        }
    },
    "billboard": {
        "$type": "ConfigCombatBillboard",
        "attachPoint": "BillboardAttach",
        "offset": {
            "x": -0.05000000074505806
        },
        "offsetType": "Character",
        "radiusOffset": 0.25,
        "showHPBar": true
    },
    "initialPoses": {
        "Default": {},
        "HoldArm": {
            "initialPoseID": 9001,
            "initialPoseParams": {
                "intParams": {
                    "FreePoseMark": "9001"
                }
            }
        },
        "Downcast": {
            "initialPoseID": 9002,
            "initialPoseParams": {
                "intParams": {
                    "FreePoseMark": "9002"
                }
            }
        },
        "LeanOnWall": {
            "initialPoseID": 9003,
            "initialPoseParams": {
                "intParams": {
                    "FreePoseMark": "9003"
                }
            }
        },
        "Arrange": {
            "initialPoseID": 9004,
            "initialPoseParams": {
                "intParams": {
                    "FreePoseMark": "9004"
                }
            }
        },
        "StandingTalk": {
            "initialPoseID": 9005,
            "initialPoseParams": {
                "intParams": {
                    "FreePoseMark": "9005"
                }
            }
        },
        "Investigate": {
            "initialPoseID": 9006,
            "initialPoseParams": {
                "intParams": {
                    "FreePoseMark": "9006"
                }
            }
        },
        "CrossLeg_Talk_Only": {
            "initialPoseID": 9501,
            "initialPoseParams": {
                "intParams": {
                    "FreePoseMark": "9501"
                }
            }
        },
        "CrossLeg_Universal": {
            "initialPoseID": 9502,
            "initialPoseParams": {
                "intParams": {
                    "FreePoseMark": "9502"
                }
            }
        },
        "CrossLeg_Drink_Only": {
            "initialPoseID": 9503,
            "initialPoseParams": {
                "intParams": {
                    "FreePoseMark": "9503"
                }
            }
        },
        "CrossLeg_Sleeping": {
            "initialPoseID": 9504,
            "initialPoseParams": {
                "intParams": {
                    "FreePoseMark": "9504"
                }
            }
        },
        "CrossLeg_PlayOud": {
            "initialPoseID": 9505,
            "initialPoseParams": {
                "intParams": {
                    "FreePoseMark": "9505"
                }
            }
        },
        "CrossLeg_PlayDaff": {
            "initialPoseID": 9506,
            "initialPoseParams": {
                "intParams": {
                    "FreePoseMark": "9506"
                }
            }
        },
        "CrossLeg_Gambling_Banker": {
            "initialPoseID": 9511,
            "initialPoseParams": {
                "intParams": {
                    "FreePoseMark": "9511"
                }
            }
        },
        "CrossLeg_Gambling_Receiver": {
            "initialPoseID": 9512,
            "initialPoseParams": {
                "intParams": {
                    "FreePoseMark": "9512"
                }
            }
        }
    },
    "aibeta": {
        "enable": true,
        "moveSetting": {
            "navMeshAgentName": "Undead01",
            "almostReachedDistanceRun": 1.5
        },
        "precombat": {
            "PLOJLJFMKAB": true
        },
        "sensing": {
            "settings": {
                "DefaultSetting": {
                    "feelRange": 8.0
                },
                "HighAlert": {
                    "viewRange": 40.0,
                    "feelRange": 10.0
                },
                "LowAlert": {
                    "viewRange": 15.0,
                    "feelRange": 6.0
                },
                "UltraLowSensing": {
                    "viewRange": 10.0,
                    "hearAttractionRange": 0.0,
                    "feelRange": 4.0
                },
                "EarshotFix": {
                    "hearAttractionRange": 9.0,
                    "feelRange": 8.0
                },
                "NeverCombat": {
                    "enableVision": false,
                    "hearAttractionRange": 0.0,
                    "feelRange": 0.0
                }
            },
            "templates": {
                "DefaultTemplate": {
                    "DefaultPoses": "DefaultSetting"
                },
                "HighAlert": {
                    "DefaultPoses": "HighAlert"
                },
                "LowAlert": {
                    "DefaultPoses": "LowAlert"
                },
                "UltraLowSensing": {
                    "DefaultPoses": "UltraLowSensing"
                },
                "EarshotFix": {
                    "DefaultPoses": "EarshotFix"
                },
                "NeverCombat": {
                    "DefaultPoses": "NeverCombat"
                }
            }
        },
        "neurons": {
            "DefaultSetting": [
                "HIT"
            ],
            "NeverCombat": []
        },
        "threat": {
            "clearThreatByLostPath": true,
            "clearThreatTimerByDistance": 3.0,
            "viewAttenuation": [
                {
                    "x": 10.0,
                    "y": 2.0
                },
                {
                    "x": 15.0,
                    "y": 0.800000011920929
                },
                {
                    "x": 20.0,
                    "y": 0.5
                },
                {
                    "x": 25.0,
                    "y": 0.30000001192092896
                },
                {
                    "x": 30.0,
                    "y": 0.20000000298023224
                }
            ]
        },
        "defendArea": {},
        "skillGroupCDConfigs": [
            {
                "skillGroupCDID": 1,
                "skillGroupCDTime": 2.5
            }
        ],
        "skills": {
            "101": {
                "name": "OnAlert",
                "skillType": "OnAlert",
                "castCondition": {
                    "pose": [
                        1,
                        9001,
                        9002,
                        9003,
                        9004,
                        9005,
                        9006
                    ]
                },
                "publicCDGroup": "",
                "ignoreGCD": true,
                "stateIDs": [
                    "Alert"
                ],
                "skillQueryingTime": 3.0,
                "flagTargetReachable": "10",
                "flagSelfOnTemplateCollider": "01",
                "flagSelfInZone": "10",
                "flagTargetInZone": "11"
            },
            "102": {
                "name": "OnAlert_Combat",
                "priority": 1,
                "castCondition": {
                    "pose": [
                        1,
                        9001,
                        9002,
                        9003,
                        9004,
                        9005,
                        9006,
                        10
                    ]
                },
                "publicCDGroup": "",
                "ignoreGCD": true,
                "stateIDs": [
                    "Alert"
                ],
                "skillQueryingTime": 3.0,
                "flagTargetReachable": "10",
                "flagSelfOnTemplateCollider": "01",
                "flagSelfInZone": "10",
                "flagTargetInZone": "11"
            },
            "111": {
                "name": "OnAlert_Crossleg",
                "skillType": "OnAlert",
                "castCondition": {
                    "pose": [
                        9501,
                        9502,
                        9503,
                        9504,
                        9505,
                        9506,
                        9511,
                        9512,
                        9555
                    ]
                },
                "publicCDGroup": "",
                "ignoreGCD": true,
                "stateIDs": [
                    "Alert"
                ],
                "skillQueryingTime": 3.0,
                "flagTargetReachable": "10",
                "flagSelfOnTemplateCollider": "01",
                "flagSelfInZone": "10",
                "flagTargetInZone": "11"
            },
            "112": {
                "name": "OnAlert_Crossleg_Combat",
                "castCondition": {
                    "pose": [
                        9501,
                        9502,
                        9503,
                        9504,
                        9505,
                        9506,
                        9511,
                        9512,
                        9555
                    ]
                },
                "publicCDGroup": "",
                "ignoreGCD": true,
                "stateIDs": [
                    "Alert"
                ],
                "skillQueryingTime": 3.0,
                "flagTargetReachable": "10",
                "flagSelfOnTemplateCollider": "01",
                "flagSelfInZone": "10",
                "flagTargetInZone": "11"
            },
            "201": {
                "name": "SingleShoot",
                "combatSkillType": "RangedAttack",
                "castCondition": {
                    "pose": [
                        1001,
                        10
                    ],
                    "pickRangeMin": 4.0,
                    "pickRangeMax": 15.0
                },
                "cd": 6.0,
                "publicCDGroup": "",
                "stateIDs": [
                    "SingleShoot_Aim",
                    "SingleShoot_Fire",
                    "SingleShoot_Exit"
                ],
                "flagTargetReachable": "11",
                "flagSelfOnTemplateCollider": "11",
                "flagSelfInZone": "11",
                "flagTargetInZone": "11"
            },
            "202": {
                "name": "FastShoot",
                "combatSkillType": "RangedAttack",
                "castCondition": {
                    "pose": [
                        1001,
                        10
                    ],
                    "pickRangeMax": 4.0
                },
                "cd": 6.0,
                "publicCDGroup": "",
                "stateIDs": [
                    "FastShoot_BS",
                    "FastShoot"
                ],
                "flagTargetReachable": "11",
                "flagSelfOnTemplateCollider": "11",
                "flagSelfInZone": "11",
                "flagTargetInZone": "11"
            },
            "301": {
                "name": "RapidShoot",
                "combatSkillType": "RangedAttack",
                "priority": 2,
                "castCondition": {
                    "pose": [
                        1001,
                        10
                    ],
                    "pickRangeMin": 4.0,
                    "pickRangeMax": 14.0
                },
                "cd": 9.0,
                "publicCDGroup": "",
                "stateIDs": [
                    "RapidShoot_BS",
                    "RapidShoot_Loop",
                    "RapidShoot_AS",
                    "RapidShoot_AS_Loaded"
                ],
                "flagTargetReachable": "11",
                "flagSelfOnTemplateCollider": "11",
                "flagSelfInZone": "11",
                "flagTargetInZone": "11"
            },
            "401": {
                "name": "ProjectileShoot",
                "combatSkillType": "RangedAttack",
                "priority": 2,
                "castCondition": {
                    "pose": [
                        1001,
                        10
                    ],
                    "pickRangeMin": 6.0,
                    "pickRangeMax": 20.0
                },
                "cd": 12.0,
                "publicCDGroup": "",
                "stateIDs": [
                    "ProjectileShoot_Load",
                    "ProjectileShoot_Aim01",
                    "ProjectileShoot_Aim02",
                    "ProjectileShoot_Fire01",
                    "ProjectileShoot_Fire02"
                ],
                "flagTargetReachable": "11",
                "flagSelfOnTemplateCollider": "11",
                "flagSelfInZone": "11",
                "flagTargetInZone": "11"
            },
            "90051": {
                "name": "Chat01",
                "skillType": "Free",
                "castCondition": {
                    "pose": [
                        9005
                    ]
                },
                "cd": 1.0,
                "cdUpperRange": 4.0,
                "publicCDGroup": "",
                "ignoreGCD": true,
                "skillGroupCDID": 1,
                "stateIDs": [
                    "FreePose_StandingTalk_Skill"
                ],
                "flagTargetReachable": "10",
                "flagSelfOnTemplateCollider": "01",
                "flagSelfInZone": "10",
                "flagTargetInZone": "11"
            },
            "90052": {
                "name": "Chat01",
                "skillType": "Free",
                "castCondition": {
                    "pose": [
                        9005
                    ]
                },
                "cd": 1.0,
                "cdUpperRange": 4.0,
                "publicCDGroup": "",
                "ignoreGCD": true,
                "skillGroupCDID": 1,
                "stateIDs": [
                    "FreePose_StandingTalk_Skill"
                ],
                "flagTargetReachable": "10",
                "flagSelfOnTemplateCollider": "01",
                "flagSelfInZone": "10",
                "flagTargetInZone": "11"
            },
            "90053": {
                "name": "Chat01",
                "skillType": "Free",
                "castCondition": {
                    "pose": [
                        9005
                    ]
                },
                "cd": 1.0,
                "cdUpperRange": 4.0,
                "publicCDGroup": "",
                "ignoreGCD": true,
                "skillGroupCDID": 1,
                "stateIDs": [
                    "FreePose_StandingTalk_Skill"
                ],
                "flagTargetReachable": "10",
                "flagSelfOnTemplateCollider": "01",
                "flagSelfInZone": "10",
                "flagTargetInZone": "11"
            },
            "95011": {
                "name": "Chat01",
                "skillType": "Free",
                "castCondition": {
                    "pose": [
                        9501,
                        9502
                    ]
                },
                "cd": 1.0,
                "cdUpperRange": 4.0,
                "publicCDGroup": "",
                "ignoreGCD": true,
                "skillGroupCDID": 1,
                "stateIDs": [
                    "FreePose_Crossleg_Chat_Skill"
                ],
                "flagTargetReachable": "10",
                "flagSelfOnTemplateCollider": "01",
                "flagSelfInZone": "10",
                "flagTargetInZone": "11"
            },
            "95012": {
                "name": "Chat02",
                "skillType": "Free",
                "castCondition": {
                    "pose": [
                        9501,
                        9502
                    ]
                },
                "cd": 1.0,
                "cdUpperRange": 4.0,
                "initialCD": 12.0,
                "publicCDGroup": "",
                "ignoreGCD": true,
                "skillGroupCDID": 1,
                "stateIDs": [
                    "FreePose_Crossleg_Chat_Skill"
                ],
                "flagTargetReachable": "10",
                "flagSelfOnTemplateCollider": "01",
                "flagSelfInZone": "10",
                "flagTargetInZone": "11"
            },
            "95031": {
                "name": "Drink",
                "skillType": "Free",
                "castCondition": {
                    "pose": [
                        9502,
                        9503
                    ]
                },
                "cd": 12.0,
                "cdUpperRange": 12.0,
                "initialCD": 6.0,
                "publicCDGroup": "",
                "stateIDs": [
                    "FreePose_Crossleg_Drink_Skill"
                ],
                "flagTargetReachable": "10",
                "flagSelfOnTemplateCollider": "01",
                "flagSelfInZone": "10",
                "flagTargetInZone": "11"
            },
            "95041": {
                "name": "Sleeping",
                "skillType": "Free",
                "castCondition": {
                    "pose": [
                        9504
                    ]
                },
                "cd": 3.5,
                "cdUpperRange": 8.0,
                "initialCD": 2.0,
                "publicCDGroup": "",
                "skillGroupCDID": 1,
                "stateIDs": [
                    "FreePose_Crossleg_Sleeping_Skill"
                ],
                "flagTargetReachable": "10",
                "flagSelfOnTemplateCollider": "01",
                "flagSelfInZone": "10",
                "flagTargetInZone": "11"
            },
            "95111": {
                "name": "Gambling",
                "skillType": "Free",
                "castCondition": {
                    "pose": [
                        9511
                    ]
                },
                "cdUpperRange": 2.0,
                "initialCD": 6.0,
                "publicCDGroup": "",
                "stateIDs": [
                    "FreePose_Crossleg_Gambling_Bet_Skill",
                    "FreePose_Crossleg_Gambling_Roll",
                    "FreePose_Crossleg_Gambling_Lose",
                    "FreePose_Crossleg_Gambling_Win"
                ],
                "flagTargetReachable": "10",
                "flagSelfOnTemplateCollider": "01",
                "flagSelfInZone": "10",
                "flagTargetInZone": "11"
            }
        },
        "skillGCD": 3.5,
        "returnToBornTactic": {
            "enable": true,
            "defaultSetting": {}
        },
        "wanderTactic": {
            "enable": true,
            "condition": {
                "pose": [
                    1
                ]
            },
            "defaultSetting": {
                "cdMax": 3.0,
                "cdMin": 1.5,
                "distanceFromBorn": 15.0,
                "distanceFromCurrentMin": 3.75,
                "distanceFromCurrentMax": 7.5
            }
        },
        "investigateTactic": {
            "enable": true,
            "condition": {
                "pose": [
                    1
                ]
            }
        },
        "meleeChargeTactic": {
            "enable": true,
            "condition": {
                "pose": [
                    1001,
                    10
                ]
            },
            "defaultSetting": {
                "startDistanceMin": 23.0,
                "startDistanceMax": 50.0,
                "stopDistance": 15.0,
                "innerDistance": 13.0
            }
        },
        "facingMoveTactic": {
            "enable": true,
            "condition": {
                "pose": [
                    1001,
                    10
                ]
            },
            "defaultSetting": {
                "rangeMin": 7.0,
                "rangeMax": 14.0,
                "facingMoveWeight": {
                    "stop": 6.0,
                    "forward": 0.5,
                    "back": 1.5
                },
                "HLNFLHJFDOB": "1111",
                "OGNGBHJOEOA": "1111"
            }
        }
    },
    "inputKeys": [
        {
            "keyID": 201,
            "inputKeyCode": 257,
            "abilityName": ""
        },
        {
            "keyID": 301,
            "inputKeyCode": 258,
            "abilityName": ""
        },
        {
            "keyID": 401,
            "inputKeyCode": 259,
            "abilityName": ""
        }
    ],
    "move": {
        "$type": "ConfigAnimatorMove",
        "facingMove": "FourDirection",
        "monsterSizeType": "StoopType"
    },
    "audio": {
        "animAudio": {
            "onTransitionIn": [
                {
                    "currentStateName": "Crossleg_PlayDaff_Idle",
                    "audioEvent": {
                        "text": "Play_sfx_monster_Eremite_freePose_playDaff_Loop"
                    },
                    "otherStateNames": [
                        "Crossleg_PlayDaff_Idle"
                    ],
                    "usage": "Except"
                },
                {
                    "currentStateName": "Crossleg_PlayOud_Loop",
                    "audioEvent": {
                        "text": "Play_sfx_monster_Eremite_freePose_playDaff_Loop_oud"
                    },
                    "otherStateNames": [
                        "Crossleg_PlayOud_Loop"
                    ],
                    "usage": "Except"
                }
            ],
            "onTransitionOut": [
                {
                    "currentStateName": "Crossleg_PlayDaff_Idle",
                    "audioEvent": {
                        "text": "Stop_sfx_monster_Eremite_freePose_playDaff_Loop"
                    },
                    "otherStateNames": [
                        "Crossleg_PlayDaff_Idle"
                    ],
                    "usage": "Except"
                },
                {
                    "currentStateName": "Crossleg_Chat01_Skill",
                    "audioEvent": {
                        "text": "Stop_sfx_monster_Human_Male_Standard_CrossBow_crossleg_chat01"
                    }
                },
                {
                    "currentStateName": "Crossleg_Chat02_Skill",
                    "audioEvent": {
                        "text": "Stop_sfx_monster_Human_Male_Standard_CrossBow_crossleg_chat02"
                    }
                },
                {
                    "currentStateName": "Crossleg_Drink_Skill",
                    "audioEvent": {
                        "text": "Stop_sfx_monster_Human_Male_Standard_CrossBow_crossleg_drink"
                    }
                },
                {
                    "currentStateName": "Crossleg_Gambling_Lose",
                    "audioEvent": {
                        "text": "Stop_sfx_monster_Human_Male_Standard_CrossBow_crossleg_gambling_lose"
                    }
                },
                {
                    "currentStateName": "Crossleg_Gambling_Win",
                    "audioEvent": {
                        "text": "Stop_sfx_monster_Human_Male_Standard_CrossBow_crossleg_gambling_win"
                    }
                },
                {
                    "currentStateName": "Crossleg_Gambling_Bet_Skill",
                    "audioEvent": {
                        "text": "Stop_sfx_monster_Human_Male_Standard_CrossBow_gambling_bet"
                    }
                },
                {
                    "currentStateName": "Crossleg_Gambling_Roll",
                    "audioEvent": {
                        "text": "Stop_sfx_monster_Human_Male_Standard_CrossBow_gambling_roll"
                    }
                },
                {
                    "currentStateName": "Crossleg_PlayOud_Loop",
                    "audioEvent": {
                        "text": "Stop_sfx_monster_Eremite_freePose_playDaff_Loop_oud"
                    },
                    "otherStateNames": [
                        "Crossleg_PlayOud_Loop"
                    ],
                    "usage": "Except"
                }
            ]
        }
    }
}