{
    "context": {
        "RobotControlPage": {
            "actionGroups": {
                "Default": [
                    {
                        "priority": 20,
                        "eventType": "RightTriggerEvent",
                        "contextEvent": "ConfirmEvent"
                    },
                    {
                        "priority": 20,
                        "eventType": "MenuBackEvent",
                        "contextEvent": "BackEvent"
                    },
                    {
                        "eventType": "ChangeViewEvent"
                    }
                ],
                "PC": [
                    {
                        "priority": 20,
                        "eventType": "ReturnEvent",
                        "contextEvent": "ConfirmEvent"
                    },
                    {
                        "priority": 20,
                        "eventType": "MouseLeftButtonEvent",
                        "contextEvent": "ConfirmEvent"
                    },
                    {
                        "priority": 20,
                        "eventType": "MenuBackEvent",
                        "contextEvent": "BackEvent"
                    },
                    {
                        "priority": 14,
                        "eventType": "TriggerChangeWithSkillEvent"
                    },
                    {
                        "priority": 14,
                        "eventType": "CancelChangeWithSkillEvent"
                    },
                    {
                        "eventType": "ChangeViewEvent"
                    }
                ]
            },
            "stateActions": {
                "0": {
                    "keyboardTouch": "PC",
                    "keyboardMouse": "PC",
                    "joypad": "Default"
                }
            },
            "enableJoypadVirtualCursor": false
        }
    }
}