{
    "sceneId": 51000,
    "monsters": [
        {
            "groupId": 251000001,
            "mapInstId": 1003,
            "aiGroupID": 251000001,
            "CBNANHBMMNC": true,
            "DGLJAJDAPNH": 999.0,
            "LGAONPKJDEC": true,
            "clearThreatTargetDistance": 999.0,
            "aiNeuronSetting": "DefaultSetting",
            "aiSensingTemplate": "DefaultTemplate",
            "forceCombatOnSpawn": true,
            "disableWander": true,
            "billboardHasUIBar": true,
            "NCKMKJMDPDH": ""
        }
    ]
}