{
    "JDKPOCLJGPL": {
        "Eff_Gcg_Avatar_Yoimiya_Spine_Loop": {
            "ODJBOPPKABB": true,
            "KOGELNIBFMB": "Gcg_CardFace_Char_Avatar_Yoimiya_Spine",
            "GGPHPGIOHIC": "EffectRoot_Hand",
            "DFKMCJPEAGB": true,
            "OPKELPNAEIB": 0.05000000074505806
        },
        "Eff_Gcg_Avatar_Yoimiya_Spine_Loop_BG": {
            "ODJBOPPKABB": true,
            "KOGELNIBFMB": "Gcg_CardFace_Char_Avatar_Yoimiya_Spine",
            "GGPHPGIOHIC": "EffectRoot_BG",
            "DFKMCJPEAGB": true,
            "OPKELPNAEIB": 0.20000000298023224
        }
    },
    "MMHECPLFPMF": {
        "Eff_Gcg_Avatar_Yoimiya_ElementalBurst_Spine_Star": {
            "ODJBOPPKABB": true,
            "KOGELNIBFMB": "Gcg_CardFace_Char_Avatar_Yoimiya_Spine",
            "GGPHPGIOHIC": "EffectRoot_Hand",
            "JKLCFOBFJKG": "Gcg_CardFace_Char_Avatar_Yoimiya_Spine",
            "GPPAJAOMFEK": "Base Layer",
            "LFBIELIEMMO": "Yoimiya_Spine_Attack",
            "normalizedTime": 0.4699999988079071
        }
    }
}