{
    "JDKPOCLJGPL": {
        "Eff_Gcg_Avatar_Diona_Spine_Loop": {
            "KOGELNIBFMB": "",
            "GGPHPGIOHIC": "",
            "DFKMCJPEAGB": true,
            "OPKELPNAEIB": 0.4000000059604645
        }
    }
}