{
    "JDKPOCLJGPL": {
        "Eff_Gcg_Avatar_Razor_Spine_Loop": {
            "ODJBOPPKABB": true,
            "KOGELNIBFMB": "Gcg_CardFace_Char_Avatar_Razor_Spine",
            "GGPHPGIOHIC": "EffectRoot_Claws",
            "DFKMCJPEAGB": true,
            "OPKELPNAEIB": 1.0
        }
    }
}