[
    {
        "crowdGroupID": 2,
        "boundCenter": {
            "x": -1614.363037109375,
            "y": 258.15545654296875,
            "z": 3860.6923828125
        },
        "boundSize": {
            "x": 106.2879638671875,
            "y": 11.569091796875,
            "z": 52.451171875
        },
        "crowdRestrictionGroups": [
            {
                "questRes": [
                    {
                        "questID": 302403,
                        "questStates": [
                            "QUEST_STATE_FINISHED"
                        ]
                    },
                    {
                        "questID": 302407,
                        "questAccepted": false,
                        "questStates": [
                            "QUEST_STATE_NONE"
                        ]
                    }
                ]
            }
        ],
        "DFCCFKEDABJ": true
    }
]