[
    {
        "crowdGroupID": 1,
        "boundCenter": {
            "x": -403.72235107421875,
            "y": 208.68670654296875,
            "z": -1137.4620361328125
        },
        "boundSize": {
            "x": 20.1148681640625,
            "y": 2.2844085693359375,
            "z": 20.781982421875
        },
        "crowdRestrictionGroups": [
            {
                "questRes": [
                    {
                        "questID": 201104,
                        "questStates": [
                            "QUEST_STATE_UNFINISHED"
                        ]
                    }
                ]
            },
            {
                "questRes": [
                    {
                        "questID": 1905003,
                        "questStates": [
                            "QUEST_STATE_UNFINISHED"
                        ]
                    }
                ]
            },
            {
                "questRes": [
                    {
                        "questID": 4003902,
                        "questStates": [
                            "QUEST_STATE_FINISHED"
                        ]
                    },
                    {
                        "questID": 4003906,
                        "questAccepted": false
                    }
                ]
            }
        ]
    },
    {
        "crowdGroupID": 2,
        "boundCenter": {
            "x": -382.6102600097656,
            "y": 215.30999755859375,
            "z": -1152.39892578125
        },
        "boundSize": {
            "x": 17.77069091796875,
            "z": 3.8460693359375
        },
        "crowdRestrictionGroups": [
            {
                "timeRes": [
                    {
                        "startTimeOfDay": 6.0,
                        "endTimeOfDay": 19.0
                    }
                ]
            },
            {
                "questRes": [
                    {
                        "questID": 4003902,
                        "questStates": [
                            "QUEST_STATE_FINISHED"
                        ]
                    },
                    {
                        "questID": 4003906,
                        "questAccepted": false
                    }
                ]
            }
        ]
    },
    {
        "crowdGroupID": 3,
        "boundCenter": {
            "x": -383.8091125488281,
            "y": 213.6971435546875,
            "z": -1149.7685546875
        },
        "boundSize": {
            "x": 4.53399658203125,
            "y": 3.2257080078125,
            "z": 19.26123046875
        },
        "crowdRestrictionGroups": [
            {
                "questRes": [
                    {
                        "questID": 201104,
                        "questStates": [
                            "QUEST_STATE_UNFINISHED"
                        ]
                    }
                ]
            },
            {
                "timeRes": [
                    {
                        "startTimeOfDay": 19.0,
                        "endTimeOfDay": 6.0
                    }
                ]
            },
            {
                "questRes": [
                    {
                        "questID": 4003902,
                        "questStates": [
                            "QUEST_STATE_FINISHED"
                        ]
                    },
                    {
                        "questID": 4003906,
                        "questAccepted": false
                    }
                ]
            }
        ]
    },
    {
        "crowdGroupID": 4,
        "boundCenter": {
            "x": -404.6339111328125,
            "y": 207.567138671875,
            "z": -1141.875
        },
        "boundSize": {
            "x": 1.550933837890625,
            "y": 0.044921875,
            "z": 0.721923828125
        },
        "spawnByDefault": false,
        "crowdRestrictionGroups": [
            {
                "questRes": [
                    {
                        "questID": 1905003,
                        "questStates": [
                            "QUEST_STATE_UNFINISHED"
                        ]
                    }
                ]
            }
        ]
    },
    {
        "crowdGroupID": 5,
        "boundCenter": {
            "x": -415.31146240234375,
            "y": 213.36790466308594,
            "z": -1115.594970703125
        },
        "boundSize": {
            "x": 2.420135498046875,
            "z": 0.906005859375
        },
        "spawnByDefault": false,
        "crowdRestrictionGroups": [
            {
                "questRes": [
                    {
                        "questID": 1905105,
                        "questStates": [
                            "QUEST_STATE_UNFINISHED"
                        ]
                    }
                ]
            }
        ]
    },
    {
        "crowdGroupID": 6,
        "boundCenter": {
            "x": -382.0689697265625,
            "y": 215.59300231933594,
            "z": -1144.45556640625
        },
        "boundSize": {
            "x": 1.603485107421875,
            "y": 0.566009521484375,
            "z": 1.7430419921875
        },
        "crowdRestrictionGroups": [
            {
                "sceneTags": [
                    {
                        "sceneTags": [
                            "Hdj_Alcor"
                        ]
                    }
                ]
            },
            {
                "questRes": [
                    {
                        "questID": 201104,
                        "questStates": [
                            "QUEST_STATE_UNFINISHED"
                        ]
                    }
                ]
            },
            {
                "timeRes": [
                    {
                        "startTimeOfDay": 19.0,
                        "endTimeOfDay": 6.0
                    }
                ]
            },
            {
                "questRes": [
                    {
                        "questID": 4003902,
                        "questStates": [
                            "QUEST_STATE_FINISHED"
                        ]
                    },
                    {
                        "questID": 4003906,
                        "questAccepted": false
                    }
                ]
            }
        ],
        "DFCCFKEDABJ": true
    }
]