{
    "1": {
        "name": "sample",
        "JNPEBKDICHP": "eff_in",
        "LLAIJIMHKDG": "eff_move",
        "LHPOJLGEPKF": "eff_out"
    },
    "100": {
        "name": "rotDungeon",
        "JNPEBKDICHP": "Eff_SceneObj_CYSingularity_01_In",
        "LLAIJIMHKDG": "Eff_SceneObj_CYSingularity_01_Move",
        "LHPOJLGEPKF": "Eff_SceneObj_CYSingularity_01_Out",
        "KMJNDNFCCFA": false,
        "FGHMIJLKALG": true,
        "LAMJADGMGNH": true,
        "moveType": "Arc"
    },
    "300": {
        "name": "FlowerPortal",
        "JNPEBKDICHP": "",
        "LLAIJIMHKDG": "Eff_SceneObj_FlowerPortal_01_Self",
        "LHPOJLGEPKF": "Eff_SceneObj_FlowerPortal_01_Self_Recovery",
        "KMJNDNFCCFA": false,
        "FGHMIJLKALG": true,
        "LAMJADGMGNH": true
    }
}