{
    "name": "Char_Skill_35022",
    "LCAAFCBKGHI": {
        "-2060930438": {
            "$type": "GCGDeclaredValueDamage",
            "value": 2
        },
        "476224977": {
            "$type": "GCGDeclaredValueElement",
            "type": "Element"
        }
    }
}