{
    "DAPLEKMCBMB": [
        {
            "name": "Character_Razor_Q_Golden",
            "IOMFAGOGAAJ": [
                {
                    "PIBJPDLMPKJ": 0.6000000238418579,
                    "actionGroups": [
                        {
                            "actions": [
                                {
                                    "$type": "GcgBehaviourSwitchGoldenLoopEffect",
                                    "KEACJLNKCHK": {
                                        "target": "Actor"
                                    }
                                },
                                {
                                    "$type": "GcgBehaviourSwitchOnCardLoopEffect",
                                    "KEACJLNKCHK": {
                                        "target": "Actor"
                                    }
                                },
                                {
                                    "$type": "GcgBehaviourTriggerSpineAttack",
                                    "KEACJLNKCHK": {
                                        "target": "Actor"
                                    }
                                },
                                {
                                    "$type": "GcgBehaviourFireEffect",
                                    "KEACJLNKCHK": {
                                        "target": "Actor"
                                    },
                                    "effectName": "Eff_Gcg_Avatar_Razor_ElementalBurst_Spine",
                                    "ODHIEKLBPFL": true,
                                    "KOGELNIBFMB": "",
                                    "GGPHPGIOHIC": "",
                                    "BFEBMINFJID": {
                                        "$type": "GcgBornRotationFollow"
                                    }
                                }
                            ]
                        }
                    ]
                },
                {
                    "PIBJPDLMPKJ": 0.800000011920929,
                    "actionGroups": [
                        {
                            "actions": [
                                {
                                    "$type": "GcgBehaviourFireEffect",
                                    "KEACJLNKCHK": {
                                        "target": "MainTarget"
                                    },
                                    "effectName": "Eff_Gcg_Avatar_Razor_ElementalBurst_01",
                                    "KOGELNIBFMB": "",
                                    "GGPHPGIOHIC": "",
                                    "BFEBMINFJID": {
                                        "$type": "GcgBornRotationLookAtTarget",
                                        "KEACJLNKCHK": {
                                            "target": "Actor"
                                        }
                                    }
                                }
                            ]
                        }
                    ]
                },
                {
                    "PIBJPDLMPKJ": 0.8799999952316284,
                    "actionGroups": [
                        {
                            "actions": [
                                {
                                    "$type": "GcgBehaviourShakeScreen",
                                    "KEACJLNKCHK": {
                                        "target": "MainTarget"
                                    },
                                    "FONIHNAMJML": "Common_ShakeScreen_Test_E"
                                }
                            ]
                        }
                    ]
                },
                {
                    "PIBJPDLMPKJ": 0.5199999809265137,
                    "actionGroups": [
                        {
                            "actions": [
                                {
                                    "$type": "GcgBehaviourFireEffect",
                                    "KEACJLNKCHK": {
                                        "target": "MainTarget"
                                    },
                                    "effectName": "Eff_Gcg_Avatar_Razor_ElementalBurst_Hit_01",
                                    "KOGELNIBFMB": "",
                                    "GGPHPGIOHIC": "",
                                    "BFEBMINFJID": {
                                        "$type": "GcgBornRotationLookAtTarget",
                                        "KEACJLNKCHK": {
                                            "target": "Actor"
                                        }
                                    }
                                },
                                {
                                    "$type": "GcgBehaviourShakeScreen",
                                    "KEACJLNKCHK": {
                                        "target": "MainTarget"
                                    },
                                    "FONIHNAMJML": "Common_ShakeScreen_Test_E"
                                }
                            ]
                        }
                    ]
                },
                {
                    "PIBJPDLMPKJ": 0.28999999165534973,
                    "actionGroups": [
                        {
                            "actions": [
                                {
                                    "$type": "GcgBehaviourSwitchGoldenLoopEffect",
                                    "KEACJLNKCHK": {
                                        "target": "Actor"
                                    },
                                    "GFKOKIKOMNA": true
                                }
                            ]
                        }
                    ]
                },
                {
                    "PIBJPDLMPKJ": 0.20999999344348907,
                    "actionGroups": [
                        {
                            "actions": [
                                {
                                    "$type": "GcgBehaviourTriggerAttack",
                                    "KEACJLNKCHK": {
                                        "target": "MainTarget"
                                    }
                                }
                            ]
                        }
                    ]
                },
                {
                    "PIBJPDLMPKJ": 0.029999999329447746,
                    "actionGroups": [
                        {
                            "actions": [
                                {
                                    "$type": "GcgBehaviourFireEffect",
                                    "KEACJLNKCHK": {
                                        "target": "Actor"
                                    },
                                    "effectName": "Eff_Gcg_Common_Spine_ReturnToLoop",
                                    "ODHIEKLBPFL": true,
                                    "KOGELNIBFMB": "",
                                    "GGPHPGIOHIC": "",
                                    "BFEBMINFJID": {
                                        "$type": "GcgBornRotationFollow"
                                    }
                                }
                            ]
                        }
                    ]
                },
                {
                    "actionGroups": [
                        {
                            "actions": [
                                {
                                    "$type": "GcgBehaviourSwitchOnCardLoopEffect",
                                    "KEACJLNKCHK": {
                                        "target": "Actor"
                                    },
                                    "GFKOKIKOMNA": true
                                }
                            ]
                        }
                    ]
                }
            ],
            "DELOACENBLE": [
                {
                    "actionGroups": [
                        {
                            "actions": [
                                {
                                    "$type": "GcgBehaviourFireEffect",
                                    "KEACJLNKCHK": {
                                        "target": "MainTarget"
                                    },
                                    "effectName": "Eff_Gcg_Avatar_Razor_ElementalBurst_Hit_02",
                                    "KOGELNIBFMB": "",
                                    "GGPHPGIOHIC": "",
                                    "BFEBMINFJID": {
                                        "$type": "GcgBornRotationLookAtTarget",
                                        "KEACJLNKCHK": {
                                            "target": "Actor"
                                        }
                                    }
                                },
                                {
                                    "$type": "GcgBehaviourRunMoveScript",
                                    "DPLGBNHILIE": "GcgMotion_Hit04_02",
                                    "IOOMGNCKOAD": "",
                                    "JOLPHOFCPAK": {
                                        "target": "ContextTarget"
                                    },
                                    "KEACJLNKCHK": {
                                        "target": "Actor"
                                    },
                                    "GNDGFAABMPL": true
                                },
                                {
                                    "$type": "GcgBehaviourShakeScreen",
                                    "KEACJLNKCHK": {
                                        "target": "ContextTarget"
                                    },
                                    "FONIHNAMJML": "Common_ShakeScreen_Test_Q"
                                }
                            ]
                        }
                    ]
                }
            ]
        }
    ]
}