{
    "JKFKGHOIHCO": 2123,
    "CJMOPDLABGM": 1,
    "roomList": [
        {
            "JFLPAFKEJMO": 1,
            "DDGJCEMDEFD": 13,
            "GAHEPBIECGH": {
                "y": 31.0
            },
            "CNKPEIGIOOB": {
                "ACEDMDJHLPN": {
                    "x": -50.0,
                    "y": 1.0,
                    "z": -50.0
                },
                "BPOAAJMGMNB": {
                    "x": 100.0,
                    "y": 40.0,
                    "z": 100.0
                },
                "FKFKJBOPDFD": 700
            },
            "DMDBEFMKKOA": [
                {
                    "index": 1,
                    "MFHLPBDEMFE": {
                        "x": 47.0,
                        "y": 30.0,
                        "z": 45.0
                    },
                    "ACOECJHECPD": [
                        "Prop"
                    ],
                    "JEKHDMNHGHK": true,
                    "configID": 1003
                },
                {
                    "MFHLPBDEMFE": {
                        "x": -55.0,
                        "y": -9.0,
                        "z": -60.0
                    },
                    "NFKDDLKKMEJ": {
                        "x": 10.0,
                        "y": 20.0,
                        "z": 20.0
                    },
                    "ACOECJHECPD": [
                        "Ground"
                    ]
                },
                {
                    "MFHLPBDEMFE": {
                        "x": 35.0,
                        "y": -9.0,
                        "z": -60.0
                    },
                    "NFKDDLKKMEJ": {
                        "x": 10.0,
                        "y": 20.0,
                        "z": 20.0
                    },
                    "ACOECJHECPD": [
                        "Ground"
                    ]
                },
                {
                    "MFHLPBDEMFE": {
                        "x": -10.0,
                        "y": -14.0,
                        "z": -10.0
                    },
                    "NFKDDLKKMEJ": {
                        "x": 10.0,
                        "y": 30.0,
                        "z": 10.0
                    },
                    "ACOECJHECPD": [
                        "Ground"
                    ]
                },
                {
                    "MFHLPBDEMFE": {
                        "x": -35.0,
                        "y": -3.0,
                        "z": 35.0
                    },
                    "NFKDDLKKMEJ": {
                        "x": 10.0,
                        "y": 6.0,
                        "z": 10.0
                    },
                    "ACOECJHECPD": [
                        "Ground"
                    ]
                },
                {
                    "MFHLPBDEMFE": {
                        "x": -27.0,
                        "y": -5.0,
                        "z": 27.0
                    },
                    "NFKDDLKKMEJ": {
                        "x": 14.0,
                        "y": 10.0,
                        "z": 15.0
                    },
                    "ACOECJHECPD": [
                        "Ground"
                    ]
                },
                {
                    "MFHLPBDEMFE": {
                        "x": -16.0,
                        "y": -6.0,
                        "z": 20.0
                    },
                    "NFKDDLKKMEJ": {
                        "x": 20.0,
                        "y": 14.0,
                        "z": 20.0
                    },
                    "ACOECJHECPD": [
                        "Ground"
                    ]
                },
                {
                    "MFHLPBDEMFE": {
                        "y": -10.0,
                        "z": 12.0
                    },
                    "NFKDDLKKMEJ": {
                        "x": 25.0,
                        "y": 20.0,
                        "z": 25.0
                    },
                    "ACOECJHECPD": [
                        "Ground"
                    ]
                },
                {
                    "MFHLPBDEMFE": {
                        "x": 27.0,
                        "y": 24.0,
                        "z": -31.0
                    },
                    "NFKDDLKKMEJ": {
                        "x": 15.0,
                        "y": 5.0,
                        "z": 5.0
                    },
                    "ACOECJHECPD": [
                        "Ground"
                    ]
                },
                {
                    "MFHLPBDEMFE": {
                        "x": 20.0,
                        "y": 20.0,
                        "z": -21.0
                    },
                    "NFKDDLKKMEJ": {
                        "x": 20.0,
                        "y": 5.0,
                        "z": 5.0
                    },
                    "ACOECJHECPD": [
                        "Ground"
                    ]
                },
                {
                    "MFHLPBDEMFE": {
                        "x": 35.0,
                        "y": 6.0,
                        "z": -26.0
                    },
                    "NFKDDLKKMEJ": {
                        "x": 10.0,
                        "y": 5.0,
                        "z": 5.0
                    },
                    "ACOECJHECPD": [
                        "Ground"
                    ]
                },
                {
                    "MFHLPBDEMFE": {
                        "x": 35.0,
                        "y": 25.0,
                        "z": -10.0
                    },
                    "NFKDDLKKMEJ": {
                        "x": 10.0,
                        "y": 5.0,
                        "z": 5.0
                    },
                    "ACOECJHECPD": [
                        "Ground"
                    ]
                },
                {
                    "MFHLPBDEMFE": {
                        "x": 12.0,
                        "y": 12.0,
                        "z": -9.0
                    },
                    "NFKDDLKKMEJ": {
                        "x": 25.0,
                        "y": 5.0,
                        "z": 5.0
                    },
                    "ACOECJHECPD": [
                        "Ground"
                    ]
                },
                {
                    "MFHLPBDEMFE": {
                        "x": 27.0,
                        "y": 20.0,
                        "z": 1.0
                    },
                    "NFKDDLKKMEJ": {
                        "x": 15.0,
                        "y": 5.0,
                        "z": 5.0
                    },
                    "ACOECJHECPD": [
                        "Ground"
                    ]
                },
                {
                    "MFHLPBDEMFE": {
                        "x": 35.0,
                        "y": 2.0,
                        "z": 1.0
                    },
                    "NFKDDLKKMEJ": {
                        "x": 10.0,
                        "y": 5.0,
                        "z": 5.0
                    },
                    "ACOECJHECPD": [
                        "Ground"
                    ]
                },
                {
                    "MFHLPBDEMFE": {
                        "x": 12.0,
                        "y": 10.0,
                        "z": 11.0
                    },
                    "NFKDDLKKMEJ": {
                        "x": 25.0,
                        "y": 5.0,
                        "z": 5.0
                    },
                    "ACOECJHECPD": [
                        "Ground"
                    ]
                },
                {
                    "MFHLPBDEMFE": {
                        "x": -35.0,
                        "y": -10.0,
                        "z": -22.0
                    },
                    "NFKDDLKKMEJ": {
                        "x": 5.0,
                        "y": 20.0,
                        "z": 5.0
                    },
                    "ACOECJHECPD": [
                        "Ground"
                    ]
                },
                {
                    "MFHLPBDEMFE": {
                        "x": -45.0,
                        "y": -10.0,
                        "z": -15.0
                    },
                    "NFKDDLKKMEJ": {
                        "x": 5.0,
                        "y": 20.0,
                        "z": 5.0
                    },
                    "ACOECJHECPD": [
                        "Ground"
                    ]
                },
                {
                    "MFHLPBDEMFE": {
                        "x": -33.0,
                        "y": -6.0,
                        "z": -5.0
                    },
                    "NFKDDLKKMEJ": {
                        "x": 5.0,
                        "y": 14.0,
                        "z": 5.0
                    },
                    "ACOECJHECPD": [
                        "Ground"
                    ]
                },
                {
                    "MFHLPBDEMFE": {
                        "x": -47.0,
                        "y": -7.0,
                        "z": -5.0
                    },
                    "NFKDDLKKMEJ": {
                        "x": 5.0,
                        "y": 14.0,
                        "z": 5.0
                    },
                    "ACOECJHECPD": [
                        "Ground"
                    ]
                },
                {
                    "MFHLPBDEMFE": {
                        "x": -40.0,
                        "y": -9.0,
                        "z": 3.0
                    },
                    "NFKDDLKKMEJ": {
                        "x": 5.0,
                        "y": 20.0,
                        "z": 5.0
                    },
                    "ACOECJHECPD": [
                        "Ground"
                    ]
                },
                {
                    "MFHLPBDEMFE": {
                        "x": -27.0,
                        "y": -9.0,
                        "z": 6.0
                    },
                    "NFKDDLKKMEJ": {
                        "x": 5.0,
                        "y": 18.0,
                        "z": 5.0
                    },
                    "ACOECJHECPD": [
                        "Ground"
                    ]
                },
                {
                    "MFHLPBDEMFE": {
                        "x": -48.0,
                        "y": -8.0,
                        "z": 13.0
                    },
                    "NFKDDLKKMEJ": {
                        "x": 5.0,
                        "y": 16.0,
                        "z": 5.0
                    },
                    "ACOECJHECPD": [
                        "Ground"
                    ]
                },
                {
                    "MFHLPBDEMFE": {
                        "x": -36.0,
                        "y": -4.0,
                        "z": 17.0
                    },
                    "NFKDDLKKMEJ": {
                        "x": 5.0,
                        "y": 10.0,
                        "z": 5.0
                    },
                    "ACOECJHECPD": [
                        "Ground"
                    ]
                },
                {
                    "index": 2,
                    "MFHLPBDEMFE": {
                        "x": 45.0,
                        "y": 30.0,
                        "z": 50.0
                    },
                    "ACOECJHECPD": [
                        "Prop"
                    ],
                    "JEKHDMNHGHK": true,
                    "configID": 1004
                },
                {
                    "index": 3,
                    "MFHLPBDEMFE": {
                        "x": 13.0,
                        "y": 19.0,
                        "z": 21.0
                    },
                    "JEKHDMNHGHK": true,
                    "configID": 3006
                },
                {
                    "index": 4,
                    "MFHLPBDEMFE": {
                        "x": 54.0,
                        "y": 14.0,
                        "z": 89.0
                    },
                    "JEKHDMNHGHK": true,
                    "configID": 2003,
                    "NPFAJPCPINF": {
                        "y": 90.0
                    }
                },
                {
                    "index": 5,
                    "MFHLPBDEMFE": {
                        "x": 81.0,
                        "y": 28.0,
                        "z": 34.0
                    },
                    "JEKHDMNHGHK": true,
                    "configID": 1002
                },
                {
                    "index": 6,
                    "MFHLPBDEMFE": {
                        "x": 49.0,
                        "y": 11.0,
                        "z": 37.0
                    },
                    "JEKHDMNHGHK": true,
                    "configID": 3007
                },
                {
                    "index": 7,
                    "MFHLPBDEMFE": {
                        "x": 51.0,
                        "y": 20.0,
                        "z": 67.0
                    },
                    "JEKHDMNHGHK": true,
                    "configID": 2001
                },
                {
                    "index": 8,
                    "MFHLPBDEMFE": {
                        "x": 8.0,
                        "y": 19.0,
                        "z": 38.0
                    },
                    "JEKHDMNHGHK": true,
                    "configID": 3002
                },
                {
                    "index": 9,
                    "MFHLPBDEMFE": {
                        "x": 28.0,
                        "y": 21.0,
                        "z": 61.0
                    },
                    "JEKHDMNHGHK": true,
                    "configID": 1002
                },
                {
                    "index": 10,
                    "MFHLPBDEMFE": {
                        "x": 95.0,
                        "y": 17.0,
                        "z": 64.0
                    },
                    "JEKHDMNHGHK": true,
                    "configID": 3002
                },
                {
                    "index": 11,
                    "MFHLPBDEMFE": {
                        "x": 25.0,
                        "z": 68.0
                    },
                    "JEKHDMNHGHK": true,
                    "configID": 3002
                },
                {
                    "index": 12,
                    "MFHLPBDEMFE": {
                        "x": 69.0,
                        "y": 19.0,
                        "z": 84.0
                    },
                    "JEKHDMNHGHK": true,
                    "configID": 2003
                },
                {
                    "index": 13,
                    "MFHLPBDEMFE": {
                        "x": 48.0,
                        "z": 58.0
                    },
                    "JEKHDMNHGHK": true,
                    "configID": 3008
                },
                {
                    "index": 14,
                    "MFHLPBDEMFE": {
                        "x": 73.0,
                        "y": 19.0,
                        "z": 90.0
                    },
                    "JEKHDMNHGHK": true,
                    "configID": 2003,
                    "NPFAJPCPINF": {
                        "y": 270.0
                    }
                },
                {
                    "index": 15,
                    "MFHLPBDEMFE": {
                        "x": 82.0,
                        "y": 19.0,
                        "z": 79.0
                    },
                    "JEKHDMNHGHK": true,
                    "configID": 4010
                },
                {
                    "index": 16,
                    "MFHLPBDEMFE": {
                        "x": 60.0,
                        "y": 33.0,
                        "z": 35.0
                    },
                    "JEKHDMNHGHK": true,
                    "configID": 3007
                },
                {
                    "index": 17,
                    "MFHLPBDEMFE": {
                        "x": 28.0,
                        "y": 23.0,
                        "z": 61.0
                    },
                    "JEKHDMNHGHK": true,
                    "configID": 1002
                },
                {
                    "index": 18,
                    "MFHLPBDEMFE": {
                        "x": 75.0,
                        "y": 19.0,
                        "z": 45.0
                    },
                    "JEKHDMNHGHK": true,
                    "configID": 1002
                },
                {
                    "index": 19,
                    "MFHLPBDEMFE": {
                        "x": 10.0,
                        "y": 23.0,
                        "z": 40.0
                    },
                    "JEKHDMNHGHK": true,
                    "configID": 1002
                },
                {
                    "index": 20,
                    "MFHLPBDEMFE": {
                        "x": 11.0,
                        "y": 18.0,
                        "z": 1.0
                    },
                    "JEKHDMNHGHK": true,
                    "configID": 3001,
                    "NPFAJPCPINF": {
                        "y": 270.0
                    }
                },
                {
                    "index": 21,
                    "MFHLPBDEMFE": {
                        "x": 16.0,
                        "y": 20.0,
                        "z": 2.0
                    },
                    "JEKHDMNHGHK": true,
                    "configID": 1002
                },
                {
                    "index": 22,
                    "MFHLPBDEMFE": {
                        "x": 5.0,
                        "y": 20.0,
                        "z": 66.0
                    },
                    "JEKHDMNHGHK": true,
                    "configID": 3002
                },
                {
                    "index": 23,
                    "MFHLPBDEMFE": {
                        "x": 95.0,
                        "y": 27.0,
                        "z": 54.0
                    },
                    "JEKHDMNHGHK": true,
                    "configID": 3005,
                    "NPFAJPCPINF": {
                        "y": 270.0
                    }
                },
                {
                    "index": 24,
                    "MFHLPBDEMFE": {
                        "x": 33.0,
                        "y": 20.0,
                        "z": 2.0
                    },
                    "JEKHDMNHGHK": true,
                    "configID": 1002
                },
                {
                    "index": 25,
                    "MFHLPBDEMFE": {
                        "x": 75.0,
                        "y": 19.0,
                        "z": 75.0
                    },
                    "JEKHDMNHGHK": true,
                    "configID": 2003,
                    "NPFAJPCPINF": {
                        "y": 90.0
                    }
                },
                {
                    "index": 26,
                    "MFHLPBDEMFE": {
                        "x": 81.0,
                        "y": 20.0,
                        "z": 2.0
                    },
                    "JEKHDMNHGHK": true,
                    "configID": 1002
                },
                {
                    "index": 27,
                    "MFHLPBDEMFE": {
                        "x": 35.0,
                        "y": 10.0,
                        "z": 86.0
                    },
                    "JEKHDMNHGHK": true,
                    "configID": 1002
                },
                {
                    "index": 28,
                    "MFHLPBDEMFE": {
                        "x": 53.0,
                        "y": 18.0,
                        "z": 1.0
                    },
                    "JEKHDMNHGHK": true,
                    "configID": 3001,
                    "NPFAJPCPINF": {
                        "y": 270.0
                    }
                },
                {
                    "index": 29,
                    "MFHLPBDEMFE": {
                        "x": 30.0,
                        "y": 9.0,
                        "z": 90.0
                    },
                    "JEKHDMNHGHK": true,
                    "configID": 4006
                },
                {
                    "index": 30,
                    "MFHLPBDEMFE": {
                        "x": 7.0,
                        "y": 24.0,
                        "z": 67.0
                    },
                    "JEKHDMNHGHK": true,
                    "configID": 1002
                },
                {
                    "index": 31,
                    "MFHLPBDEMFE": {
                        "x": 30.0,
                        "y": 9.0,
                        "z": 85.0
                    },
                    "JEKHDMNHGHK": true,
                    "configID": 4007
                },
                {
                    "index": 32,
                    "MFHLPBDEMFE": {
                        "x": 7.0,
                        "y": 28.0,
                        "z": 67.0
                    },
                    "JEKHDMNHGHK": true,
                    "configID": 1002
                },
                {
                    "index": 33,
                    "MFHLPBDEMFE": {
                        "x": 49.0,
                        "y": 14.0,
                        "z": 84.0
                    },
                    "JEKHDMNHGHK": true,
                    "configID": 2003
                },
                {
                    "index": 34,
                    "MFHLPBDEMFE": {
                        "x": 95.0,
                        "y": 27.0,
                        "z": 32.0
                    },
                    "JEKHDMNHGHK": true,
                    "configID": 4009
                },
                {
                    "index": 35,
                    "MFHLPBDEMFE": {
                        "x": 25.0,
                        "y": 9.0,
                        "z": 33.0
                    },
                    "JEKHDMNHGHK": true,
                    "configID": 2002
                },
                {
                    "index": 36,
                    "MFHLPBDEMFE": {
                        "x": 77.0,
                        "y": 19.0,
                        "z": 47.0
                    },
                    "JEKHDMNHGHK": true,
                    "configID": 1002
                },
                {
                    "index": 37,
                    "MFHLPBDEMFE": {
                        "x": 28.0,
                        "y": 25.0,
                        "z": 61.0
                    },
                    "JEKHDMNHGHK": true,
                    "configID": 1002
                },
                {
                    "index": 38,
                    "MFHLPBDEMFE": {
                        "x": 46.0,
                        "y": 20.0,
                        "z": 67.0
                    },
                    "JEKHDMNHGHK": true,
                    "configID": 2001
                },
                {
                    "index": 39,
                    "MFHLPBDEMFE": {
                        "x": 95.0,
                        "y": 14.0,
                        "z": 27.0
                    },
                    "JEKHDMNHGHK": true,
                    "configID": 3002
                },
                {
                    "index": 40,
                    "MFHLPBDEMFE": {
                        "x": 28.0,
                        "y": 19.0,
                        "z": 61.0
                    },
                    "JEKHDMNHGHK": true,
                    "configID": 1002
                },
                {
                    "index": 41,
                    "MFHLPBDEMFE": {
                        "x": 90.0,
                        "y": 27.0,
                        "z": 54.0
                    },
                    "JEKHDMNHGHK": true,
                    "configID": 3005,
                    "NPFAJPCPINF": {
                        "y": 270.0
                    }
                },
                {
                    "index": 42,
                    "MFHLPBDEMFE": {
                        "x": 26.0,
                        "y": 17.0,
                        "z": 59.0
                    },
                    "JEKHDMNHGHK": true,
                    "configID": 3002
                },
                {
                    "index": 43,
                    "MFHLPBDEMFE": {
                        "x": 44.0,
                        "y": 14.0,
                        "z": 85.0
                    },
                    "JEKHDMNHGHK": true,
                    "configID": 3005,
                    "NPFAJPCPINF": {
                        "y": 90.0
                    }
                },
                {
                    "index": 44,
                    "MFHLPBDEMFE": {
                        "x": 47.0,
                        "y": 14.0,
                        "z": 91.0
                    },
                    "JEKHDMNHGHK": true,
                    "configID": 1002
                },
                {
                    "index": 45,
                    "MFHLPBDEMFE": {
                        "x": 48.0,
                        "z": 37.0
                    },
                    "JEKHDMNHGHK": true,
                    "configID": 3008
                },
                {
                    "index": 46,
                    "MFHLPBDEMFE": {
                        "x": 54.0,
                        "y": 14.0,
                        "z": 84.0
                    },
                    "JEKHDMNHGHK": true,
                    "configID": 2003,
                    "NPFAJPCPINF": {
                        "y": 90.0
                    }
                },
                {
                    "index": 47,
                    "MFHLPBDEMFE": {
                        "x": 20.0,
                        "y": 13.0,
                        "z": 65.0
                    },
                    "JEKHDMNHGHK": true,
                    "configID": 3006
                },
                {
                    "index": 48,
                    "MFHLPBDEMFE": {
                        "x": 10.0,
                        "y": 27.0,
                        "z": 40.0
                    },
                    "JEKHDMNHGHK": true,
                    "configID": 1002
                },
                {
                    "index": 49,
                    "MFHLPBDEMFE": {
                        "x": 98.0,
                        "y": 32.0,
                        "z": 44.0
                    },
                    "JEKHDMNHGHK": true,
                    "configID": 1002
                },
                {
                    "index": 50,
                    "MFHLPBDEMFE": {
                        "x": 84.0,
                        "z": 21.0
                    },
                    "JEKHDMNHGHK": true,
                    "configID": 3002
                },
                {
                    "index": 51,
                    "MFHLPBDEMFE": {
                        "x": 74.0,
                        "y": 19.0,
                        "z": 84.0
                    },
                    "JEKHDMNHGHK": true,
                    "configID": 2003
                },
                {
                    "index": 52,
                    "MFHLPBDEMFE": {
                        "x": 75.0,
                        "y": 19.0,
                        "z": 47.0
                    },
                    "JEKHDMNHGHK": true,
                    "configID": 1002
                },
                {
                    "index": 53,
                    "MFHLPBDEMFE": {
                        "x": 10.0,
                        "y": 21.0,
                        "z": 40.0
                    },
                    "JEKHDMNHGHK": true,
                    "configID": 1002
                },
                {
                    "index": 54,
                    "MFHLPBDEMFE": {
                        "x": 45.0,
                        "y": 14.0,
                        "z": 91.0
                    },
                    "JEKHDMNHGHK": true,
                    "configID": 1002
                },
                {
                    "index": 55,
                    "MFHLPBDEMFE": {
                        "x": 47.0,
                        "y": 14.0,
                        "z": 93.0
                    },
                    "JEKHDMNHGHK": true,
                    "configID": 1002
                },
                {
                    "index": 56,
                    "MFHLPBDEMFE": {
                        "x": 91.0,
                        "y": 13.0,
                        "z": 28.0
                    },
                    "JEKHDMNHGHK": true,
                    "configID": 1002
                },
                {
                    "index": 57,
                    "MFHLPBDEMFE": {
                        "x": 81.0,
                        "y": 19.0,
                        "z": 85.0
                    },
                    "JEKHDMNHGHK": true,
                    "configID": 1002
                },
                {
                    "index": 58,
                    "MFHLPBDEMFE": {
                        "x": 85.0,
                        "y": 13.0,
                        "z": 15.0
                    },
                    "JEKHDMNHGHK": true,
                    "configID": 2004,
                    "NPFAJPCPINF": {
                        "y": 180.0
                    }
                },
                {
                    "index": 59,
                    "MFHLPBDEMFE": {
                        "x": 31.0,
                        "y": 10.0,
                        "z": 86.0
                    },
                    "JEKHDMNHGHK": true,
                    "configID": 1002
                },
                {
                    "index": 60,
                    "MFHLPBDEMFE": {
                        "x": 7.0,
                        "y": 20.0,
                        "z": 67.0
                    },
                    "JEKHDMNHGHK": true,
                    "configID": 1002
                },
                {
                    "index": 61,
                    "MFHLPBDEMFE": {
                        "x": 96.0,
                        "y": 13.0,
                        "z": 30.0
                    },
                    "JEKHDMNHGHK": true,
                    "configID": 1002
                },
                {
                    "index": 62,
                    "MFHLPBDEMFE": {
                        "x": 78.0,
                        "y": 19.0,
                        "z": 89.0
                    },
                    "JEKHDMNHGHK": true,
                    "configID": 2003
                },
                {
                    "index": 63,
                    "MFHLPBDEMFE": {
                        "x": 6.0,
                        "y": 15.0,
                        "z": 56.0
                    },
                    "JEKHDMNHGHK": true,
                    "configID": 3004
                },
                {
                    "index": 64,
                    "MFHLPBDEMFE": {
                        "x": 62.0,
                        "y": 20.0,
                        "z": 2.0
                    },
                    "JEKHDMNHGHK": true,
                    "configID": 1002
                },
                {
                    "index": 65,
                    "MFHLPBDEMFE": {
                        "x": 90.0,
                        "y": 9.0,
                        "z": 54.0
                    },
                    "JEKHDMNHGHK": true,
                    "configID": 4009
                },
                {
                    "index": 66,
                    "MFHLPBDEMFE": {
                        "x": 78.0,
                        "y": 24.0,
                        "z": 95.0
                    },
                    "JEKHDMNHGHK": true,
                    "configID": 1002
                },
                {
                    "index": 67,
                    "MFHLPBDEMFE": {
                        "x": 91.0,
                        "y": 32.0,
                        "z": 44.0
                    },
                    "JEKHDMNHGHK": true,
                    "configID": 1002
                },
                {
                    "index": 68,
                    "MFHLPBDEMFE": {
                        "x": 10.0,
                        "y": 5.0,
                        "z": 43.0
                    },
                    "JEKHDMNHGHK": true,
                    "configID": 2004,
                    "NPFAJPCPINF": {
                        "y": 90.0
                    }
                },
                {
                    "index": 69,
                    "MFHLPBDEMFE": {
                        "x": 44.0,
                        "y": 29.0,
                        "z": 59.0
                    },
                    "JEKHDMNHGHK": true,
                    "configID": 3007
                },
                {
                    "index": 70,
                    "MFHLPBDEMFE": {
                        "x": 25.0,
                        "y": 10.0,
                        "z": 28.0
                    },
                    "JEKHDMNHGHK": true,
                    "configID": 2004,
                    "NPFAJPCPINF": {
                        "y": 180.0
                    }
                },
                {
                    "index": 71,
                    "MFHLPBDEMFE": {
                        "x": 77.0,
                        "y": 20.0,
                        "z": 2.0
                    },
                    "JEKHDMNHGHK": true,
                    "configID": 1002
                },
                {
                    "index": 72,
                    "MFHLPBDEMFE": {
                        "x": 76.0,
                        "y": 17.0,
                        "z": 66.0
                    },
                    "JEKHDMNHGHK": true,
                    "configID": 1002
                },
                {
                    "index": 73,
                    "MFHLPBDEMFE": {
                        "x": 94.0,
                        "y": 32.0,
                        "z": 44.0
                    },
                    "JEKHDMNHGHK": true,
                    "configID": 1002
                },
                {
                    "index": 74,
                    "MFHLPBDEMFE": {
                        "x": 20.0,
                        "y": 15.0,
                        "z": 23.0
                    },
                    "JEKHDMNHGHK": true,
                    "configID": 2001
                },
                {
                    "index": 75,
                    "MFHLPBDEMFE": {
                        "x": 45.0,
                        "y": 14.0,
                        "z": 93.0
                    },
                    "JEKHDMNHGHK": true,
                    "configID": 1002
                },
                {
                    "index": 76,
                    "MFHLPBDEMFE": {
                        "x": 49.0,
                        "y": 14.0,
                        "z": 95.0
                    },
                    "JEKHDMNHGHK": true,
                    "configID": 3005,
                    "NPFAJPCPINF": {
                        "y": 270.0
                    }
                },
                {
                    "index": 77,
                    "MFHLPBDEMFE": {
                        "x": 25.0,
                        "y": 14.0,
                        "z": 23.0
                    },
                    "JEKHDMNHGHK": true,
                    "configID": 2002
                },
                {
                    "index": 78,
                    "MFHLPBDEMFE": {
                        "x": 25.0,
                        "y": 5.0,
                        "z": 38.0
                    },
                    "JEKHDMNHGHK": true,
                    "configID": 2004,
                    "NPFAJPCPINF": {
                        "y": 180.0
                    }
                },
                {
                    "index": 79,
                    "MFHLPBDEMFE": {
                        "x": 48.0,
                        "y": 29.0,
                        "z": 37.0
                    },
                    "JEKHDMNHGHK": true,
                    "configID": 3007
                },
                {
                    "index": 80,
                    "MFHLPBDEMFE": {
                        "x": 79.0,
                        "y": 19.0,
                        "z": 84.0
                    },
                    "JEKHDMNHGHK": true,
                    "configID": 2003
                },
                {
                    "index": 81,
                    "MFHLPBDEMFE": {
                        "x": 79.0,
                        "y": 19.0,
                        "z": 95.0
                    },
                    "JEKHDMNHGHK": true,
                    "configID": 2004,
                    "NPFAJPCPINF": {
                        "y": 270.0
                    }
                },
                {
                    "index": 82,
                    "MFHLPBDEMFE": {
                        "x": 70.0,
                        "y": 18.0,
                        "z": 1.0
                    },
                    "JEKHDMNHGHK": true,
                    "configID": 3001,
                    "NPFAJPCPINF": {
                        "y": 270.0
                    }
                },
                {
                    "index": 83,
                    "MFHLPBDEMFE": {
                        "x": 35.0,
                        "y": 9.0,
                        "z": 85.0
                    },
                    "JEKHDMNHGHK": true,
                    "configID": 4007
                },
                {
                    "index": 84,
                    "MFHLPBDEMFE": {
                        "x": 7.0,
                        "y": 22.0,
                        "z": 67.0
                    },
                    "JEKHDMNHGHK": true,
                    "configID": 1002
                },
                {
                    "index": 85,
                    "MFHLPBDEMFE": {
                        "x": 80.0,
                        "y": 19.0,
                        "z": 44.0
                    },
                    "JEKHDMNHGHK": true,
                    "configID": 4009
                },
                {
                    "index": 86,
                    "MFHLPBDEMFE": {
                        "x": 25.0,
                        "y": 4.0,
                        "z": 43.0
                    },
                    "JEKHDMNHGHK": true,
                    "configID": 2002
                },
                {
                    "index": 87,
                    "MFHLPBDEMFE": {
                        "x": 7.0,
                        "y": 26.0,
                        "z": 67.0
                    },
                    "JEKHDMNHGHK": true,
                    "configID": 1002
                },
                {
                    "index": 88,
                    "MFHLPBDEMFE": {
                        "x": 20.0,
                        "y": 5.0,
                        "z": 43.0
                    },
                    "JEKHDMNHGHK": true,
                    "configID": 2004,
                    "NPFAJPCPINF": {
                        "y": 270.0
                    }
                },
                {
                    "index": 89,
                    "MFHLPBDEMFE": {
                        "x": 78.0,
                        "y": 24.0,
                        "z": 89.0
                    },
                    "JEKHDMNHGHK": true,
                    "configID": 1002
                },
                {
                    "index": 90,
                    "MFHLPBDEMFE": {
                        "x": 91.0,
                        "y": 13.0,
                        "z": 30.0
                    },
                    "JEKHDMNHGHK": true,
                    "configID": 1002
                },
                {
                    "index": 91,
                    "MFHLPBDEMFE": {
                        "x": 81.0,
                        "y": 19.0,
                        "z": 87.0
                    },
                    "JEKHDMNHGHK": true,
                    "configID": 1002
                },
                {
                    "index": 92,
                    "MFHLPBDEMFE": {
                        "x": 37.0,
                        "y": 18.0,
                        "z": 1.0
                    },
                    "JEKHDMNHGHK": true,
                    "configID": 3001,
                    "NPFAJPCPINF": {
                        "y": 270.0
                    }
                },
                {
                    "index": 93,
                    "MFHLPBDEMFE": {
                        "x": 77.0,
                        "y": 19.0,
                        "z": 45.0
                    },
                    "JEKHDMNHGHK": true,
                    "configID": 1002
                },
                {
                    "index": 94,
                    "MFHLPBDEMFE": {
                        "x": 10.0,
                        "y": 19.0,
                        "z": 40.0
                    },
                    "JEKHDMNHGHK": true,
                    "configID": 1002
                },
                {
                    "index": 95,
                    "MFHLPBDEMFE": {
                        "x": 25.0,
                        "z": 48.0
                    },
                    "JEKHDMNHGHK": true,
                    "configID": 2004,
                    "NPFAJPCPINF": {
                        "y": 180.0
                    }
                },
                {
                    "index": 96,
                    "MFHLPBDEMFE": {
                        "x": 5.0,
                        "z": 43.0
                    },
                    "JEKHDMNHGHK": true,
                    "configID": 2004,
                    "NPFAJPCPINF": {
                        "y": 90.0
                    }
                },
                {
                    "index": 97,
                    "MFHLPBDEMFE": {
                        "x": 79.0,
                        "y": 17.0,
                        "z": 66.0
                    },
                    "JEKHDMNHGHK": true,
                    "configID": 1002
                },
                {
                    "index": 98,
                    "MFHLPBDEMFE": {
                        "x": 66.0,
                        "y": 20.0,
                        "z": 2.0
                    },
                    "JEKHDMNHGHK": true,
                    "configID": 1002
                },
                {
                    "index": 99,
                    "MFHLPBDEMFE": {
                        "x": 49.0,
                        "y": 14.0,
                        "z": 85.0
                    },
                    "JEKHDMNHGHK": true,
                    "configID": 3005
                },
                {
                    "index": 100,
                    "MFHLPBDEMFE": {
                        "x": 44.0,
                        "y": 14.0,
                        "z": 90.0
                    },
                    "JEKHDMNHGHK": true,
                    "configID": 2003
                },
                {
                    "index": 101,
                    "MFHLPBDEMFE": {
                        "x": 79.0,
                        "y": 20.0,
                        "z": 2.0
                    },
                    "JEKHDMNHGHK": true,
                    "configID": 1002
                },
                {
                    "index": 102,
                    "MFHLPBDEMFE": {
                        "x": 64.0,
                        "y": 20.0,
                        "z": 2.0
                    },
                    "JEKHDMNHGHK": true,
                    "configID": 1002
                },
                {
                    "index": 103,
                    "MFHLPBDEMFE": {
                        "x": 85.0,
                        "y": 18.0,
                        "z": 10.0
                    },
                    "JEKHDMNHGHK": true,
                    "configID": 2005
                },
                {
                    "index": 104,
                    "MFHLPBDEMFE": {
                        "x": 84.0,
                        "y": 18.0
                    },
                    "JEKHDMNHGHK": true,
                    "configID": 3001,
                    "NPFAJPCPINF": {
                        "y": 270.0
                    }
                },
                {
                    "index": 105,
                    "MFHLPBDEMFE": {
                        "x": 68.0,
                        "y": 19.0,
                        "z": 80.0
                    },
                    "JEKHDMNHGHK": true,
                    "configID": 2003,
                    "NPFAJPCPINF": {
                        "y": 90.0
                    }
                },
                {
                    "index": 106,
                    "MFHLPBDEMFE": {
                        "x": 17.0,
                        "y": 10.0,
                        "z": 70.0
                    },
                    "JEKHDMNHGHK": true,
                    "configID": 3006
                },
                {
                    "index": 107,
                    "MFHLPBDEMFE": {
                        "x": 48.0,
                        "y": 25.0,
                        "z": 67.0
                    },
                    "JEKHDMNHGHK": true,
                    "configID": 1001
                },
                {
                    "index": 108,
                    "MFHLPBDEMFE": {
                        "x": 22.0,
                        "y": 5.0,
                        "z": 94.0
                    },
                    "JEKHDMNHGHK": true,
                    "configID": 1002
                },
                {
                    "index": 109,
                    "MFHLPBDEMFE": {
                        "x": 96.0,
                        "y": 13.0,
                        "z": 28.0
                    },
                    "JEKHDMNHGHK": true,
                    "configID": 1002
                },
                {
                    "index": 110,
                    "MFHLPBDEMFE": {
                        "x": 44.0,
                        "y": 14.0,
                        "z": 84.0
                    },
                    "JEKHDMNHGHK": true,
                    "configID": 2003
                },
                {
                    "index": 111,
                    "MFHLPBDEMFE": {
                        "x": 63.0,
                        "y": 19.0,
                        "z": 94.0
                    },
                    "JEKHDMNHGHK": true,
                    "configID": 2003,
                    "NPFAJPCPINF": {
                        "y": 180.0
                    }
                },
                {
                    "index": 112,
                    "MFHLPBDEMFE": {
                        "x": 81.0,
                        "y": 19.0,
                        "z": 79.0
                    },
                    "JEKHDMNHGHK": true,
                    "configID": 2003,
                    "NPFAJPCPINF": {
                        "y": 90.0
                    }
                },
                {
                    "index": 113,
                    "MFHLPBDEMFE": {
                        "x": 25.0,
                        "y": 5.0,
                        "z": 93.0
                    },
                    "JEKHDMNHGHK": true,
                    "configID": 2004,
                    "NPFAJPCPINF": {
                        "y": 90.0
                    }
                },
                {
                    "index": 114,
                    "MFHLPBDEMFE": {
                        "x": 13.0,
                        "y": 20.0,
                        "z": 56.0
                    },
                    "JEKHDMNHGHK": true,
                    "configID": 2002
                },
                {
                    "index": 115,
                    "MFHLPBDEMFE": {
                        "x": 80.0,
                        "y": 27.0,
                        "z": 32.0
                    },
                    "JEKHDMNHGHK": true,
                    "configID": 3006
                },
                {
                    "index": 116,
                    "MFHLPBDEMFE": {
                        "x": 85.0,
                        "y": 19.0,
                        "z": 5.0
                    },
                    "JEKHDMNHGHK": true,
                    "configID": 2002
                },
                {
                    "index": 117,
                    "MFHLPBDEMFE": {
                        "x": 47.0,
                        "y": 20.0,
                        "z": 2.0
                    },
                    "JEKHDMNHGHK": true,
                    "configID": 1002
                },
                {
                    "index": 118,
                    "MFHLPBDEMFE": {
                        "x": 48.0,
                        "y": 11.0,
                        "z": 57.0
                    },
                    "JEKHDMNHGHK": true,
                    "configID": 3007
                },
                {
                    "index": 119,
                    "MFHLPBDEMFE": {
                        "x": 8.0,
                        "y": 13.0,
                        "z": 49.0
                    },
                    "JEKHDMNHGHK": true,
                    "configID": 5003
                },
                {
                    "index": 120,
                    "MFHLPBDEMFE": {
                        "x": 29.0,
                        "y": 20.0,
                        "z": 2.0
                    },
                    "JEKHDMNHGHK": true,
                    "configID": 1002
                },
                {
                    "index": 121,
                    "MFHLPBDEMFE": {
                        "x": 85.0,
                        "y": 31.0,
                        "z": 22.0
                    },
                    "JEKHDMNHGHK": true,
                    "configID": 4008
                },
                {
                    "index": 122,
                    "MFHLPBDEMFE": {
                        "x": 49.0,
                        "y": 20.0,
                        "z": 2.0
                    },
                    "JEKHDMNHGHK": true,
                    "configID": 1002
                },
                {
                    "index": 123,
                    "MFHLPBDEMFE": {
                        "x": 39.0,
                        "y": 10.0,
                        "z": 85.0
                    },
                    "JEKHDMNHGHK": true,
                    "configID": 2004,
                    "NPFAJPCPINF": {
                        "y": 90.0
                    }
                },
                {
                    "index": 124,
                    "MFHLPBDEMFE": {
                        "x": 95.0,
                        "y": 18.0,
                        "z": 39.0
                    },
                    "JEKHDMNHGHK": true,
                    "configID": 3006
                },
                {
                    "index": 125,
                    "MFHLPBDEMFE": {
                        "x": 78.0,
                        "y": 24.0,
                        "z": 97.0
                    },
                    "JEKHDMNHGHK": true,
                    "configID": 1002
                },
                {
                    "index": 126,
                    "MFHLPBDEMFE": {
                        "x": 78.0,
                        "y": 19.0,
                        "z": 95.0
                    },
                    "JEKHDMNHGHK": true,
                    "configID": 2003,
                    "NPFAJPCPINF": {
                        "y": 90.0
                    }
                },
                {
                    "index": 127,
                    "MFHLPBDEMFE": {
                        "x": 17.0,
                        "y": 15.0,
                        "z": 40.0
                    },
                    "JEKHDMNHGHK": true,
                    "configID": 3004
                },
                {
                    "index": 128,
                    "MFHLPBDEMFE": {
                        "x": 49.0,
                        "y": 14.0,
                        "z": 90.0
                    },
                    "JEKHDMNHGHK": true,
                    "configID": 2003,
                    "NPFAJPCPINF": {
                        "y": 90.0
                    }
                },
                {
                    "index": 129,
                    "MFHLPBDEMFE": {
                        "x": 31.0,
                        "y": 20.0,
                        "z": 2.0
                    },
                    "JEKHDMNHGHK": true,
                    "configID": 1002
                },
                {
                    "index": 130,
                    "MFHLPBDEMFE": {
                        "x": 15.0,
                        "y": 9.0,
                        "z": 43.0
                    },
                    "JEKHDMNHGHK": true,
                    "configID": 2002
                },
                {
                    "index": 131,
                    "MFHLPBDEMFE": {
                        "x": 28.0,
                        "y": 17.0,
                        "z": 61.0
                    },
                    "JEKHDMNHGHK": true,
                    "configID": 1002
                },
                {
                    "index": 132,
                    "MFHLPBDEMFE": {
                        "x": 78.0,
                        "y": 24.0,
                        "z": 93.0
                    },
                    "JEKHDMNHGHK": true,
                    "configID": 1002
                },
                {
                    "index": 133,
                    "MFHLPBDEMFE": {
                        "x": 18.0,
                        "y": 20.0,
                        "z": 2.0
                    },
                    "JEKHDMNHGHK": true,
                    "configID": 1002
                },
                {
                    "index": 134,
                    "MFHLPBDEMFE": {
                        "x": 58.0,
                        "y": 14.0,
                        "z": 95.0
                    },
                    "JEKHDMNHGHK": true,
                    "configID": 2004,
                    "NPFAJPCPINF": {
                        "y": 90.0
                    }
                },
                {
                    "index": 135,
                    "MFHLPBDEMFE": {
                        "x": 82.0,
                        "y": 17.0,
                        "z": 66.0
                    },
                    "JEKHDMNHGHK": true,
                    "configID": 1002
                },
                {
                    "index": 136,
                    "MFHLPBDEMFE": {
                        "x": 51.0,
                        "y": 30.0,
                        "z": 51.0
                    },
                    "JEKHDMNHGHK": true,
                    "configID": 3008
                },
                {
                    "index": 137,
                    "MFHLPBDEMFE": {
                        "x": 32.0,
                        "y": 22.0,
                        "z": 70.0
                    },
                    "JEKHDMNHGHK": true,
                    "configID": 3007
                },
                {
                    "index": 138,
                    "MFHLPBDEMFE": {
                        "x": 21.0,
                        "y": 18.0,
                        "z": 1.0
                    },
                    "JEKHDMNHGHK": true,
                    "configID": 3001,
                    "NPFAJPCPINF": {
                        "y": 270.0
                    }
                },
                {
                    "index": 139,
                    "MFHLPBDEMFE": {
                        "x": 33.0,
                        "y": 10.0,
                        "z": 86.0
                    },
                    "JEKHDMNHGHK": true,
                    "configID": 1002
                },
                {
                    "index": 140,
                    "MFHLPBDEMFE": {
                        "x": 68.0,
                        "y": 19.0,
                        "z": 94.0
                    },
                    "JEKHDMNHGHK": true,
                    "configID": 2003,
                    "NPFAJPCPINF": {
                        "y": 180.0
                    }
                },
                {
                    "index": 141,
                    "MFHLPBDEMFE": {
                        "x": 5.0,
                        "y": 15.0,
                        "z": 66.0
                    },
                    "JEKHDMNHGHK": true,
                    "configID": 4003
                },
                {
                    "index": 142,
                    "MFHLPBDEMFE": {
                        "x": 78.0,
                        "y": 19.0,
                        "z": 90.0
                    },
                    "JEKHDMNHGHK": true,
                    "configID": 2003,
                    "NPFAJPCPINF": {
                        "y": 90.0
                    }
                },
                {
                    "index": 143,
                    "MFHLPBDEMFE": {
                        "x": 45.0,
                        "y": 20.0,
                        "z": 2.0
                    },
                    "JEKHDMNHGHK": true,
                    "configID": 1002
                },
                {
                    "index": 144,
                    "MFHLPBDEMFE": {
                        "x": 20.0,
                        "z": 85.0
                    },
                    "JEKHDMNHGHK": true,
                    "configID": 2004
                },
                {
                    "index": 145,
                    "MFHLPBDEMFE": {
                        "x": 10.0,
                        "y": 25.0,
                        "z": 40.0
                    },
                    "JEKHDMNHGHK": true,
                    "configID": 1002
                },
                {
                    "index": 146,
                    "MFHLPBDEMFE": {
                        "x": 86.0,
                        "y": 27.0,
                        "z": 56.0
                    },
                    "JEKHDMNHGHK": true,
                    "configID": 5003
                },
                {
                    "index": 147,
                    "MFHLPBDEMFE": {
                        "x": 30.0,
                        "y": 9.0,
                        "z": 95.0
                    },
                    "JEKHDMNHGHK": true,
                    "configID": 4006
                },
                {
                    "index": 148,
                    "MFHLPBDEMFE": {
                        "x": 83.0,
                        "y": 19.0,
                        "z": 85.0
                    },
                    "JEKHDMNHGHK": true,
                    "configID": 2003,
                    "NPFAJPCPINF": {
                        "y": 90.0
                    }
                },
                {
                    "index": 149,
                    "MFHLPBDEMFE": {
                        "x": 96.0,
                        "y": 19.0,
                        "z": 41.0
                    },
                    "JEKHDMNHGHK": true,
                    "configID": 1002
                },
                {
                    "index": 150,
                    "MFHLPBDEMFE": {
                        "x": 78.0,
                        "y": 24.0,
                        "z": 91.0
                    },
                    "JEKHDMNHGHK": true,
                    "configID": 1002
                },
                {
                    "index": 151,
                    "MFHLPBDEMFE": {
                        "x": 93.0,
                        "y": 13.0,
                        "z": 27.0
                    },
                    "JEKHDMNHGHK": true,
                    "configID": 4010,
                    "NPFAJPCPINF": {
                        "y": 90.0
                    }
                },
                {
                    "index": 152,
                    "MFHLPBDEMFE": {
                        "x": 76.0,
                        "y": 19.0,
                        "z": 79.0
                    },
                    "JEKHDMNHGHK": true,
                    "configID": 4010
                },
                {
                    "index": 153,
                    "MFHLPBDEMFE": {
                        "x": 85.0,
                        "y": 19.0,
                        "z": 44.0
                    },
                    "JEKHDMNHGHK": true,
                    "configID": 4009
                },
                {
                    "index": 154,
                    "MFHLPBDEMFE": {
                        "x": 21.0,
                        "y": 15.0,
                        "z": 54.0
                    },
                    "JEKHDMNHGHK": true,
                    "configID": 3003
                },
                {
                    "index": 155,
                    "MFHLPBDEMFE": {
                        "x": 15.0,
                        "y": 10.0,
                        "z": 48.0
                    },
                    "JEKHDMNHGHK": true,
                    "configID": 2001
                }
            ]
        }
    ]
}