{
    "id": 141,
    "stageMatureEvents": [
        "Play_Amb_Scene_Homeworld_Interior"
    ],
    "stageExitEvents": [
        "Stop_Amb_Scene_Homeworld_Interior",
        "State_Music_NonCombat"
    ],
    "stateValue": "State_Dungeon_DreamIsland_Mona01",
    "EDGKEHCFEFC": {
        "text": "Play_Music_Dungeon"
    },
    "FJBGDAMGLNA": {
        "text": "Stop_Music_Dungeon"
    }
}