{
    "name": "Char_Skill_32016",
    "LCAAFCBKGHI": {
        "476224977": {
            "$type": "GCGDeclaredValueElement",
            "type": "Element",
            "ratio": "GCG_ELEMENT_HYDRO"
        }
    }
}