{
    "BigWorld_1_-1_Ljxs_Inside_Vd": {
        "$type": "ConfigShapePolygon",
        "polygonConfigPath": "BigWorld_1_-1_Ljxs_Inside_Vd"
    },
    "BigWorld_1_-1_Ljxs_Outside_Vd": {
        "$type": "ConfigShapePolygon",
        "polygonConfigPath": "BigWorld_1_-1_Ljxs_Outside_Vd"
    }
}