{
    "DAPLEKMCBMB": [
        {
            "name": "Character_Xiangling_E_Normal",
            "IOMFAGOGAAJ": [
                {
                    "BMEPDFGOOCP": {
                        "$type": "GcgPredictByNot",
                        "BMEPDFGOOCP": {
                            "$type": "GcgPredictHasAttackTarget",
                            "KEACJLNKCHK": {
                                "target": "MainTarget",
                                "ECAIOKALINJ": "ActorOppoCamp"
                            }
                        }
                    },
                    "PIBJPDLMPKJ": 0.4000000059604645,
                    "actionGroups": [
                        {
                            "actions": [
                                {
                                    "$type": "GcgBehaviourFireEffect",
                                    "KEACJLNKCHK": {
                                        "target": "Actor",
                                        "BPJDFFOHAEA": true
                                    },
                                    "effectName": "Eff_Gcg_Common_ElementalArt_Cast",
                                    "KOGELNIBFMB": "",
                                    "GGPHPGIOHIC": "",
                                    "BFEBMINFJID": {
                                        "$type": "GcgBornRotationFollow"
                                    }
                                }
                            ]
                        }
                    ]
                },
                {
                    "BMEPDFGOOCP": {
                        "$type": "GcgPredictHasAttackTarget",
                        "KEACJLNKCHK": {
                            "target": "MainTarget",
                            "ECAIOKALINJ": "ActorOppoCamp"
                        }
                    },
                    "actionGroups": [
                        {
                            "actions": [
                                {
                                    "$type": "GcgBehaviourRunMoveScript",
                                    "DPLGBNHILIE": "GcgMotion_Skill_A_Test_01",
                                    "IOOMGNCKOAD": "",
                                    "JOLPHOFCPAK": {
                                        "target": "Actor"
                                    },
                                    "KEACJLNKCHK": {
                                        "target": "MainTarget",
                                        "ECAIOKALINJ": "ActorOppoCamp",
                                        "JOMFBIJLDBB": [
                                            "GCG_TOKEN_HP"
                                        ]
                                    },
                                    "EIEMNAJKNCJ": true,
                                    "FBHHNLPKBNG": 0.5,
                                    "GNDGFAABMPL": true
                                },
                                {
                                    "$type": "GcgBehaviourSwitchOnCardLoopEffect",
                                    "KEACJLNKCHK": {
                                        "target": "Actor"
                                    }
                                },
                                {
                                    "$type": "GcgBehaviourTriggerBehaviour",
                                    "AFOCBEHOHKC": "CommonBehaviour",
                                    "ODCJHDNCLII": "OnAttack"
                                }
                            ]
                        }
                    ]
                }
            ],
            "DELOACENBLE": [
                {
                    "actionGroups": [
                        {
                            "actions": [
                                {
                                    "$type": "GcgBehaviourShakeScreen",
                                    "KEACJLNKCHK": {
                                        "target": "ContextTarget"
                                    },
                                    "FONIHNAMJML": "Common_ShakeScreen_Test_E"
                                },
                                {
                                    "$type": "GcgBehaviourRunMoveScript",
                                    "DPLGBNHILIE": "GcgMotion_Hit04_02",
                                    "IOOMGNCKOAD": "",
                                    "JOLPHOFCPAK": {
                                        "target": "ContextTarget"
                                    },
                                    "KEACJLNKCHK": {
                                        "target": "Actor"
                                    },
                                    "GNDGFAABMPL": true
                                },
                                {
                                    "$type": "GcgBehaviourSwitchOnCardLoopEffect",
                                    "KEACJLNKCHK": {
                                        "target": "Actor"
                                    },
                                    "GFKOKIKOMNA": true
                                },
                                {
                                    "$type": "GcgBehaviourTriggerBehaviour",
                                    "AFOCBEHOHKC": "CommonBehaviour",
                                    "ODCJHDNCLII": "OnBeingHit"
                                }
                            ]
                        }
                    ]
                }
            ]
        },
        {
            "name": "Character_Xiangling_Q_Normal",
            "IOMFAGOGAAJ": [
                {
                    "PIBJPDLMPKJ": 0.44999998807907104,
                    "actionGroups": [
                        {
                            "actions": [
                                {
                                    "$type": "GcgBehaviourSwitchOnCardLoopEffect",
                                    "KEACJLNKCHK": {
                                        "target": "Actor"
                                    }
                                },
                                {
                                    "$type": "GcgBehaviourFireEffect",
                                    "KEACJLNKCHK": {
                                        "target": "Actor"
                                    },
                                    "effectName": "Eff_Gcg_Common_ElementalBurst_NormalCharge",
                                    "KOGELNIBFMB": "",
                                    "GGPHPGIOHIC": "",
                                    "BFEBMINFJID": {
                                        "$type": "GcgBornRotationFollow"
                                    }
                                }
                            ]
                        }
                    ]
                },
                {
                    "PIBJPDLMPKJ": 2.7799999713897705,
                    "actionGroups": [
                        {
                            "actions": [
                                {
                                    "$type": "GcgBehaviourFireEffectBullet",
                                    "effectName": "Eff_Gcg_Avatar_Xiangling_ElementalBurst",
                                    "IKMFOLAIPCF": true,
                                    "EIEMNAJKNCJ": true,
                                    "GBFHLLMDNDM": {
                                        "target": "Actor"
                                    },
                                    "IFEOMJOIGAL": {
                                        "target": "MainTarget"
                                    },
                                    "BFEBMINFJID": {
                                        "$type": "GcgBornRotationLookAtTarget",
                                        "KEACJLNKCHK": {
                                            "target": "MainTarget"
                                        }
                                    },
                                    "DPLGBNHILIE": "Eff_Gcg_Motion_Avatar_Xiangling_ElementBurst",
                                    "IOOMGNCKOAD": "",
                                    "JDGHDEKLCPG": [
                                        {
                                            "$type": "GcgBehaviourEventDestroy",
                                            "LPDGLAMNADD": "OnHit"
                                        }
                                    ]
                                },
                                {
                                    "$type": "GcgBehaviourTriggerAudioEvent",
                                    "KEACJLNKCHK": {
                                        "target": "Actor"
                                    },
                                    "eventName": {
                                        "text": "Play_vfx_GCG_Avatar_Xiangling_elementalBurst_Normal"
                                    }
                                }
                            ]
                        }
                    ]
                }
            ],
            "DELOACENBLE": [
                {
                    "PIBJPDLMPKJ": 0.05000000074505806,
                    "actionGroups": [
                        {
                            "actions": [
                                {
                                    "$type": "GcgBehaviourFireEffect",
                                    "KEACJLNKCHK": {
                                        "target": "ContextTarget"
                                    },
                                    "effectName": "Eff_Gcg_Avatar_Xiangling_ElementalBurst_Hit",
                                    "KOGELNIBFMB": "",
                                    "GGPHPGIOHIC": "",
                                    "BFEBMINFJID": {
                                        "$type": "GcgBornRotationLookAtTarget",
                                        "KEACJLNKCHK": {
                                            "target": "Actor"
                                        }
                                    }
                                },
                                {
                                    "$type": "GcgBehaviourRunMoveScript",
                                    "DPLGBNHILIE": "GcgMotion_Hit04_03",
                                    "IOOMGNCKOAD": "",
                                    "JOLPHOFCPAK": {
                                        "target": "ContextTarget"
                                    },
                                    "KEACJLNKCHK": {
                                        "target": "Actor"
                                    },
                                    "GNDGFAABMPL": true
                                }
                            ]
                        }
                    ]
                },
                {
                    "PIBJPDLMPKJ": 0.5,
                    "actionGroups": [
                        {
                            "actions": [
                                {
                                    "$type": "GcgBehaviourShakeScreen",
                                    "KEACJLNKCHK": {
                                        "target": "ContextTarget"
                                    },
                                    "FONIHNAMJML": "Common_ShakeScreen_Test_E"
                                }
                            ]
                        }
                    ]
                },
                {
                    "actionGroups": [
                        {
                            "actions": [
                                {
                                    "$type": "GcgBehaviourSwitchOnCardLoopEffect",
                                    "KEACJLNKCHK": {
                                        "target": "Actor"
                                    },
                                    "GFKOKIKOMNA": true
                                }
                            ]
                        }
                    ]
                }
            ]
        },
        {
            "name": "Character_Xiangling_Xuanhuolun",
            "IOMFAGOGAAJ": [
                {
                    "PIBJPDLMPKJ": 2.7799999713897705,
                    "actionGroups": [
                        {
                            "actions": [
                                {
                                    "$type": "GcgBehaviourFireEffect",
                                    "KEACJLNKCHK": {
                                        "target": "Actor"
                                    },
                                    "effectName": "Eff_Gcg_Avatar_Xiangling_ElementalBurst_BS",
                                    "KOGELNIBFMB": "",
                                    "GGPHPGIOHIC": "",
                                    "BFEBMINFJID": {
                                        "$type": "GcgBornRotationFollow"
                                    }
                                },
                                {
                                    "$type": "GcgBehaviourFireEffectBullet",
                                    "effectName": "Eff_Gcg_Avatar_Xiangling_ElementalBurst",
                                    "IKMFOLAIPCF": true,
                                    "EIEMNAJKNCJ": true,
                                    "GBFHLLMDNDM": {
                                        "target": "Actor"
                                    },
                                    "IFEOMJOIGAL": {
                                        "target": "MainTarget"
                                    },
                                    "BFEBMINFJID": {
                                        "$type": "GcgBornRotationLookAtTarget",
                                        "KEACJLNKCHK": {
                                            "target": "MainTarget"
                                        }
                                    },
                                    "DPLGBNHILIE": "Eff_Gcg_Motion_Avatar_Xiangling_ElementBurst",
                                    "IOOMGNCKOAD": "",
                                    "JDGHDEKLCPG": [
                                        {
                                            "$type": "GcgBehaviourEventDestroy",
                                            "LPDGLAMNADD": "OnHit"
                                        }
                                    ]
                                }
                            ]
                        }
                    ]
                }
            ],
            "DELOACENBLE": [
                {
                    "BMEPDFGOOCP": {
                        "$type": "GcgPredictByAnd",
                        "OPOHEEGHIAH": [
                            {
                                "$type": "GcgPredictByAttackSkill",
                                "JILDLKOLCID": [
                                    101,
                                    102,
                                    103,
                                    104,
                                    105,
                                    106,
                                    107,
                                    108,
                                    109,
                                    110,
                                    111,
                                    112,
                                    113,
                                    114,
                                    115,
                                    116,
                                    117
                                ]
                            },
                            {
                                "$type": "GcgPredictByTarget",
                                "KEACJLNKCHK": {
                                    "target": "MainTarget",
                                    "ECAIOKALINJ": "ActorOppoCamp"
                                }
                            }
                        ]
                    },
                    "actionGroups": [
                        {
                            "BMEPDFGOOCP": {
                                "$type": "GcgPredictByAttackSkill",
                                "JILDLKOLCID": [
                                    101
                                ]
                            },
                            "actions": [
                                {
                                    "$type": "GcgBehaviourFireEffect",
                                    "KEACJLNKCHK": {
                                        "target": "ContextTarget"
                                    },
                                    "effectName": "Eff_Gcg_Common_Reaction_Melt",
                                    "KOGELNIBFMB": "",
                                    "GGPHPGIOHIC": "",
                                    "BFEBMINFJID": {
                                        "$type": "GcgBornRotationFollow"
                                    }
                                }
                            ]
                        },
                        {
                            "BMEPDFGOOCP": {
                                "$type": "GcgPredictByAttackSkill",
                                "JILDLKOLCID": [
                                    102
                                ]
                            },
                            "actions": [
                                {
                                    "$type": "GcgBehaviourFireEffect",
                                    "KEACJLNKCHK": {
                                        "target": "ContextTarget"
                                    },
                                    "effectName": "Eff_Gcg_Common_Reaction_Steam",
                                    "KOGELNIBFMB": "",
                                    "GGPHPGIOHIC": "",
                                    "BFEBMINFJID": {
                                        "$type": "GcgBornRotationFollow"
                                    }
                                }
                            ]
                        },
                        {
                            "BMEPDFGOOCP": {
                                "$type": "GcgPredictByAttackSkill",
                                "JILDLKOLCID": [
                                    103
                                ]
                            },
                            "actions": [
                                {
                                    "$type": "GcgBehaviourFireEffect",
                                    "KEACJLNKCHK": {
                                        "target": "ContextTarget"
                                    },
                                    "effectName": "Eff_Gcg_Common_Reaction_Overload",
                                    "KOGELNIBFMB": "",
                                    "GGPHPGIOHIC": "",
                                    "BFEBMINFJID": {
                                        "$type": "GcgBornRotationFollow"
                                    }
                                }
                            ]
                        },
                        {
                            "BMEPDFGOOCP": {
                                "$type": "GcgPredictByAttackSkill",
                                "JILDLKOLCID": [
                                    104
                                ]
                            },
                            "actions": [
                                {
                                    "$type": "GcgBehaviourFireEffect",
                                    "KEACJLNKCHK": {
                                        "target": "ContextTarget"
                                    },
                                    "effectName": "Eff_Gcg_Common_Reaction_Superconductor",
                                    "KOGELNIBFMB": "",
                                    "GGPHPGIOHIC": "",
                                    "BFEBMINFJID": {
                                        "$type": "GcgBornRotationFollow"
                                    }
                                }
                            ]
                        },
                        {
                            "BMEPDFGOOCP": {
                                "$type": "GcgPredictByAttackSkill",
                                "JILDLKOLCID": [
                                    105
                                ]
                            },
                            "actions": [
                                {
                                    "$type": "GcgBehaviourFireEffect",
                                    "KEACJLNKCHK": {
                                        "target": "ContextTarget"
                                    },
                                    "effectName": "Eff_Gcg_Common_Reaction_StickElectric",
                                    "KOGELNIBFMB": "",
                                    "GGPHPGIOHIC": "",
                                    "BFEBMINFJID": {
                                        "$type": "GcgBornRotationFollow"
                                    }
                                }
                            ]
                        },
                        {
                            "BMEPDFGOOCP": {
                                "$type": "GcgPredictByAttackSkill",
                                "JILDLKOLCID": [
                                    1061
                                ]
                            },
                            "actions": [
                                {
                                    "$type": "GcgBehaviourFireEffect",
                                    "KEACJLNKCHK": {
                                        "target": "ContextTarget"
                                    },
                                    "effectName": "Eff_Gcg_Common_Reaction_BreakIce",
                                    "KOGELNIBFMB": "",
                                    "GGPHPGIOHIC": "",
                                    "BFEBMINFJID": {
                                        "$type": "GcgBornRotationFollow"
                                    }
                                }
                            ]
                        },
                        {
                            "BMEPDFGOOCP": {
                                "$type": "GcgPredictByAttackSkill",
                                "JILDLKOLCID": [
                                    108
                                ]
                            },
                            "actions": [
                                {
                                    "$type": "GcgBehaviourFireEffect",
                                    "KEACJLNKCHK": {
                                        "target": "ContextTarget"
                                    },
                                    "effectName": "Eff_Gcg_Common_Reaction_Swirl_Water",
                                    "KOGELNIBFMB": "",
                                    "GGPHPGIOHIC": "",
                                    "BFEBMINFJID": {
                                        "$type": "GcgBornRotationFollow"
                                    }
                                }
                            ]
                        },
                        {
                            "BMEPDFGOOCP": {
                                "$type": "GcgPredictByAttackSkill",
                                "JILDLKOLCID": [
                                    107
                                ]
                            },
                            "actions": [
                                {
                                    "$type": "GcgBehaviourFireEffect",
                                    "KEACJLNKCHK": {
                                        "target": "ContextTarget"
                                    },
                                    "effectName": "Eff_Gcg_Common_Reaction_Swirl_Ice",
                                    "KOGELNIBFMB": "",
                                    "GGPHPGIOHIC": "",
                                    "BFEBMINFJID": {
                                        "$type": "GcgBornRotationFollow"
                                    }
                                }
                            ]
                        },
                        {
                            "BMEPDFGOOCP": {
                                "$type": "GcgPredictByAttackSkill",
                                "JILDLKOLCID": [
                                    109
                                ]
                            },
                            "actions": [
                                {
                                    "$type": "GcgBehaviourFireEffect",
                                    "KEACJLNKCHK": {
                                        "target": "ContextTarget"
                                    },
                                    "effectName": "Eff_Gcg_Common_Reaction_Swirl_Fire",
                                    "KOGELNIBFMB": "",
                                    "GGPHPGIOHIC": "",
                                    "BFEBMINFJID": {
                                        "$type": "GcgBornRotationFollow"
                                    }
                                }
                            ]
                        },
                        {
                            "BMEPDFGOOCP": {
                                "$type": "GcgPredictByAttackSkill",
                                "JILDLKOLCID": [
                                    110
                                ]
                            },
                            "actions": [
                                {
                                    "$type": "GcgBehaviourFireEffect",
                                    "KEACJLNKCHK": {
                                        "target": "ContextTarget"
                                    },
                                    "effectName": "Eff_Gcg_Common_Reaction_Swirl_Electric",
                                    "KOGELNIBFMB": "",
                                    "GGPHPGIOHIC": "",
                                    "BFEBMINFJID": {
                                        "$type": "GcgBornRotationFollow"
                                    }
                                }
                            ]
                        },
                        {
                            "BMEPDFGOOCP": {
                                "$type": "GcgPredictByAttackSkill",
                                "JILDLKOLCID": [
                                    111,
                                    112,
                                    113,
                                    114
                                ]
                            },
                            "actions": [
                                {
                                    "$type": "GcgBehaviourFireEffect",
                                    "KEACJLNKCHK": {
                                        "target": "ContextTarget"
                                    },
                                    "effectName": "Eff_Gcg_Common_Reaction_Crystal",
                                    "KOGELNIBFMB": "",
                                    "GGPHPGIOHIC": "",
                                    "BFEBMINFJID": {
                                        "$type": "GcgBornRotationFollow"
                                    }
                                }
                            ]
                        },
                        {
                            "BMEPDFGOOCP": {
                                "$type": "GcgPredictByAttackSkill",
                                "JILDLKOLCID": [
                                    115
                                ]
                            },
                            "actions": [
                                {
                                    "$type": "GcgBehaviourFireEffect",
                                    "KEACJLNKCHK": {
                                        "target": "ContextTarget"
                                    },
                                    "effectName": "Eff_Gcg_Common_Reaction_Burning_Grass",
                                    "KOGELNIBFMB": "",
                                    "GGPHPGIOHIC": "",
                                    "BFEBMINFJID": {
                                        "$type": "GcgBornRotationFollow"
                                    }
                                }
                            ]
                        },
                        {
                            "BMEPDFGOOCP": {
                                "$type": "GcgPredictByAttackSkill",
                                "JILDLKOLCID": [
                                    116
                                ]
                            },
                            "actions": [
                                {
                                    "$type": "GcgBehaviourFireEffect",
                                    "KEACJLNKCHK": {
                                        "target": "ContextTarget"
                                    },
                                    "effectName": "Eff_Gcg_Common_Reaction_Overgrow",
                                    "KOGELNIBFMB": "",
                                    "GGPHPGIOHIC": "",
                                    "BFEBMINFJID": {
                                        "$type": "GcgBornRotationFollow"
                                    }
                                }
                            ]
                        },
                        {
                            "BMEPDFGOOCP": {
                                "$type": "GcgPredictByAttackSkill",
                                "JILDLKOLCID": [
                                    117
                                ]
                            },
                            "actions": [
                                {
                                    "$type": "GcgBehaviourFireEffect",
                                    "KEACJLNKCHK": {
                                        "target": "ContextTarget"
                                    },
                                    "effectName": "Eff_Gcg_Common_Reaction_Overdose",
                                    "KOGELNIBFMB": "",
                                    "GGPHPGIOHIC": "",
                                    "BFEBMINFJID": {
                                        "$type": "GcgBornRotationFollow"
                                    }
                                }
                            ]
                        }
                    ]
                },
                {
                    "PIBJPDLMPKJ": 0.05000000074505806,
                    "actionGroups": [
                        {
                            "actions": [
                                {
                                    "$type": "GcgBehaviourFireEffect",
                                    "KEACJLNKCHK": {
                                        "target": "ContextTarget"
                                    },
                                    "effectName": "Eff_Gcg_Avatar_Xiangling_ElementalBurst_Hit",
                                    "KOGELNIBFMB": "",
                                    "GGPHPGIOHIC": "",
                                    "BFEBMINFJID": {
                                        "$type": "GcgBornRotationLookAtTarget",
                                        "KEACJLNKCHK": {
                                            "target": "Actor"
                                        }
                                    }
                                },
                                {
                                    "$type": "GcgBehaviourRunMoveScript",
                                    "DPLGBNHILIE": "GcgMotion_Hit04_03",
                                    "IOOMGNCKOAD": "",
                                    "JOLPHOFCPAK": {
                                        "target": "ContextTarget"
                                    },
                                    "KEACJLNKCHK": {
                                        "target": "Actor"
                                    },
                                    "GNDGFAABMPL": true
                                }
                            ]
                        }
                    ]
                },
                {
                    "actionGroups": [
                        {
                            "actions": [
                                {
                                    "$type": "GcgBehaviourShakeScreen",
                                    "KEACJLNKCHK": {
                                        "target": "ContextTarget"
                                    },
                                    "FONIHNAMJML": "Common_ShakeScreen_Test_E"
                                }
                            ]
                        }
                    ]
                }
            ]
        }
    ]
}