{
    "id": 181,
    "stageMatureEvents": [
        "Play_Amb_Scene_CattailTavern"
    ],
    "stageExitEvents": [
        "Stop_Amb_Scene_CattailTavern",
        "State_Music_NonCombat"
    ],
    "stateValue": "State_MD_CattailTavern",
    "EDGKEHCFEFC": {
        "text": "Play_Music_Scene"
    },
    "FJBGDAMGLNA": {
        "text": "Stop_Music_Scene"
    }
}