{
    "ConfigMonolith": {
        "CDNPPOGNDBH": {
            "trackArea": {
                "$type": "ContextConditionAreaUnlocked",
                "areaId": 27,
                "sceneId": 3
            },
            "trackMonster": {
                "$type": "ContextConditionAreaUnlocked",
                "areaId": 27,
                "sceneId": 3,
                "OJBJOLLLOCO": true
            }
        },
        "IGFEMBCOLDG": {
            "updateArea": {
                "$type": "ContextActionExecuteAll",
                "actions": [
                    {
                        "$type": "ContextActionSetActive",
                        "PEGIOKIJOEB": "ButtonGoto",
                        "EILKDDLAKBL": true
                    },
                    {
                        "$type": "ContextActionSetText",
                        "PEGIOKIJOEB": "ButtonGoto",
                        "textMap": "UI_ACTIVITY_NEW_REGION_UNLOCK_BUTTON"
                    }
                ]
            },
            "updateMonster": {
                "$type": "ContextActionExecuteAll",
                "actions": [
                    {
                        "$type": "ContextActionSetActive",
                        "PEGIOKIJOEB": "ButtonGoto",
                        "EILKDDLAKBL": true
                    },
                    {
                        "$type": "ContextActionSetText",
                        "PEGIOKIJOEB": "ButtonGoto",
                        "textMap": "UI_ACTIVITY_CHALLENGE_GOTO_BUTTON"
                    }
                ]
            },
            "clickTrackArea": {
                "$type": "ContextActionExecuteAll",
                "actions": [
                    {
                        "$type": "ContextActionSelectTransPoint",
                        "IBMGGNAHDMO": 535,
                        "sceneId": 3
                    },
                    {
                        "$type": "ContextActionReportActivityBuriedPoint",
                        "PIINBKBEGJO": 5104,
                        "AKNMDILOODL": 2,
                        "NHJIDKBDGAJ": 5104001,
                        "KJNPBCGDOJD": ""
                    },
                    {
                        "$type": "ContextActionSetAnimatorTrigger",
                        "PEGIOKIJOEB": "Animator",
                        "ODCJHDNCLII": "FadeOut",
                        "NAFAKICKJGL": true
                    }
                ]
            },
            "clickTrackMonster": {
                "$type": "ContextActionExecuteAll",
                "actions": [
                    {
                        "$type": "ContextActionSelectMonsterMark",
                        "ICJLCDBFIFE": 47
                    },
                    {
                        "$type": "ContextActionReportActivityBuriedPoint",
                        "PIINBKBEGJO": 5104,
                        "AKNMDILOODL": 3,
                        "NHJIDKBDGAJ": 5104001,
                        "KJNPBCGDOJD": ""
                    },
                    {
                        "$type": "ContextActionSetAnimatorTrigger",
                        "PEGIOKIJOEB": "Animator",
                        "ODCJHDNCLII": "FadeOut",
                        "NAFAKICKJGL": true
                    }
                ]
            }
        },
        "HALLDDEHFMA": [
            {
                "conditionName": "trackArea",
                "actionName": "updateArea"
            },
            {
                "conditionName": "trackMonster",
                "actionName": "updateMonster"
            }
        ],
        "DIADKKABKMN": [
            {
                "conditionName": "trackArea",
                "actionName": "clickTrackArea"
            },
            {
                "conditionName": "trackMonster",
                "actionName": "clickTrackMonster"
            }
        ]
    }
}