{
    "State_Group_Avatar_For_ExtraAttack": {
        "animatorStateIDs": [
            "ExtraAttack",
            "ExtraAttack1",
            "ExtraAttack2",
            "ExtraAttack3",
            "ExtraAttack_BS",
            "Attack01",
            "Attack02",
            "Attack03",
            "Attack04",
            "Attack05",
            "Attack06",
            "ExtraAttack_Charge",
            "Gandalfr_Attack01",
            "Gandalfr_Attack02",
            "Gandalfr_Attack03",
            "Gandalfr_Attack04",
            "Gandalfr_Attack05",
            "Gandalfr_Attack06",
            "Gandalfr_ExtraAttack",
            "Katana_Attack01",
            "Katana_Attack02",
            "Katana_Attack03",
            "Katana_Attack04",
            "Katana_Attack05",
            "Katana_Attack06",
            "Katana_ExtraAttack",
            "Wanderer_ElementalArt_Attack01",
            "Wanderer_ElementalArt_Attack02",
            "Wanderer_ElementalArt_Attack03"
        ]
    },
    "State_Group_Avatar_Normal_Attack": {
        "animatorStateIDs": [
            "Attack01",
            "Attack02",
            "Attack03",
            "Attack04",
            "Attack05",
            "Attack06",
            "Gandalfr_Attack01",
            "Gandalfr_Attack02",
            "Gandalfr_Attack03",
            "Gandalfr_Attack04",
            "Gandalfr_Attack05",
            "Gandalfr_Attack06",
            "Tartaglia_Attack01",
            "Tartaglia_Attack02",
            "Tartaglia_Attack03",
            "Tartaglia_Attack04",
            "Tartaglia_Attack05",
            "Tartaglia_Attack06",
            "Katana_Attack01",
            "Katana_Attack02",
            "Katana_Attack03",
            "Katana_Attack04",
            "Katana_Attack05",
            "Wanderer_ElementalArt_Attack01",
            "Wanderer_ElementalArt_Attack02",
            "Wanderer_ElementalArt_Attack03"
        ]
    },
    "State_Group_Avatar_NormalStandby": {
        "stateIDs": [
            "NormalStandby",
            "NormalStandbyWeapon",
            "LiquidStrike_MoveStandby",
            "Wanderer_ElementalArt_HoverAir"
        ],
        "animatorStateIDs": [
            "SwimIdle"
        ]
    },
    "State_Group_Avatar_MoveForward": {
        "stateIDs": [
            "NormalMove",
            "Sprint",
            "SprintBS",
            "Swim",
            "Fly",
            "Upstairs",
            "Slip",
            "LiquidStrike_Move",
            "LiquidStrike_BS",
            "LiquidStrike_BS1",
            "LiquidStrike_AS",
            "LiquidStrike_AS_OnWater",
            "Yelan_ElementalArt_BS",
            "Yelan_ElementalArt_Hold",
            "Yelan_ElementalArt_Strike",
            "Yelan_ElementalArt_Strike_AS",
            "Yelan_ElementalArt_Stop",
            "Yelan_ElementalArt_Stop_AS",
            "Sayu_ElementalArt_Charge",
            "Sayu_ElementalArt_Hold_Roll",
            "Sayu_ElementalArt_Hold_Strike",
            "CrowQueen_BS",
            "CrowQueen",
            "CrowQueen_Move",
            "CrowQueen_AS",
            "CrowQueen_AS_OnWeater",
            "Wanderer_ElementalArt_HoverAir_Move",
            "Wanderer_ElementalArt_HoverAir_Dash_ToRun",
            "Wanderer_ElementalArt_HoverAir_Dash_BS",
            "Wanderer_ElementalArt_HoverAir_Dash_Hold",
            "Wanderer_ElementalArt_HoverAir_Dash_AS"
        ],
        "animatorStateIDs": [
            "CrouchMove",
            "SlipBackWall"
        ],
        "NJNKGAGCCJJ": [
            "ShowUp",
            "RunToIdle",
            "WalkToIdle",
            "SprintToIdle",
            "FallOnGround",
            "FallOnGroundLit",
            "WalkToIdle",
            "Walk",
            "WalkToRun",
            "RunToWalk",
            "SwimIdle",
            "SwimJumpToWater"
        ]
    },
    "State_Group_Avatar_JumpWithMovement": {
        "stateIDs": [
            "Jump"
        ],
        "animatorStateIDs": [
            "SwimJump",
            "ClimbJump",
            "JumpWeapon"
        ],
        "NJNKGAGCCJJ": [
            "Jump"
        ]
    },
    "State_Group_Avatar_JumpWithoutMovement": {
        "animatorStateIDs": [
            "Jump",
            "Wanderer_ElementalArt_Air_BS",
            "Wanderer_ElementalArt_HoverAir_Up_BS",
            "Wanderer_ElementalArt_HoverAir_Up_Hold",
            "Wanderer_ElementalArt_HoverAir_Up_AS"
        ]
    },
    "State_Group_Avatar_Special_3C_Switch_By_ElementalArt": {
        "stateIDs": [
            "Wanderer_ElementalArt_Air_BS",
            "Wanderer_ElementalBurst_Air",
            "Wanderer_ElementalArt_HoverAir",
            "Wanderer_ElementalArt_HoverAir_Move",
            "Wanderer_ElementalArt_HoverAir_Dash_ToRun",
            "Wanderer_ElementalArt_HoverAir_Dash_BS",
            "Wanderer_ElementalArt_HoverAir_Dash_Hold",
            "Wanderer_ElementalArt_HoverAir_Dash_AS",
            "Wanderer_ElementalArt_HoverAir_Up_BS",
            "Wanderer_ElementalArt_HoverAir_Up_Hold",
            "Wanderer_ElementalArt_HoverAir_Up_AS",
            "Hit_Throw_Hover",
            "Hit_ThrowAir_Hover",
            "Struggle_Hover",
            "Wanderer_ElementalArt_HoverAir_HitRetreat",
            "Hit_ThrowGround_Hover",
            "Wanderer_ElementalArt_Attack01",
            "Wanderer_ElementalArt_Attack02",
            "Wanderer_ElementalArt_Attack03",
            "Wanderer_ElementalArt_Attack03_AS",
            "ExtraAttack_Air_BS",
            "ExtraAttack_Air_Charge",
            "ExtraAttack_Air",
            "ExtraAttack_Air_AS"
        ]
    },
    "State_Group_Avatar_Switch_Sprint": {
        "stateIDs": [
            "SprintBS",
            "Sprint",
            "LiquidStrike_BS",
            "LiquidStrike_BS1",
            "LiquidStrike_Move",
            "LiquidStrike_MoveStandby",
            "Wanderer_ElementalArt_HoverAir_Dash_BS",
            "Wanderer_ElementalArt_HoverAir_Dash_Hold"
        ]
    }
}