{
    "IndoorScene_Xm_Biglibrary_2nd_1_Inside_Ve": {
        "$type": "ConfigShapeRect",
        "useHeight": true,
        "height": 71.98139190673828,
        "centerType": "Center",
        "width": 91.91438293457031,
        "length": 141.9075927734375
    },
    "IndoorScene_Xm_Biglibrary_3rd_1_Inside_Ve": {
        "$type": "ConfigShapeRect",
        "useHeight": true,
        "height": 82.56751251220703,
        "centerType": "Center",
        "width": 100.0,
        "length": 100.0
    },
    "IndoorScene_Xm_Biglibrary_blackroom_Inside_Ve": {
        "$type": "ConfigShapeRect",
        "useHeight": true,
        "height": 35.0,
        "centerType": "Center",
        "width": 100.0,
        "length": 100.0
    }
}