{
    "GKLNFJNMPDB": {
        "Monster_Hound_Planelurker_Corruption_LoseHP": {
            "UNIQUE_Hound_Planelurker_Corruption_LoseHP_Logic": 0.0
        },
        "Monster_Hound_Corruption_LoseHP": {
            "Hound_Corruption_LoseHP_Logic": 0.0
        },
        "Mimik_Fel_EnergyChit": {
            "Mimik_Fel_EnergyChit_Debuff": 0.0
        },
        "DynamicAbility_DeathZone": {
            "UNIQUE_DynamicAbility_DeathZone_LoseHp_Logic": 0.0
        },
        "Avatar_Faruzan_PermanentSkill2_WindDamageExtraUp": {
            "UNIQUE_Avatar_Faruzan_ElementalBurst_WindDamageValueUp_Remove": 0.0,
            "UNIQUE_Avatar_Faruzan_ElementalBurst_WindDamageValueUp_CD": 0.0
        },
        "Monster_Chrysopelea_Sacred_SacredEnergy_BridgeToMonster": {
            "UNIQUE_Have_Chrysopelea_SacredEnergy_Team": 0.0
        },
        "Monster_Vulture_Sacred_SacredEnergy_BridgeToMonster": {
            "UNIQUE_Have_Vulture_SacredEnergy_Team": 0.0
        },
        "Monster_Scorpion_Sacred_SacredEnergy_BridgeToMonster": {
            "UNIQUE_Have_Scorpion_SacredEnergy_Team": 0.0
        },
        "Monster_Gator_Sacred_SacredEnergy_Bullet": {
            "UNIQUE_Have_Gator_SacredEnergy_Team": 0.0
        },
        "Monster_Panther_Sacred_SacredEnergy_Bullet": {
            "UNIQUE_Have_Panther_SacredEnergy_Team": 0.0
        }
    }
}