{
    "3": [
        {
            "title": "UI_MAP_ADVENTURE_TASK_REWARD",
            "NJNCANOCNJC": 7,
            "markType": "ScenePoint",
            "BHMAKGOPHFA": [
                "MarkAdventurers"
            ],
            "iconName": "",
            "HNNMJIHEABK": true
        },
        {
            "title": "UI_MAP_ADVENTURE_PLAYER_REWARD",
            "NJNCANOCNJC": 8,
            "markType": "ScenePoint",
            "BHMAKGOPHFA": [
                "MarkAdventurers"
            ],
            "iconName": "",
            "HNNMJIHEABK": true
        },
        {
            "title": "UI_MAP_EXPEDITION_PLAYER_REWARD",
            "NJNCANOCNJC": 9,
            "markType": "ScenePoint",
            "BHMAKGOPHFA": [
                "MarkAdventurers"
            ],
            "iconName": "",
            "HNNMJIHEABK": true
        },
        {
            "title": "UI_MAP_BLACKSMITH_PLAYER_REWARD",
            "NJNCANOCNJC": 10,
            "markType": "ScenePoint",
            "BHMAKGOPHFA": [
                "MarkBlacksmith",
                "MarkBlacksmith_liyue",
                "MarkBlacksmith_Inazuma",
                "MarkBlacksmith_Sumeru"
            ],
            "iconName": "",
            "HNNMJIHEABK": true
        },
        {
            "title": "UI_MAP_RESTAURANT_PLAYER_REWARD",
            "NJNCANOCNJC": 11,
            "markType": "ScenePoint",
            "BHMAKGOPHFA": [
                "MarkRestaurant",
                "MarkRestaurant_liyue",
                "MarkRestaurant_Inazuma",
                "MarkRestaurant_Sumeru"
            ],
            "iconName": "",
            "HNNMJIHEABK": true
        },
        {
            "title": "UI_MAPMARK_MISCSMARVS_TITLE",
            "NJNCANOCNJC": 12,
            "markType": "Activity",
            "BHMAKGOPHFA": [
                "MarkMiscsMarvs"
            ],
            "iconName": "",
            "HNNMJIHEABK": true
        },
        {
            "title": "UI_ACTIVITY_CHESS_NEW_MAP_TIPS",
            "NJNCANOCNJC": 13,
            "markType": "ScenePoint",
            "BHMAKGOPHFA": [
                "MarkMechanicisNPC"
            ],
            "iconName": "",
            "HNNMJIHEABK": true
        },
        {
            "title": "REPUTATION_CITY_REWARD",
            "NJNCANOCNJC": 14,
            "markType": "ScenePoint",
            "iconName": "",
            "HNNMJIHEABK": true
        },
        {
            "title": "REPUTATION_QUEST_REFRESH",
            "NJNCANOCNJC": 15,
            "markType": "ScenePoint",
            "BHMAKGOPHFA": [
                "MarkReputation",
                "MarkReputation_liyue",
                "MarkReputation_Inazuma",
                "MarkReputation_Sumeru"
            ],
            "iconName": ""
        },
        {
            "title": "UI_MAPMARK_MarkReputation_NOTE_4",
            "NJNCANOCNJC": 16,
            "markType": "Hunting",
            "BHMAKGOPHFA": [
                "MarkHuntingArea"
            ],
            "iconName": ""
        },
        {
            "title": "UI_ACTIVITY_WATER_SPRITE_EXPLORE_MAP_TIPS",
            "NJNCANOCNJC": 17,
            "markType": "ActivitySearchRegion",
            "BHMAKGOPHFA": [
                "MarkActivityWaterSpriteExploreArea"
            ],
            "iconName": ""
        },
        {
            "title": "UI_ACTIVITY_EXPEDITION_CHALLENGE_ING",
            "NJNCANOCNJC": 18,
            "markType": "Hunting",
            "BHMAKGOPHFA": [
                "MarkActivityExpeditionChallengeArea"
            ],
            "iconName": ""
        },
        {
            "title": "UI_ACTIVITY_ARENACHALLENGE3_DAILY",
            "NJNCANOCNJC": 19,
            "BHMAKGOPHFA": [
                "MarkArenaChallengeV3"
            ],
            "iconName": "",
            "HCIIEKPOCBK": true
        },
        {
            "title": "UI_ACTIVITY_MIMITOMO_MAPTITLE",
            "NJNCANOCNJC": 20,
            "markType": "Hunting",
            "BHMAKGOPHFA": [
                "MarkActivityMiniTomoHiliWeiArea"
            ],
            "iconName": ""
        },
        {
            "title": "UI_MAP_ELDERTREE_PLAYER_REWARD",
            "NJNCANOCNJC": 21,
            "markType": "ScenePoint",
            "BHMAKGOPHFA": [
                "MarkElderTree"
            ],
            "iconName": "",
            "BAPICJCNJKL": false,
            "HNNMJIHEABK": true
        },
        {
            "title": "UI_MAP_OFFERINGORAIONOKAMI_REWARD",
            "NJNCANOCNJC": 22,
            "markType": "ScenePoint",
            "BHMAKGOPHFA": [
                "MarkOraionokamiTree"
            ],
            "iconName": "",
            "BAPICJCNJKL": false,
            "IBBHGMGMIFN": false,
            "HNNMJIHEABK": true
        },
        {
            "title": "UI_MAP_OFFERINGORAIONOKAMI_LEVEL_LIMITS",
            "NJNCANOCNJC": 23,
            "markType": "ScenePoint",
            "BHMAKGOPHFA": [
                "MarkOraionokamiTree"
            ],
            "iconName": "",
            "BAPICJCNJKL": false,
            "IBBHGMGMIFN": false
        },
        {
            "title": "UI_MAP_ACTIVITY_PLANT_PLAYER_REWARD",
            "NJNCANOCNJC": 24,
            "markType": "ScenePoint",
            "BHMAKGOPHFA": [
                "MarkGrowFlowersNPC"
            ],
            "iconName": "",
            "IBBHGMGMIFN": false
        },
        {
            "title": "UI_BLESSING_MAP_TIPS1",
            "NJNCANOCNJC": 25,
            "markType": "ScenePoint",
            "BHMAKGOPHFA": [
                "MarkActivityBlessing"
            ],
            "iconName": "",
            "HNNMJIHEABK": true
        },
        {
            "title": "UI_ACTIVITY_CHANNELLERSLAB_NEW_DUNGEON_PROMPT",
            "NJNCANOCNJC": 26,
            "iconName": "",
            "IBBHGMGMIFN": false
        },
        {
            "title": "UI_MAP_OFFERINGORAIONOKAMI_SHOP_OPEN",
            "NJNCANOCNJC": 28,
            "markType": "ScenePoint",
            "BHMAKGOPHFA": [
                "MarkSouvenir_Inazuma"
            ],
            "iconName": "",
            "IBBHGMGMIFN": false
        },
        {
            "title": "UI_ACTIVITY_SUMO2_NEW_DUNGEON_TIPS",
            "NJNCANOCNJC": 29,
            "iconName": "",
            "HCIIEKPOCBK": true,
            "IBBHGMGMIFN": false
        },
        {
            "title": "UI_ACTIVITY_CRYSTALLINK_NEW_LEVEL_TIPS",
            "NJNCANOCNJC": 32,
            "markType": "ScenePoint",
            "BHMAKGOPHFA": [
                "MarkCrystalLink"
            ],
            "iconName": "",
            "HCIIEKPOCBK": true,
            "BAPICJCNJKL": false,
            "IBBHGMGMIFN": false
        },
        {
            "title": "UI_ACTIVITY_GACHA_EXCHANGE_TIPS",
            "NJNCANOCNJC": 33,
            "markType": "ScenePoint",
            "BHMAKGOPHFA": [
                "MarkActivityGachaNPC"
            ],
            "iconName": "",
            "BAPICJCNJKL": false,
            "IBBHGMGMIFN": false
        },
        {
            "title": "UI_VANASARA_OFFERRING_REWARD",
            "NJNCANOCNJC": 34,
            "markType": "ScenePoint",
            "BHMAKGOPHFA": [
                "MarkVanasaraTree"
            ],
            "iconName": "",
            "BAPICJCNJKL": false,
            "IBBHGMGMIFN": false,
            "HNNMJIHEABK": true
        },
        {
            "title": "UI_VANASARA_OFFERRING_LEVEL_UNLOCK",
            "NJNCANOCNJC": 35,
            "markType": "ScenePoint",
            "BHMAKGOPHFA": [
                "MarkVanasaraTree"
            ],
            "iconName": "",
            "BAPICJCNJKL": false,
            "IBBHGMGMIFN": false
        },
        {
            "title": "UI_MAP_OFFERINGVANASARA_SHOP_OPEN",
            "NJNCANOCNJC": 36,
            "markType": "ScenePoint",
            "BHMAKGOPHFA": [
                "MarkSouvenir_Sumeru"
            ],
            "iconName": "",
            "IBBHGMGMIFN": false
        },
        {
            "title": "UI_GCG_MAPNOTICE_LEVEL",
            "NJNCANOCNJC": 37,
            "markType": "ScenePoint",
            "BHMAKGOPHFA": [
                "MarkGcgPub"
            ],
            "iconName": "UI_MarkPoint_GcgZhanDou_04",
            "HNNMJIHEABK": true
        },
        {
            "title": "UI_GCG_MAPNOTICE_SHOP",
            "NJNCANOCNJC": 38,
            "markType": "ScenePoint",
            "BHMAKGOPHFA": [
                "MarkGcgPub"
            ],
            "iconName": "UI_MarkPoint_GcgZhanDou_04",
            "HNNMJIHEABK": true
        },
        {
            "title": "UI_GCG_MAPNOTICE_WEEKLYTASK",
            "NJNCANOCNJC": 39,
            "markType": "ScenePoint",
            "BHMAKGOPHFA": [
                "MarkGcgPub"
            ],
            "iconName": "UI_MarkPoint_GcgZhanDou_04",
            "HNNMJIHEABK": true
        },
        {
            "title": "UI_GCG_MAPNOTICE_INVITE",
            "NJNCANOCNJC": 40,
            "markType": "ScenePoint",
            "BHMAKGOPHFA": [
                "MarkGcgPub"
            ],
            "iconName": "UI_MarkPoint_GcgZhanDou_04",
            "HNNMJIHEABK": true
        },
        {
            "title": "UI_GCG_MAPNOTICE_BOSS",
            "NJNCANOCNJC": 41,
            "markType": "ScenePoint",
            "BHMAKGOPHFA": [
                "MarkGcgPub"
            ],
            "iconName": "UI_MarkPoint_GcgZhanDou_04",
            "HNNMJIHEABK": true
        },
        {
            "title": "UI_GCG_MAPNOTICE_WORLD",
            "NJNCANOCNJC": 42,
            "markType": "ScenePoint",
            "BHMAKGOPHFA": [
                "MarkGcgNpcNormal"
            ],
            "iconName": "UI_MarkPoint_GcgZhanDou_04",
            "HNNMJIHEABK": true
        }
    ],
    "2000": [
        {
            "title": "UI_MAP_REWARD_HomeworldLevel",
            "markType": "HomeworldDynamic",
            "BHMAKGOPHFA": [
                "MarkHomeworldDjinn"
            ],
            "iconName": "",
            "BAPICJCNJKL": false,
            "HNNMJIHEABK": true
        },
        {
            "title": "UI_MAP_TOGET_HomeworldCoin",
            "NJNCANOCNJC": 1,
            "markType": "HomeworldDynamic",
            "BHMAKGOPHFA": [
                "MarkHomeworldDjinn"
            ],
            "iconName": "",
            "BAPICJCNJKL": false,
            "HNNMJIHEABK": true
        },
        {
            "title": "UI_MAP_TOGET_HomeworldCompanionshipExp",
            "NJNCANOCNJC": 2,
            "markType": "HomeworldDynamic",
            "BHMAKGOPHFA": [
                "MarkHomeworldDjinn"
            ],
            "iconName": "",
            "BAPICJCNJKL": false,
            "HNNMJIHEABK": true
        },
        {
            "title": "UI_MAP_TOGET_HomeworldBuild",
            "NJNCANOCNJC": 3,
            "markType": "HomeworldDynamic",
            "BHMAKGOPHFA": [
                "MarkHomeworldDjinn"
            ],
            "iconName": "",
            "BAPICJCNJKL": false,
            "HNNMJIHEABK": true
        },
        {
            "title": "UI_MAP_REMIND_DjinnWeekendRefresh",
            "NJNCANOCNJC": 4,
            "markType": "HomeworldDynamic",
            "BHMAKGOPHFA": [
                "MarkHomeworldDjinnWeekend"
            ],
            "iconName": "",
            "BAPICJCNJKL": false,
            "HNNMJIHEABK": true
        },
        {
            "title": "UI_HOMEWORLD_NPC_MAP_REWARD1",
            "NJNCANOCNJC": 5,
            "markType": "HomeworldDynamic",
            "BHMAKGOPHFA": [
                "MarkHomeworldNpc"
            ],
            "iconName": "",
            "BAPICJCNJKL": false,
            "HNNMJIHEABK": true
        },
        {
            "title": "UI_HOMEWORLD_FARMFIELD_MAP_REWARD",
            "NJNCANOCNJC": 6,
            "markType": "HomeworldFarmField",
            "iconName": "",
            "BAPICJCNJKL": false,
            "HNNMJIHEABK": true
        }
    ],
    "7": [
        {
            "title": "UI_ACTIVITY_MICHIAE_CASKET_BATTLE_SKILL_NEW_HINT",
            "NJNCANOCNJC": 30,
            "markType": "Offering",
            "BHMAKGOPHFA": [
                "MarkMichiaeOffering"
            ],
            "iconName": "",
            "BAPICJCNJKL": false,
            "IBBHGMGMIFN": false
        }
    ],
    "1076": [
        {
            "title": "UI_GCG_MAPNOTICE_LEVEL",
            "NJNCANOCNJC": 37,
            "markType": "ScenePoint",
            "BHMAKGOPHFA": [
                "MarkGcgCat"
            ],
            "iconName": "UI_MarkPoint_GcgZhanDou_04",
            "BAPICJCNJKL": false,
            "HNNMJIHEABK": true
        },
        {
            "title": "UI_GCG_MAPNOTICE_SHOP",
            "NJNCANOCNJC": 38,
            "markType": "ScenePoint",
            "BHMAKGOPHFA": [
                "MarkGcgCat"
            ],
            "iconName": "UI_MarkPoint_GcgZhanDou_04",
            "BAPICJCNJKL": false,
            "HNNMJIHEABK": true
        },
        {
            "title": "UI_GCG_MAPNOTICE_WEEKLYTASK",
            "NJNCANOCNJC": 39,
            "markType": "GcgNpc",
            "BHMAKGOPHFA": [
                "MarkGcgWeek"
            ],
            "iconName": "UI_MarkPoint_GcgZhanDou_04",
            "BAPICJCNJKL": false,
            "HNNMJIHEABK": true
        },
        {
            "title": "UI_GCG_MAPNOTICE_INVITE",
            "NJNCANOCNJC": 40,
            "markType": "ScenePoint",
            "BHMAKGOPHFA": [
                "MarkGcgBoard"
            ],
            "iconName": "UI_MarkPoint_GcgZhanDou_04",
            "BAPICJCNJKL": false,
            "HNNMJIHEABK": true
        },
        {
            "title": "UI_GCG_MAPNOTICE_BOSS",
            "NJNCANOCNJC": 41,
            "markType": "ScenePoint",
            "BHMAKGOPHFA": [
                "MarkGcgCat"
            ],
            "iconName": "UI_MarkPoint_GcgZhanDou_04",
            "BAPICJCNJKL": false,
            "HNNMJIHEABK": true
        },
        {
            "title": "UI_GCG_MAPNOTICE_WORLD",
            "NJNCANOCNJC": 42,
            "markType": "GcgNpc",
            "BHMAKGOPHFA": [
                "MarkGcgNpcNormal"
            ],
            "iconName": "UI_MarkPoint_GcgZhanDou_04",
            "BAPICJCNJKL": false,
            "HNNMJIHEABK": true,
            "EEOBKBKHCLA": true
        },
        {
            "title": "UI_GCG_FESTIVAL_MAP_HINT",
            "NJNCANOCNJC": 43,
            "markType": "ScenePoint",
            "BHMAKGOPHFA": [
                "MarkGcgBoard"
            ],
            "iconName": "UI_MarkPoint_GcgZhanDou_04",
            "BAPICJCNJKL": false,
            "HNNMJIHEABK": true
        },
        {
            "title": "UI_GCG_FESTIVAL_MAP_HINT_REWARD",
            "NJNCANOCNJC": 44,
            "markType": "ScenePoint",
            "BHMAKGOPHFA": [
                "MarkGcgBoard"
            ],
            "iconName": "UI_MarkPoint_GcgZhanDou_04",
            "BAPICJCNJKL": false,
            "HNNMJIHEABK": true
        }
    ]
}