{
    "common": {
        "effectAttachShape": {
            "$type": "ConfigEffectAttachSkinnedMesh",
            "mesh": "EffectMesh"
        },
        "mass": 1000.0,
        "height": 1.5,
        "modelHeight": 1.649999976158142,
        "affectedByWorld": true,
        "checkInSurface": true,
        "useGrassDisplacement": true,
        "clearAnimatorOnSetLightDeactive": true,
        "clearAIOnSetLightDeactive": true,
        "NNCDDDJPEGJ": true
    },
    "headControl": {
        "$type": "ConfigHeadControl",
        "useHeadControl": true,
        "maxYawDegree": 60.0,
        "maxPitchDegree": 30.0,
        "animStates": [
            "NormalIdle/Standby",
            "NormalMove/WalkForward",
            "NormalMove/WalkBack",
            "NormalMove/WalkRight",
            "NormalMove/WalkLeft",
            "NormalMove/Run",
            "Turn/TurnLeft",
            "Turn/TurnRight"
        ]
    },
    "model": {
        "bornEffect": "Eff_Monster_Common_Born",
        "attachEffect": ""
    },
    "dither": {
        "showDitherDuration": 1.0
    },
    "combat": {
        "property": {
            "endureType": "Monster_Minion",
            "weight": 70.0
        },
        "beHit": {
            "hitBloodEffect": ""
        },
        "combatLock": {
            "lockShape": "CircleLockEnemy",
            "lockType": "Avatar&Monster_Lv4"
        },
        "die": {
            "hasAnimatorDie": true,
            "dieEndTime": 2.0,
            "dieForceDisappearTime": 8.0,
            "dieDisappearEffect": "Eff_Death_Sand_Eremite",
            "dieShaderData": "EremiteSandDie",
            "dieShaderEnableDurationTime": 1.0,
            "useRagDoll": true,
            "ragDollDieEndTimeDelay": 8.0,
            "LFLHBBLFMNL": true,
            "DNOKPNKKHLO": true,
            "ILIIAFJADIB": true,
            "MDKFHDHIKGH": true,
            "HABEAIAAGLF": true,
            "LEHDFPPJPKJ": true
        },
        "animEvents": {
            "AE_Slash01": {
                "attackPattern": {
                    "$type": "ConfigAttackCircle",
                    "triggerType": "TriggerNoRepeat",
                    "born": {
                        "$type": "ConfigBornBySelf",
                        "offset": {
                            "AMODPKJAIGF": 0.0,
                            "DBJCBJPOOAP": 0.0,
                            "JDFJGADACKC": 0.10000000149011612
                        }
                    },
                    "height": 2.0999999046325684,
                    "fanAngle": 310.0,
                    "ILKJCNJJPEL": 1.5
                },
                "attackInfo": {
                    "attackTag": "",
                    "attenuationTag": "",
                    "attenuationGroup": "default",
                    "attackProperty": {
                        "EHFOGJFHDPE": 1.0,
                        "GDADKLDBGIM": 0.0,
                        "bonusCriticalHurt": 100.0,
                        "strikeType": "Slash",
                        "enBreak": 200.0
                    },
                    "hitPattern": {
                        "onHitEffectName": "default",
                        "hitImpulseType": "LV3"
                    }
                }
            },
            "AE_Slash02": {
                "attackPattern": {
                    "$type": "ConfigAttackCircle",
                    "triggerType": "TriggerNoRepeat",
                    "born": {
                        "$type": "ConfigBornBySelf",
                        "offset": {
                            "AMODPKJAIGF": 0.0,
                            "DBJCBJPOOAP": 0.0,
                            "JDFJGADACKC": 0.800000011920929
                        }
                    },
                    "height": 2.0999999046325684,
                    "fanAngle": 310.0,
                    "ILKJCNJJPEL": 1.600000023841858
                },
                "attackInfo": {
                    "attackTag": "",
                    "attenuationTag": "",
                    "attenuationGroup": "default",
                    "attackProperty": {
                        "EHFOGJFHDPE": 1.0,
                        "GDADKLDBGIM": 0.0,
                        "bonusCriticalHurt": 100.0,
                        "strikeType": "Slash",
                        "enBreak": 200.0
                    },
                    "hitPattern": {
                        "onHitEffectName": "default",
                        "hitImpulseType": "LV3"
                    }
                }
            }
        }
    },
    "equipController": {
        "sheathPoint": "",
        "attachPoints": {
            "equip01": "WeaponR",
            "equip02": "WeaponL"
        }
    },
    "abilities": [
        {
            "abilityID": "",
            "abilityName": "Eremite_TurnState_AnimatorSteer",
            "abilityOverride": ""
        },
        {
            "abilityID": "",
            "abilityName": "Eremite_ReturnToBorn",
            "abilityOverride": ""
        },
        {
            "abilityID": "",
            "abilityName": "Eremite_Hatchet_Slash_Dist_Calc",
            "abilityOverride": ""
        },
        {
            "abilityID": "",
            "abilityName": "Eremite_Hatchet_AnimatorSteer",
            "abilityOverride": ""
        },
        {
            "abilityID": "",
            "abilityName": "Eremite_Equip_Display_Manager",
            "abilityOverride": ""
        },
        {
            "abilityID": "",
            "abilityName": "Eremite_Equip_SheathWeapon",
            "abilityOverride": ""
        },
        {
            "abilityID": "",
            "abilityName": "Eremite_Universal_Alert",
            "abilityOverride": ""
        },
        {
            "abilityID": "",
            "abilityName": "Eremite_FreePose_Female_Display_Manager",
            "abilityOverride": ""
        }
    ],
    "stateLayers": {
        "defaultLayer": {
            "$type": "ConfigNormalStateLayer",
            "layerIndexName": "",
            "stateIDs": {
                "NormalIdle": {
                    "$type": "ConfigMonsterStateIDInfo",
                    "animatorStates": {
                        "Standby": []
                    },
                    "canDoSkill": true,
                    "canSyncMove": true,
                    "resetAnimatorTriggerOnExit": [
                        "DoSkill"
                    ]
                },
                "NormalBorn": {
                    "$type": "ConfigMonsterStateIDInfo",
                    "animatorStates": {
                        "Born": []
                    },
                    "canDoSkill": true,
                    "resetAnimatorTriggerOnExit": [
                        "DoSkill"
                    ]
                },
                "NormalMove": {
                    "$type": "ConfigMonsterStateIDInfo",
                    "animatorStates": {
                        "WalkForward": [
                            "Audio_Monster_Eremite_Female_Hatchet_01_walk_footstep_left"
                        ],
                        "WalkBack": [
                            "Audio_Monster_Eremite_Female_Hatchet_01_walk_footstep_left"
                        ],
                        "WalkRight": [
                            "Audio_Monster_Eremite_Female_Hatchet_01_walk_footstep_left"
                        ],
                        "WalkLeft": [
                            "Audio_Monster_Eremite_Female_Hatchet_01_walk_footstep_left"
                        ],
                        "Run": [
                            "Audio_Monster_Eremite_Female_Hatchet_01_run_footstep"
                        ]
                    },
                    "canDoSkill": true,
                    "canSyncMove": true,
                    "resetAnimatorTriggerOnExit": [
                        "DoSkill"
                    ],
                    "canSteer": true
                },
                "Turn": {
                    "$type": "ConfigMonsterStateIDInfo",
                    "animatorStates": {
                        "TurnLeft": [
                            "Audio_Monster_Eremite_Female_Hatchet_01_walk_footstep_left"
                        ],
                        "TurnRight": [
                            "Audio_Monster_Eremite_Female_Hatchet_01_walk_footstep_left"
                        ]
                    },
                    "canDoSkill": true,
                    "canSyncMove": true,
                    "resetAnimatorTriggerOnExit": [
                        "DoSkill"
                    ],
                    "canSteer": true
                },
                "BeHit": {
                    "$type": "ConfigMonsterStateIDInfo",
                    "animatorStates": {
                        "Hit_L": [],
                        "Hit_H": [
                            "Audio_Monster_Eremite_Female_Hatchet_01_hit_H"
                        ]
                    },
                    "resetAnimatorTriggerOnEnter": [
                        "BeHit"
                    ],
                    "resetAnimatorTriggerOnExit": [
                        "DoSkill"
                    ]
                },
                "BeHitThrow": {
                    "$type": "ConfigMonsterStateIDInfo",
                    "animatorStates": {
                        "HitThrow": [],
                        "HitThrowDrop": []
                    },
                    "resetAnimatorTriggerOnEnter": [
                        "BeHit",
                        "HitAir2HitDrop"
                    ],
                    "resetAnimatorTriggerOnExit": [
                        "DoSkill",
                        "BeHit"
                    ],
                    "setAnimatorBoolean": [
                        {
                            "name": "AirDie"
                        }
                    ]
                },
                "BeHitThrowToStandby": {
                    "$type": "ConfigMonsterStateIDInfo",
                    "animatorStates": {
                        "HitThrowToGround": [
                            "Audio_Monster_Eremite_Female_Hatchet_01_HitThrowtoGround"
                        ]
                    },
                    "resetAnimatorTriggerOnEnter": [
                        "BeHit",
                        "HitAir2HitDrop"
                    ],
                    "resetAnimatorTriggerOnExit": [
                        "DoSkill",
                        "BeHit"
                    ],
                    "setAnimatorBoolean": [
                        {
                            "name": "AirDie",
                            "normalizeEnd": 0.4000000059604645
                        }
                    ]
                },
                "Struggle": {
                    "$type": "ConfigMonsterStateIDInfo",
                    "animatorStates": {
                        "Struggle": []
                    },
                    "resetAnimatorTriggerOnEnter": [
                        "BeHit",
                        "HitAir2HitDrop"
                    ],
                    "resetAnimatorTriggerOnExit": [
                        "DoSkill"
                    ]
                },
                "Die": {
                    "$type": "ConfigMonsterStateIDInfo",
                    "animatorStates": {
                        "Die1": [
                            "Monster_Eremite_Hatchet_Die",
                            "Audio_Monster_Eremite_Female_Hatchet_01_die_NoVO"
                        ],
                        "Die2": [
                            "Monster_Eremite_Hatchet_Die",
                            "Audio_Monster_Eremite_Female_Hatchet_01_die_NoVO"
                        ],
                        "SwimDie_BS": [],
                        "SwimDie": [
                            "Monster_Eremite_SwimDie"
                        ],
                        "SwimDie_AS": []
                    }
                },
                "Die_RagDoll": {
                    "$type": "ConfigMonsterStateIDInfo",
                    "animatorStates": {
                        "AirDie": [
                            "Monster_Eremite_AirDie"
                        ]
                    },
                    "enableRagDoll": true
                },
                "Alert": {
                    "$type": "ConfigMonsterStateIDInfo",
                    "animatorStates": {
                        "Alert": [
                            "Monster_Eremite_Hatchet_ShowWeapon",
                            "Monster_Eremite_Clear_FreePoseMark",
                            "Audio_Monster_Eremite_Female_Hatchet_01_alert_NoVO"
                        ]
                    },
                    "addEndure": 0.0,
                    "resetAnimatorTriggerOnExit": [
                        "BeHit",
                        "DoSkill"
                    ]
                },
                "Crossleg_Alert": {
                    "$type": "ConfigMonsterStateIDInfo",
                    "animatorStates": {
                        "CrosslegAlert": [
                            "Monster_Eremite_Clear_FreePoseMark",
                            "Monster_Eremite_Hatchet_ShowWeapon_SpecialAlert",
                            "Audio_Monster_Eremite_Female_Hatchet_01_crosslegAlert_NoVO"
                        ]
                    },
                    "addEndure": 0.0,
                    "resetAnimatorTriggerOnExit": [
                        "BeHit",
                        "DoSkill"
                    ]
                },
                "SheathWeapon": {
                    "$type": "ConfigMonsterStateIDInfo",
                    "animatorStates": {
                        "SheathWeapon": [
                            "Monster_Eremite_Hatchet_SheathWeapon",
                            "Audio_Monster_Eremite_Female_Hatchet_01_sheathWeapon"
                        ]
                    },
                    "resetAnimatorTriggerOnExit": [
                        "BeHit",
                        "DoSkill"
                    ]
                },
                "Slash01_AB": {
                    "$type": "ConfigMonsterStateIDInfo",
                    "animatorStates": {
                        "Slash01_BS": [
                            "Monster_Eremite_Hatchet_Slash01_BS",
                            "Audio_Monster_Eremite_Female_Hatchet_slash01_BS"
                        ],
                        "Slash01_AS": [
                            "Audio_Monster_Eremite_Female_Hatchet_slash01_AS"
                        ]
                    },
                    "resetAnimatorTriggerOnExit": [
                        "BeHit",
                        "DoSkill"
                    ]
                },
                "Slash01": {
                    "$type": "ConfigMonsterStateIDInfo",
                    "animatorStates": {
                        "Slash01": [
                            "Monster_Eremite_Hatchet_Slash01",
                            "Audio_Monster_Eremite_Female_Hatchet_01_slash01"
                        ]
                    },
                    "resetAnimatorTriggerOnExit": [
                        "BeHit",
                        "DoSkill"
                    ]
                },
                "Slash02_AB": {
                    "$type": "ConfigMonsterStateIDInfo",
                    "animatorStates": {
                        "Slash02_BS": [
                            "Audio_Monster_Eremite_Female_Hatchet_01_slash02_BS"
                        ],
                        "Slash02_AS": [
                            "Audio_Monster_Eremite_Female_Hatchet_01_slash02_AS"
                        ]
                    },
                    "resetAnimatorTriggerOnExit": [
                        "BeHit",
                        "DoSkill"
                    ]
                },
                "Slash02": {
                    "$type": "ConfigMonsterStateIDInfo",
                    "animatorStates": {
                        "Slash02": [
                            "Monster_Eremite_Hatchet_Slash02",
                            "Audio_Monster_Eremite_Female_Hatchet_01_slash02"
                        ]
                    },
                    "resetAnimatorTriggerOnExit": [
                        "BeHit",
                        "DoSkill"
                    ]
                },
                "ThrowSand_BS": {
                    "$type": "ConfigMonsterStateIDInfo",
                    "animatorStates": {
                        "ThrowSand_BS": [
                            "Monster_Eremite_Hatchet_ThrowSand_BS",
                            "Audio_Monster_Eremite_Female_Hatchet_01_throwsand_BS_NoVO"
                        ]
                    },
                    "resetAnimatorTriggerOnExit": [
                        "BeHit",
                        "DoSkill"
                    ]
                },
                "ThrowSand": {
                    "$type": "ConfigMonsterStateIDInfo",
                    "animatorStates": {
                        "ThrowSand": [
                            "Monster_Eremite_Hatchet_ThrowSand",
                            "Audio_Monster_Eremite_Female_Hatchet_01_throwsand_NoVO"
                        ]
                    },
                    "resetAnimatorTriggerOnExit": [
                        "BeHit",
                        "DoSkill"
                    ]
                },
                "FreePose_Feeding_Idle": {
                    "$type": "ConfigMonsterStateIDInfo",
                    "animatorStates": {
                        "Feeding_Idle": []
                    },
                    "canDoSkill": true,
                    "resetAnimatorTriggerOnExit": [
                        "BeHit",
                        "DoSkill"
                    ]
                },
                "FreePose_Feeding_Skill": {
                    "$type": "ConfigMonsterStateIDInfo",
                    "animatorStates": {
                        "Feeding_Skill": [
                            "Monster_Eremite_Hatchet_Feeding",
                            "Audio_Monster_Eremite_Female_Hatchet_01_feeding_skill"
                        ]
                    },
                    "canDoSkill": true,
                    "resetAnimatorTriggerOnExit": [
                        "BeHit",
                        "DoSkill"
                    ]
                },
                "FreePose_StandingTalk_Idle": {
                    "$type": "ConfigMonsterStateIDInfo",
                    "animatorStates": {
                        "StandingTalk_Idle": []
                    },
                    "canDoSkill": true,
                    "resetAnimatorTriggerOnExit": [
                        "BeHit",
                        "DoSkill"
                    ]
                },
                "FreePose_StandingTalk_Skill": {
                    "$type": "ConfigMonsterStateIDInfo",
                    "animatorStates": {
                        "StandingTalk01_Skill": [],
                        "StandingTalk02_Skill": [],
                        "StandingTalk03_Skill": []
                    },
                    "canDoSkill": true,
                    "resetAnimatorTriggerOnExit": [
                        "BeHit",
                        "DoSkill"
                    ]
                },
                "FreePose_Akimbo_Idle": {
                    "$type": "ConfigMonsterStateIDInfo",
                    "animatorStates": {
                        "Akimbo_Idle": []
                    },
                    "canDoSkill": true,
                    "resetAnimatorTriggerOnExit": [
                        "BeHit",
                        "DoSkill"
                    ]
                },
                "FreePose_HoldArm_Idle": {
                    "$type": "ConfigMonsterStateIDInfo",
                    "animatorStates": {
                        "HoldArm_Idle": []
                    },
                    "canDoSkill": true,
                    "resetAnimatorTriggerOnExit": [
                        "BeHit",
                        "DoSkill"
                    ]
                },
                "FreePose_CrossLeg_PlayOud_Idle": {
                    "$type": "ConfigMonsterStateIDInfo",
                    "animatorStates": {
                        "CrossLeg_PlayOud_Idle": []
                    },
                    "canDoSkill": true,
                    "resetAnimatorTriggerOnExit": [
                        "BeHit",
                        "DoSkill"
                    ]
                }
            }
        }
    },
    "billboard": {
        "$type": "ConfigCombatBillboard",
        "attachPoint": "BillboardAttach",
        "offset": {
            "x": -0.05000000074505806
        },
        "offsetType": "Character",
        "radiusOffset": 0.25,
        "showHPBar": true
    },
    "initialPoses": {
        "Default": {},
        "Feeding": {
            "initialPoseID": 9001,
            "initialPoseParams": {
                "intParams": {
                    "FreePoseMark": "9001"
                }
            }
        },
        "Akimbo": {
            "initialPoseID": 9002,
            "initialPoseParams": {
                "intParams": {
                    "FreePoseMark": "9002"
                }
            }
        },
        "HoldArm": {
            "initialPoseID": 9003,
            "initialPoseParams": {
                "intParams": {
                    "FreePoseMark": "9003"
                }
            }
        },
        "StandingTalk": {
            "initialPoseID": 9004,
            "initialPoseParams": {
                "intParams": {
                    "FreePoseMark": "9004"
                }
            }
        },
        "CrossLeg_PlayOud": {
            "initialPoseID": 9505,
            "initialPoseParams": {
                "intParams": {
                    "FreePoseMark": "9505"
                }
            }
        }
    },
    "aibeta": {
        "enable": true,
        "moveSetting": {
            "navMeshAgentName": "Undead01",
            "almostReachedDistanceRun": 1.5
        },
        "sensing": {
            "settings": {
                "DefaultSetting": {
                    "feelRange": 8.0
                },
                "HighAlert": {
                    "viewRange": 40.0,
                    "feelRange": 10.0
                },
                "LowAlert": {
                    "viewRange": 15.0,
                    "feelRange": 6.0
                },
                "UltraLowSensing": {
                    "viewRange": 10.0,
                    "feelRange": 4.0
                },
                "EarshotFix": {
                    "hearAttractionRange": 9.0,
                    "feelRange": 8.0
                },
                "NeverCombat": {
                    "enableVision": false,
                    "hearAttractionRange": 0.0,
                    "feelRange": 0.0
                }
            },
            "templates": {
                "DefaultTemplate": {
                    "DefaultPoses": "DefaultSetting"
                },
                "HighAlert": {
                    "DefaultPoses": "HighAlert"
                },
                "LowAlert": {
                    "DefaultPoses": "LowAlert"
                },
                "UltraLowSensing": {
                    "DefaultPoses": "UltraLowSensing"
                },
                "EarshotFix": {
                    "DefaultPoses": "EarshotFix"
                },
                "NeverCombat": {
                    "DefaultPoses": "NeverCombat"
                }
            }
        },
        "neurons": {
            "DefaultSetting": [
                "HIT"
            ],
            "NeverCombat": []
        },
        "threat": {
            "clearThreatByLostPath": true,
            "clearThreatTimerByDistance": 3.0,
            "clearThreatTimerByLostPath": 16.0,
            "viewAttenuation": [
                {
                    "x": 10.0,
                    "y": 2.0
                },
                {
                    "x": 15.0,
                    "y": 0.800000011920929
                },
                {
                    "x": 20.0,
                    "y": 0.5
                },
                {
                    "x": 25.0,
                    "y": 0.30000001192092896
                },
                {
                    "x": 30.0,
                    "y": 0.20000000298023224
                }
            ]
        },
        "defendArea": {},
        "skills": {
            "101": {
                "name": "OnAlert",
                "skillType": "OnAlert",
                "castCondition": {
                    "pose": [
                        1,
                        9001,
                        9002,
                        9003,
                        9004
                    ]
                },
                "publicCDGroup": "",
                "ignoreGCD": true,
                "stateIDs": [
                    "Alert"
                ],
                "skillQueryingTime": 3.0,
                "flagTargetReachable": "10",
                "flagSelfOnTemplateCollider": "01",
                "flagSelfInZone": "10",
                "flagTargetInZone": "11"
            },
            "102": {
                "name": "OnAlert_Combat",
                "priority": 1,
                "castCondition": {
                    "pose": [
                        1,
                        9001,
                        9002,
                        9003,
                        9004,
                        10
                    ]
                },
                "publicCDGroup": "",
                "ignoreGCD": true,
                "stateIDs": [
                    "Alert"
                ],
                "skillQueryingTime": 3.0,
                "flagTargetReachable": "10",
                "flagSelfOnTemplateCollider": "01",
                "flagSelfInZone": "10",
                "flagTargetInZone": "11"
            },
            "111": {
                "name": "OnAlert_Crossleg",
                "skillType": "OnAlert",
                "castCondition": {
                    "pose": [
                        9505
                    ]
                },
                "publicCDGroup": "",
                "ignoreGCD": true,
                "stateIDs": [
                    "Crossleg_Alert"
                ],
                "skillQueryingTime": 3.0,
                "flagTargetReachable": "10",
                "flagSelfOnTemplateCollider": "01",
                "flagSelfInZone": "10",
                "flagTargetInZone": "11"
            },
            "112": {
                "name": "OnAlert_Crossleg_Combat",
                "castCondition": {
                    "pose": [
                        9505
                    ]
                },
                "publicCDGroup": "",
                "ignoreGCD": true,
                "stateIDs": [
                    "Crossleg_Alert"
                ],
                "skillQueryingTime": 3.0,
                "flagTargetReachable": "10",
                "flagSelfOnTemplateCollider": "01",
                "flagSelfInZone": "10",
                "flagTargetInZone": "11"
            },
            "201": {
                "name": "Slash",
                "combatSkillType": "MeleeAttack",
                "priority": 2,
                "castCondition": {
                    "pose": [
                        1001,
                        10
                    ],
                    "pickRangeMin": 1.5,
                    "pickRangeMax": 4.0
                },
                "cd": 4.0,
                "cdUpperRange": 2.0,
                "publicCDGroup": "",
                "stateIDs": [
                    "Slash01_AB",
                    "Slash01",
                    "Slash02_AB",
                    "Slash02"
                ],
                "flagTargetReachable": "10",
                "flagSelfOnTemplateCollider": "11",
                "flagSelfInZone": "11",
                "flagTargetInZone": "11"
            },
            "90011": {
                "name": "Feeding",
                "skillType": "Free",
                "castCondition": {
                    "pose": [
                        9001
                    ]
                },
                "cd": 6.0,
                "cdUpperRange": 6.0,
                "publicCDGroup": "",
                "ignoreGCD": true,
                "stateIDs": [
                    "FreePose_Feeding_Skill"
                ],
                "flagTargetReachable": "10",
                "flagSelfOnTemplateCollider": "01",
                "flagSelfInZone": "10",
                "flagTargetInZone": "11"
            },
            "90041": {
                "name": "Chat01",
                "skillType": "Free",
                "castCondition": {
                    "pose": [
                        9004
                    ]
                },
                "cd": 1.0,
                "cdUpperRange": 2.0,
                "publicCDGroup": "",
                "ignoreGCD": true,
                "stateIDs": [
                    "FreePose_StandingTalk_Skill"
                ],
                "flagTargetReachable": "10",
                "flagSelfOnTemplateCollider": "01",
                "flagSelfInZone": "10",
                "flagTargetInZone": "11"
            },
            "90042": {
                "name": "Chat01",
                "skillType": "Free",
                "castCondition": {
                    "pose": [
                        9004
                    ]
                },
                "cd": 1.0,
                "cdUpperRange": 2.0,
                "publicCDGroup": "",
                "ignoreGCD": true,
                "stateIDs": [
                    "FreePose_StandingTalk_Skill"
                ],
                "flagTargetReachable": "10",
                "flagSelfOnTemplateCollider": "01",
                "flagSelfInZone": "10",
                "flagTargetInZone": "11"
            },
            "90043": {
                "name": "Chat01",
                "skillType": "Free",
                "castCondition": {
                    "pose": [
                        9004
                    ]
                },
                "cd": 1.0,
                "cdUpperRange": 2.0,
                "publicCDGroup": "",
                "ignoreGCD": true,
                "stateIDs": [
                    "FreePose_StandingTalk_Skill"
                ],
                "flagTargetReachable": "10",
                "flagSelfOnTemplateCollider": "01",
                "flagSelfInZone": "10",
                "flagTargetInZone": "11"
            }
        },
        "skillGCD": 3.0,
        "returnToBornTactic": {
            "enable": true,
            "defaultSetting": {}
        },
        "wanderTactic": {
            "enable": true,
            "condition": {
                "pose": [
                    1
                ]
            },
            "defaultSetting": {
                "cdMax": 3.0,
                "cdMin": 1.5,
                "distanceFromBorn": 15.0,
                "distanceFromCurrentMin": 3.75,
                "distanceFromCurrentMax": 7.5
            }
        },
        "investigateTactic": {
            "enable": true,
            "condition": {
                "pose": [
                    1
                ]
            }
        },
        "meleeChargeTactic": {
            "enable": true,
            "condition": {
                "pose": [
                    1001,
                    10
                ]
            },
            "defaultSetting": {
                "startDistanceMin": 6.599999904632568,
                "startDistanceMax": 50.0,
                "stopDistance": 5.0,
                "innerDistance": 4.0
            }
        },
        "facingMoveTactic": {
            "enable": true,
            "condition": {
                "pose": [
                    1001,
                    10
                ]
            },
            "defaultSetting": {
                "rangeMin": 1.100000023841858,
                "rangeMax": 2.9000000953674316,
                "facingMoveWeight": {
                    "stop": 1.399999976158142,
                    "forward": 1.2000000476837158,
                    "back": 0.800000011920929,
                    "left": 3.0,
                    "right": 3.0
                },
                "HLNFLHJFDOB": "1111",
                "OGNGBHJOEOA": "1111"
            }
        }
    },
    "inputKeys": [
        {
            "keyID": 201,
            "inputKeyCode": 258,
            "abilityName": ""
        },
        {
            "keyID": 301,
            "inputKeyCode": 259,
            "abilityName": ""
        }
    ],
    "move": {
        "$type": "ConfigAnimatorMove",
        "facingMove": "FourDirection",
        "monsterSizeType": "StoopType"
    },
    "audio": {
        "animAudio": {
            "onTransitionIn": [
                {
                    "currentStateName": "",
                    "audioEvent": {
                        "text": ""
                    }
                }
            ],
            "onTransitionOut": [
                {
                    "currentStateName": "Feeding_Idle",
                    "audioEvent": {
                        "text": "Stop_sfx_NPC_Eremite_Female_Hatchet_feeding_skill"
                    }
                }
            ]
        }
    }
}