{
    "name": "Char_Skill_32032",
    "LCAAFCBKGHI": {
        "25457495": {
            "$type": "GCGDeclaredValueHealAmount",
            "type": "Heal",
            "value": 1
        },
        "-2060930438": {
            "$type": "GCGDeclaredValueDamage",
            "value": 2
        },
        "476224977": {
            "$type": "GCGDeclaredValueElement",
            "type": "Element",
            "ratio": "GCG_ELEMENT_HYDRO"
        },
        "-796309486": {
            "$type": "GCGDeclaredValueHealAmount",
            "type": "Heal",
            "value": 2
        }
    }
}