{
    "BigWorld_1_6_ZZYJ03_01_Inside_Vs": {
        "$type": "ConfigShapeRect",
        "useHeight": true,
        "height": 42.44544219970703,
        "centerType": "Center",
        "width": 35.514892578125,
        "length": 44.60107421875
    },
    "BigWorld_1_6_ZZYJ03_01_Outside_Vs": {
        "$type": "ConfigShapeRect",
        "useHeight": true,
        "height": 78.0898208618164,
        "centerType": "Center",
        "width": 111.4495849609375,
        "length": 96.5126953125
    },
    "BigWorld_1_6_ZZYJ03_02_Outside_Vs": {
        "$type": "ConfigShapeRect",
        "useHeight": true,
        "height": 48.893775939941406,
        "centerType": "Center",
        "width": 51.54766845703125,
        "length": 40.22802734375
    },
    "BigWorld_1_6_ZZYJ03_03_Outside_Vs": {
        "$type": "ConfigShapeRect",
        "useHeight": true,
        "height": 49.792259216308594,
        "centerType": "Center",
        "width": 52.302490234375,
        "length": 32.9677734375
    },
    "BigWorld_1_6_ZZYJ04_01_Inside_Vs": {
        "$type": "ConfigShapeCircle",
        "useHeight": true,
        "height": 94.56613159179688,
        "radius": 61.4720344543457
    },
    "BigWorld_1_6_ZZYJ04_01_Outside_Vs": {
        "$type": "ConfigShapeRect",
        "useHeight": true,
        "height": 118.54651641845703,
        "centerType": "Center",
        "width": 237.17974853515625,
        "length": 207.70556640625
    },
    "BigWorld_1_6_ZZYJ04_02_Outside_Vs": {
        "$type": "ConfigShapeRect",
        "useHeight": true,
        "height": 76.79061126708984,
        "centerType": "Center",
        "width": 60.2764778137207,
        "length": 106.8297348022461
    },
    "BigWorld_1_6_ZZYJ06_01_Inside_Vs": {
        "$type": "ConfigShapeRect",
        "useHeight": true,
        "height": 15.623409271240234,
        "centerType": "Center",
        "width": 22.32403564453125,
        "length": 17.999324798583984
    },
    "BigWorld_1_6_ZZYJ06_01_Outside_Vs": {
        "$type": "ConfigShapeRect",
        "useHeight": true,
        "height": 44.889976501464844,
        "centerType": "Center",
        "width": 67.25642395019531,
        "length": 58.83502960205078
    },
    "BigWorld_1_6_ZZYJ06_02_Outside_Vs": {
        "$type": "ConfigShapeRect",
        "useHeight": true,
        "height": 13.76739501953125,
        "centerType": "Center",
        "width": 44.65838623046875,
        "length": 32.46826171875
    },
    "BigWorld_1_6_ZZYJ07_Inside_Vs": {
        "$type": "ConfigShapeCircle",
        "useHeight": true,
        "height": 31.411354064941406,
        "radius": 16.448251724243164
    },
    "BigWorld_1_6_ZZYJ07__Outside_Vs": {
        "$type": "ConfigShapeRect",
        "useHeight": true,
        "height": 56.039947509765625,
        "centerType": "Center",
        "width": 73.92559051513672,
        "length": 64.19257354736328
    },
    "BigWorld_1_6_MachinerySpace_01_Inside_Ve": {
        "$type": "ConfigShapeRect",
        "useHeight": true,
        "height": 100.0,
        "centerType": "Center",
        "width": 57.24882888793945,
        "length": 90.47039794921875
    },
    "BigWorld_1_6_MachinerySpace_02_Inside_Ve": {
        "$type": "ConfigShapeRect",
        "useHeight": true,
        "height": 132.6331024169922,
        "centerType": "Center",
        "width": 152.5030975341797,
        "length": 137.18760681152344
    }
}