{
    "id": 136,
    "stageMatureEvents": [
        "Play_Amb_Dungeon_TheChasm"
    ],
    "stageExitEvents": [
        "Stop_Amb_Dungeon_TheChasm",
        "State_Music_NonCombat"
    ],
    "stateValue": "State_Dungeon_CYJY_RogueSafe",
    "EDGKEHCFEFC": {
        "text": "Play_Music_Dungeon"
    },
    "FJBGDAMGLNA": {
        "text": "Stop_Music_Dungeon"
    }
}