{
    "freeStyleStateMap": {
        "10100": [],
        "10101": [],
        "10201": [],
        "10301": [],
        "10401": [],
        "10501": [],
        "10601": [],
        "10701": [],
        "10801": [],
        "1231": [
            "Ani_Avatar_NPC_AkimboHand01BS_0",
            "Ani_Avatar_NPC_AkimboHand01BS_Sync_0",
            "Ani_Avatar_NPC_AkimboHand01Loop_0",
            "Ani_Avatar_NPC_AkimboHand01Loop_Sync_0",
            "Ani_Avatar_NPC_AkimboHand01AS_0",
            "Ani_Avatar_NPC_AkimboHand01AS_Sync_0",
            "Ani_Avatar_NPC_Akimbo01Loop_0",
            "Ani_Avatar_NPC_Akimbo01Loop_Sync_0",
            "Ani_Avatar_NPC_Akimbo01AS_0",
            "Ani_Avatar_NPC_Akimbo01AS_Sync_0"
        ],
        "1121": [
            "Ani_Avatar_NPC_HoldArmHand01BS_0",
            "Ani_Avatar_NPC_HoldArmHand01BS_Sync_0",
            "Ani_Avatar_NPC_HoldArmHand01Loop_0",
            "Ani_Avatar_NPC_HoldArmHand01Loop_Sync_0",
            "Ani_Avatar_NPC_HoldArmHand01AS_0",
            "Ani_Avatar_NPC_HoldArmHand01AS_Sync_0",
            "Ani_Avatar_NPC_HoldArm01Loop_0",
            "Ani_Avatar_NPC_HoldArm01Loop_Sync_0",
            "Ani_Avatar_NPC_HoldArm01AS_0",
            "Ani_Avatar_NPC_HoldArm01AS_Sync_0"
        ],
        "1191": [
            "Ani_Avatar_NPC_ThinkHand01BS_0",
            "Ani_Avatar_NPC_ThinkHand01Loop_0",
            "Ani_Avatar_NPC_ThinkHand01AS_0",
            "Ani_Avatar_NPC_Think01Loop_0",
            "Ani_Avatar_NPC_Think01Loop_Sync_0",
            "Ani_Avatar_NPC_Think01AS_0",
            "Ani_Avatar_NPC_Think01AS_Sync_0"
        ],
        "1221": [
            "Ani_Avatar_NPC_AkimboHand02BS_0",
            "Ani_Avatar_NPC_AkimboHand02BS_Sync_0",
            "Ani_Avatar_NPC_AkimboHand02Loop_0",
            "Ani_Avatar_NPC_AkimboHand02Loop_Sync_0",
            "Ani_Avatar_NPC_AkimboHand02AS_0",
            "Ani_Avatar_NPC_AkimboHand02AS_Sync_0",
            "Ani_Avatar_NPC_Akimbo02Loop_0",
            "Ani_Avatar_NPC_Akimbo02Loop_Sync_0",
            "Ani_Avatar_NPC_Akimbo02AS_0",
            "Ani_Avatar_NPC_Akimbo02AS_Sync_0"
        ],
        "8040": [
            "Ani_Avatar_NPC_SitHoldArm01BS_0",
            "Ani_Avatar_NPC_SitHoldArm01BS_Sync_0",
            "Ani_Avatar_NPC_SitHoldArm01Loop_0",
            "Ani_Avatar_NPC_SitHoldArm01Loop_Sync_0",
            "Ani_Avatar_NPC_SitHoldArm01AS_0",
            "Ani_Avatar_NPC_SitHoldArm01AS_Sync_0"
        ],
        "8012": [
            "Ani_Avatar_NPC_SitShrug01BS_0",
            "Ani_Avatar_NPC_SitShrug01Loop_0",
            "Ani_Avatar_NPC_SitShrug01AS_0"
        ],
        "8013": [
            "Ani_Avatar_NPC_SitThink01BS_0",
            "Ani_Avatar_NPC_SitThink01BS_Sync_0",
            "Ani_Avatar_NPC_SitThink01Loop_0",
            "Ani_Avatar_NPC_SitThink01Loop_Sync_0",
            "Ani_Avatar_NPC_SitThink01AS_0",
            "Ani_Avatar_NPC_SitThink01AS_Sync_0"
        ],
        "8011": [
            "Ani_Avatar_NPC_SitChat01BS_0",
            "Ani_Avatar_NPC_SitChat01BS_Sync_0",
            "Ani_Avatar_NPC_SitChat01Loop_0",
            "Ani_Avatar_NPC_SitChat01Loop_Sync_0",
            "Ani_Avatar_NPC_SitChat01AS_0",
            "Ani_Avatar_NPC_SitChat01AS_Sync_0"
        ],
        "8060": [
            "Ani_Avatar_NPC_SitPutArm01BS_0",
            "Ani_Avatar_NPC_SitPutArm01Loop_0",
            "Ani_Avatar_NPC_SitPutArm01AS_0"
        ],
        "8041": [
            "Ani_Avatar_NPC_SitHoldArmHand01BS_0",
            "Ani_Avatar_NPC_SitHoldArmHand01Loop_0",
            "Ani_Avatar_NPC_SitHoldArmHand01AS_0",
            "Ani_Avatar_NPC_SitHoldArm01Loop_0",
            "Ani_Avatar_NPC_SitHoldArm01Loop_Sync_0",
            "Ani_Avatar_NPC_SitHoldArm01AS_0",
            "Ani_Avatar_NPC_SitHoldArm01AS_Sync_0"
        ],
        "8065": [
            "Ani_Avatar_NPC_SitHoldHead01BS_0",
            "Ani_Avatar_NPC_SitHoldHead01Loop_0",
            "Ani_Avatar_NPC_SitHoldHead01AS_0",
            "Ani_Avatar_NPC_SitPutArm01Loop_0",
            "Ani_Avatar_NPC_SitPutArm01AS_0"
        ],
        "1230": [
            "Ani_Avatar_NPC_Akimbo01BS_0",
            "Ani_Avatar_NPC_Akimbo01BS_Sync_0",
            "Ani_Avatar_NPC_Akimbo01Loop_0",
            "Ani_Avatar_NPC_Akimbo01Loop_Sync_0",
            "Ani_Avatar_NPC_Akimbo01AS_0",
            "Ani_Avatar_NPC_Akimbo01AS_Sync_0"
        ],
        "1040": [
            "Ani_Avatar_NPC_Backrake01BS_0",
            "Ani_Avatar_NPC_Backrake01BS_Sync_0",
            "Ani_Avatar_NPC_Backrake01Loop_0",
            "Ani_Avatar_NPC_Backrake01Loop_Sync_0",
            "Ani_Avatar_NPC_Backrake01AS_0",
            "Ani_Avatar_NPC_Backrake01AS_Sync_0"
        ],
        "1050": [
            "Ani_Avatar_NPC_Confuse01BS_0",
            "Ani_Avatar_NPC_Confuse01BS_Sync_0",
            "Ani_Avatar_NPC_Confuse01Loop_0",
            "Ani_Avatar_NPC_Confuse01Loop_Sync_0",
            "Ani_Avatar_NPC_Confuse01AS_0",
            "Ani_Avatar_NPC_Confuse01AS_Sync_0"
        ],
        "1060": [
            "Ani_Avatar_NPC_Forerake01BS_0",
            "Ani_Avatar_NPC_Forerake01BS_Sync_0",
            "Ani_Avatar_NPC_Forerake01Loop_0",
            "Ani_Avatar_NPC_Forerake01Loop_Sync_0",
            "Ani_Avatar_NPC_Forerake01AS_0",
            "Ani_Avatar_NPC_Forerake01AS_Sync_0"
        ],
        "1070": [
            "Ani_Avatar_NPC_Afraid01BS_0",
            "Ani_Avatar_NPC_Afraid01BS_Sync_0",
            "Ani_Avatar_NPC_Afraid01Loop_0",
            "Ani_Avatar_NPC_Afraid01Loop_Sync_0",
            "Ani_Avatar_NPC_Afraid01AS_0",
            "Ani_Avatar_NPC_Afraid01AS_Sync_0"
        ],
        "1080": [
            "Ani_Avatar_NPC_Alert01BS_0",
            "Ani_Avatar_NPC_Alert01BS_Sync_0",
            "Ani_Avatar_NPC_Alert01Loop_0",
            "Ani_Avatar_NPC_Alert01Loop_Sync_0",
            "Ani_Avatar_NPC_Alert01AS_0",
            "Ani_Avatar_NPC_Alert01AS_Sync_0"
        ],
        "1090": [
            "Ani_Avatar_NPC_Shy01BS_0",
            "Ani_Avatar_NPC_Shy01BS_Sync_0",
            "Ani_Avatar_NPC_Shy01Loop_0",
            "Ani_Avatar_NPC_Shy01Loop_Sync_0",
            "Ani_Avatar_NPC_Shy01AS_0",
            "Ani_Avatar_NPC_Shy01AS_Sync_0"
        ],
        "1110": [
            "Ani_Avatar_NPC_Shrug01BS_0",
            "Ani_Avatar_NPC_Shrug01BS_Sync_0",
            "Ani_Avatar_NPC_Shrug01Loop_0",
            "Ani_Avatar_NPC_Shrug01Loop_Sync_0",
            "Ani_Avatar_NPC_Shrug01AS_0",
            "Ani_Avatar_NPC_Shrug01AS_Sync_0"
        ],
        "1120": [
            "Ani_Avatar_NPC_HoldArm01BS_0",
            "Ani_Avatar_NPC_HoldArm01BS_Sync_0",
            "Ani_Avatar_NPC_HoldArm01Loop_0",
            "Ani_Avatar_NPC_HoldArm01Loop_Sync_0",
            "Ani_Avatar_NPC_HoldArm01AS_0",
            "Ani_Avatar_NPC_HoldArm01AS_Sync_0"
        ],
        "1130": [
            "Ani_Avatar_NPC_StrikeChest01BS_0",
            "Ani_Avatar_NPC_StrikeChest01BS_Sync_0",
            "Ani_Avatar_NPC_StrikeChest01Loop_0",
            "Ani_Avatar_NPC_StrikeChest01Loop_Sync_0",
            "Ani_Avatar_NPC_StrikeChest01AS_0",
            "Ani_Avatar_NPC_StrikeChest01AS_Sync_0"
        ],
        "1150": [
            "Ani_Avatar_NPC_Refuse01_0",
            "Ani_Avatar_NPC_Refuse01_Sync_0"
        ],
        "1160": [
            "Ani_Avatar_NPC_Downcast01BS_0",
            "Ani_Avatar_NPC_Downcast01BS_Sync_0",
            "Ani_Avatar_NPC_Downcast01Loop_0",
            "Ani_Avatar_NPC_Downcast01Loop_Sync_0",
            "Ani_Avatar_NPC_Downcast01AS_0",
            "Ani_Avatar_NPC_Downcast01AS_Sync_0"
        ],
        "1170": [
            "Ani_Avatar_NPC_Chat01BS_0",
            "Ani_Avatar_NPC_Chat01BS_Sync_0",
            "Ani_Avatar_NPC_Chat01Loop_0",
            "Ani_Avatar_NPC_Chat01Loop_Sync_0",
            "Ani_Avatar_NPC_Chat01AS_0",
            "Ani_Avatar_NPC_Chat01AS_Sync_0"
        ],
        "1180": [
            "Ani_Avatar_NPC_Chat02BS_0",
            "Ani_Avatar_NPC_Chat02BS_Sync_0",
            "Ani_Avatar_NPC_Chat02Loop_0",
            "Ani_Avatar_NPC_Chat02Loop_Sync_0",
            "Ani_Avatar_NPC_Chat02AS_0",
            "Ani_Avatar_NPC_Chat02AS_Sync_0"
        ],
        "1190": [
            "Ani_Avatar_NPC_Think01BS_0",
            "Ani_Avatar_NPC_Think01BS_Sync_0",
            "Ani_Avatar_NPC_Think01Loop_0",
            "Ani_Avatar_NPC_Think01Loop_Sync_0",
            "Ani_Avatar_NPC_Think01AS_0",
            "Ani_Avatar_NPC_Think01AS_Sync_0"
        ],
        "9030": [],
        "9040": [],
        "1140": [
            "Ani_Avatar_NPC_PointR01BS_0",
            "Ani_Avatar_NPC_PointR01BS_Sync_0",
            "Ani_Avatar_NPC_PointR01Loop_0",
            "Ani_Avatar_NPC_PointR01Loop_Sync_0",
            "Ani_Avatar_NPC_PointR01AS_0",
            "Ani_Avatar_NPC_PointR01AS_Sync_0"
        ],
        "1210": [
            "Ani_Avatar_NPC_SaluteMengde01BS_0",
            "Ani_Avatar_NPC_SaluteMengde01Loop_0",
            "Ani_Avatar_NPC_SaluteMengde01AS_0"
        ],
        "1200": [
            "Ani_Avatar_NPC_Greet01_0",
            "Ani_Avatar_NPC_Greet01_Sync_0"
        ],
        "1240": [
            "Ani_Avatar_NPC_HoldHead01BS_0",
            "Ani_Avatar_NPC_HoldHead01BS_Sync_0",
            "Ani_Avatar_NPC_HoldHead01Loop_0",
            "Ani_Avatar_NPC_HoldHead01Loop_Sync_0",
            "Ani_Avatar_NPC_HoldHead01AS_0",
            "Ani_Avatar_NPC_HoldHead01AS_Sync_0"
        ],
        "1030": [
            "Ani_Avatar_NPC_PutHand01BS_0",
            "Ani_Avatar_NPC_PutHand01BS_Sync_0",
            "Ani_Avatar_NPC_PutHand01Loop_0",
            "Ani_Avatar_NPC_PutHand01Loop_Sync_0",
            "Ani_Avatar_NPC_PutHand01AS_0",
            "Ani_Avatar_NPC_PutHand01AS_Sync_0"
        ],
        "1220": [
            "Ani_Avatar_NPC_Akimbo02BS_0",
            "Ani_Avatar_NPC_Akimbo02BS_Sync_0",
            "Ani_Avatar_NPC_Akimbo02Loop_0",
            "Ani_Avatar_NPC_Akimbo02Loop_Sync_0",
            "Ani_Avatar_NPC_Akimbo02AS_0",
            "Ani_Avatar_NPC_Akimbo02AS_Sync_0"
        ],
        "8010": [],
        "8020": [],
        "1142": [
            "Ani_Avatar_NPC_PointL01BS_0",
            "Ani_Avatar_NPC_PointL01BS_Sync_0",
            "Ani_Avatar_NPC_PointL01Loop_0",
            "Ani_Avatar_NPC_PointL01Loop_Sync_0",
            "Ani_Avatar_NPC_PointL01AS_0",
            "Ani_Avatar_NPC_PointL01AS_Sync_0"
        ],
        "1141": [
            "Ani_Avatar_NPC_PointF01BS_0",
            "Ani_Avatar_NPC_PointF01BS_Sync_0",
            "Ani_Avatar_NPC_PointF01Loop_0",
            "Ani_Avatar_NPC_PointF01Loop_Sync_0",
            "Ani_Avatar_NPC_PointF01AS_0",
            "Ani_Avatar_NPC_PointF01AS_Sync_0"
        ],
        "1171": [
            "Ani_Avatar_NPC_Talk01_0",
            "Ani_Avatar_NPC_Talk01_Sync_0"
        ],
        "1172": [
            "Ani_Avatar_NPC_Talk02_0",
            "Ani_Avatar_NPC_Talk02_Sync_0"
        ],
        "1173": [
            "Ani_Avatar_NPC_Talk03_0",
            "Ani_Avatar_NPC_Talk03_Sync_0"
        ],
        "1250": [
            "Ani_Avatar_NPC_Request01BS_0",
            "Ani_Avatar_NPC_Request01Loop_0",
            "Ani_Avatar_NPC_Request01AS_0"
        ],
        "1260": [
            "Ani_Avatar_NPC_Clap01_0"
        ],
        "1270": [
            "Ani_Avatar_NPC_Cheer01BS_0",
            "Ani_Avatar_NPC_Cheer01BS_Sync_0",
            "Ani_Avatar_NPC_Cheer01Loop_0",
            "Ani_Avatar_NPC_Cheer01Loop_Sync_0",
            "Ani_Avatar_NPC_Cheer01AS_0",
            "Ani_Avatar_NPC_Cheer01AS_Sync_0"
        ],
        "1280": [
            "Ani_Avatar_NPC_Investigate01BS_0",
            "Ani_Avatar_NPC_Investigate01BS_Sync_0",
            "Ani_Avatar_NPC_Investigate01Loop_0",
            "Ani_Avatar_NPC_Investigate01Loop_Sync_0",
            "Ani_Avatar_NPC_Investigate01AS_0",
            "Ani_Avatar_NPC_Investigate01AS_Sync_0"
        ],
        "1290": [
            "Ani_Avatar_NPC_Laugh01_0",
            "Ani_Avatar_NPC_Laugh01_Sync_0"
        ],
        "1300": [
            "Ani_Avatar_NPC_Encourage01_0",
            "Ani_Avatar_NPC_Encourage01_Sync_0"
        ],
        "1310": [
            "Ani_Avatar_NPC_Dusting01_0",
            "Ani_Avatar_NPC_Dusting01_Sync_0"
        ],
        "4091": [
            "Ani_Avatar_PlayQin01BS_0",
            "Ani_Avatar_Bow_PlayQin01BS_Sync_0",
            "Ani_Avatar_PlayQin01Loop_0",
            "Ani_Avatar_Bow_PlayQin01Loop_Sync_0",
            "Ani_Avatar_PlayQin01AS_0",
            "Ani_Avatar_Bow_PlayQin01AS_Sync_0"
        ],
        "4090": [
            "Ani_Avatar_PlayLyre01BS_0",
            "Ani_Avatar_Bow_PlayLyre01BS_Sync_0",
            "Ani_Avatar_PlayLyre01Loop_0",
            "Ani_Avatar_Bow_PlayLyre01Loop_Sync_0",
            "Ani_Avatar_PlayLyre01AS_0",
            "Ani_Avatar_Bow_PlayLyre01AS_Sync_0"
        ],
        "1342": [
            "Ani_Avatar_Channel01BS_0",
            "Ani_Avatar_Bow_Channel01BS_Sync_0",
            "Ani_Avatar_Channel01Loop_0",
            "Ani_Avatar_Bow_Channel01Loop_Sync_0",
            "Ani_Avatar_Channel01AS_0",
            "Ani_Avatar_Bow_Channel01AS_Sync_0"
        ],
        "4503": [
            "Ani_Avatar_Bow_WeaponStandby_0",
            "Ani_Avatar_Bow_WeaponStandby_Sync_0"
        ],
        "1340": [
            "Ani_Avatar_Bow_Show_01_0",
            "Ani_Avatar_Bow_Show_01_Sync_0"
        ],
        "1343": [
            "Ani_Avatar_Bow_Show_02_0",
            "Ani_Avatar_Bow_Show_02_Sync_0"
        ],
        "4100": [
            "Ani_Avatar_NPC_SitOnFloor01Cycle_0",
            "Ani_Avatar_NPC_SitOnFloor01Cycle_Sync_0"
        ],
        "4121": [
            "Ani_Avatar_NPC_LieOnGround01Cycle_0",
            "Ani_Avatar_NPC_LieOnGround01Cycle_Sync_0"
        ]
    },
    "stateAnimeMap": {
        "Ani_Avatar_NPC_Akimbo01BS_0": 12002732006589543497,
        "Ani_Avatar_NPC_Akimbo01BS_Sync_0": 14299858445272150285,
        "Ani_Avatar_NPC_Backrake01BS_0": 12304312941631364880,
        "Ani_Avatar_NPC_Backrake01BS_Sync_0": 1007303884834742509,
        "Ani_Avatar_NPC_Confuse01BS_0": 3139081683793024625,
        "Ani_Avatar_NPC_Confuse01BS_Sync_0": 3442547348139502455,
        "Ani_Avatar_NPC_Forerake01BS_0": 15489957333636784756,
        "Ani_Avatar_NPC_Forerake01BS_Sync_0": 6324718306397902680,
        "Ani_Avatar_NPC_Afraid01BS_0": 12118280073056191585,
        "Ani_Avatar_NPC_Afraid01BS_Sync_0": 13545154317179272,
        "Ani_Avatar_NPC_Alert01BS_0": 6218644576028995025,
        "Ani_Avatar_NPC_Alert01BS_Sync_0": 5449846667812953608,
        "Ani_Avatar_NPC_Shy01BS_0": 10475580930823327634,
        "Ani_Avatar_NPC_Shy01BS_Sync_0": 3902941441360416761,
        "Ani_Avatar_NPC_Shrug01BS_0": 2344160388602314054,
        "Ani_Avatar_NPC_Shrug01BS_Sync_0": 10275995412448828442,
        "Ani_Avatar_NPC_HoldArm01BS_0": 14454480652233980313,
        "Ani_Avatar_NPC_HoldArm01BS_Sync_0": 4859967395992866037,
        "Ani_Avatar_NPC_StrikeChest01BS_0": 2199181609597335826,
        "Ani_Avatar_NPC_StrikeChest01BS_Sync_0": 777556668769526417,
        "Ani_Avatar_NPC_Refuse01_0": 13212186097833847035,
        "Ani_Avatar_NPC_Refuse01_Sync_0": 13543641916358400400,
        "Ani_Avatar_NPC_Akimbo01Loop_0": 5876594105244376747,
        "Ani_Avatar_NPC_Akimbo01Loop_Sync_0": 2318074996140197658,
        "Ani_Avatar_NPC_Akimbo01AS_0": 17515976922844950932,
        "Ani_Avatar_NPC_Akimbo01AS_Sync_0": 7926421244456276487,
        "Ani_Avatar_NPC_Backrake01Loop_0": 6937731160617886434,
        "Ani_Avatar_NPC_Backrake01Loop_Sync_0": 10862128400699494464,
        "Ani_Avatar_NPC_Backrake01AS_0": 6062109248297129891,
        "Ani_Avatar_NPC_Backrake01AS_Sync_0": 10401002272777134124,
        "Ani_Avatar_NPC_Confuse01Loop_0": 15757847635688408548,
        "Ani_Avatar_NPC_Confuse01Loop_Sync_0": 966322279378640655,
        "Ani_Avatar_NPC_Confuse01AS_0": 10125542119570611131,
        "Ani_Avatar_NPC_Confuse01AS_Sync_0": 2980195164878201320,
        "Ani_Avatar_NPC_Forerake01Loop_0": 8170168353111961343,
        "Ani_Avatar_NPC_Forerake01Loop_Sync_0": 15984233786258497261,
        "Ani_Avatar_NPC_Forerake01AS_0": 8527096408826045181,
        "Ani_Avatar_NPC_Forerake01AS_Sync_0": 13803115662039972326,
        "Ani_Avatar_NPC_Afraid01Loop_0": 15632757109642416464,
        "Ani_Avatar_NPC_Afraid01Loop_Sync_0": 11241249209695445781,
        "Ani_Avatar_NPC_Afraid01AS_0": 16878525226519596410,
        "Ani_Avatar_NPC_Afraid01AS_Sync_0": 12241948031103107229,
        "Ani_Avatar_NPC_Alert01Loop_0": 16238299689047756731,
        "Ani_Avatar_NPC_Alert01Loop_Sync_0": 15129947532773056065,
        "Ani_Avatar_NPC_Alert01AS_0": 7006777614685145405,
        "Ani_Avatar_NPC_Alert01AS_Sync_0": 5462500540970534597,
        "Ani_Avatar_NPC_Shy01Loop_0": 13293611592878795963,
        "Ani_Avatar_NPC_Shy01Loop_Sync_0": 12096719315887006096,
        "Ani_Avatar_NPC_Shy01AS_0": 3140275080341386018,
        "Ani_Avatar_NPC_Shy01AS_Sync_0": 17481536748522489725,
        "Ani_Avatar_NPC_Shrug01Loop_0": 12914892828708297928,
        "Ani_Avatar_NPC_Shrug01Loop_Sync_0": 11752316921032415589,
        "Ani_Avatar_NPC_Shrug01AS_0": 5795392761848685567,
        "Ani_Avatar_NPC_Shrug01AS_Sync_0": 6264494642449807778,
        "Ani_Avatar_NPC_HoldArm01Loop_0": 2712784722907725023,
        "Ani_Avatar_NPC_HoldArm01Loop_Sync_0": 6139246120332332002,
        "Ani_Avatar_NPC_HoldArm01AS_0": 14956858484718116242,
        "Ani_Avatar_NPC_HoldArm01AS_Sync_0": 1671778113918574786,
        "Ani_Avatar_NPC_StrikeChest01Loop_0": 12289133401867920319,
        "Ani_Avatar_NPC_StrikeChest01Loop_Sync_0": 16371403575010378927,
        "Ani_Avatar_NPC_StrikeChest01AS_0": 15082139529621809394,
        "Ani_Avatar_NPC_StrikeChest01AS_Sync_0": 1122981880512636,
        "Ani_Avatar_NPC_Downcast01BS_0": 16972052261006187983,
        "Ani_Avatar_NPC_Downcast01BS_Sync_0": 9187958432741653697,
        "Ani_Avatar_NPC_Chat01BS_0": 12334278457379334854,
        "Ani_Avatar_NPC_Chat01BS_Sync_0": 10035272949579089312,
        "Ani_Avatar_NPC_Chat02BS_0": 5822508329159035797,
        "Ani_Avatar_NPC_Chat02BS_Sync_0": 964946064510375440,
        "Ani_Avatar_NPC_Think01BS_0": 13723847955209670272,
        "Ani_Avatar_NPC_Think01BS_Sync_0": 936979861335644850,
        "Ani_Avatar_NPC_Downcast01AS_0": 2318526436723880692,
        "Ani_Avatar_NPC_Downcast01AS_Sync_0": 6468117261283235931,
        "Ani_Avatar_NPC_Downcast01Loop_0": 13654891879356656175,
        "Ani_Avatar_NPC_Downcast01Loop_Sync_0": 17295183317212631475,
        "Ani_Avatar_NPC_Chat01Loop_0": 13955028106685023541,
        "Ani_Avatar_NPC_Chat01Loop_Sync_0": 11274079809883193570,
        "Ani_Avatar_NPC_Chat01AS_0": 8373659355821280247,
        "Ani_Avatar_NPC_Chat01AS_Sync_0": 14883563645663202963,
        "Ani_Avatar_NPC_Chat02AS_0": 10289732853286531923,
        "Ani_Avatar_NPC_Chat02AS_Sync_0": 4210731425863267355,
        "Ani_Avatar_NPC_Chat02Loop_0": 13499657539522866334,
        "Ani_Avatar_NPC_Chat02Loop_Sync_0": 9427964968250605271,
        "Ani_Avatar_NPC_Think01Loop_0": 5147551597555091732,
        "Ani_Avatar_NPC_Think01Loop_Sync_0": 8852626549195850774,
        "Ani_Avatar_NPC_Think01AS_0": 1840744184921628751,
        "Ani_Avatar_NPC_Think01AS_Sync_0": 13603975367370876088,
        "Ani_Avatar_NPC_PointR01BS_0": 10887847079340830859,
        "Ani_Avatar_NPC_PointR01BS_Sync_0": 6173257276021359855,
        "Ani_Avatar_NPC_PointR01Loop_0": 9395754805933613668,
        "Ani_Avatar_NPC_PointR01Loop_Sync_0": 13910081214107085901,
        "Ani_Avatar_NPC_PointR01AS_0": 8726068157042884252,
        "Ani_Avatar_NPC_PointR01AS_Sync_0": 6177979461707758662,
        "Ani_Avatar_NPC_AkimboHand01Loop_0": 1231815773482736845,
        "Ani_Avatar_NPC_AkimboHand01Loop_Sync_0": 13062117874928005063,
        "Ani_Avatar_NPC_HoldArmHand01Loop_0": 18218276883247647089,
        "Ani_Avatar_NPC_HoldArmHand01Loop_Sync_0": 12370236770677504352,
        "Ani_Avatar_NPC_ThinkHand01Loop_0": 13535106672637416471,
        "Ani_Avatar_NPC_AkimboHand01BS_0": 16610762320734700397,
        "Ani_Avatar_NPC_AkimboHand01BS_Sync_0": 1909008616358112426,
        "Ani_Avatar_NPC_AkimboHand01AS_0": 13056383738308938672,
        "Ani_Avatar_NPC_AkimboHand01AS_Sync_0": 12521369049618153872,
        "Ani_Avatar_NPC_HoldArmHand01BS_0": 6817790876420330362,
        "Ani_Avatar_NPC_HoldArmHand01BS_Sync_0": 9640247461979082533,
        "Ani_Avatar_NPC_HoldArmHand01AS_0": 3377678925020103837,
        "Ani_Avatar_NPC_HoldArmHand01AS_Sync_0": 8705974120623929109,
        "Ani_Avatar_NPC_ThinkHand01BS_0": 3924216980230896905,
        "Ani_Avatar_NPC_ThinkHand01AS_0": 9966080335549816475,
        "Ani_Avatar_NPC_SaluteMengde01BS_0": 6948710577134158709,
        "Ani_Avatar_NPC_Greet01_0": 4807574160995883665,
        "Ani_Avatar_NPC_Greet01_Sync_0": 706819604457347013,
        "Ani_Avatar_NPC_HoldHead01BS_0": 3172197871657557207,
        "Ani_Avatar_NPC_HoldHead01BS_Sync_0": 12016245373133920901,
        "Ani_Avatar_NPC_HoldHead01Loop_0": 15134216858968829851,
        "Ani_Avatar_NPC_HoldHead01Loop_Sync_0": 4934410036975643331,
        "Ani_Avatar_NPC_HoldHead01AS_0": 511842456851281478,
        "Ani_Avatar_NPC_HoldHead01AS_Sync_0": 14206571812527517646,
        "Ani_Avatar_NPC_PutHand01BS_0": 15504407369039152460,
        "Ani_Avatar_NPC_PutHand01BS_Sync_0": 3924276640415737744,
        "Ani_Avatar_NPC_PutHand01Loop_0": 4643790343390901058,
        "Ani_Avatar_NPC_PutHand01Loop_Sync_0": 2667081333964430991,
        "Ani_Avatar_NPC_PutHand01AS_0": 13645449391005338112,
        "Ani_Avatar_NPC_PutHand01AS_Sync_0": 1551248594733553669,
        "Ani_Avatar_NPC_Akimbo02BS_0": 13596782976026310736,
        "Ani_Avatar_NPC_Akimbo02BS_Sync_0": 14347030843698797995,
        "Ani_Avatar_NPC_Akimbo02Loop_0": 5337688734592544898,
        "Ani_Avatar_NPC_Akimbo02Loop_Sync_0": 7874129809220023896,
        "Ani_Avatar_NPC_Akimbo02AS_0": 7851888299767128152,
        "Ani_Avatar_NPC_Akimbo02AS_Sync_0": 4142419783539997471,
        "Ani_Avatar_NPC_AkimboHand02Loop_0": 605139762964384541,
        "Ani_Avatar_NPC_AkimboHand02Loop_Sync_0": 14746307997526858656,
        "Ani_Avatar_NPC_AkimboHand02BS_0": 8526227671876100202,
        "Ani_Avatar_NPC_AkimboHand02BS_Sync_0": 12944413880282029104,
        "Ani_Avatar_NPC_AkimboHand02AS_0": 16924208477815429150,
        "Ani_Avatar_NPC_AkimboHand02AS_Sync_0": 6162425363332057315,
        "Ani_Avatar_NPC_SaluteMengde01Loop_0": 15575800236833985210,
        "Ani_Avatar_NPC_SaluteMengde01AS_0": 572634571619495982,
        "Ani_Avatar_NPC_PointF01BS_0": 2402652337658281069,
        "Ani_Avatar_NPC_PointF01BS_Sync_0": 7123621187614594094,
        "Ani_Avatar_NPC_PointF01Loop_0": 15383296661743566963,
        "Ani_Avatar_NPC_PointF01Loop_Sync_0": 16186785141327756986,
        "Ani_Avatar_NPC_PointF01AS_0": 17534256406230126150,
        "Ani_Avatar_NPC_PointF01AS_Sync_0": 5477108186834749869,
        "Ani_Avatar_NPC_PointL01BS_0": 10973455785460576960,
        "Ani_Avatar_NPC_PointL01BS_Sync_0": 12212428595241071274,
        "Ani_Avatar_NPC_PointL01Loop_0": 13955063712576629916,
        "Ani_Avatar_NPC_PointL01Loop_Sync_0": 8028837322842898298,
        "Ani_Avatar_NPC_PointL01AS_0": 830780926405855241,
        "Ani_Avatar_NPC_PointL01AS_Sync_0": 17678168269231520357,
        "Ani_Avatar_NPC_Talk01_0": 2607898709680240281,
        "Ani_Avatar_NPC_Talk01_Sync_0": 17333452494538504450,
        "Ani_Avatar_NPC_Talk02_0": 12203867269152116789,
        "Ani_Avatar_NPC_Talk02_Sync_0": 6776645117259245759,
        "Ani_Avatar_NPC_Talk03_0": 9549065577555540971,
        "Ani_Avatar_NPC_Talk03_Sync_0": 13471514564862229225,
        "Ani_Avatar_NPC_Request01BS_0": 1631481629563757939,
        "Ani_Avatar_NPC_Request01Loop_0": 17913889959995538269,
        "Ani_Avatar_NPC_Request01AS_0": 170203550946877348,
        "Ani_Avatar_NPC_Clap01_0": 2229706450100451062,
        "Ani_Avatar_NPC_Cheer01BS_0": 470026575450229787,
        "Ani_Avatar_NPC_Cheer01BS_Sync_0": 13236394822497443704,
        "Ani_Avatar_NPC_Cheer01Loop_0": 6876549708323835596,
        "Ani_Avatar_NPC_Cheer01Loop_Sync_0": 13702696315285878498,
        "Ani_Avatar_NPC_Cheer01AS_0": 4092214044762322594,
        "Ani_Avatar_NPC_Cheer01AS_Sync_0": 9291856693584814836,
        "Ani_Avatar_NPC_Investigate01BS_0": 7994758252379745588,
        "Ani_Avatar_NPC_Investigate01BS_Sync_0": 5549803520316547220,
        "Ani_Avatar_NPC_Investigate01Loop_0": 593214587457204204,
        "Ani_Avatar_NPC_Investigate01Loop_Sync_0": 6059925424886677931,
        "Ani_Avatar_NPC_Investigate01AS_0": 1846078816518724261,
        "Ani_Avatar_NPC_Investigate01AS_Sync_0": 12212434728149263623,
        "Ani_Avatar_NPC_Laugh01_0": 10620210162053771310,
        "Ani_Avatar_NPC_Laugh01_Sync_0": 5186253430408372881,
        "Ani_Avatar_NPC_Encourage01_0": 5904239476224598071,
        "Ani_Avatar_NPC_Encourage01_Sync_0": 8159775182827175278,
        "Ani_Avatar_NPC_Dusting01_0": 3548156315016490228,
        "Ani_Avatar_NPC_Dusting01_Sync_0": 6242294735255126776,
        "Ani_Avatar_NPC_SitHoldArm01AS_0": 10417777817592031813,
        "Ani_Avatar_NPC_SitHoldArm01AS_Sync_0": 9853173273154497751,
        "Ani_Avatar_NPC_SitHoldArm01Loop_0": 16052087864423792567,
        "Ani_Avatar_NPC_SitHoldArm01Loop_Sync_0": 17318125996944000042,
        "Ani_Avatar_NPC_SitHoldArm01BS_0": 1334257093933679047,
        "Ani_Avatar_NPC_SitHoldArm01BS_Sync_0": 5246457347720841072,
        "Ani_Avatar_NPC_SitHoldArmHand01BS_0": 9952101636424799802,
        "Ani_Avatar_NPC_SitHoldArmHand01Loop_0": 8806178906359010329,
        "Ani_Avatar_NPC_SitHoldArmHand01AS_0": 12153681914280866653,
        "Ani_Avatar_NPC_SitShrug01BS_0": 5357990700278847010,
        "Ani_Avatar_NPC_SitShrug01AS_0": 925101602883132821,
        "Ani_Avatar_NPC_SitShrug01Loop_0": 17945728910104799859,
        "Ani_Avatar_NPC_SitThink01BS_0": 15035801160016268432,
        "Ani_Avatar_NPC_SitThink01BS_Sync_0": 5275621026400799417,
        "Ani_Avatar_NPC_SitThink01AS_0": 16283003816497108250,
        "Ani_Avatar_NPC_SitThink01AS_Sync_0": 1049917884644314455,
        "Ani_Avatar_NPC_SitThink01Loop_0": 14435457960484611169,
        "Ani_Avatar_NPC_SitThink01Loop_Sync_0": 16294287985048845981,
        "Ani_Avatar_NPC_SitChat01BS_0": 16311306459120472037,
        "Ani_Avatar_NPC_SitChat01BS_Sync_0": 11334086572651238969,
        "Ani_Avatar_NPC_SitChat01AS_0": 10240025634800466028,
        "Ani_Avatar_NPC_SitChat01AS_Sync_0": 3706121959618338246,
        "Ani_Avatar_NPC_SitChat01Loop_0": 18143174498540232073,
        "Ani_Avatar_NPC_SitChat01Loop_Sync_0": 3381170419095293912,
        "Ani_Avatar_NPC_SitPutArm01BS_0": 2326250563327410541,
        "Ani_Avatar_NPC_SitPutArm01Loop_0": 1121145294203526288,
        "Ani_Avatar_NPC_SitPutArm01AS_0": 8168970659030489108,
        "Ani_Avatar_NPC_SitHoldHead01BS_0": 4008010287998997599,
        "Ani_Avatar_NPC_SitHoldHead01AS_0": 18102088711552131520,
        "Ani_Avatar_NPC_SitHoldHead01Loop_0": 10427567228858813500,
        "Ani_Avatar_PlayQin01BS_0": 16551969031138959036,
        "Ani_Avatar_Bow_PlayQin01BS_Sync_0": 10049145564664995212,
        "Ani_Avatar_PlayQin01Loop_0": 17418587647401392116,
        "Ani_Avatar_Bow_PlayQin01Loop_Sync_0": 17173145542854846232,
        "Ani_Avatar_PlayQin01AS_0": 5250994942578466823,
        "Ani_Avatar_Bow_PlayQin01AS_Sync_0": 7006661961189953977,
        "Ani_Avatar_PlayLyre01AS_0": 6745461515084530887,
        "Ani_Avatar_Bow_PlayLyre01AS_Sync_0": 11276366072372699943,
        "Ani_Avatar_PlayLyre01Loop_0": 14460331048294565800,
        "Ani_Avatar_Bow_PlayLyre01Loop_Sync_0": 4006019839408967135,
        "Ani_Avatar_PlayLyre01BS_0": 13474228108707133881,
        "Ani_Avatar_Bow_PlayLyre01BS_Sync_0": 15991912921647412031,
        "Ani_Avatar_Channel01BS_0": 12207238744912418961,
        "Ani_Avatar_Bow_Channel01BS_Sync_0": 3827884511412926574,
        "Ani_Avatar_Channel01Loop_0": 7012739679889598705,
        "Ani_Avatar_Bow_Channel01Loop_Sync_0": 13740438849573697655,
        "Ani_Avatar_Channel01AS_0": 827808658857509166,
        "Ani_Avatar_Bow_Channel01AS_Sync_0": 17849100817371039998,
        "Ani_Avatar_Bow_WeaponStandby_0": 11328231356504373418,
        "Ani_Avatar_Bow_WeaponStandby_Sync_0": 12695392867971288094,
        "Ani_Avatar_NPC_SitOnFloor01Cycle_0": 17649435608231827287,
        "Ani_Avatar_NPC_SitOnFloor01Cycle_Sync_0": 5873725292700020541,
        "Ani_Avatar_Bow_Show_02_0": 17929825831320749279,
        "Ani_Avatar_Bow_Show_02_Sync_0": 17929825831320749279,
        "Ani_Avatar_Bow_Show_01_0": 3520022050483225931,
        "Ani_Avatar_Bow_Show_01_Sync_0": 3520022050483225931,
        "Ani_Avatar_NPC_LieOnGround01Cycle_0": 14517829710377945851,
        "Ani_Avatar_NPC_LieOnGround01Cycle_Sync_0": 4412087435085912830
    }
}