{
    "id": 163,
    "stageMatureEvents": [
        "Play_Amb_Dungeon_DeshretTemple"
    ],
    "stageExitEvents": [
        "Stop_Amb_Dungeon_DeshretTemple",
        "State_Music_NonCombat"
    ],
    "stateValue": "State_Dungeon_XM31_DeshretTemple",
    "EDGKEHCFEFC": {
        "text": "Play_Music_Dungeon"
    },
    "FJBGDAMGLNA": {
        "text": "Stop_Music_Dungeon"
    }
}