{
    "DAPLEKMCBMB": [
        {
            "name": "Character_Qin_Q_Normal",
            "IOMFAGOGAAJ": [
                {
                    "PIBJPDLMPKJ": 0.44999998807907104,
                    "actionGroups": [
                        {
                            "actions": [
                                {
                                    "$type": "GcgBehaviourSwitchOnCardLoopEffect",
                                    "KEACJLNKCHK": {
                                        "target": "Actor"
                                    }
                                },
                                {
                                    "$type": "GcgBehaviourFireEffect",
                                    "KEACJLNKCHK": {
                                        "target": "Actor"
                                    },
                                    "effectName": "Eff_Gcg_Common_ElementalBurst_NormalCharge",
                                    "KOGELNIBFMB": "",
                                    "GGPHPGIOHIC": "",
                                    "BFEBMINFJID": {
                                        "$type": "GcgBornRotationFollow"
                                    }
                                }
                            ]
                        }
                    ]
                },
                {
                    "PIBJPDLMPKJ": 0.3499999940395355,
                    "actionGroups": [
                        {
                            "actions": [
                                {
                                    "$type": "GcgBehaviourFireEffect",
                                    "KEACJLNKCHK": {
                                        "target": "Actor"
                                    },
                                    "effectName": "Eff_Gcg_Avatar_Qin_ElementalBurst",
                                    "KOGELNIBFMB": "",
                                    "GGPHPGIOHIC": "",
                                    "BFEBMINFJID": {
                                        "$type": "GcgBornRotationFollow"
                                    }
                                }
                            ]
                        }
                    ]
                },
                {
                    "actionGroups": [
                        {
                            "actions": [
                                {
                                    "$type": "GcgBehaviourTriggerAttack",
                                    "KEACJLNKCHK": {
                                        "target": "AllTarget"
                                    }
                                }
                            ]
                        }
                    ]
                }
            ],
            "DELOACENBLE": [
                {
                    "PIBJPDLMPKJ": 0.5,
                    "actionGroups": [
                        {
                            "actions": [
                                {
                                    "$type": "GcgBehaviourFireEffect",
                                    "KEACJLNKCHK": {
                                        "target": "ContextTarget"
                                    },
                                    "effectName": "Eff_Gcg_Common_ElementalArt_Healing_Hit",
                                    "KOGELNIBFMB": "",
                                    "GGPHPGIOHIC": "",
                                    "BFEBMINFJID": {
                                        "$type": "GcgBornRotationFollow"
                                    }
                                }
                            ]
                        }
                    ]
                },
                {
                    "actionGroups": [
                        {
                            "actions": [
                                {
                                    "$type": "GcgBehaviourSwitchOnCardLoopEffect",
                                    "KEACJLNKCHK": {
                                        "target": "Actor"
                                    },
                                    "GFKOKIKOMNA": true
                                }
                            ]
                        }
                    ]
                }
            ]
        },
        {
            "name": "Character_Qin_Pugongying",
            "IOMFAGOGAAJ": [
                {
                    "actionGroups": [
                        {
                            "actions": [
                                {
                                    "$type": "GcgBehaviourFireEffectBullet",
                                    "effectName": "Eff_Gcg_Common_Gadget_Wind_Bullet",
                                    "IKMFOLAIPCF": true,
                                    "EIEMNAJKNCJ": true,
                                    "GBFHLLMDNDM": {
                                        "target": "Actor",
                                        "BPJDFFOHAEA": true
                                    },
                                    "IFEOMJOIGAL": {
                                        "target": "MainTarget",
                                        "ECAIOKALINJ": "ActorOppoCamp"
                                    },
                                    "BFEBMINFJID": {
                                        "$type": "GcgBornRotationLookAtTarget",
                                        "KEACJLNKCHK": {
                                            "target": "MainTarget",
                                            "ECAIOKALINJ": "ActorOppoCamp"
                                        }
                                    },
                                    "HNJEJJMBDHO": {
                                        "y": 0.5
                                    },
                                    "DPLGBNHILIE": "Eff_Gcg_Motion_Common_Gadget_Bullet",
                                    "IOOMGNCKOAD": "",
                                    "JDGHDEKLCPG": [
                                        {
                                            "$type": "GcgBehaviourEventDestroy",
                                            "LPDGLAMNADD": "OnHit"
                                        }
                                    ]
                                }
                            ]
                        }
                    ]
                }
            ],
            "DELOACENBLE": [
                {
                    "BMEPDFGOOCP": {
                        "$type": "GcgPredictByTarget",
                        "KEACJLNKCHK": {
                            "target": "MainTarget",
                            "ECAIOKALINJ": "ActorOppoCamp"
                        }
                    },
                    "actionGroups": [
                        {
                            "actions": [
                                {
                                    "$type": "GcgBehaviourFireEffect",
                                    "KEACJLNKCHK": {
                                        "target": "ContextTarget"
                                    },
                                    "effectName": "Eff_Gcg_Common_Gadget_Wind_Hit",
                                    "KOGELNIBFMB": "",
                                    "GGPHPGIOHIC": "",
                                    "BFEBMINFJID": {
                                        "$type": "GcgBornRotationLookAtTarget",
                                        "KEACJLNKCHK": {
                                            "target": "Actor",
                                            "BPJDFFOHAEA": true
                                        }
                                    }
                                },
                                {
                                    "$type": "GcgBehaviourTriggerAttack",
                                    "KEACJLNKCHK": {
                                        "target": "AllTarget",
                                        "ECAIOKALINJ": "ActorSameCamp"
                                    }
                                },
                                {
                                    "$type": "GcgBehaviourTriggerAudioEvent",
                                    "KEACJLNKCHK": {
                                        "target": "ContextTarget"
                                    },
                                    "ICFDNHIPHDB": true,
                                    "eventName": {
                                        "text": "Play_vfx_GCG_common_gadget_wind_hit"
                                    }
                                }
                            ]
                        }
                    ]
                },
                {
                    "BMEPDFGOOCP": {
                        "$type": "GcgPredictByAnd",
                        "OPOHEEGHIAH": [
                            {
                                "$type": "GcgPredictByAttackSkill",
                                "JILDLKOLCID": [
                                    101,
                                    102,
                                    103,
                                    104,
                                    105,
                                    106,
                                    107,
                                    108,
                                    109,
                                    110,
                                    111,
                                    112,
                                    113,
                                    114,
                                    115,
                                    116,
                                    117
                                ]
                            },
                            {
                                "$type": "GcgPredictByTarget",
                                "KEACJLNKCHK": {
                                    "target": "MainTarget",
                                    "ECAIOKALINJ": "ActorOppoCamp"
                                }
                            }
                        ]
                    },
                    "actionGroups": [
                        {
                            "BMEPDFGOOCP": {
                                "$type": "GcgPredictByAttackSkill",
                                "JILDLKOLCID": [
                                    101
                                ]
                            },
                            "actions": [
                                {
                                    "$type": "GcgBehaviourFireEffect",
                                    "KEACJLNKCHK": {
                                        "target": "ContextTarget"
                                    },
                                    "effectName": "Eff_Gcg_Common_Reaction_Melt",
                                    "KOGELNIBFMB": "",
                                    "GGPHPGIOHIC": "",
                                    "BFEBMINFJID": {
                                        "$type": "GcgBornRotationFollow"
                                    }
                                }
                            ]
                        },
                        {
                            "BMEPDFGOOCP": {
                                "$type": "GcgPredictByAttackSkill",
                                "JILDLKOLCID": [
                                    102
                                ]
                            },
                            "actions": [
                                {
                                    "$type": "GcgBehaviourFireEffect",
                                    "KEACJLNKCHK": {
                                        "target": "ContextTarget"
                                    },
                                    "effectName": "Eff_Gcg_Common_Reaction_Steam",
                                    "KOGELNIBFMB": "",
                                    "GGPHPGIOHIC": "",
                                    "BFEBMINFJID": {
                                        "$type": "GcgBornRotationFollow"
                                    }
                                }
                            ]
                        },
                        {
                            "BMEPDFGOOCP": {
                                "$type": "GcgPredictByAttackSkill",
                                "JILDLKOLCID": [
                                    103
                                ]
                            },
                            "actions": [
                                {
                                    "$type": "GcgBehaviourFireEffect",
                                    "KEACJLNKCHK": {
                                        "target": "ContextTarget"
                                    },
                                    "effectName": "Eff_Gcg_Common_Reaction_Overload",
                                    "KOGELNIBFMB": "",
                                    "GGPHPGIOHIC": "",
                                    "BFEBMINFJID": {
                                        "$type": "GcgBornRotationFollow"
                                    }
                                }
                            ]
                        },
                        {
                            "BMEPDFGOOCP": {
                                "$type": "GcgPredictByAttackSkill",
                                "JILDLKOLCID": [
                                    104
                                ]
                            },
                            "actions": [
                                {
                                    "$type": "GcgBehaviourFireEffect",
                                    "KEACJLNKCHK": {
                                        "target": "ContextTarget"
                                    },
                                    "effectName": "Eff_Gcg_Common_Reaction_Superconductor",
                                    "KOGELNIBFMB": "",
                                    "GGPHPGIOHIC": "",
                                    "BFEBMINFJID": {
                                        "$type": "GcgBornRotationFollow"
                                    }
                                }
                            ]
                        },
                        {
                            "BMEPDFGOOCP": {
                                "$type": "GcgPredictByAttackSkill",
                                "JILDLKOLCID": [
                                    105
                                ]
                            },
                            "actions": [
                                {
                                    "$type": "GcgBehaviourFireEffect",
                                    "KEACJLNKCHK": {
                                        "target": "ContextTarget"
                                    },
                                    "effectName": "Eff_Gcg_Common_Reaction_StickElectric",
                                    "KOGELNIBFMB": "",
                                    "GGPHPGIOHIC": "",
                                    "BFEBMINFJID": {
                                        "$type": "GcgBornRotationFollow"
                                    }
                                }
                            ]
                        },
                        {
                            "BMEPDFGOOCP": {
                                "$type": "GcgPredictByAttackSkill",
                                "JILDLKOLCID": [
                                    1061
                                ]
                            },
                            "actions": [
                                {
                                    "$type": "GcgBehaviourFireEffect",
                                    "KEACJLNKCHK": {
                                        "target": "ContextTarget"
                                    },
                                    "effectName": "Eff_Gcg_Common_Reaction_BreakIce",
                                    "KOGELNIBFMB": "",
                                    "GGPHPGIOHIC": "",
                                    "BFEBMINFJID": {
                                        "$type": "GcgBornRotationFollow"
                                    }
                                }
                            ]
                        },
                        {
                            "BMEPDFGOOCP": {
                                "$type": "GcgPredictByAttackSkill",
                                "JILDLKOLCID": [
                                    108
                                ]
                            },
                            "actions": [
                                {
                                    "$type": "GcgBehaviourFireEffect",
                                    "KEACJLNKCHK": {
                                        "target": "ContextTarget"
                                    },
                                    "effectName": "Eff_Gcg_Common_Reaction_Swirl_Water",
                                    "KOGELNIBFMB": "",
                                    "GGPHPGIOHIC": "",
                                    "BFEBMINFJID": {
                                        "$type": "GcgBornRotationFollow"
                                    }
                                }
                            ]
                        },
                        {
                            "BMEPDFGOOCP": {
                                "$type": "GcgPredictByAttackSkill",
                                "JILDLKOLCID": [
                                    107
                                ]
                            },
                            "actions": [
                                {
                                    "$type": "GcgBehaviourFireEffect",
                                    "KEACJLNKCHK": {
                                        "target": "ContextTarget"
                                    },
                                    "effectName": "Eff_Gcg_Common_Reaction_Swirl_Ice",
                                    "KOGELNIBFMB": "",
                                    "GGPHPGIOHIC": "",
                                    "BFEBMINFJID": {
                                        "$type": "GcgBornRotationFollow"
                                    }
                                }
                            ]
                        },
                        {
                            "BMEPDFGOOCP": {
                                "$type": "GcgPredictByAttackSkill",
                                "JILDLKOLCID": [
                                    109
                                ]
                            },
                            "actions": [
                                {
                                    "$type": "GcgBehaviourFireEffect",
                                    "KEACJLNKCHK": {
                                        "target": "ContextTarget"
                                    },
                                    "effectName": "Eff_Gcg_Common_Reaction_Swirl_Fire",
                                    "KOGELNIBFMB": "",
                                    "GGPHPGIOHIC": "",
                                    "BFEBMINFJID": {
                                        "$type": "GcgBornRotationFollow"
                                    }
                                }
                            ]
                        },
                        {
                            "BMEPDFGOOCP": {
                                "$type": "GcgPredictByAttackSkill",
                                "JILDLKOLCID": [
                                    110
                                ]
                            },
                            "actions": [
                                {
                                    "$type": "GcgBehaviourFireEffect",
                                    "KEACJLNKCHK": {
                                        "target": "ContextTarget"
                                    },
                                    "effectName": "Eff_Gcg_Common_Reaction_Swirl_Electric",
                                    "KOGELNIBFMB": "",
                                    "GGPHPGIOHIC": "",
                                    "BFEBMINFJID": {
                                        "$type": "GcgBornRotationFollow"
                                    }
                                }
                            ]
                        },
                        {
                            "BMEPDFGOOCP": {
                                "$type": "GcgPredictByAttackSkill",
                                "JILDLKOLCID": [
                                    111,
                                    112,
                                    113,
                                    114
                                ]
                            },
                            "actions": [
                                {
                                    "$type": "GcgBehaviourFireEffect",
                                    "KEACJLNKCHK": {
                                        "target": "ContextTarget"
                                    },
                                    "effectName": "Eff_Gcg_Common_Reaction_Crystal",
                                    "KOGELNIBFMB": "",
                                    "GGPHPGIOHIC": "",
                                    "BFEBMINFJID": {
                                        "$type": "GcgBornRotationFollow"
                                    }
                                }
                            ]
                        },
                        {
                            "BMEPDFGOOCP": {
                                "$type": "GcgPredictByAttackSkill",
                                "JILDLKOLCID": [
                                    115
                                ]
                            },
                            "actions": [
                                {
                                    "$type": "GcgBehaviourFireEffect",
                                    "KEACJLNKCHK": {
                                        "target": "ContextTarget"
                                    },
                                    "effectName": "Eff_Gcg_Common_Reaction_Burning_Grass",
                                    "KOGELNIBFMB": "",
                                    "GGPHPGIOHIC": "",
                                    "BFEBMINFJID": {
                                        "$type": "GcgBornRotationFollow"
                                    }
                                }
                            ]
                        },
                        {
                            "BMEPDFGOOCP": {
                                "$type": "GcgPredictByAttackSkill",
                                "JILDLKOLCID": [
                                    116
                                ]
                            },
                            "actions": [
                                {
                                    "$type": "GcgBehaviourFireEffect",
                                    "KEACJLNKCHK": {
                                        "target": "ContextTarget"
                                    },
                                    "effectName": "Eff_Gcg_Common_Reaction_Overgrow",
                                    "KOGELNIBFMB": "",
                                    "GGPHPGIOHIC": "",
                                    "BFEBMINFJID": {
                                        "$type": "GcgBornRotationFollow"
                                    }
                                }
                            ]
                        },
                        {
                            "BMEPDFGOOCP": {
                                "$type": "GcgPredictByAttackSkill",
                                "JILDLKOLCID": [
                                    117
                                ]
                            },
                            "actions": [
                                {
                                    "$type": "GcgBehaviourFireEffect",
                                    "KEACJLNKCHK": {
                                        "target": "ContextTarget"
                                    },
                                    "effectName": "Eff_Gcg_Common_Reaction_Overdose",
                                    "KOGELNIBFMB": "",
                                    "GGPHPGIOHIC": "",
                                    "BFEBMINFJID": {
                                        "$type": "GcgBornRotationFollow"
                                    }
                                }
                            ]
                        }
                    ]
                },
                {
                    "BMEPDFGOOCP": {
                        "$type": "GcgPredictByTarget",
                        "KEACJLNKCHK": {
                            "target": "MainTarget",
                            "ECAIOKALINJ": "ActorSameCamp"
                        }
                    },
                    "actionGroups": [
                        {
                            "actions": [
                                {
                                    "$type": "GcgBehaviourFireEffect",
                                    "KEACJLNKCHK": {
                                        "target": "MainTarget",
                                        "ECAIOKALINJ": "ActorSameCamp"
                                    },
                                    "effectName": "Eff_Gcg_Common_ElementalArt_Healing_Hit",
                                    "BJENFKMDBEH": true,
                                    "KOGELNIBFMB": "",
                                    "GGPHPGIOHIC": "",
                                    "BFEBMINFJID": {
                                        "$type": "GcgBornRotationFollow"
                                    }
                                }
                            ]
                        }
                    ]
                }
            ]
        }
    ]
}