{
    "DAPLEKMCBMB": [
        {
            "name": "Character_Cyno_Q_Golden",
            "IOMFAGOGAAJ": [
                {
                    "PIBJPDLMPKJ": 1.6399999856948853,
                    "actionGroups": [
                        {
                            "actions": [
                                {
                                    "$type": "GcgBehaviourSwitchGoldenLoopEffect",
                                    "KEACJLNKCHK": {
                                        "target": "Actor"
                                    }
                                },
                                {
                                    "$type": "GcgBehaviourSwitchOnCardLoopEffect",
                                    "KEACJLNKCHK": {
                                        "target": "Actor"
                                    }
                                },
                                {
                                    "$type": "GcgBehaviourTriggerSpineAttack",
                                    "KEACJLNKCHK": {
                                        "target": "Actor"
                                    }
                                },
                                {
                                    "$type": "GcgBehaviourFireEffect",
                                    "KEACJLNKCHK": {
                                        "target": "Actor"
                                    },
                                    "effectName": "Eff_Gcg_Avatar_Cyno_ElementalBurst_Spine",
                                    "ODHIEKLBPFL": true,
                                    "KOGELNIBFMB": "",
                                    "GGPHPGIOHIC": "",
                                    "BFEBMINFJID": {
                                        "$type": "GcgBornRotationFollow"
                                    }
                                }
                            ]
                        }
                    ]
                },
                {
                    "PIBJPDLMPKJ": 0.10999999940395355,
                    "actionGroups": [
                        {
                            "actions": [
                                {
                                    "$type": "GcgBehaviourFireEffect",
                                    "KEACJLNKCHK": {
                                        "target": "Actor"
                                    },
                                    "effectName": "Eff_Gcg_Avatar_Cyno_ElementalBurst_BS",
                                    "KOGELNIBFMB": "",
                                    "GGPHPGIOHIC": "",
                                    "BFEBMINFJID": {
                                        "$type": "GcgBornRotationFollow"
                                    }
                                }
                            ]
                        }
                    ]
                },
                {
                    "PIBJPDLMPKJ": 1.8799999952316284,
                    "actionGroups": [
                        {
                            "actions": [
                                {
                                    "$type": "GcgBehaviourTriggerAttack",
                                    "KEACJLNKCHK": {
                                        "target": "MainTarget"
                                    }
                                },
                                {
                                    "$type": "GcgBehaviourShakeScreen",
                                    "KEACJLNKCHK": {
                                        "target": "MainTarget"
                                    },
                                    "FONIHNAMJML": "Common_ShakeScreen_Test_Q"
                                }
                            ]
                        }
                    ]
                },
                {
                    "PIBJPDLMPKJ": 0.029999999329447746,
                    "actionGroups": [
                        {
                            "BMEPDFGOOCP": {
                                "$type": "GcgPredictCheckToken",
                                "KEACJLNKCHK": {
                                    "target": "Actor"
                                },
                                "JFBFOFMDDIC": 114041,
                                "token": "GCG_TOKEN_COUNTER",
                                "compareType": "GreaterEqual",
                                "ODHKILPNDHA": 2
                            },
                            "actions": [
                                {
                                    "$type": "GcgBehaviourChangeForm",
                                    "KEACJLNKCHK": {
                                        "target": "Actor"
                                    },
                                    "NDGIIBOCPLK": "SpecialB"
                                }
                            ],
                            "failActions": [
                                {
                                    "$type": "GcgBehaviourChangeForm",
                                    "KEACJLNKCHK": {
                                        "target": "Actor"
                                    },
                                    "NDGIIBOCPLK": "Normal"
                                }
                            ]
                        },
                        {
                            "BMEPDFGOOCP": {
                                "$type": "GcgPredictByOr",
                                "OPOHEEGHIAH": [
                                    {
                                        "$type": "GcgPredictCheckToken",
                                        "KEACJLNKCHK": {
                                            "target": "Actor"
                                        },
                                        "JFBFOFMDDIC": 114041,
                                        "token": "GCG_TOKEN_COUNTER",
                                        "compareType": "Equal"
                                    },
                                    {
                                        "$type": "GcgPredictCheckToken",
                                        "KEACJLNKCHK": {
                                            "target": "Actor"
                                        },
                                        "JFBFOFMDDIC": 114041,
                                        "token": "GCG_TOKEN_COUNTER",
                                        "compareType": "Equal",
                                        "ODHKILPNDHA": 1
                                    }
                                ]
                            },
                            "actions": [
                                {
                                    "$type": "GcgBehaviourFireEffect",
                                    "KEACJLNKCHK": {
                                        "target": "Actor"
                                    },
                                    "effectName": "Eff_Gcg_Common_Spine_ReturnToLoop",
                                    "ODHIEKLBPFL": true,
                                    "KOGELNIBFMB": "",
                                    "GGPHPGIOHIC": "",
                                    "BFEBMINFJID": {
                                        "$type": "GcgBornRotationFollow"
                                    }
                                }
                            ]
                        }
                    ]
                },
                {
                    "actionGroups": [
                        {
                            "actions": [
                                {
                                    "$type": "GcgBehaviourSwitchGoldenLoopEffect",
                                    "KEACJLNKCHK": {
                                        "target": "Actor"
                                    },
                                    "GFKOKIKOMNA": true
                                },
                                {
                                    "$type": "GcgBehaviourSwitchOnCardLoopEffect",
                                    "KEACJLNKCHK": {
                                        "target": "Actor"
                                    },
                                    "GFKOKIKOMNA": true
                                }
                            ]
                        }
                    ]
                }
            ],
            "DELOACENBLE": [
                {
                    "actionGroups": [
                        {
                            "actions": [
                                {
                                    "$type": "GcgBehaviourFireEffect",
                                    "KEACJLNKCHK": {
                                        "target": "ContextTarget"
                                    },
                                    "effectName": "Eff_Gcg_Avatar_Cyno_ElementalBurst_Hit",
                                    "KOGELNIBFMB": "",
                                    "GGPHPGIOHIC": "",
                                    "BFEBMINFJID": {
                                        "$type": "GcgBornRotationSpecific"
                                    },
                                    "NEOPKKJDBIF": "HorizontalAxisFlip"
                                },
                                {
                                    "$type": "GcgBehaviourShakeScreen",
                                    "KEACJLNKCHK": {
                                        "target": "ContextTarget"
                                    },
                                    "FONIHNAMJML": "Common_ShakeScreen_Test_Q"
                                },
                                {
                                    "$type": "GcgBehaviourRunMoveScript",
                                    "DPLGBNHILIE": "GcgMotion_Hit04_05",
                                    "IOOMGNCKOAD": "",
                                    "JOLPHOFCPAK": {
                                        "target": "ContextTarget"
                                    },
                                    "KEACJLNKCHK": {
                                        "target": "Actor"
                                    },
                                    "GNDGFAABMPL": true
                                }
                            ]
                        }
                    ]
                }
            ]
        }
    ]
}