{
    "0": {},
    "22": {
        "DDAPINPOGFO": false
    },
    "66": {
        "id": 121,
        "ratio": 8881
    },
    "149771": {
        "id": 70,
        "DDAPINPOGFO": true
    },
    "8560": {
        "ratio": 1135421
    },
    "7": {
        "id": 25,
        "ratio": 28,
        "DDAPINPOGFO": true
    },
    "96": {
        "id": 8561,
        "ratio": 41
    },
    "1135433": {
        "id": 9650,
        "ratio": 28,
        "DDAPINPOGFO": true
    },
    "26": {
        "DDAPINPOGFO": true
    },
    "8881": {
        "id": 125,
        "ratio": 1208,
        "DDAPINPOGFO": true
    },
    "2504": {}
}