{
    "name": "Char_Skill_33016",
    "LCAAFCBKGHI": {
        "476224977": {
            "$type": "GCGDeclaredValueElement",
            "type": "Element",
            "ratio": "GCG_ELEMENT_PYRO"
        }
    }
}