{
    "BigWorld_0_2_BS_City_Inside_Vd": {
        "$type": "ConfigShapePolygon",
        "polygonConfigPath": "BigWorld_0_2_BS_City_Inside_Vd"
    },
    "BigWorld_0_2_BS_City_Outside_Vd": {
        "$type": "ConfigShapePolygon",
        "polygonConfigPath": "BigWorld_0_2_BS_City_Outside_Vd"
    },
    "BigWorld_0_2_01_Inside_Vs": {
        "$type": "ConfigShapeRect",
        "useHeight": true,
        "height": 152.8109588623047,
        "centerType": "Center",
        "width": 220.10049438476562,
        "length": 187.70223999023438
    },
    "BigWorld_0_2_02_Inside_Vs": {
        "$type": "ConfigShapeRect",
        "useHeight": true,
        "height": 126.92550659179688,
        "centerType": "Center",
        "width": 141.83303833007812,
        "length": 153.3463592529297
    },
    "BigWorld_0_2_01_Outside_Vs": {
        "$type": "ConfigShapeRect",
        "useHeight": true,
        "height": 225.00732421875,
        "centerType": "Center",
        "width": 310.1036071777344,
        "length": 275.3351745605469
    },
    "BigWorld_0_2_02_Outside_Vs": {
        "$type": "ConfigShapeRect",
        "useHeight": true,
        "height": 181.07412719726562,
        "centerType": "Center",
        "width": 231.79676818847656,
        "length": 228.4951171875
    },
    "BigWorld_0_2_MidArea_01_Inside_Ve": {
        "$type": "ConfigShapePolygon",
        "polygonConfigPath": "BigWorld_0_2_MidArea_01_Inside_Ve"
    },
    "BigWorld_0_2_GientCup_MushroomRuin_01_Inside_Ve": {
        "$type": "ConfigShapeRect",
        "useHeight": true,
        "height": 93.99980163574219,
        "centerType": "Center",
        "width": 90.0,
        "length": 93.0
    },
    "BigWorld_0_2_GientCup_MushroomRuin_02_Inside_Ve": {
        "$type": "ConfigShapeRect",
        "useHeight": true,
        "height": 28.781822204589844,
        "centerType": "Center",
        "width": 67.66742706298828,
        "length": 93.50224304199219
    },
    "BigWorld_0_2_GientCup_MushroomRuin_03_Inside_Ve": {
        "$type": "ConfigShapeRect",
        "useHeight": true,
        "height": 20.146133422851562,
        "centerType": "Center",
        "width": 32.17548370361328,
        "length": 25.761049270629883
    },
    "BigWorld_0_2_JRZBDX01_01_Inside_Vs": {
        "$type": "ConfigShapeRect",
        "useHeight": true,
        "height": 86.64966583251953,
        "centerType": "Center",
        "width": 149.35650634765625,
        "length": 218.20973205566406
    },
    "BigWorld_0_2_JRZBDX01_02_Inside_Vs": {
        "$type": "ConfigShapeRect",
        "useHeight": true,
        "height": 72.51029968261719,
        "centerType": "Center",
        "width": 129.21896362304688,
        "length": 135.943115234375
    },
    "BigWorld_0_2_JRZBDX01_01_Outside_Vs": {
        "$type": "ConfigShapeRect",
        "useHeight": true,
        "height": 130.7891845703125,
        "centerType": "Center",
        "width": 229.4505615234375,
        "length": 278.22271728515625
    },
    "BigWorld_0_2_JRZBDX01_02_Outside_Vs": {
        "$type": "ConfigShapeRect",
        "useHeight": true,
        "height": 113.48834228515625,
        "centerType": "Center",
        "width": 180.27716064453125,
        "length": 241.597900390625
    },
    "BigWorld_0_2_JRZBDX01_03_Outside_Vs": {
        "$type": "ConfigShapeRect",
        "useHeight": true,
        "height": 97.18901062011719,
        "centerType": "Center",
        "width": 188.05877685546875,
        "length": 210.8880157470703
    },
    "BigWorld_0_2_JRZBDX01_04_Outside_Vs": {
        "$type": "ConfigShapeRect",
        "useHeight": true,
        "height": 62.32237243652344,
        "centerType": "Center",
        "width": 67.58914184570312,
        "length": 72.27384185791016
    },
    "BigWorld_0_2_JRZBDX02_01_Inside_Vs": {
        "$type": "ConfigShapeRect",
        "useHeight": true,
        "height": 79.08822631835938,
        "centerType": "Center",
        "width": 89.63452911376953,
        "length": 223.59674072265625
    },
    "BigWorld_0_2_JRZBDX02_01_Outside_Vs": {
        "$type": "ConfigShapeRect",
        "useHeight": true,
        "height": 128.96563720703125,
        "centerType": "Center",
        "width": 124.52272033691406,
        "length": 187.40821838378906
    },
    "BigWorld_0_2_JRZBDX02_02_Outside_Vs": {
        "$type": "ConfigShapeRect",
        "useHeight": true,
        "height": 73.95173645019531,
        "centerType": "Center",
        "width": 92.93758392333984,
        "length": 100.92605590820312
    },
    "BigWorld_0_2_JRZBDX02_03_Outside_Vs": {
        "$type": "ConfigShapeRect",
        "useHeight": true,
        "height": 109.51812744140625,
        "centerType": "Center",
        "width": 147.75030517578125,
        "length": 136.56761169433594
    },
    "BigWorld_0_2_JRZBDX02_04_Outside_Vs": {
        "$type": "ConfigShapeRect",
        "useHeight": true,
        "height": 69.82012176513672,
        "centerType": "Center",
        "width": 74.66703796386719,
        "length": 96.44979095458984
    },
    "BigWorld_0_2_JRZBDX02_05_Outside_Vs": {
        "$type": "ConfigShapeRect",
        "useHeight": true,
        "height": 52.0720100402832,
        "centerType": "Center",
        "width": 123.56697845458984,
        "length": 59.23515701293945
    },
    "BigWorld_0_2_GientCupBoss_UP_01_Inside_Ve": {
        "$type": "ConfigShapeRect",
        "useHeight": true,
        "height": 25.20550537109375,
        "centerType": "Center",
        "width": 57.75550079345703,
        "length": 20.420494079589844
    },
    "BigWorld_0_2_GientCup_BossDown_01_Inside_Ve": {
        "$type": "ConfigShapeRect",
        "useHeight": true,
        "height": 22.0,
        "centerType": "Center",
        "width": 28.5,
        "length": 49.0
    },
    "BigWorld_0_2_GientCupBoss01_Inside_Ve": {
        "$type": "ConfigShapeRect",
        "useHeight": true,
        "height": 50.0,
        "centerType": "Center",
        "width": 50.0,
        "length": 70.0
    },
    "BigWorld_0_2_GientCupBoss02_Inside_Ve": {
        "$type": "ConfigShapeCube",
        "useHeight": true,
        "height": 70.00015258789062,
        "width": 80.0,
        "length": 40.0
    },
    "BigWorld_0_2_GientCupBoss04_01_Inside_Ve": {
        "$type": "ConfigShapeRect",
        "useHeight": true,
        "height": 28.0,
        "centerType": "Center",
        "width": 40.0,
        "length": 40.0
    },
    "BigWorld_0_2_Up_01_Inside_Ve": {
        "$type": "ConfigShapeRect",
        "useHeight": true,
        "height": 48.0,
        "centerType": "Center",
        "width": 72.0,
        "length": 38.0
    },
    "BigWorld_0_2_GientCup_CasazaraPalace_01_Inside_Ve": {
        "$type": "ConfigShapePolygon",
        "polygonConfigPath": "BigWorld_0_2_GientCup_CasazaraPalace_01_Inside_Ve"
    },
    "BigWorld_0_2_JRZB_02_0_Inside_Ve": {
        "$type": "ConfigShapeSphere",
        "radius": 55.400001525878906
    },
    "BigWorld_0_2_JRZB_02_1_Inside_Ve": {
        "$type": "ConfigShapeSphere",
        "radius": 40.1531867980957
    },
    "BigWorld_0_2_JRZB_02_2_Inside_Ve": {
        "$type": "ConfigShapeSphere",
        "radius": 52.25
    },
    "BigWorld_0_2_JRZB_02_3_Inside_Ve": {
        "$type": "ConfigShapeSphere",
        "radius": 34.87941360473633
    },
    "BigWorld_0_2_JRZB_02_4_Inside_Ve": {
        "$type": "ConfigShapeSphere",
        "radius": 34.601619720458984
    },
    "BigWorld_0_2_JRZB_02_5_Inside_Ve": {
        "$type": "ConfigShapeSphere",
        "radius": 30.86910057067871
    },
    "BigWorld_0_2_JRZB_02_6_Inside_Ve": {
        "$type": "ConfigShapeSphere",
        "radius": 46.0
    },
    "BigWorld_0_2_JRZB_02_7_Inside_Ve": {
        "$type": "ConfigShapeSphere",
        "radius": 26.609676361083984
    },
    "BigWorld_0_2_JRZB_02_8_Inside_Ve": {
        "$type": "ConfigShapeRect",
        "useHeight": true,
        "height": 14.59552001953125,
        "centerType": "Center",
        "width": 13.760772705078125,
        "length": 30.17822265625
    },
    "BigWorld_0_2_GientCup_SideCaveDown_01_Inside_Ve": {
        "$type": "ConfigShapeRect",
        "useHeight": true,
        "height": 12.0,
        "centerType": "Center",
        "width": 16.200000762939453,
        "length": 38.0
    },
    "BigWorld_0_2_Xm_GientCup_SideCaveDown_02_Inside_Ve": {
        "$type": "ConfigShapeRect",
        "useHeight": true,
        "height": 10.0,
        "centerType": "Center",
        "width": 17.399999618530273,
        "length": 10.0
    },
    "BigWorld_0_2_ThemeDown_01_Inside_Ve": {
        "$type": "ConfigShapeRect",
        "useHeight": true,
        "height": 59.47471618652344,
        "centerType": "Center",
        "width": 223.23863220214844,
        "length": 153.84619140625
    },
    "BigWorld_0_2_ThemeDown_02_Inside_Ve": {
        "$type": "ConfigShapeRect",
        "useHeight": true,
        "height": 44.90824508666992,
        "centerType": "Center",
        "width": 200.4505157470703,
        "length": 195.8988037109375
    },
    "BigWorld_0_2_ThemeUp_01_Inside_Ve": {
        "$type": "ConfigShapeRect",
        "useHeight": true,
        "height": 38.42939758300781,
        "centerType": "Center",
        "width": 102.38658905029297,
        "length": 127.46724700927734
    },
    "BigWorld_0_2_ThemeUp_02_Inside_Ve": {
        "$type": "ConfigShapeCube",
        "useHeight": true,
        "height": 50.790000915527344,
        "width": 80.16727447509766,
        "length": 164.52748107910156
    }
}