{
    "DAPLEKMCBMB": [
        {
            "name": "Character_Noel_Q_Golden",
            "IOMFAGOGAAJ": [
                {
                    "PIBJPDLMPKJ": 2.059999942779541,
                    "actionGroups": [
                        {
                            "actions": [
                                {
                                    "$type": "GcgBehaviourSwitchGoldenLoopEffect",
                                    "KEACJLNKCHK": {
                                        "target": "Actor"
                                    }
                                },
                                {
                                    "$type": "GcgBehaviourSwitchOnCardLoopEffect",
                                    "KEACJLNKCHK": {
                                        "target": "Actor"
                                    }
                                },
                                {
                                    "$type": "GcgBehaviourTriggerSpineAttack",
                                    "KEACJLNKCHK": {
                                        "target": "Actor"
                                    }
                                },
                                {
                                    "$type": "GcgBehaviourFireEffect",
                                    "KEACJLNKCHK": {
                                        "target": "Actor"
                                    },
                                    "effectName": "Eff_Gcg_Avatar_Noel_ElementalBurst_Spine_Weapon",
                                    "ODHIEKLBPFL": true,
                                    "ODJBOPPKABB": true,
                                    "KOGELNIBFMB": "Gcg_CardFace_Char_Avatar_Noel_Spine",
                                    "GGPHPGIOHIC": "EffectRoot_1",
                                    "BFEBMINFJID": {
                                        "$type": "GcgBornRotationFollow"
                                    }
                                },
                                {
                                    "$type": "GcgBehaviourFireEffect",
                                    "KEACJLNKCHK": {
                                        "target": "Actor"
                                    },
                                    "effectName": "Eff_Gcg_Avatar_Noel_ElementalBurst_Spine",
                                    "ODHIEKLBPFL": true,
                                    "KOGELNIBFMB": "",
                                    "GGPHPGIOHIC": "",
                                    "BFEBMINFJID": {
                                        "$type": "GcgBornRotationFollow"
                                    }
                                }
                            ]
                        }
                    ]
                },
                {
                    "PIBJPDLMPKJ": 0.10000000149011612,
                    "actionGroups": [
                        {
                            "actions": [
                                {
                                    "$type": "GcgBehaviourFireEffect",
                                    "KEACJLNKCHK": {
                                        "target": "MainTarget"
                                    },
                                    "effectName": "Eff_Gcg_Avatar_Noel_ElementalBurst",
                                    "KOGELNIBFMB": "",
                                    "GGPHPGIOHIC": "",
                                    "BFEBMINFJID": {
                                        "$type": "GcgBornRotationLookAtTarget",
                                        "KEACJLNKCHK": {
                                            "target": "Actor"
                                        }
                                    }
                                }
                            ]
                        }
                    ]
                },
                {
                    "PIBJPDLMPKJ": 0.05999999865889549,
                    "actionGroups": [
                        {
                            "actions": [
                                {
                                    "$type": "GcgBehaviourFireEffect",
                                    "KEACJLNKCHK": {
                                        "target": "Actor"
                                    },
                                    "effectName": "Eff_Gcg_Avatar_Noel_ElementalBurst_BS",
                                    "KOGELNIBFMB": "",
                                    "GGPHPGIOHIC": "",
                                    "BFEBMINFJID": {
                                        "$type": "GcgBornRotationFollow"
                                    }
                                }
                            ]
                        }
                    ]
                },
                {
                    "PIBJPDLMPKJ": 1.5099999904632568,
                    "actionGroups": [
                        {
                            "actions": [
                                {
                                    "$type": "GcgBehaviourTriggerAttack",
                                    "KEACJLNKCHK": {
                                        "target": "MainTarget"
                                    }
                                }
                            ]
                        }
                    ]
                },
                {
                    "PIBJPDLMPKJ": 0.029999999329447746,
                    "actionGroups": [
                        {
                            "actions": [
                                {
                                    "$type": "GcgBehaviourFireEffect",
                                    "KEACJLNKCHK": {
                                        "target": "Actor"
                                    },
                                    "effectName": "Eff_Gcg_Common_Spine_ReturnToLoop",
                                    "ODHIEKLBPFL": true,
                                    "KOGELNIBFMB": "",
                                    "GGPHPGIOHIC": "",
                                    "BFEBMINFJID": {
                                        "$type": "GcgBornRotationFollow"
                                    }
                                }
                            ]
                        }
                    ]
                },
                {
                    "actionGroups": [
                        {
                            "actions": [
                                {
                                    "$type": "GcgBehaviourSwitchGoldenLoopEffect",
                                    "KEACJLNKCHK": {
                                        "target": "Actor"
                                    },
                                    "GFKOKIKOMNA": true
                                },
                                {
                                    "$type": "GcgBehaviourSwitchOnCardLoopEffect",
                                    "KEACJLNKCHK": {
                                        "target": "Actor"
                                    },
                                    "GFKOKIKOMNA": true
                                }
                            ]
                        }
                    ]
                }
            ],
            "DELOACENBLE": [
                {
                    "actionGroups": [
                        {
                            "actions": [
                                {
                                    "$type": "GcgBehaviourFireEffect",
                                    "KEACJLNKCHK": {
                                        "target": "MainTarget"
                                    },
                                    "effectName": "Eff_Gcg_Avatar_Noel_ElementalBurst_Hit",
                                    "KOGELNIBFMB": "",
                                    "GGPHPGIOHIC": "",
                                    "BFEBMINFJID": {
                                        "$type": "GcgBornRotationLookAtTarget",
                                        "KEACJLNKCHK": {
                                            "target": "Actor"
                                        }
                                    }
                                },
                                {
                                    "$type": "GcgBehaviourShakeScreen",
                                    "KEACJLNKCHK": {
                                        "target": "ContextTarget"
                                    },
                                    "FONIHNAMJML": "Common_ShakeScreen_Test_Q"
                                }
                            ]
                        }
                    ]
                }
            ]
        }
    ]
}