{
    "sceneId": 35743,
    "monsters": [
        {
            "groupId": 235743007,
            "mapInstId": 7001,
            "aiGroupID": 235743007,
            "CBNANHBMMNC": true,
            "DGLJAJDAPNH": 999.0,
            "LGAONPKJDEC": true,
            "clearThreatTargetDistance": 999.0,
            "aiNeuronSetting": "DefaultSetting",
            "aiSensingTemplate": "DefaultTemplate",
            "forceCombatOnSpawn": true,
            "disableWander": true,
            "NCKMKJMDPDH": ""
        },
        {
            "groupId": 235743007,
            "mapInstId": 7002,
            "aiGroupID": 235743007,
            "CBNANHBMMNC": true,
            "DGLJAJDAPNH": 999.0,
            "LGAONPKJDEC": true,
            "clearThreatTargetDistance": 999.0,
            "aiNeuronSetting": "DefaultSetting",
            "aiSensingTemplate": "DefaultTemplate",
            "forceCombatOnSpawn": true,
            "disableWander": true,
            "NCKMKJMDPDH": ""
        },
        {
            "groupId": 235743008,
            "mapInstId": 8001,
            "aiGroupID": 235743008,
            "CBNANHBMMNC": true,
            "DGLJAJDAPNH": 999.0,
            "LGAONPKJDEC": true,
            "clearThreatTargetDistance": 999.0,
            "aiNeuronSetting": "DefaultSetting",
            "aiSensingTemplate": "DefaultTemplate",
            "forceCombatOnSpawn": true,
            "disableWander": true,
            "billboardHasUIBar": true,
            "NCKMKJMDPDH": ""
        }
    ]
}