{
    "sceneId": 20158,
    "monsters": [
        {
            "groupId": 220158004,
            "mapInstId": 4001,
            "aiGroupID": 220158004,
            "aiNeuronSetting": "DefaultSetting",
            "aiSensingTemplate": "DefaultTemplate",
            "forceCombatOnSpawn": true,
            "NCKMKJMDPDH": ""
        },
        {
            "groupId": 220158004,
            "mapInstId": 4002,
            "aiGroupID": 220158004,
            "aiNeuronSetting": "DefaultSetting",
            "aiSensingTemplate": "DefaultTemplate",
            "NCKMKJMDPDH": ""
        },
        {
            "groupId": 220158004,
            "mapInstId": 4003,
            "aiGroupID": 220158004,
            "aiNeuronSetting": "DefaultSetting",
            "aiSensingTemplate": "DefaultTemplate",
            "NCKMKJMDPDH": ""
        },
        {
            "groupId": 220158004,
            "mapInstId": 4004,
            "aiGroupID": 220158004,
            "aiNeuronSetting": "DefaultSetting",
            "aiSensingTemplate": "DefaultTemplate",
            "NCKMKJMDPDH": ""
        },
        {
            "groupId": 220158004,
            "mapInstId": 4006,
            "aiGroupID": 220158004,
            "aiNeuronSetting": "DefaultSetting",
            "aiSensingTemplate": "DefaultTemplate",
            "forceCombatOnSpawn": true,
            "NCKMKJMDPDH": ""
        },
        {
            "groupId": 220158004,
            "mapInstId": 4007,
            "aiGroupID": 220158004,
            "aiNeuronSetting": "DefaultSetting",
            "aiSensingTemplate": "DefaultTemplate",
            "forceCombatOnSpawn": true,
            "NCKMKJMDPDH": ""
        },
        {
            "groupId": 220158004,
            "mapInstId": 4008,
            "aiGroupID": 220158004,
            "aiNeuronSetting": "DefaultSetting",
            "aiSensingTemplate": "DefaultTemplate",
            "forceCombatOnSpawn": true,
            "NCKMKJMDPDH": ""
        },
        {
            "groupId": 220158004,
            "mapInstId": 4013,
            "aiGroupID": 220158004,
            "aiNeuronSetting": "DefaultSetting",
            "aiSensingTemplate": "DefaultTemplate",
            "NCKMKJMDPDH": ""
        },
        {
            "groupId": 220158004,
            "mapInstId": 4014,
            "aiGroupID": 220158004,
            "aiNeuronSetting": "DefaultSetting",
            "aiSensingTemplate": "DefaultTemplate",
            "NCKMKJMDPDH": ""
        },
        {
            "groupId": 220158005,
            "mapInstId": 5001,
            "aiGroupID": 220158005,
            "aiNeuronSetting": "DefaultSetting",
            "aiSensingTemplate": "DefaultTemplate",
            "disableWander": true,
            "NCKMKJMDPDH": ""
        },
        {
            "groupId": 220158005,
            "mapInstId": 5002,
            "aiGroupID": 220158005,
            "aiNeuronSetting": "DefaultSetting",
            "aiSensingTemplate": "DefaultTemplate",
            "disableWander": true,
            "NCKMKJMDPDH": ""
        },
        {
            "groupId": 220158005,
            "mapInstId": 5003,
            "aiGroupID": 220158005,
            "aiNeuronSetting": "DefaultSetting",
            "aiSensingTemplate": "DefaultTemplate",
            "disableWander": true,
            "NCKMKJMDPDH": ""
        },
        {
            "groupId": 220158006,
            "mapInstId": 6001,
            "aiGroupID": 220158006,
            "aiNeuronSetting": "DefaultSetting",
            "aiSensingTemplate": "DefaultTemplate",
            "NCKMKJMDPDH": ""
        },
        {
            "groupId": 220158006,
            "mapInstId": 6002,
            "aiGroupID": 220158006,
            "aiNeuronSetting": "DefaultSetting",
            "aiSensingTemplate": "DefaultTemplate",
            "NCKMKJMDPDH": ""
        },
        {
            "groupId": 220158006,
            "mapInstId": 6003,
            "aiGroupID": 220158006,
            "aiNeuronSetting": "DefaultSetting",
            "aiSensingTemplate": "DefaultTemplate",
            "NCKMKJMDPDH": ""
        },
        {
            "groupId": 220158007,
            "mapInstId": 7001,
            "aiGroupID": 220158007,
            "CBNANHBMMNC": true,
            "defendAreaID": 1,
            "aiNeuronSetting": "DefaultSetting",
            "aiSensingTemplate": "DefaultTemplate",
            "forceCombatOnSpawn": true,
            "NCKMKJMDPDH": ""
        },
        {
            "groupId": 220158007,
            "mapInstId": 7002,
            "aiGroupID": 220158007,
            "CBNANHBMMNC": true,
            "defendAreaID": 1,
            "aiNeuronSetting": "DefaultSetting",
            "aiSensingTemplate": "DefaultTemplate",
            "NCKMKJMDPDH": ""
        },
        {
            "groupId": 220158007,
            "mapInstId": 7003,
            "aiGroupID": 220158007,
            "CBNANHBMMNC": true,
            "defendAreaID": 1,
            "aiNeuronSetting": "DefaultSetting",
            "aiSensingTemplate": "DefaultTemplate",
            "NCKMKJMDPDH": ""
        },
        {
            "groupId": 220158007,
            "mapInstId": 7006,
            "aiGroupID": 220158007,
            "CBNANHBMMNC": true,
            "defendAreaID": 1,
            "aiNeuronSetting": "DefaultSetting",
            "aiSensingTemplate": "DefaultTemplate",
            "NCKMKJMDPDH": ""
        },
        {
            "groupId": 220158007,
            "mapInstId": 7007,
            "aiGroupID": 220158007,
            "CBNANHBMMNC": true,
            "defendAreaID": 1,
            "aiNeuronSetting": "DefaultSetting",
            "aiSensingTemplate": "DefaultTemplate",
            "NCKMKJMDPDH": ""
        },
        {
            "groupId": 220158007,
            "mapInstId": 7008,
            "aiGroupID": 220158007,
            "CBNANHBMMNC": true,
            "defendAreaID": 1,
            "aiNeuronSetting": "DefaultSetting",
            "aiSensingTemplate": "DefaultTemplate",
            "NCKMKJMDPDH": ""
        },
        {
            "groupId": 220158007,
            "mapInstId": 7009,
            "aiGroupID": 220158007,
            "CBNANHBMMNC": true,
            "defendAreaID": 1,
            "aiNeuronSetting": "DefaultSetting",
            "aiSensingTemplate": "DefaultTemplate",
            "NCKMKJMDPDH": ""
        },
        {
            "groupId": 220158007,
            "mapInstId": 7010,
            "aiGroupID": 220158007,
            "CBNANHBMMNC": true,
            "defendAreaID": 1,
            "aiNeuronSetting": "DefaultSetting",
            "aiSensingTemplate": "DefaultTemplate",
            "forceCombatOnSpawn": true,
            "NCKMKJMDPDH": ""
        },
        {
            "groupId": 220158007,
            "mapInstId": 7011,
            "aiGroupID": 220158007,
            "CBNANHBMMNC": true,
            "defendAreaID": 1,
            "aiNeuronSetting": "DefaultSetting",
            "aiSensingTemplate": "DefaultTemplate",
            "forceCombatOnSpawn": true,
            "NCKMKJMDPDH": ""
        }
    ]
}