{
    "sceneId": 35802,
    "monsters": [
        {
            "groupId": 235802002,
            "mapInstId": 2001,
            "CBNANHBMMNC": true,
            "DGLJAJDAPNH": 99.0,
            "LGAONPKJDEC": true,
            "clearThreatTargetDistance": 99.0,
            "aiNeuronSetting": "DefaultSetting",
            "aiSensingTemplate": "DefaultTemplate",
            "forceCombatOnSpawn": true,
            "disableWander": true,
            "NCKMKJMDPDH": ""
        },
        {
            "groupId": 235802002,
            "mapInstId": 2002,
            "CBNANHBMMNC": true,
            "DGLJAJDAPNH": 99.0,
            "LGAONPKJDEC": true,
            "clearThreatTargetDistance": 99.0,
            "aiNeuronSetting": "DefaultSetting",
            "aiSensingTemplate": "DefaultTemplate",
            "forceCombatOnSpawn": true,
            "disableWander": true,
            "NCKMKJMDPDH": ""
        },
        {
            "groupId": 235802002,
            "mapInstId": 2003,
            "CBNANHBMMNC": true,
            "DGLJAJDAPNH": 99.0,
            "LGAONPKJDEC": true,
            "clearThreatTargetDistance": 99.0,
            "aiNeuronSetting": "DefaultSetting",
            "aiSensingTemplate": "DefaultTemplate",
            "forceCombatOnSpawn": true,
            "disableWander": true,
            "NCKMKJMDPDH": ""
        },
        {
            "groupId": 235802002,
            "mapInstId": 2004,
            "CBNANHBMMNC": true,
            "DGLJAJDAPNH": 99.0,
            "LGAONPKJDEC": true,
            "clearThreatTargetDistance": 99.0,
            "aiNeuronSetting": "DefaultSetting",
            "aiSensingTemplate": "DefaultTemplate",
            "forceCombatOnSpawn": true,
            "disableWander": true,
            "NCKMKJMDPDH": ""
        },
        {
            "groupId": 235802002,
            "mapInstId": 2005,
            "CBNANHBMMNC": true,
            "DGLJAJDAPNH": 99.0,
            "LGAONPKJDEC": true,
            "clearThreatTargetDistance": 99.0,
            "aiNeuronSetting": "DefaultSetting",
            "aiSensingTemplate": "DefaultTemplate",
            "forceCombatOnSpawn": true,
            "disableWander": true,
            "NCKMKJMDPDH": ""
        },
        {
            "groupId": 235802002,
            "mapInstId": 2006,
            "CBNANHBMMNC": true,
            "DGLJAJDAPNH": 99.0,
            "LGAONPKJDEC": true,
            "clearThreatTargetDistance": 99.0,
            "aiNeuronSetting": "DefaultSetting",
            "aiSensingTemplate": "DefaultTemplate",
            "forceCombatOnSpawn": true,
            "disableWander": true,
            "NCKMKJMDPDH": ""
        },
        {
            "groupId": 235802002,
            "mapInstId": 2007,
            "CBNANHBMMNC": true,
            "DGLJAJDAPNH": 99.0,
            "LGAONPKJDEC": true,
            "clearThreatTargetDistance": 99.0,
            "aiNeuronSetting": "DefaultSetting",
            "aiSensingTemplate": "DefaultTemplate",
            "forceCombatOnSpawn": true,
            "disableWander": true,
            "NCKMKJMDPDH": ""
        },
        {
            "groupId": 235802002,
            "mapInstId": 2008,
            "CBNANHBMMNC": true,
            "DGLJAJDAPNH": 99.0,
            "LGAONPKJDEC": true,
            "clearThreatTargetDistance": 99.0,
            "aiNeuronSetting": "DefaultSetting",
            "aiSensingTemplate": "DefaultTemplate",
            "forceCombatOnSpawn": true,
            "disableWander": true,
            "NCKMKJMDPDH": ""
        },
        {
            "groupId": 235802002,
            "mapInstId": 2009,
            "CBNANHBMMNC": true,
            "DGLJAJDAPNH": 99.0,
            "LGAONPKJDEC": true,
            "clearThreatTargetDistance": 99.0,
            "aiNeuronSetting": "DefaultSetting",
            "aiSensingTemplate": "DefaultTemplate",
            "forceCombatOnSpawn": true,
            "disableWander": true,
            "NCKMKJMDPDH": ""
        },
        {
            "groupId": 235802002,
            "mapInstId": 2010,
            "CBNANHBMMNC": true,
            "DGLJAJDAPNH": 99.0,
            "LGAONPKJDEC": true,
            "clearThreatTargetDistance": 99.0,
            "aiNeuronSetting": "DefaultSetting",
            "aiSensingTemplate": "DefaultTemplate",
            "forceCombatOnSpawn": true,
            "disableWander": true,
            "NCKMKJMDPDH": ""
        },
        {
            "groupId": 235802002,
            "mapInstId": 2011,
            "CBNANHBMMNC": true,
            "DGLJAJDAPNH": 99.0,
            "LGAONPKJDEC": true,
            "clearThreatTargetDistance": 99.0,
            "aiNeuronSetting": "DefaultSetting",
            "aiSensingTemplate": "DefaultTemplate",
            "forceCombatOnSpawn": true,
            "disableWander": true,
            "NCKMKJMDPDH": ""
        },
        {
            "groupId": 235802002,
            "mapInstId": 2012,
            "CBNANHBMMNC": true,
            "DGLJAJDAPNH": 99.0,
            "LGAONPKJDEC": true,
            "clearThreatTargetDistance": 99.0,
            "aiNeuronSetting": "DefaultSetting",
            "aiSensingTemplate": "DefaultTemplate",
            "forceCombatOnSpawn": true,
            "disableWander": true,
            "NCKMKJMDPDH": ""
        },
        {
            "groupId": 235802002,
            "mapInstId": 2013,
            "CBNANHBMMNC": true,
            "DGLJAJDAPNH": 99.0,
            "LGAONPKJDEC": true,
            "clearThreatTargetDistance": 99.0,
            "aiNeuronSetting": "DefaultSetting",
            "aiSensingTemplate": "DefaultTemplate",
            "forceCombatOnSpawn": true,
            "disableWander": true,
            "NCKMKJMDPDH": ""
        },
        {
            "groupId": 235802002,
            "mapInstId": 2014,
            "CBNANHBMMNC": true,
            "DGLJAJDAPNH": 99.0,
            "LGAONPKJDEC": true,
            "clearThreatTargetDistance": 99.0,
            "aiNeuronSetting": "DefaultSetting",
            "aiSensingTemplate": "DefaultTemplate",
            "forceCombatOnSpawn": true,
            "disableWander": true,
            "NCKMKJMDPDH": ""
        },
        {
            "groupId": 235802002,
            "mapInstId": 2015,
            "CBNANHBMMNC": true,
            "DGLJAJDAPNH": 99.0,
            "LGAONPKJDEC": true,
            "clearThreatTargetDistance": 99.0,
            "aiNeuronSetting": "DefaultSetting",
            "aiSensingTemplate": "DefaultTemplate",
            "forceCombatOnSpawn": true,
            "disableWander": true,
            "NCKMKJMDPDH": ""
        },
        {
            "groupId": 235802002,
            "mapInstId": 2016,
            "CBNANHBMMNC": true,
            "DGLJAJDAPNH": 99.0,
            "LGAONPKJDEC": true,
            "clearThreatTargetDistance": 99.0,
            "aiNeuronSetting": "DefaultSetting",
            "aiSensingTemplate": "DefaultTemplate",
            "forceCombatOnSpawn": true,
            "disableWander": true,
            "NCKMKJMDPDH": ""
        },
        {
            "groupId": 235802002,
            "mapInstId": 2017,
            "CBNANHBMMNC": true,
            "DGLJAJDAPNH": 99.0,
            "LGAONPKJDEC": true,
            "clearThreatTargetDistance": 99.0,
            "aiNeuronSetting": "DefaultSetting",
            "aiSensingTemplate": "DefaultTemplate",
            "forceCombatOnSpawn": true,
            "disableWander": true,
            "NCKMKJMDPDH": ""
        },
        {
            "groupId": 235802002,
            "mapInstId": 2018,
            "CBNANHBMMNC": true,
            "DGLJAJDAPNH": 99.0,
            "LGAONPKJDEC": true,
            "clearThreatTargetDistance": 99.0,
            "aiNeuronSetting": "DefaultSetting",
            "aiSensingTemplate": "DefaultTemplate",
            "forceCombatOnSpawn": true,
            "disableWander": true,
            "NCKMKJMDPDH": ""
        },
        {
            "groupId": 235802002,
            "mapInstId": 2019,
            "CBNANHBMMNC": true,
            "DGLJAJDAPNH": 99.0,
            "LGAONPKJDEC": true,
            "clearThreatTargetDistance": 99.0,
            "aiNeuronSetting": "DefaultSetting",
            "aiSensingTemplate": "DefaultTemplate",
            "forceCombatOnSpawn": true,
            "disableWander": true,
            "NCKMKJMDPDH": ""
        },
        {
            "groupId": 235802002,
            "mapInstId": 2020,
            "CBNANHBMMNC": true,
            "DGLJAJDAPNH": 99.0,
            "LGAONPKJDEC": true,
            "clearThreatTargetDistance": 99.0,
            "aiNeuronSetting": "DefaultSetting",
            "aiSensingTemplate": "DefaultTemplate",
            "forceCombatOnSpawn": true,
            "disableWander": true,
            "NCKMKJMDPDH": ""
        },
        {
            "groupId": 235802002,
            "mapInstId": 2030,
            "CBNANHBMMNC": true,
            "DGLJAJDAPNH": 99.0,
            "LGAONPKJDEC": true,
            "clearThreatTargetDistance": 99.0,
            "aiNeuronSetting": "DefaultSetting",
            "aiSensingTemplate": "DefaultTemplate",
            "forceCombatOnSpawn": true,
            "disableWander": true,
            "NCKMKJMDPDH": ""
        },
        {
            "groupId": 235802002,
            "mapInstId": 2031,
            "CBNANHBMMNC": true,
            "DGLJAJDAPNH": 99.0,
            "LGAONPKJDEC": true,
            "clearThreatTargetDistance": 99.0,
            "aiNeuronSetting": "DefaultSetting",
            "aiSensingTemplate": "DefaultTemplate",
            "forceCombatOnSpawn": true,
            "disableWander": true,
            "NCKMKJMDPDH": ""
        },
        {
            "groupId": 235802002,
            "mapInstId": 2032,
            "CBNANHBMMNC": true,
            "DGLJAJDAPNH": 99.0,
            "LGAONPKJDEC": true,
            "clearThreatTargetDistance": 99.0,
            "aiNeuronSetting": "DefaultSetting",
            "aiSensingTemplate": "DefaultTemplate",
            "forceCombatOnSpawn": true,
            "disableWander": true,
            "NCKMKJMDPDH": ""
        },
        {
            "groupId": 235802002,
            "mapInstId": 2038,
            "CBNANHBMMNC": true,
            "DGLJAJDAPNH": 99.0,
            "LGAONPKJDEC": true,
            "clearThreatTargetDistance": 99.0,
            "aiNeuronSetting": "DefaultSetting",
            "aiSensingTemplate": "DefaultTemplate",
            "forceCombatOnSpawn": true,
            "disableWander": true,
            "NCKMKJMDPDH": ""
        },
        {
            "groupId": 235802002,
            "mapInstId": 2039,
            "CBNANHBMMNC": true,
            "DGLJAJDAPNH": 99.0,
            "LGAONPKJDEC": true,
            "clearThreatTargetDistance": 99.0,
            "aiNeuronSetting": "DefaultSetting",
            "aiSensingTemplate": "DefaultTemplate",
            "forceCombatOnSpawn": true,
            "disableWander": true,
            "NCKMKJMDPDH": ""
        },
        {
            "groupId": 235802002,
            "mapInstId": 2040,
            "CBNANHBMMNC": true,
            "DGLJAJDAPNH": 99.0,
            "LGAONPKJDEC": true,
            "clearThreatTargetDistance": 99.0,
            "aiNeuronSetting": "DefaultSetting",
            "aiSensingTemplate": "DefaultTemplate",
            "forceCombatOnSpawn": true,
            "disableWander": true,
            "NCKMKJMDPDH": ""
        },
        {
            "groupId": 235802002,
            "mapInstId": 2041,
            "CBNANHBMMNC": true,
            "DGLJAJDAPNH": 99.0,
            "LGAONPKJDEC": true,
            "clearThreatTargetDistance": 99.0,
            "aiNeuronSetting": "DefaultSetting",
            "aiSensingTemplate": "DefaultTemplate",
            "forceCombatOnSpawn": true,
            "disableWander": true,
            "NCKMKJMDPDH": ""
        },
        {
            "groupId": 235802002,
            "mapInstId": 2042,
            "CBNANHBMMNC": true,
            "DGLJAJDAPNH": 99.0,
            "LGAONPKJDEC": true,
            "clearThreatTargetDistance": 99.0,
            "aiNeuronSetting": "DefaultSetting",
            "aiSensingTemplate": "DefaultTemplate",
            "forceCombatOnSpawn": true,
            "disableWander": true,
            "NCKMKJMDPDH": ""
        },
        {
            "groupId": 235802002,
            "mapInstId": 2043,
            "CBNANHBMMNC": true,
            "DGLJAJDAPNH": 99.0,
            "LGAONPKJDEC": true,
            "clearThreatTargetDistance": 99.0,
            "aiNeuronSetting": "DefaultSetting",
            "aiSensingTemplate": "DefaultTemplate",
            "forceCombatOnSpawn": true,
            "disableWander": true,
            "NCKMKJMDPDH": ""
        },
        {
            "groupId": 235802002,
            "mapInstId": 2044,
            "CBNANHBMMNC": true,
            "DGLJAJDAPNH": 99.0,
            "LGAONPKJDEC": true,
            "clearThreatTargetDistance": 99.0,
            "aiNeuronSetting": "DefaultSetting",
            "aiSensingTemplate": "DefaultTemplate",
            "forceCombatOnSpawn": true,
            "disableWander": true,
            "NCKMKJMDPDH": ""
        },
        {
            "groupId": 235802002,
            "mapInstId": 2045,
            "CBNANHBMMNC": true,
            "DGLJAJDAPNH": 99.0,
            "LGAONPKJDEC": true,
            "clearThreatTargetDistance": 99.0,
            "aiNeuronSetting": "DefaultSetting",
            "aiSensingTemplate": "DefaultTemplate",
            "forceCombatOnSpawn": true,
            "disableWander": true,
            "NCKMKJMDPDH": ""
        },
        {
            "groupId": 235802002,
            "mapInstId": 2046,
            "CBNANHBMMNC": true,
            "DGLJAJDAPNH": 99.0,
            "LGAONPKJDEC": true,
            "clearThreatTargetDistance": 99.0,
            "aiNeuronSetting": "DefaultSetting",
            "aiSensingTemplate": "DefaultTemplate",
            "forceCombatOnSpawn": true,
            "disableWander": true,
            "NCKMKJMDPDH": ""
        },
        {
            "groupId": 235802002,
            "mapInstId": 2047,
            "CBNANHBMMNC": true,
            "DGLJAJDAPNH": 99.0,
            "LGAONPKJDEC": true,
            "clearThreatTargetDistance": 99.0,
            "aiNeuronSetting": "DefaultSetting",
            "aiSensingTemplate": "DefaultTemplate",
            "forceCombatOnSpawn": true,
            "disableWander": true,
            "NCKMKJMDPDH": ""
        },
        {
            "groupId": 235802002,
            "mapInstId": 2048,
            "CBNANHBMMNC": true,
            "DGLJAJDAPNH": 99.0,
            "LGAONPKJDEC": true,
            "clearThreatTargetDistance": 99.0,
            "aiNeuronSetting": "DefaultSetting",
            "aiSensingTemplate": "DefaultTemplate",
            "forceCombatOnSpawn": true,
            "disableWander": true,
            "NCKMKJMDPDH": ""
        },
        {
            "groupId": 235802002,
            "mapInstId": 2049,
            "CBNANHBMMNC": true,
            "DGLJAJDAPNH": 99.0,
            "LGAONPKJDEC": true,
            "clearThreatTargetDistance": 99.0,
            "aiNeuronSetting": "DefaultSetting",
            "aiSensingTemplate": "DefaultTemplate",
            "forceCombatOnSpawn": true,
            "disableWander": true,
            "NCKMKJMDPDH": ""
        },
        {
            "groupId": 235802002,
            "mapInstId": 2050,
            "CBNANHBMMNC": true,
            "DGLJAJDAPNH": 99.0,
            "LGAONPKJDEC": true,
            "clearThreatTargetDistance": 99.0,
            "aiNeuronSetting": "DefaultSetting",
            "aiSensingTemplate": "DefaultTemplate",
            "forceCombatOnSpawn": true,
            "disableWander": true,
            "NCKMKJMDPDH": ""
        },
        {
            "groupId": 235802002,
            "mapInstId": 2051,
            "CBNANHBMMNC": true,
            "DGLJAJDAPNH": 99.0,
            "LGAONPKJDEC": true,
            "clearThreatTargetDistance": 99.0,
            "aiNeuronSetting": "DefaultSetting",
            "aiSensingTemplate": "DefaultTemplate",
            "forceCombatOnSpawn": true,
            "disableWander": true,
            "NCKMKJMDPDH": ""
        },
        {
            "groupId": 235802002,
            "mapInstId": 2052,
            "CBNANHBMMNC": true,
            "DGLJAJDAPNH": 99.0,
            "LGAONPKJDEC": true,
            "clearThreatTargetDistance": 99.0,
            "aiNeuronSetting": "DefaultSetting",
            "aiSensingTemplate": "DefaultTemplate",
            "forceCombatOnSpawn": true,
            "disableWander": true,
            "NCKMKJMDPDH": ""
        },
        {
            "groupId": 235802002,
            "mapInstId": 2053,
            "CBNANHBMMNC": true,
            "DGLJAJDAPNH": 99.0,
            "LGAONPKJDEC": true,
            "clearThreatTargetDistance": 99.0,
            "aiNeuronSetting": "DefaultSetting",
            "aiSensingTemplate": "DefaultTemplate",
            "forceCombatOnSpawn": true,
            "disableWander": true,
            "NCKMKJMDPDH": ""
        },
        {
            "groupId": 235802002,
            "mapInstId": 2054,
            "CBNANHBMMNC": true,
            "DGLJAJDAPNH": 99.0,
            "LGAONPKJDEC": true,
            "clearThreatTargetDistance": 99.0,
            "aiNeuronSetting": "DefaultSetting",
            "aiSensingTemplate": "DefaultTemplate",
            "forceCombatOnSpawn": true,
            "disableWander": true,
            "NCKMKJMDPDH": ""
        },
        {
            "groupId": 235802002,
            "mapInstId": 2055,
            "CBNANHBMMNC": true,
            "DGLJAJDAPNH": 99.0,
            "LGAONPKJDEC": true,
            "clearThreatTargetDistance": 99.0,
            "aiNeuronSetting": "DefaultSetting",
            "aiSensingTemplate": "DefaultTemplate",
            "forceCombatOnSpawn": true,
            "disableWander": true,
            "NCKMKJMDPDH": ""
        },
        {
            "groupId": 235802002,
            "mapInstId": 2056,
            "CBNANHBMMNC": true,
            "DGLJAJDAPNH": 99.0,
            "LGAONPKJDEC": true,
            "clearThreatTargetDistance": 99.0,
            "aiNeuronSetting": "DefaultSetting",
            "aiSensingTemplate": "DefaultTemplate",
            "forceCombatOnSpawn": true,
            "disableWander": true,
            "NCKMKJMDPDH": ""
        },
        {
            "groupId": 235802002,
            "mapInstId": 2057,
            "CBNANHBMMNC": true,
            "DGLJAJDAPNH": 99.0,
            "LGAONPKJDEC": true,
            "clearThreatTargetDistance": 99.0,
            "aiNeuronSetting": "DefaultSetting",
            "aiSensingTemplate": "DefaultTemplate",
            "forceCombatOnSpawn": true,
            "disableWander": true,
            "NCKMKJMDPDH": ""
        },
        {
            "groupId": 235802002,
            "mapInstId": 2058,
            "CBNANHBMMNC": true,
            "DGLJAJDAPNH": 99.0,
            "LGAONPKJDEC": true,
            "clearThreatTargetDistance": 99.0,
            "aiNeuronSetting": "DefaultSetting",
            "aiSensingTemplate": "DefaultTemplate",
            "forceCombatOnSpawn": true,
            "disableWander": true,
            "NCKMKJMDPDH": ""
        },
        {
            "groupId": 235802002,
            "mapInstId": 2059,
            "CBNANHBMMNC": true,
            "DGLJAJDAPNH": 99.0,
            "LGAONPKJDEC": true,
            "clearThreatTargetDistance": 99.0,
            "aiNeuronSetting": "DefaultSetting",
            "aiSensingTemplate": "DefaultTemplate",
            "forceCombatOnSpawn": true,
            "disableWander": true,
            "NCKMKJMDPDH": ""
        }
    ]
}