{
    "sceneId": 1065,
    "monsters": [
        {
            "groupId": 201065001,
            "mapInstId": 1001,
            "aiGroupID": 2010650010,
            "CBNANHBMMNC": true,
            "DGLJAJDAPNH": 50.0,
            "aiNeuronSetting": "DefaultSetting",
            "aiSensingTemplate": "DefaultTemplate",
            "forceCombatOnSpawn": true,
            "disableWander": true,
            "NCKMKJMDPDH": ""
        },
        {
            "groupId": 201065001,
            "mapInstId": 1002,
            "aiGroupID": 2010650010,
            "CBNANHBMMNC": true,
            "DGLJAJDAPNH": 50.0,
            "aiNeuronSetting": "DefaultSetting",
            "aiSensingTemplate": "DefaultTemplate",
            "forceCombatOnSpawn": true,
            "disableWander": true,
            "NCKMKJMDPDH": ""
        },
        {
            "groupId": 201065001,
            "mapInstId": 1003,
            "aiGroupID": 2010650010,
            "CBNANHBMMNC": true,
            "DGLJAJDAPNH": 50.0,
            "aiNeuronSetting": "DefaultSetting",
            "aiSensingTemplate": "DefaultTemplate",
            "forceCombatOnSpawn": true,
            "disableWander": true,
            "NCKMKJMDPDH": ""
        },
        {
            "groupId": 201065001,
            "mapInstId": 1004,
            "aiGroupID": 2010650010,
            "CBNANHBMMNC": true,
            "DGLJAJDAPNH": 50.0,
            "aiNeuronSetting": "DefaultSetting",
            "aiSensingTemplate": "DefaultTemplate",
            "forceCombatOnSpawn": true,
            "disableWander": true,
            "NCKMKJMDPDH": ""
        },
        {
            "groupId": 201065001,
            "mapInstId": 1005,
            "aiGroupID": 2010650011,
            "CBNANHBMMNC": true,
            "DGLJAJDAPNH": 50.0,
            "aiNeuronSetting": "DefaultSetting",
            "aiSensingTemplate": "DefaultTemplate",
            "forceCombatOnSpawn": true,
            "disableWander": true,
            "NCKMKJMDPDH": ""
        },
        {
            "groupId": 201065001,
            "mapInstId": 1006,
            "aiGroupID": 2010650011,
            "CBNANHBMMNC": true,
            "DGLJAJDAPNH": 50.0,
            "aiNeuronSetting": "DefaultSetting",
            "aiSensingTemplate": "DefaultTemplate",
            "forceCombatOnSpawn": true,
            "disableWander": true,
            "NCKMKJMDPDH": ""
        },
        {
            "groupId": 201065001,
            "mapInstId": 1007,
            "aiGroupID": 2010650011,
            "CBNANHBMMNC": true,
            "DGLJAJDAPNH": 50.0,
            "aiNeuronSetting": "DefaultSetting",
            "aiSensingTemplate": "DefaultTemplate",
            "forceCombatOnSpawn": true,
            "disableWander": true,
            "NCKMKJMDPDH": ""
        },
        {
            "groupId": 201065001,
            "mapInstId": 1008,
            "aiGroupID": 2010650011,
            "CBNANHBMMNC": true,
            "DGLJAJDAPNH": 50.0,
            "aiNeuronSetting": "DefaultSetting",
            "aiSensingTemplate": "DefaultTemplate",
            "forceCombatOnSpawn": true,
            "disableWander": true,
            "NCKMKJMDPDH": ""
        },
        {
            "groupId": 201065001,
            "mapInstId": 1009,
            "aiGroupID": 2010650011,
            "CBNANHBMMNC": true,
            "DGLJAJDAPNH": 50.0,
            "aiNeuronSetting": "DefaultSetting",
            "aiSensingTemplate": "DefaultTemplate",
            "forceCombatOnSpawn": true,
            "disableWander": true,
            "NCKMKJMDPDH": ""
        },
        {
            "groupId": 201065001,
            "mapInstId": 1010,
            "aiGroupID": 2010650011,
            "CBNANHBMMNC": true,
            "DGLJAJDAPNH": 50.0,
            "aiNeuronSetting": "DefaultSetting",
            "aiSensingTemplate": "DefaultTemplate",
            "forceCombatOnSpawn": true,
            "disableWander": true,
            "NCKMKJMDPDH": ""
        },
        {
            "groupId": 201065001,
            "mapInstId": 1011,
            "aiGroupID": 2010650011,
            "CBNANHBMMNC": true,
            "DGLJAJDAPNH": 50.0,
            "aiNeuronSetting": "DefaultSetting",
            "aiSensingTemplate": "DefaultTemplate",
            "forceCombatOnSpawn": true,
            "disableWander": true,
            "NCKMKJMDPDH": ""
        },
        {
            "groupId": 201065001,
            "mapInstId": 1012,
            "CBNANHBMMNC": true,
            "DGLJAJDAPNH": 50.0,
            "aiNeuronSetting": "DefaultSetting",
            "aiSensingTemplate": "DefaultTemplate",
            "forceCombatOnSpawn": true,
            "disableWander": true,
            "billboardHasUIBar": true,
            "billboardHpBarStyle": "Boss",
            "CJJKJDJDDLJ": 1,
            "LPMJAKBHFIA": 1,
            "NCKMKJMDPDH": ""
        },
        {
            "groupId": 201065001,
            "mapInstId": 1013,
            "aiGroupID": 2010650012,
            "CBNANHBMMNC": true,
            "DGLJAJDAPNH": 50.0,
            "aiNeuronSetting": "DefaultSetting",
            "aiSensingTemplate": "DefaultTemplate",
            "forceCombatOnSpawn": true,
            "disableWander": true,
            "NCKMKJMDPDH": ""
        },
        {
            "groupId": 201065001,
            "mapInstId": 1014,
            "aiGroupID": 2010650012,
            "CBNANHBMMNC": true,
            "DGLJAJDAPNH": 50.0,
            "aiNeuronSetting": "DefaultSetting",
            "aiSensingTemplate": "DefaultTemplate",
            "forceCombatOnSpawn": true,
            "disableWander": true,
            "NCKMKJMDPDH": ""
        },
        {
            "groupId": 201065001,
            "mapInstId": 1015,
            "aiGroupID": 2010650012,
            "CBNANHBMMNC": true,
            "DGLJAJDAPNH": 50.0,
            "aiNeuronSetting": "DefaultSetting",
            "aiSensingTemplate": "DefaultTemplate",
            "forceCombatOnSpawn": true,
            "disableWander": true,
            "NCKMKJMDPDH": ""
        },
        {
            "groupId": 201065001,
            "mapInstId": 1016,
            "aiGroupID": 2010650012,
            "CBNANHBMMNC": true,
            "DGLJAJDAPNH": 50.0,
            "aiNeuronSetting": "DefaultSetting",
            "aiSensingTemplate": "DefaultTemplate",
            "forceCombatOnSpawn": true,
            "disableWander": true,
            "NCKMKJMDPDH": ""
        },
        {
            "groupId": 201065001,
            "mapInstId": 1017,
            "aiGroupID": 2010650012,
            "CBNANHBMMNC": true,
            "DGLJAJDAPNH": 50.0,
            "aiNeuronSetting": "DefaultSetting",
            "aiSensingTemplate": "DefaultTemplate",
            "forceCombatOnSpawn": true,
            "disableWander": true,
            "NCKMKJMDPDH": ""
        }
    ]
}