{
    "sceneId": 33746,
    "monsters": [
        {
            "groupId": 233746004,
            "mapInstId": 4001,
            "aiGroupID": 233746005,
            "CBNANHBMMNC": true,
            "DGLJAJDAPNH": 999.0,
            "LGAONPKJDEC": true,
            "clearThreatTargetDistance": 999.0,
            "aiNeuronSetting": "DefaultSetting",
            "aiSensingTemplate": "DefaultTemplate",
            "forceCombatOnSpawn": true,
            "disableWander": true,
            "billboardHasUIBar": true,
            "NCKMKJMDPDH": ""
        },
        {
            "groupId": 233746005,
            "mapInstId": 5001,
            "aiGroupID": 233746004,
            "CBNANHBMMNC": true,
            "DGLJAJDAPNH": 999.0,
            "LGAONPKJDEC": true,
            "clearThreatTargetDistance": 999.0,
            "aiNeuronSetting": "DefaultSetting",
            "aiSensingTemplate": "DefaultTemplate",
            "forceCombatOnSpawn": true,
            "disableWander": true,
            "LPMJAKBHFIA": 2,
            "NCKMKJMDPDH": ""
        },
        {
            "groupId": 233746005,
            "mapInstId": 5002,
            "aiGroupID": 233746004,
            "CBNANHBMMNC": true,
            "DGLJAJDAPNH": 999.0,
            "LGAONPKJDEC": true,
            "clearThreatTargetDistance": 999.0,
            "aiNeuronSetting": "DefaultSetting",
            "aiSensingTemplate": "DefaultTemplate",
            "forceCombatOnSpawn": true,
            "disableWander": true,
            "LPMJAKBHFIA": 2,
            "NCKMKJMDPDH": ""
        },
        {
            "groupId": 233746005,
            "mapInstId": 5007,
            "aiGroupID": 233746004,
            "CBNANHBMMNC": true,
            "DGLJAJDAPNH": 999.0,
            "LGAONPKJDEC": true,
            "clearThreatTargetDistance": 999.0,
            "aiNeuronSetting": "DefaultSetting",
            "aiSensingTemplate": "DefaultTemplate",
            "forceCombatOnSpawn": true,
            "disableWander": true,
            "LPMJAKBHFIA": 2,
            "NCKMKJMDPDH": ""
        },
        {
            "groupId": 233746005,
            "mapInstId": 5009,
            "aiGroupID": 233746004,
            "CBNANHBMMNC": true,
            "DGLJAJDAPNH": 999.0,
            "LGAONPKJDEC": true,
            "clearThreatTargetDistance": 999.0,
            "aiNeuronSetting": "DefaultSetting",
            "aiSensingTemplate": "DefaultTemplate",
            "forceCombatOnSpawn": true,
            "disableWander": true,
            "LPMJAKBHFIA": 2,
            "NCKMKJMDPDH": ""
        }
    ]
}