{
    "sceneId": 35818,
    "monsters": [
        {
            "groupId": 235818002,
            "mapInstId": 2001,
            "aiGroupID": 235818002,
            "CBNANHBMMNC": true,
            "DGLJAJDAPNH": 99.0,
            "LGAONPKJDEC": true,
            "clearThreatTargetDistance": 99.0,
            "aiNeuronSetting": "DefaultSetting",
            "aiSensingTemplate": "DefaultTemplate",
            "forceCombatOnSpawn": true,
            "disableWander": true,
            "NCKMKJMDPDH": ""
        },
        {
            "groupId": 235818002,
            "mapInstId": 2002,
            "aiGroupID": 235818002,
            "CBNANHBMMNC": true,
            "DGLJAJDAPNH": 99.0,
            "LGAONPKJDEC": true,
            "clearThreatTargetDistance": 99.0,
            "aiNeuronSetting": "DefaultSetting",
            "aiSensingTemplate": "DefaultTemplate",
            "forceCombatOnSpawn": true,
            "disableWander": true,
            "NCKMKJMDPDH": ""
        },
        {
            "groupId": 235818002,
            "mapInstId": 2003,
            "aiGroupID": 235818002,
            "CBNANHBMMNC": true,
            "DGLJAJDAPNH": 99.0,
            "LGAONPKJDEC": true,
            "clearThreatTargetDistance": 99.0,
            "aiNeuronSetting": "DefaultSetting",
            "aiSensingTemplate": "DefaultTemplate",
            "forceCombatOnSpawn": true,
            "disableWander": true,
            "NCKMKJMDPDH": ""
        },
        {
            "groupId": 235818002,
            "mapInstId": 2004,
            "aiGroupID": 235818002,
            "CBNANHBMMNC": true,
            "DGLJAJDAPNH": 99.0,
            "LGAONPKJDEC": true,
            "clearThreatTargetDistance": 99.0,
            "aiNeuronSetting": "DefaultSetting",
            "aiSensingTemplate": "DefaultTemplate",
            "forceCombatOnSpawn": true,
            "disableWander": true,
            "NCKMKJMDPDH": ""
        },
        {
            "groupId": 235818002,
            "mapInstId": 2005,
            "aiGroupID": 235818002,
            "CBNANHBMMNC": true,
            "DGLJAJDAPNH": 99.0,
            "LGAONPKJDEC": true,
            "clearThreatTargetDistance": 99.0,
            "aiNeuronSetting": "DefaultSetting",
            "aiSensingTemplate": "DefaultTemplate",
            "forceCombatOnSpawn": true,
            "disableWander": true,
            "NCKMKJMDPDH": ""
        },
        {
            "groupId": 235818002,
            "mapInstId": 2006,
            "aiGroupID": 235818002,
            "CBNANHBMMNC": true,
            "DGLJAJDAPNH": 99.0,
            "LGAONPKJDEC": true,
            "clearThreatTargetDistance": 99.0,
            "aiNeuronSetting": "DefaultSetting",
            "aiSensingTemplate": "DefaultTemplate",
            "forceCombatOnSpawn": true,
            "disableWander": true,
            "NCKMKJMDPDH": ""
        },
        {
            "groupId": 235818002,
            "mapInstId": 2007,
            "aiGroupID": 235818002,
            "CBNANHBMMNC": true,
            "DGLJAJDAPNH": 99.0,
            "LGAONPKJDEC": true,
            "clearThreatTargetDistance": 99.0,
            "aiNeuronSetting": "DefaultSetting",
            "aiSensingTemplate": "DefaultTemplate",
            "forceCombatOnSpawn": true,
            "disableWander": true,
            "NCKMKJMDPDH": ""
        },
        {
            "groupId": 235818002,
            "mapInstId": 2008,
            "aiGroupID": 235818002,
            "CBNANHBMMNC": true,
            "DGLJAJDAPNH": 99.0,
            "LGAONPKJDEC": true,
            "clearThreatTargetDistance": 99.0,
            "aiNeuronSetting": "DefaultSetting",
            "aiSensingTemplate": "DefaultTemplate",
            "forceCombatOnSpawn": true,
            "disableWander": true,
            "NCKMKJMDPDH": ""
        },
        {
            "groupId": 235818002,
            "mapInstId": 2009,
            "aiGroupID": 235818002,
            "CBNANHBMMNC": true,
            "DGLJAJDAPNH": 99.0,
            "LGAONPKJDEC": true,
            "clearThreatTargetDistance": 99.0,
            "aiNeuronSetting": "DefaultSetting",
            "aiSensingTemplate": "DefaultTemplate",
            "forceCombatOnSpawn": true,
            "disableWander": true,
            "NCKMKJMDPDH": ""
        },
        {
            "groupId": 235818002,
            "mapInstId": 2010,
            "aiGroupID": 235818002,
            "CBNANHBMMNC": true,
            "DGLJAJDAPNH": 99.0,
            "LGAONPKJDEC": true,
            "clearThreatTargetDistance": 99.0,
            "aiNeuronSetting": "DefaultSetting",
            "aiSensingTemplate": "DefaultTemplate",
            "forceCombatOnSpawn": true,
            "disableWander": true,
            "NCKMKJMDPDH": ""
        },
        {
            "groupId": 235818002,
            "mapInstId": 2011,
            "aiGroupID": 235818002,
            "CBNANHBMMNC": true,
            "DGLJAJDAPNH": 99.0,
            "LGAONPKJDEC": true,
            "clearThreatTargetDistance": 99.0,
            "aiNeuronSetting": "DefaultSetting",
            "aiSensingTemplate": "DefaultTemplate",
            "forceCombatOnSpawn": true,
            "disableWander": true,
            "NCKMKJMDPDH": ""
        },
        {
            "groupId": 235818002,
            "mapInstId": 2012,
            "aiGroupID": 235818002,
            "CBNANHBMMNC": true,
            "DGLJAJDAPNH": 99.0,
            "LGAONPKJDEC": true,
            "clearThreatTargetDistance": 99.0,
            "aiNeuronSetting": "DefaultSetting",
            "aiSensingTemplate": "DefaultTemplate",
            "forceCombatOnSpawn": true,
            "disableWander": true,
            "NCKMKJMDPDH": ""
        },
        {
            "groupId": 235818002,
            "mapInstId": 2013,
            "aiGroupID": 235818002,
            "CBNANHBMMNC": true,
            "DGLJAJDAPNH": 99.0,
            "LGAONPKJDEC": true,
            "clearThreatTargetDistance": 99.0,
            "aiNeuronSetting": "DefaultSetting",
            "aiSensingTemplate": "DefaultTemplate",
            "forceCombatOnSpawn": true,
            "disableWander": true,
            "NCKMKJMDPDH": ""
        },
        {
            "groupId": 235818002,
            "mapInstId": 2014,
            "aiGroupID": 235818002,
            "CBNANHBMMNC": true,
            "DGLJAJDAPNH": 99.0,
            "LGAONPKJDEC": true,
            "clearThreatTargetDistance": 99.0,
            "aiNeuronSetting": "DefaultSetting",
            "aiSensingTemplate": "DefaultTemplate",
            "forceCombatOnSpawn": true,
            "disableWander": true,
            "NCKMKJMDPDH": ""
        },
        {
            "groupId": 235818002,
            "mapInstId": 2015,
            "aiGroupID": 235818002,
            "CBNANHBMMNC": true,
            "DGLJAJDAPNH": 99.0,
            "LGAONPKJDEC": true,
            "clearThreatTargetDistance": 99.0,
            "aiNeuronSetting": "DefaultSetting",
            "aiSensingTemplate": "DefaultTemplate",
            "forceCombatOnSpawn": true,
            "disableWander": true,
            "NCKMKJMDPDH": ""
        },
        {
            "groupId": 235818002,
            "mapInstId": 2016,
            "aiGroupID": 235818002,
            "CBNANHBMMNC": true,
            "DGLJAJDAPNH": 99.0,
            "LGAONPKJDEC": true,
            "clearThreatTargetDistance": 99.0,
            "aiNeuronSetting": "DefaultSetting",
            "aiSensingTemplate": "DefaultTemplate",
            "forceCombatOnSpawn": true,
            "disableWander": true,
            "NCKMKJMDPDH": ""
        },
        {
            "groupId": 235818002,
            "mapInstId": 2017,
            "aiGroupID": 235818002,
            "CBNANHBMMNC": true,
            "DGLJAJDAPNH": 99.0,
            "LGAONPKJDEC": true,
            "clearThreatTargetDistance": 99.0,
            "aiNeuronSetting": "DefaultSetting",
            "aiSensingTemplate": "DefaultTemplate",
            "forceCombatOnSpawn": true,
            "disableWander": true,
            "NCKMKJMDPDH": ""
        },
        {
            "groupId": 235818002,
            "mapInstId": 2018,
            "aiGroupID": 235818002,
            "CBNANHBMMNC": true,
            "DGLJAJDAPNH": 99.0,
            "LGAONPKJDEC": true,
            "clearThreatTargetDistance": 99.0,
            "aiNeuronSetting": "DefaultSetting",
            "aiSensingTemplate": "DefaultTemplate",
            "forceCombatOnSpawn": true,
            "disableWander": true,
            "NCKMKJMDPDH": ""
        },
        {
            "groupId": 235818002,
            "mapInstId": 2019,
            "aiGroupID": 235818002,
            "CBNANHBMMNC": true,
            "DGLJAJDAPNH": 99.0,
            "LGAONPKJDEC": true,
            "clearThreatTargetDistance": 99.0,
            "aiNeuronSetting": "DefaultSetting",
            "aiSensingTemplate": "DefaultTemplate",
            "forceCombatOnSpawn": true,
            "disableWander": true,
            "NCKMKJMDPDH": ""
        },
        {
            "groupId": 235818002,
            "mapInstId": 2020,
            "aiGroupID": 235818002,
            "CBNANHBMMNC": true,
            "DGLJAJDAPNH": 99.0,
            "LGAONPKJDEC": true,
            "clearThreatTargetDistance": 99.0,
            "aiNeuronSetting": "DefaultSetting",
            "aiSensingTemplate": "DefaultTemplate",
            "forceCombatOnSpawn": true,
            "disableWander": true,
            "NCKMKJMDPDH": ""
        },
        {
            "groupId": 235818002,
            "mapInstId": 2030,
            "aiGroupID": 235818002,
            "CBNANHBMMNC": true,
            "DGLJAJDAPNH": 99.0,
            "LGAONPKJDEC": true,
            "clearThreatTargetDistance": 99.0,
            "aiNeuronSetting": "DefaultSetting",
            "aiSensingTemplate": "DefaultTemplate",
            "forceCombatOnSpawn": true,
            "disableWander": true,
            "NCKMKJMDPDH": ""
        },
        {
            "groupId": 235818002,
            "mapInstId": 2031,
            "aiGroupID": 235818002,
            "CBNANHBMMNC": true,
            "DGLJAJDAPNH": 99.0,
            "LGAONPKJDEC": true,
            "clearThreatTargetDistance": 99.0,
            "aiNeuronSetting": "DefaultSetting",
            "aiSensingTemplate": "DefaultTemplate",
            "forceCombatOnSpawn": true,
            "disableWander": true,
            "NCKMKJMDPDH": ""
        },
        {
            "groupId": 235818002,
            "mapInstId": 2032,
            "aiGroupID": 235818002,
            "CBNANHBMMNC": true,
            "DGLJAJDAPNH": 99.0,
            "LGAONPKJDEC": true,
            "clearThreatTargetDistance": 99.0,
            "aiNeuronSetting": "DefaultSetting",
            "aiSensingTemplate": "DefaultTemplate",
            "forceCombatOnSpawn": true,
            "disableWander": true,
            "NCKMKJMDPDH": ""
        },
        {
            "groupId": 235818002,
            "mapInstId": 2033,
            "aiGroupID": 235818002,
            "CBNANHBMMNC": true,
            "DGLJAJDAPNH": 99.0,
            "LGAONPKJDEC": true,
            "clearThreatTargetDistance": 99.0,
            "aiNeuronSetting": "DefaultSetting",
            "aiSensingTemplate": "DefaultTemplate",
            "forceCombatOnSpawn": true,
            "disableWander": true,
            "NCKMKJMDPDH": ""
        },
        {
            "groupId": 235818002,
            "mapInstId": 2034,
            "aiGroupID": 235818002,
            "CBNANHBMMNC": true,
            "DGLJAJDAPNH": 99.0,
            "LGAONPKJDEC": true,
            "clearThreatTargetDistance": 99.0,
            "aiNeuronSetting": "DefaultSetting",
            "aiSensingTemplate": "DefaultTemplate",
            "forceCombatOnSpawn": true,
            "disableWander": true,
            "NCKMKJMDPDH": ""
        },
        {
            "groupId": 235818002,
            "mapInstId": 2035,
            "aiGroupID": 235818002,
            "CBNANHBMMNC": true,
            "DGLJAJDAPNH": 99.0,
            "LGAONPKJDEC": true,
            "clearThreatTargetDistance": 99.0,
            "aiNeuronSetting": "DefaultSetting",
            "aiSensingTemplate": "DefaultTemplate",
            "forceCombatOnSpawn": true,
            "disableWander": true,
            "NCKMKJMDPDH": ""
        },
        {
            "groupId": 235818002,
            "mapInstId": 2036,
            "aiGroupID": 235818002,
            "CBNANHBMMNC": true,
            "DGLJAJDAPNH": 99.0,
            "LGAONPKJDEC": true,
            "clearThreatTargetDistance": 99.0,
            "aiNeuronSetting": "DefaultSetting",
            "aiSensingTemplate": "DefaultTemplate",
            "forceCombatOnSpawn": true,
            "disableWander": true,
            "NCKMKJMDPDH": ""
        },
        {
            "groupId": 235818002,
            "mapInstId": 2037,
            "aiGroupID": 235818002,
            "CBNANHBMMNC": true,
            "DGLJAJDAPNH": 99.0,
            "LGAONPKJDEC": true,
            "clearThreatTargetDistance": 99.0,
            "aiNeuronSetting": "DefaultSetting",
            "aiSensingTemplate": "DefaultTemplate",
            "forceCombatOnSpawn": true,
            "disableWander": true,
            "NCKMKJMDPDH": ""
        },
        {
            "groupId": 235818002,
            "mapInstId": 2038,
            "aiGroupID": 235818002,
            "CBNANHBMMNC": true,
            "DGLJAJDAPNH": 99.0,
            "LGAONPKJDEC": true,
            "clearThreatTargetDistance": 99.0,
            "aiNeuronSetting": "DefaultSetting",
            "aiSensingTemplate": "DefaultTemplate",
            "forceCombatOnSpawn": true,
            "disableWander": true,
            "NCKMKJMDPDH": ""
        },
        {
            "groupId": 235818002,
            "mapInstId": 2039,
            "aiGroupID": 235818002,
            "CBNANHBMMNC": true,
            "DGLJAJDAPNH": 99.0,
            "LGAONPKJDEC": true,
            "clearThreatTargetDistance": 99.0,
            "aiNeuronSetting": "DefaultSetting",
            "aiSensingTemplate": "DefaultTemplate",
            "forceCombatOnSpawn": true,
            "disableWander": true,
            "NCKMKJMDPDH": ""
        },
        {
            "groupId": 235818002,
            "mapInstId": 2040,
            "aiGroupID": 235818002,
            "CBNANHBMMNC": true,
            "DGLJAJDAPNH": 99.0,
            "LGAONPKJDEC": true,
            "clearThreatTargetDistance": 99.0,
            "aiNeuronSetting": "DefaultSetting",
            "aiSensingTemplate": "DefaultTemplate",
            "forceCombatOnSpawn": true,
            "disableWander": true,
            "NCKMKJMDPDH": ""
        },
        {
            "groupId": 235818002,
            "mapInstId": 2041,
            "aiGroupID": 235818002,
            "CBNANHBMMNC": true,
            "DGLJAJDAPNH": 99.0,
            "LGAONPKJDEC": true,
            "clearThreatTargetDistance": 99.0,
            "aiNeuronSetting": "DefaultSetting",
            "aiSensingTemplate": "DefaultTemplate",
            "forceCombatOnSpawn": true,
            "disableWander": true,
            "NCKMKJMDPDH": ""
        },
        {
            "groupId": 235818002,
            "mapInstId": 2042,
            "aiGroupID": 235818002,
            "CBNANHBMMNC": true,
            "DGLJAJDAPNH": 99.0,
            "LGAONPKJDEC": true,
            "clearThreatTargetDistance": 99.0,
            "aiNeuronSetting": "DefaultSetting",
            "aiSensingTemplate": "DefaultTemplate",
            "forceCombatOnSpawn": true,
            "disableWander": true,
            "NCKMKJMDPDH": ""
        },
        {
            "groupId": 235818002,
            "mapInstId": 2043,
            "aiGroupID": 235818002,
            "CBNANHBMMNC": true,
            "DGLJAJDAPNH": 99.0,
            "LGAONPKJDEC": true,
            "clearThreatTargetDistance": 99.0,
            "aiNeuronSetting": "DefaultSetting",
            "aiSensingTemplate": "DefaultTemplate",
            "forceCombatOnSpawn": true,
            "disableWander": true,
            "NCKMKJMDPDH": ""
        },
        {
            "groupId": 235818002,
            "mapInstId": 2044,
            "aiGroupID": 235818002,
            "CBNANHBMMNC": true,
            "DGLJAJDAPNH": 99.0,
            "LGAONPKJDEC": true,
            "clearThreatTargetDistance": 99.0,
            "aiNeuronSetting": "DefaultSetting",
            "aiSensingTemplate": "DefaultTemplate",
            "forceCombatOnSpawn": true,
            "disableWander": true,
            "NCKMKJMDPDH": ""
        },
        {
            "groupId": 235818002,
            "mapInstId": 2045,
            "aiGroupID": 235818002,
            "CBNANHBMMNC": true,
            "DGLJAJDAPNH": 99.0,
            "LGAONPKJDEC": true,
            "clearThreatTargetDistance": 99.0,
            "aiNeuronSetting": "DefaultSetting",
            "aiSensingTemplate": "DefaultTemplate",
            "forceCombatOnSpawn": true,
            "disableWander": true,
            "NCKMKJMDPDH": ""
        },
        {
            "groupId": 235818002,
            "mapInstId": 2046,
            "aiGroupID": 235818002,
            "CBNANHBMMNC": true,
            "DGLJAJDAPNH": 99.0,
            "LGAONPKJDEC": true,
            "clearThreatTargetDistance": 99.0,
            "aiNeuronSetting": "DefaultSetting",
            "aiSensingTemplate": "DefaultTemplate",
            "forceCombatOnSpawn": true,
            "disableWander": true,
            "NCKMKJMDPDH": ""
        },
        {
            "groupId": 235818002,
            "mapInstId": 2047,
            "aiGroupID": 235818002,
            "CBNANHBMMNC": true,
            "DGLJAJDAPNH": 99.0,
            "LGAONPKJDEC": true,
            "clearThreatTargetDistance": 99.0,
            "aiNeuronSetting": "DefaultSetting",
            "aiSensingTemplate": "DefaultTemplate",
            "forceCombatOnSpawn": true,
            "disableWander": true,
            "NCKMKJMDPDH": ""
        },
        {
            "groupId": 235818002,
            "mapInstId": 2068,
            "aiGroupID": 235818002,
            "CBNANHBMMNC": true,
            "DGLJAJDAPNH": 99.0,
            "LGAONPKJDEC": true,
            "clearThreatTargetDistance": 99.0,
            "aiNeuronSetting": "DefaultSetting",
            "aiSensingTemplate": "DefaultTemplate",
            "forceCombatOnSpawn": true,
            "disableWander": true,
            "NCKMKJMDPDH": ""
        },
        {
            "groupId": 235818002,
            "mapInstId": 2069,
            "aiGroupID": 235818002,
            "CBNANHBMMNC": true,
            "DGLJAJDAPNH": 99.0,
            "LGAONPKJDEC": true,
            "clearThreatTargetDistance": 99.0,
            "aiNeuronSetting": "DefaultSetting",
            "aiSensingTemplate": "DefaultTemplate",
            "forceCombatOnSpawn": true,
            "disableWander": true,
            "NCKMKJMDPDH": ""
        },
        {
            "groupId": 235818002,
            "mapInstId": 2070,
            "aiGroupID": 235818002,
            "CBNANHBMMNC": true,
            "DGLJAJDAPNH": 99.0,
            "LGAONPKJDEC": true,
            "clearThreatTargetDistance": 99.0,
            "aiNeuronSetting": "DefaultSetting",
            "aiSensingTemplate": "DefaultTemplate",
            "forceCombatOnSpawn": true,
            "disableWander": true,
            "NCKMKJMDPDH": ""
        },
        {
            "groupId": 235818002,
            "mapInstId": 2071,
            "aiGroupID": 235818002,
            "CBNANHBMMNC": true,
            "DGLJAJDAPNH": 99.0,
            "LGAONPKJDEC": true,
            "clearThreatTargetDistance": 99.0,
            "aiNeuronSetting": "DefaultSetting",
            "aiSensingTemplate": "DefaultTemplate",
            "forceCombatOnSpawn": true,
            "disableWander": true,
            "NCKMKJMDPDH": ""
        },
        {
            "groupId": 235818002,
            "mapInstId": 2080,
            "aiGroupID": 235818002,
            "CBNANHBMMNC": true,
            "DGLJAJDAPNH": 99.0,
            "LGAONPKJDEC": true,
            "clearThreatTargetDistance": 99.0,
            "aiNeuronSetting": "DefaultSetting",
            "aiSensingTemplate": "DefaultTemplate",
            "forceCombatOnSpawn": true,
            "disableWander": true,
            "NCKMKJMDPDH": ""
        },
        {
            "groupId": 235818002,
            "mapInstId": 2081,
            "aiGroupID": 235818002,
            "CBNANHBMMNC": true,
            "DGLJAJDAPNH": 99.0,
            "LGAONPKJDEC": true,
            "clearThreatTargetDistance": 99.0,
            "aiNeuronSetting": "DefaultSetting",
            "aiSensingTemplate": "DefaultTemplate",
            "forceCombatOnSpawn": true,
            "disableWander": true,
            "NCKMKJMDPDH": ""
        },
        {
            "groupId": 235818002,
            "mapInstId": 2082,
            "aiGroupID": 235818002,
            "CBNANHBMMNC": true,
            "DGLJAJDAPNH": 99.0,
            "LGAONPKJDEC": true,
            "clearThreatTargetDistance": 99.0,
            "aiNeuronSetting": "DefaultSetting",
            "aiSensingTemplate": "DefaultTemplate",
            "forceCombatOnSpawn": true,
            "disableWander": true,
            "NCKMKJMDPDH": ""
        },
        {
            "groupId": 235818002,
            "mapInstId": 2083,
            "aiGroupID": 235818002,
            "CBNANHBMMNC": true,
            "DGLJAJDAPNH": 99.0,
            "LGAONPKJDEC": true,
            "clearThreatTargetDistance": 99.0,
            "aiNeuronSetting": "DefaultSetting",
            "aiSensingTemplate": "DefaultTemplate",
            "forceCombatOnSpawn": true,
            "disableWander": true,
            "NCKMKJMDPDH": ""
        },
        {
            "groupId": 235818002,
            "mapInstId": 2084,
            "aiGroupID": 235818002,
            "CBNANHBMMNC": true,
            "DGLJAJDAPNH": 99.0,
            "LGAONPKJDEC": true,
            "clearThreatTargetDistance": 99.0,
            "aiNeuronSetting": "DefaultSetting",
            "aiSensingTemplate": "DefaultTemplate",
            "forceCombatOnSpawn": true,
            "disableWander": true,
            "NCKMKJMDPDH": ""
        },
        {
            "groupId": 235818002,
            "mapInstId": 2085,
            "aiGroupID": 235818002,
            "CBNANHBMMNC": true,
            "DGLJAJDAPNH": 99.0,
            "LGAONPKJDEC": true,
            "clearThreatTargetDistance": 99.0,
            "aiNeuronSetting": "DefaultSetting",
            "aiSensingTemplate": "DefaultTemplate",
            "forceCombatOnSpawn": true,
            "disableWander": true,
            "NCKMKJMDPDH": ""
        },
        {
            "groupId": 235818002,
            "mapInstId": 2086,
            "aiGroupID": 235818002,
            "CBNANHBMMNC": true,
            "DGLJAJDAPNH": 99.0,
            "LGAONPKJDEC": true,
            "clearThreatTargetDistance": 99.0,
            "aiNeuronSetting": "DefaultSetting",
            "aiSensingTemplate": "DefaultTemplate",
            "forceCombatOnSpawn": true,
            "disableWander": true,
            "NCKMKJMDPDH": ""
        },
        {
            "groupId": 235818002,
            "mapInstId": 2087,
            "aiGroupID": 235818002,
            "CBNANHBMMNC": true,
            "DGLJAJDAPNH": 99.0,
            "LGAONPKJDEC": true,
            "clearThreatTargetDistance": 99.0,
            "aiNeuronSetting": "DefaultSetting",
            "aiSensingTemplate": "DefaultTemplate",
            "forceCombatOnSpawn": true,
            "disableWander": true,
            "NCKMKJMDPDH": ""
        },
        {
            "groupId": 235818002,
            "mapInstId": 2088,
            "aiGroupID": 235818002,
            "CBNANHBMMNC": true,
            "DGLJAJDAPNH": 99.0,
            "LGAONPKJDEC": true,
            "clearThreatTargetDistance": 99.0,
            "aiNeuronSetting": "DefaultSetting",
            "aiSensingTemplate": "DefaultTemplate",
            "forceCombatOnSpawn": true,
            "disableWander": true,
            "NCKMKJMDPDH": ""
        },
        {
            "groupId": 235818002,
            "mapInstId": 2089,
            "aiGroupID": 235818002,
            "CBNANHBMMNC": true,
            "DGLJAJDAPNH": 99.0,
            "LGAONPKJDEC": true,
            "clearThreatTargetDistance": 99.0,
            "aiNeuronSetting": "DefaultSetting",
            "aiSensingTemplate": "DefaultTemplate",
            "forceCombatOnSpawn": true,
            "disableWander": true,
            "NCKMKJMDPDH": ""
        },
        {
            "groupId": 235818002,
            "mapInstId": 2090,
            "aiGroupID": 235818002,
            "CBNANHBMMNC": true,
            "DGLJAJDAPNH": 99.0,
            "LGAONPKJDEC": true,
            "clearThreatTargetDistance": 99.0,
            "aiNeuronSetting": "DefaultSetting",
            "aiSensingTemplate": "DefaultTemplate",
            "forceCombatOnSpawn": true,
            "disableWander": true,
            "NCKMKJMDPDH": ""
        },
        {
            "groupId": 235818002,
            "mapInstId": 2091,
            "aiGroupID": 235818002,
            "CBNANHBMMNC": true,
            "DGLJAJDAPNH": 99.0,
            "LGAONPKJDEC": true,
            "clearThreatTargetDistance": 99.0,
            "aiNeuronSetting": "DefaultSetting",
            "aiSensingTemplate": "DefaultTemplate",
            "forceCombatOnSpawn": true,
            "disableWander": true,
            "NCKMKJMDPDH": ""
        },
        {
            "groupId": 235818002,
            "mapInstId": 2094,
            "aiGroupID": 235818002,
            "CBNANHBMMNC": true,
            "DGLJAJDAPNH": 99.0,
            "LGAONPKJDEC": true,
            "clearThreatTargetDistance": 99.0,
            "aiNeuronSetting": "DefaultSetting",
            "aiSensingTemplate": "DefaultTemplate",
            "forceCombatOnSpawn": true,
            "disableWander": true,
            "NCKMKJMDPDH": ""
        },
        {
            "groupId": 235818002,
            "mapInstId": 2095,
            "aiGroupID": 235818002,
            "CBNANHBMMNC": true,
            "DGLJAJDAPNH": 99.0,
            "LGAONPKJDEC": true,
            "clearThreatTargetDistance": 99.0,
            "aiNeuronSetting": "DefaultSetting",
            "aiSensingTemplate": "DefaultTemplate",
            "forceCombatOnSpawn": true,
            "disableWander": true,
            "NCKMKJMDPDH": ""
        },
        {
            "groupId": 235818002,
            "mapInstId": 2096,
            "aiGroupID": 235818002,
            "CBNANHBMMNC": true,
            "DGLJAJDAPNH": 99.0,
            "LGAONPKJDEC": true,
            "clearThreatTargetDistance": 99.0,
            "aiNeuronSetting": "DefaultSetting",
            "aiSensingTemplate": "DefaultTemplate",
            "forceCombatOnSpawn": true,
            "disableWander": true,
            "NCKMKJMDPDH": ""
        },
        {
            "groupId": 235818002,
            "mapInstId": 2097,
            "aiGroupID": 235818002,
            "CBNANHBMMNC": true,
            "DGLJAJDAPNH": 99.0,
            "LGAONPKJDEC": true,
            "clearThreatTargetDistance": 99.0,
            "aiNeuronSetting": "DefaultSetting",
            "aiSensingTemplate": "DefaultTemplate",
            "forceCombatOnSpawn": true,
            "disableWander": true,
            "NCKMKJMDPDH": ""
        },
        {
            "groupId": 235818002,
            "mapInstId": 2098,
            "aiGroupID": 235818002,
            "CBNANHBMMNC": true,
            "DGLJAJDAPNH": 99.0,
            "LGAONPKJDEC": true,
            "clearThreatTargetDistance": 99.0,
            "aiNeuronSetting": "DefaultSetting",
            "aiSensingTemplate": "DefaultTemplate",
            "forceCombatOnSpawn": true,
            "disableWander": true,
            "NCKMKJMDPDH": ""
        },
        {
            "groupId": 235818002,
            "mapInstId": 2099,
            "aiGroupID": 235818002,
            "CBNANHBMMNC": true,
            "DGLJAJDAPNH": 99.0,
            "LGAONPKJDEC": true,
            "clearThreatTargetDistance": 99.0,
            "aiNeuronSetting": "DefaultSetting",
            "aiSensingTemplate": "DefaultTemplate",
            "forceCombatOnSpawn": true,
            "disableWander": true,
            "NCKMKJMDPDH": ""
        },
        {
            "groupId": 235818002,
            "mapInstId": 2100,
            "aiGroupID": 235818002,
            "CBNANHBMMNC": true,
            "DGLJAJDAPNH": 99.0,
            "LGAONPKJDEC": true,
            "clearThreatTargetDistance": 99.0,
            "aiNeuronSetting": "DefaultSetting",
            "aiSensingTemplate": "DefaultTemplate",
            "forceCombatOnSpawn": true,
            "disableWander": true,
            "NCKMKJMDPDH": ""
        },
        {
            "groupId": 235818002,
            "mapInstId": 2101,
            "aiGroupID": 235818002,
            "CBNANHBMMNC": true,
            "DGLJAJDAPNH": 99.0,
            "LGAONPKJDEC": true,
            "clearThreatTargetDistance": 99.0,
            "aiNeuronSetting": "DefaultSetting",
            "aiSensingTemplate": "DefaultTemplate",
            "forceCombatOnSpawn": true,
            "disableWander": true,
            "NCKMKJMDPDH": ""
        },
        {
            "groupId": 235818002,
            "mapInstId": 2102,
            "aiGroupID": 235818002,
            "CBNANHBMMNC": true,
            "DGLJAJDAPNH": 99.0,
            "LGAONPKJDEC": true,
            "clearThreatTargetDistance": 99.0,
            "aiNeuronSetting": "DefaultSetting",
            "aiSensingTemplate": "DefaultTemplate",
            "forceCombatOnSpawn": true,
            "disableWander": true,
            "NCKMKJMDPDH": ""
        },
        {
            "groupId": 235818002,
            "mapInstId": 2104,
            "aiGroupID": 235818002,
            "CBNANHBMMNC": true,
            "DGLJAJDAPNH": 99.0,
            "LGAONPKJDEC": true,
            "clearThreatTargetDistance": 99.0,
            "aiNeuronSetting": "DefaultSetting",
            "aiSensingTemplate": "DefaultTemplate",
            "forceCombatOnSpawn": true,
            "disableWander": true,
            "NCKMKJMDPDH": ""
        },
        {
            "groupId": 235818002,
            "mapInstId": 2105,
            "aiGroupID": 235818002,
            "CBNANHBMMNC": true,
            "DGLJAJDAPNH": 99.0,
            "LGAONPKJDEC": true,
            "clearThreatTargetDistance": 99.0,
            "aiNeuronSetting": "DefaultSetting",
            "aiSensingTemplate": "DefaultTemplate",
            "forceCombatOnSpawn": true,
            "disableWander": true,
            "NCKMKJMDPDH": ""
        },
        {
            "groupId": 235818002,
            "mapInstId": 2106,
            "aiGroupID": 235818002,
            "CBNANHBMMNC": true,
            "DGLJAJDAPNH": 99.0,
            "LGAONPKJDEC": true,
            "clearThreatTargetDistance": 99.0,
            "aiNeuronSetting": "DefaultSetting",
            "aiSensingTemplate": "DefaultTemplate",
            "forceCombatOnSpawn": true,
            "disableWander": true,
            "NCKMKJMDPDH": ""
        },
        {
            "groupId": 235818002,
            "mapInstId": 2107,
            "aiGroupID": 235818002,
            "CBNANHBMMNC": true,
            "DGLJAJDAPNH": 99.0,
            "LGAONPKJDEC": true,
            "clearThreatTargetDistance": 99.0,
            "aiNeuronSetting": "DefaultSetting",
            "aiSensingTemplate": "DefaultTemplate",
            "forceCombatOnSpawn": true,
            "disableWander": true,
            "NCKMKJMDPDH": ""
        },
        {
            "groupId": 235818002,
            "mapInstId": 2108,
            "aiGroupID": 235818002,
            "CBNANHBMMNC": true,
            "DGLJAJDAPNH": 99.0,
            "LGAONPKJDEC": true,
            "clearThreatTargetDistance": 99.0,
            "aiNeuronSetting": "DefaultSetting",
            "aiSensingTemplate": "DefaultTemplate",
            "forceCombatOnSpawn": true,
            "disableWander": true,
            "NCKMKJMDPDH": ""
        },
        {
            "groupId": 235818002,
            "mapInstId": 2109,
            "aiGroupID": 235818002,
            "CBNANHBMMNC": true,
            "DGLJAJDAPNH": 99.0,
            "LGAONPKJDEC": true,
            "clearThreatTargetDistance": 99.0,
            "aiNeuronSetting": "DefaultSetting",
            "aiSensingTemplate": "DefaultTemplate",
            "forceCombatOnSpawn": true,
            "disableWander": true,
            "NCKMKJMDPDH": ""
        },
        {
            "groupId": 235818002,
            "mapInstId": 2110,
            "aiGroupID": 235818002,
            "CBNANHBMMNC": true,
            "DGLJAJDAPNH": 99.0,
            "LGAONPKJDEC": true,
            "clearThreatTargetDistance": 99.0,
            "aiNeuronSetting": "DefaultSetting",
            "aiSensingTemplate": "DefaultTemplate",
            "forceCombatOnSpawn": true,
            "disableWander": true,
            "NCKMKJMDPDH": ""
        },
        {
            "groupId": 235818002,
            "mapInstId": 2111,
            "aiGroupID": 235818002,
            "CBNANHBMMNC": true,
            "DGLJAJDAPNH": 99.0,
            "LGAONPKJDEC": true,
            "clearThreatTargetDistance": 99.0,
            "aiNeuronSetting": "DefaultSetting",
            "aiSensingTemplate": "DefaultTemplate",
            "forceCombatOnSpawn": true,
            "disableWander": true,
            "NCKMKJMDPDH": ""
        },
        {
            "groupId": 235818002,
            "mapInstId": 2112,
            "aiGroupID": 235818002,
            "CBNANHBMMNC": true,
            "DGLJAJDAPNH": 99.0,
            "LGAONPKJDEC": true,
            "clearThreatTargetDistance": 99.0,
            "aiNeuronSetting": "DefaultSetting",
            "aiSensingTemplate": "DefaultTemplate",
            "forceCombatOnSpawn": true,
            "disableWander": true,
            "NCKMKJMDPDH": ""
        },
        {
            "groupId": 235818002,
            "mapInstId": 2113,
            "aiGroupID": 235818002,
            "CBNANHBMMNC": true,
            "DGLJAJDAPNH": 99.0,
            "LGAONPKJDEC": true,
            "clearThreatTargetDistance": 99.0,
            "aiNeuronSetting": "DefaultSetting",
            "aiSensingTemplate": "DefaultTemplate",
            "forceCombatOnSpawn": true,
            "disableWander": true,
            "NCKMKJMDPDH": ""
        },
        {
            "groupId": 235818002,
            "mapInstId": 2114,
            "aiGroupID": 235818002,
            "CBNANHBMMNC": true,
            "DGLJAJDAPNH": 99.0,
            "LGAONPKJDEC": true,
            "clearThreatTargetDistance": 99.0,
            "aiNeuronSetting": "DefaultSetting",
            "aiSensingTemplate": "DefaultTemplate",
            "forceCombatOnSpawn": true,
            "disableWander": true,
            "NCKMKJMDPDH": ""
        },
        {
            "groupId": 235818002,
            "mapInstId": 2115,
            "aiGroupID": 235818002,
            "CBNANHBMMNC": true,
            "DGLJAJDAPNH": 99.0,
            "LGAONPKJDEC": true,
            "clearThreatTargetDistance": 99.0,
            "aiNeuronSetting": "DefaultSetting",
            "aiSensingTemplate": "DefaultTemplate",
            "forceCombatOnSpawn": true,
            "disableWander": true,
            "NCKMKJMDPDH": ""
        },
        {
            "groupId": 235818002,
            "mapInstId": 2116,
            "aiGroupID": 235818002,
            "CBNANHBMMNC": true,
            "DGLJAJDAPNH": 99.0,
            "LGAONPKJDEC": true,
            "clearThreatTargetDistance": 99.0,
            "aiNeuronSetting": "DefaultSetting",
            "aiSensingTemplate": "DefaultTemplate",
            "forceCombatOnSpawn": true,
            "disableWander": true,
            "NCKMKJMDPDH": ""
        },
        {
            "groupId": 235818002,
            "mapInstId": 2117,
            "aiGroupID": 235818002,
            "CBNANHBMMNC": true,
            "DGLJAJDAPNH": 99.0,
            "LGAONPKJDEC": true,
            "clearThreatTargetDistance": 99.0,
            "aiNeuronSetting": "DefaultSetting",
            "aiSensingTemplate": "DefaultTemplate",
            "forceCombatOnSpawn": true,
            "disableWander": true,
            "NCKMKJMDPDH": ""
        },
        {
            "groupId": 235818002,
            "mapInstId": 2118,
            "aiGroupID": 235818002,
            "CBNANHBMMNC": true,
            "DGLJAJDAPNH": 99.0,
            "LGAONPKJDEC": true,
            "clearThreatTargetDistance": 99.0,
            "aiNeuronSetting": "DefaultSetting",
            "aiSensingTemplate": "DefaultTemplate",
            "forceCombatOnSpawn": true,
            "disableWander": true,
            "NCKMKJMDPDH": ""
        },
        {
            "groupId": 235818002,
            "mapInstId": 2119,
            "aiGroupID": 235818002,
            "CBNANHBMMNC": true,
            "DGLJAJDAPNH": 99.0,
            "LGAONPKJDEC": true,
            "clearThreatTargetDistance": 99.0,
            "aiNeuronSetting": "DefaultSetting",
            "aiSensingTemplate": "DefaultTemplate",
            "forceCombatOnSpawn": true,
            "disableWander": true,
            "NCKMKJMDPDH": ""
        },
        {
            "groupId": 235818002,
            "mapInstId": 2120,
            "aiGroupID": 235818002,
            "CBNANHBMMNC": true,
            "DGLJAJDAPNH": 99.0,
            "LGAONPKJDEC": true,
            "clearThreatTargetDistance": 99.0,
            "aiNeuronSetting": "DefaultSetting",
            "aiSensingTemplate": "DefaultTemplate",
            "forceCombatOnSpawn": true,
            "disableWander": true,
            "NCKMKJMDPDH": ""
        },
        {
            "groupId": 235818002,
            "mapInstId": 2121,
            "aiGroupID": 235818002,
            "CBNANHBMMNC": true,
            "DGLJAJDAPNH": 99.0,
            "LGAONPKJDEC": true,
            "clearThreatTargetDistance": 99.0,
            "aiNeuronSetting": "DefaultSetting",
            "aiSensingTemplate": "DefaultTemplate",
            "forceCombatOnSpawn": true,
            "disableWander": true,
            "NCKMKJMDPDH": ""
        },
        {
            "groupId": 235818002,
            "mapInstId": 2122,
            "aiGroupID": 235818002,
            "CBNANHBMMNC": true,
            "DGLJAJDAPNH": 99.0,
            "LGAONPKJDEC": true,
            "clearThreatTargetDistance": 99.0,
            "aiNeuronSetting": "DefaultSetting",
            "aiSensingTemplate": "DefaultTemplate",
            "forceCombatOnSpawn": true,
            "disableWander": true,
            "NCKMKJMDPDH": ""
        },
        {
            "groupId": 235818002,
            "mapInstId": 2123,
            "aiGroupID": 235818002,
            "CBNANHBMMNC": true,
            "DGLJAJDAPNH": 99.0,
            "LGAONPKJDEC": true,
            "clearThreatTargetDistance": 99.0,
            "aiNeuronSetting": "DefaultSetting",
            "aiSensingTemplate": "DefaultTemplate",
            "forceCombatOnSpawn": true,
            "disableWander": true,
            "NCKMKJMDPDH": ""
        },
        {
            "groupId": 235818002,
            "mapInstId": 2124,
            "aiGroupID": 235818002,
            "CBNANHBMMNC": true,
            "DGLJAJDAPNH": 99.0,
            "LGAONPKJDEC": true,
            "clearThreatTargetDistance": 99.0,
            "aiNeuronSetting": "DefaultSetting",
            "aiSensingTemplate": "DefaultTemplate",
            "forceCombatOnSpawn": true,
            "disableWander": true,
            "NCKMKJMDPDH": ""
        }
    ]
}