{
    "sceneId": 35811,
    "monsters": [
        {
            "groupId": 235811002,
            "mapInstId": 2001,
            "aiGroupID": 235811002,
            "CBNANHBMMNC": true,
            "DGLJAJDAPNH": 99.0,
            "LGAONPKJDEC": true,
            "clearThreatTargetDistance": 99.0,
            "aiNeuronSetting": "DefaultSetting",
            "aiSensingTemplate": "DefaultTemplate",
            "forceCombatOnSpawn": true,
            "disableWander": true,
            "NCKMKJMDPDH": ""
        },
        {
            "groupId": 235811002,
            "mapInstId": 2002,
            "aiGroupID": 235811002,
            "CBNANHBMMNC": true,
            "DGLJAJDAPNH": 99.0,
            "LGAONPKJDEC": true,
            "clearThreatTargetDistance": 99.0,
            "aiNeuronSetting": "DefaultSetting",
            "aiSensingTemplate": "DefaultTemplate",
            "forceCombatOnSpawn": true,
            "disableWander": true,
            "NCKMKJMDPDH": ""
        },
        {
            "groupId": 235811002,
            "mapInstId": 2003,
            "aiGroupID": 235811002,
            "CBNANHBMMNC": true,
            "DGLJAJDAPNH": 99.0,
            "LGAONPKJDEC": true,
            "clearThreatTargetDistance": 99.0,
            "aiNeuronSetting": "DefaultSetting",
            "aiSensingTemplate": "DefaultTemplate",
            "forceCombatOnSpawn": true,
            "disableWander": true,
            "NCKMKJMDPDH": ""
        },
        {
            "groupId": 235811002,
            "mapInstId": 2004,
            "aiGroupID": 235811002,
            "CBNANHBMMNC": true,
            "DGLJAJDAPNH": 99.0,
            "LGAONPKJDEC": true,
            "clearThreatTargetDistance": 99.0,
            "aiNeuronSetting": "DefaultSetting",
            "aiSensingTemplate": "DefaultTemplate",
            "forceCombatOnSpawn": true,
            "disableWander": true,
            "NCKMKJMDPDH": ""
        },
        {
            "groupId": 235811002,
            "mapInstId": 2005,
            "aiGroupID": 235811002,
            "CBNANHBMMNC": true,
            "DGLJAJDAPNH": 99.0,
            "LGAONPKJDEC": true,
            "clearThreatTargetDistance": 99.0,
            "aiNeuronSetting": "DefaultSetting",
            "aiSensingTemplate": "DefaultTemplate",
            "forceCombatOnSpawn": true,
            "disableWander": true,
            "NCKMKJMDPDH": ""
        },
        {
            "groupId": 235811002,
            "mapInstId": 2006,
            "aiGroupID": 235811002,
            "CBNANHBMMNC": true,
            "DGLJAJDAPNH": 99.0,
            "LGAONPKJDEC": true,
            "clearThreatTargetDistance": 99.0,
            "aiNeuronSetting": "DefaultSetting",
            "aiSensingTemplate": "DefaultTemplate",
            "forceCombatOnSpawn": true,
            "disableWander": true,
            "NCKMKJMDPDH": ""
        },
        {
            "groupId": 235811002,
            "mapInstId": 2007,
            "aiGroupID": 235811002,
            "CBNANHBMMNC": true,
            "DGLJAJDAPNH": 99.0,
            "LGAONPKJDEC": true,
            "clearThreatTargetDistance": 99.0,
            "aiNeuronSetting": "DefaultSetting",
            "aiSensingTemplate": "DefaultTemplate",
            "forceCombatOnSpawn": true,
            "disableWander": true,
            "NCKMKJMDPDH": ""
        },
        {
            "groupId": 235811002,
            "mapInstId": 2008,
            "aiGroupID": 235811002,
            "CBNANHBMMNC": true,
            "DGLJAJDAPNH": 99.0,
            "LGAONPKJDEC": true,
            "clearThreatTargetDistance": 99.0,
            "aiNeuronSetting": "DefaultSetting",
            "aiSensingTemplate": "DefaultTemplate",
            "forceCombatOnSpawn": true,
            "disableWander": true,
            "NCKMKJMDPDH": ""
        },
        {
            "groupId": 235811002,
            "mapInstId": 2009,
            "aiGroupID": 235811002,
            "CBNANHBMMNC": true,
            "DGLJAJDAPNH": 99.0,
            "LGAONPKJDEC": true,
            "clearThreatTargetDistance": 99.0,
            "aiNeuronSetting": "DefaultSetting",
            "aiSensingTemplate": "DefaultTemplate",
            "forceCombatOnSpawn": true,
            "disableWander": true,
            "NCKMKJMDPDH": ""
        },
        {
            "groupId": 235811002,
            "mapInstId": 2010,
            "aiGroupID": 235811002,
            "CBNANHBMMNC": true,
            "DGLJAJDAPNH": 99.0,
            "LGAONPKJDEC": true,
            "clearThreatTargetDistance": 99.0,
            "aiNeuronSetting": "DefaultSetting",
            "aiSensingTemplate": "DefaultTemplate",
            "forceCombatOnSpawn": true,
            "disableWander": true,
            "NCKMKJMDPDH": ""
        },
        {
            "groupId": 235811002,
            "mapInstId": 2011,
            "aiGroupID": 235811002,
            "CBNANHBMMNC": true,
            "DGLJAJDAPNH": 99.0,
            "LGAONPKJDEC": true,
            "clearThreatTargetDistance": 99.0,
            "aiNeuronSetting": "DefaultSetting",
            "aiSensingTemplate": "DefaultTemplate",
            "forceCombatOnSpawn": true,
            "disableWander": true,
            "NCKMKJMDPDH": ""
        },
        {
            "groupId": 235811002,
            "mapInstId": 2012,
            "aiGroupID": 235811002,
            "CBNANHBMMNC": true,
            "DGLJAJDAPNH": 99.0,
            "LGAONPKJDEC": true,
            "clearThreatTargetDistance": 99.0,
            "aiNeuronSetting": "DefaultSetting",
            "aiSensingTemplate": "DefaultTemplate",
            "forceCombatOnSpawn": true,
            "disableWander": true,
            "NCKMKJMDPDH": ""
        },
        {
            "groupId": 235811002,
            "mapInstId": 2013,
            "aiGroupID": 235811002,
            "CBNANHBMMNC": true,
            "DGLJAJDAPNH": 99.0,
            "LGAONPKJDEC": true,
            "clearThreatTargetDistance": 99.0,
            "aiNeuronSetting": "DefaultSetting",
            "aiSensingTemplate": "DefaultTemplate",
            "forceCombatOnSpawn": true,
            "disableWander": true,
            "NCKMKJMDPDH": ""
        },
        {
            "groupId": 235811002,
            "mapInstId": 2014,
            "aiGroupID": 235811002,
            "CBNANHBMMNC": true,
            "DGLJAJDAPNH": 99.0,
            "LGAONPKJDEC": true,
            "clearThreatTargetDistance": 99.0,
            "aiNeuronSetting": "DefaultSetting",
            "aiSensingTemplate": "DefaultTemplate",
            "forceCombatOnSpawn": true,
            "disableWander": true,
            "NCKMKJMDPDH": ""
        },
        {
            "groupId": 235811002,
            "mapInstId": 2015,
            "aiGroupID": 235811002,
            "CBNANHBMMNC": true,
            "DGLJAJDAPNH": 99.0,
            "LGAONPKJDEC": true,
            "clearThreatTargetDistance": 99.0,
            "aiNeuronSetting": "DefaultSetting",
            "aiSensingTemplate": "DefaultTemplate",
            "forceCombatOnSpawn": true,
            "disableWander": true,
            "NCKMKJMDPDH": ""
        },
        {
            "groupId": 235811002,
            "mapInstId": 2016,
            "aiGroupID": 235811002,
            "CBNANHBMMNC": true,
            "DGLJAJDAPNH": 99.0,
            "LGAONPKJDEC": true,
            "clearThreatTargetDistance": 99.0,
            "aiNeuronSetting": "DefaultSetting",
            "aiSensingTemplate": "DefaultTemplate",
            "forceCombatOnSpawn": true,
            "disableWander": true,
            "NCKMKJMDPDH": ""
        },
        {
            "groupId": 235811002,
            "mapInstId": 2017,
            "aiGroupID": 235811002,
            "CBNANHBMMNC": true,
            "DGLJAJDAPNH": 99.0,
            "LGAONPKJDEC": true,
            "clearThreatTargetDistance": 99.0,
            "aiNeuronSetting": "DefaultSetting",
            "aiSensingTemplate": "DefaultTemplate",
            "forceCombatOnSpawn": true,
            "disableWander": true,
            "NCKMKJMDPDH": ""
        },
        {
            "groupId": 235811002,
            "mapInstId": 2018,
            "aiGroupID": 235811002,
            "CBNANHBMMNC": true,
            "DGLJAJDAPNH": 99.0,
            "LGAONPKJDEC": true,
            "clearThreatTargetDistance": 99.0,
            "aiNeuronSetting": "DefaultSetting",
            "aiSensingTemplate": "DefaultTemplate",
            "forceCombatOnSpawn": true,
            "disableWander": true,
            "NCKMKJMDPDH": ""
        },
        {
            "groupId": 235811002,
            "mapInstId": 2019,
            "aiGroupID": 235811002,
            "CBNANHBMMNC": true,
            "DGLJAJDAPNH": 99.0,
            "LGAONPKJDEC": true,
            "clearThreatTargetDistance": 99.0,
            "aiNeuronSetting": "DefaultSetting",
            "aiSensingTemplate": "DefaultTemplate",
            "forceCombatOnSpawn": true,
            "disableWander": true,
            "NCKMKJMDPDH": ""
        },
        {
            "groupId": 235811002,
            "mapInstId": 2020,
            "aiGroupID": 235811002,
            "CBNANHBMMNC": true,
            "DGLJAJDAPNH": 99.0,
            "LGAONPKJDEC": true,
            "clearThreatTargetDistance": 99.0,
            "aiNeuronSetting": "DefaultSetting",
            "aiSensingTemplate": "DefaultTemplate",
            "forceCombatOnSpawn": true,
            "disableWander": true,
            "NCKMKJMDPDH": ""
        },
        {
            "groupId": 235811002,
            "mapInstId": 2030,
            "aiGroupID": 235811002,
            "CBNANHBMMNC": true,
            "DGLJAJDAPNH": 99.0,
            "LGAONPKJDEC": true,
            "clearThreatTargetDistance": 99.0,
            "aiNeuronSetting": "DefaultSetting",
            "aiSensingTemplate": "DefaultTemplate",
            "forceCombatOnSpawn": true,
            "disableWander": true,
            "NCKMKJMDPDH": ""
        },
        {
            "groupId": 235811002,
            "mapInstId": 2031,
            "aiGroupID": 235811002,
            "CBNANHBMMNC": true,
            "DGLJAJDAPNH": 99.0,
            "LGAONPKJDEC": true,
            "clearThreatTargetDistance": 99.0,
            "aiNeuronSetting": "DefaultSetting",
            "aiSensingTemplate": "DefaultTemplate",
            "forceCombatOnSpawn": true,
            "disableWander": true,
            "NCKMKJMDPDH": ""
        },
        {
            "groupId": 235811002,
            "mapInstId": 2032,
            "aiGroupID": 235811002,
            "CBNANHBMMNC": true,
            "DGLJAJDAPNH": 99.0,
            "LGAONPKJDEC": true,
            "clearThreatTargetDistance": 99.0,
            "aiNeuronSetting": "DefaultSetting",
            "aiSensingTemplate": "DefaultTemplate",
            "forceCombatOnSpawn": true,
            "disableWander": true,
            "NCKMKJMDPDH": ""
        },
        {
            "groupId": 235811002,
            "mapInstId": 2033,
            "aiGroupID": 235811002,
            "CBNANHBMMNC": true,
            "DGLJAJDAPNH": 99.0,
            "LGAONPKJDEC": true,
            "clearThreatTargetDistance": 99.0,
            "aiNeuronSetting": "DefaultSetting",
            "aiSensingTemplate": "DefaultTemplate",
            "forceCombatOnSpawn": true,
            "disableWander": true,
            "NCKMKJMDPDH": ""
        },
        {
            "groupId": 235811002,
            "mapInstId": 2034,
            "aiGroupID": 235811002,
            "CBNANHBMMNC": true,
            "DGLJAJDAPNH": 99.0,
            "LGAONPKJDEC": true,
            "clearThreatTargetDistance": 99.0,
            "aiNeuronSetting": "DefaultSetting",
            "aiSensingTemplate": "DefaultTemplate",
            "forceCombatOnSpawn": true,
            "disableWander": true,
            "NCKMKJMDPDH": ""
        },
        {
            "groupId": 235811002,
            "mapInstId": 2035,
            "aiGroupID": 235811002,
            "CBNANHBMMNC": true,
            "DGLJAJDAPNH": 99.0,
            "LGAONPKJDEC": true,
            "clearThreatTargetDistance": 99.0,
            "aiNeuronSetting": "DefaultSetting",
            "aiSensingTemplate": "DefaultTemplate",
            "forceCombatOnSpawn": true,
            "disableWander": true,
            "NCKMKJMDPDH": ""
        },
        {
            "groupId": 235811002,
            "mapInstId": 2036,
            "aiGroupID": 235811002,
            "CBNANHBMMNC": true,
            "DGLJAJDAPNH": 99.0,
            "LGAONPKJDEC": true,
            "clearThreatTargetDistance": 99.0,
            "aiNeuronSetting": "DefaultSetting",
            "aiSensingTemplate": "DefaultTemplate",
            "forceCombatOnSpawn": true,
            "disableWander": true,
            "NCKMKJMDPDH": ""
        },
        {
            "groupId": 235811002,
            "mapInstId": 2037,
            "aiGroupID": 235811002,
            "CBNANHBMMNC": true,
            "DGLJAJDAPNH": 99.0,
            "LGAONPKJDEC": true,
            "clearThreatTargetDistance": 99.0,
            "aiNeuronSetting": "DefaultSetting",
            "aiSensingTemplate": "DefaultTemplate",
            "forceCombatOnSpawn": true,
            "disableWander": true,
            "NCKMKJMDPDH": ""
        },
        {
            "groupId": 235811002,
            "mapInstId": 2038,
            "aiGroupID": 235811002,
            "CBNANHBMMNC": true,
            "DGLJAJDAPNH": 99.0,
            "LGAONPKJDEC": true,
            "clearThreatTargetDistance": 99.0,
            "aiNeuronSetting": "DefaultSetting",
            "aiSensingTemplate": "DefaultTemplate",
            "forceCombatOnSpawn": true,
            "disableWander": true,
            "NCKMKJMDPDH": ""
        },
        {
            "groupId": 235811002,
            "mapInstId": 2040,
            "aiGroupID": 235811002,
            "CBNANHBMMNC": true,
            "DGLJAJDAPNH": 99.0,
            "LGAONPKJDEC": true,
            "clearThreatTargetDistance": 99.0,
            "aiNeuronSetting": "DefaultSetting",
            "aiSensingTemplate": "DefaultTemplate",
            "forceCombatOnSpawn": true,
            "disableWander": true,
            "NCKMKJMDPDH": ""
        },
        {
            "groupId": 235811002,
            "mapInstId": 2041,
            "aiGroupID": 235811002,
            "CBNANHBMMNC": true,
            "DGLJAJDAPNH": 99.0,
            "LGAONPKJDEC": true,
            "clearThreatTargetDistance": 99.0,
            "aiNeuronSetting": "DefaultSetting",
            "aiSensingTemplate": "DefaultTemplate",
            "forceCombatOnSpawn": true,
            "disableWander": true,
            "NCKMKJMDPDH": ""
        },
        {
            "groupId": 235811002,
            "mapInstId": 2043,
            "aiGroupID": 235811002,
            "CBNANHBMMNC": true,
            "DGLJAJDAPNH": 99.0,
            "LGAONPKJDEC": true,
            "clearThreatTargetDistance": 99.0,
            "aiNeuronSetting": "DefaultSetting",
            "aiSensingTemplate": "DefaultTemplate",
            "forceCombatOnSpawn": true,
            "disableWander": true,
            "NCKMKJMDPDH": ""
        },
        {
            "groupId": 235811002,
            "mapInstId": 2044,
            "aiGroupID": 235811002,
            "CBNANHBMMNC": true,
            "DGLJAJDAPNH": 99.0,
            "LGAONPKJDEC": true,
            "clearThreatTargetDistance": 99.0,
            "aiNeuronSetting": "DefaultSetting",
            "aiSensingTemplate": "DefaultTemplate",
            "forceCombatOnSpawn": true,
            "disableWander": true,
            "NCKMKJMDPDH": ""
        },
        {
            "groupId": 235811002,
            "mapInstId": 2046,
            "aiGroupID": 235811002,
            "CBNANHBMMNC": true,
            "DGLJAJDAPNH": 99.0,
            "LGAONPKJDEC": true,
            "clearThreatTargetDistance": 99.0,
            "aiNeuronSetting": "DefaultSetting",
            "aiSensingTemplate": "DefaultTemplate",
            "forceCombatOnSpawn": true,
            "disableWander": true,
            "NCKMKJMDPDH": ""
        },
        {
            "groupId": 235811002,
            "mapInstId": 2047,
            "aiGroupID": 235811002,
            "CBNANHBMMNC": true,
            "DGLJAJDAPNH": 99.0,
            "LGAONPKJDEC": true,
            "clearThreatTargetDistance": 99.0,
            "aiNeuronSetting": "DefaultSetting",
            "aiSensingTemplate": "DefaultTemplate",
            "forceCombatOnSpawn": true,
            "disableWander": true,
            "NCKMKJMDPDH": ""
        }
    ]
}