{
    "sceneId": 20120,
    "monsters": [
        {
            "groupId": 220120001,
            "mapInstId": 1001,
            "aiNeuronSetting": "DefaultSetting",
            "aiSensingTemplate": "DefaultTemplate",
            "billboardHasUIBar": true,
            "billboardShowUIBarDis": 100.0,
            "billboardHideUIBarDis": 200.0,
            "billboardHpBarStyle": "BossCompress",
            "CJJKJDJDDLJ": 2,
            "NCKMKJMDPDH": ""
        },
        {
            "groupId": 220120001,
            "mapInstId": 1002,
            "aiNeuronSetting": "DefaultSetting",
            "aiSensingTemplate": "DefaultTemplate",
            "billboardHasUIBar": true,
            "billboardShowUIBarDis": 100.0,
            "billboardHideUIBarDis": 200.0,
            "billboardHpBarStyle": "BossCompress",
            "CJJKJDJDDLJ": 1,
            "NCKMKJMDPDH": ""
        },
        {
            "groupId": 220120001,
            "mapInstId": 1003,
            "aiNeuronSetting": "DefaultSetting",
            "aiSensingTemplate": "DefaultTemplate",
            "billboardHasUIBar": true,
            "billboardShowUIBarDis": 100.0,
            "billboardHideUIBarDis": 200.0,
            "billboardHpBarStyle": "BossCompress",
            "CJJKJDJDDLJ": 3,
            "NCKMKJMDPDH": ""
        }
    ]
}