{
    "sceneId": 35848,
    "monsters": [
        {
            "groupId": 235848001,
            "mapInstId": 1002,
            "aiGroupID": 235848001,
            "aiNeuronSetting": "DefaultSetting",
            "aiSensingTemplate": "DefaultTemplate",
            "disableWander": true,
            "NCKMKJMDPDH": ""
        },
        {
            "groupId": 235848001,
            "mapInstId": 1003,
            "aiGroupID": 235848001,
            "aiNeuronSetting": "DefaultSetting",
            "aiSensingTemplate": "DefaultTemplate",
            "disableWander": true,
            "NCKMKJMDPDH": ""
        },
        {
            "groupId": 235848001,
            "mapInstId": 1004,
            "aiGroupID": 235848001,
            "aiNeuronSetting": "DefaultSetting",
            "aiSensingTemplate": "DefaultTemplate",
            "disableWander": true,
            "NCKMKJMDPDH": ""
        },
        {
            "groupId": 235848001,
            "mapInstId": 1005,
            "aiGroupID": 235848001,
            "aiNeuronSetting": "DefaultSetting",
            "aiSensingTemplate": "DefaultTemplate",
            "disableWander": true,
            "NCKMKJMDPDH": ""
        },
        {
            "groupId": 235848001,
            "mapInstId": 1006,
            "aiGroupID": 235848001,
            "aiNeuronSetting": "DefaultSetting",
            "aiSensingTemplate": "DefaultTemplate",
            "disableWander": true,
            "NCKMKJMDPDH": ""
        },
        {
            "groupId": 235848001,
            "mapInstId": 1007,
            "aiGroupID": 235848001,
            "aiNeuronSetting": "DefaultSetting",
            "aiSensingTemplate": "DefaultTemplate",
            "disableWander": true,
            "NCKMKJMDPDH": ""
        },
        {
            "groupId": 235848001,
            "mapInstId": 1008,
            "aiGroupID": 235848001,
            "aiNeuronSetting": "DefaultSetting",
            "aiSensingTemplate": "DefaultTemplate",
            "disableWander": true,
            "NCKMKJMDPDH": ""
        },
        {
            "groupId": 235848001,
            "mapInstId": 1009,
            "aiGroupID": 235848001,
            "aiNeuronSetting": "DefaultSetting",
            "aiSensingTemplate": "DefaultTemplate",
            "disableWander": true,
            "NCKMKJMDPDH": ""
        },
        {
            "groupId": 235848001,
            "mapInstId": 1010,
            "aiGroupID": 235848001,
            "aiNeuronSetting": "DefaultSetting",
            "aiSensingTemplate": "DefaultTemplate",
            "disableWander": true,
            "NCKMKJMDPDH": ""
        },
        {
            "groupId": 235848001,
            "mapInstId": 1011,
            "aiGroupID": 235848001,
            "aiNeuronSetting": "DefaultSetting",
            "aiSensingTemplate": "DefaultTemplate",
            "disableWander": true,
            "NCKMKJMDPDH": ""
        },
        {
            "groupId": 235848001,
            "mapInstId": 1012,
            "aiGroupID": 235848001,
            "aiNeuronSetting": "DefaultSetting",
            "aiSensingTemplate": "DefaultTemplate",
            "disableWander": true,
            "NCKMKJMDPDH": ""
        },
        {
            "groupId": 235848001,
            "mapInstId": 1013,
            "aiGroupID": 235848001,
            "CBNANHBMMNC": true,
            "DGLJAJDAPNH": 99.0,
            "aiNeuronSetting": "DefaultSetting",
            "aiSensingTemplate": "DefaultTemplate",
            "disableWander": true,
            "billboardHasUIBar": true,
            "NCKMKJMDPDH": ""
        },
        {
            "groupId": 235848001,
            "mapInstId": 1014,
            "aiGroupID": 235848001,
            "CBNANHBMMNC": true,
            "DGLJAJDAPNH": 99.0,
            "aiNeuronSetting": "DefaultSetting",
            "aiSensingTemplate": "DefaultTemplate",
            "disableWander": true,
            "NCKMKJMDPDH": ""
        },
        {
            "groupId": 235848001,
            "mapInstId": 1016,
            "aiGroupID": 235848001,
            "CBNANHBMMNC": true,
            "DGLJAJDAPNH": 99.0,
            "aiNeuronSetting": "DefaultSetting",
            "aiSensingTemplate": "DefaultTemplate",
            "disableWander": true,
            "NCKMKJMDPDH": ""
        },
        {
            "groupId": 235848001,
            "mapInstId": 1047,
            "aiGroupID": 235848001,
            "CBNANHBMMNC": true,
            "DGLJAJDAPNH": 99.0,
            "aiNeuronSetting": "DefaultSetting",
            "aiSensingTemplate": "DefaultTemplate",
            "disableWander": true,
            "billboardHasUIBar": true,
            "NCKMKJMDPDH": ""
        },
        {
            "groupId": 235848001,
            "mapInstId": 1048,
            "aiGroupID": 235848001,
            "CBNANHBMMNC": true,
            "DGLJAJDAPNH": 99.0,
            "aiNeuronSetting": "DefaultSetting",
            "aiSensingTemplate": "DefaultTemplate",
            "disableWander": true,
            "billboardHasUIBar": true,
            "NCKMKJMDPDH": ""
        },
        {
            "groupId": 235848001,
            "mapInstId": 1049,
            "aiGroupID": 235848001,
            "CBNANHBMMNC": true,
            "DGLJAJDAPNH": 99.0,
            "aiNeuronSetting": "DefaultSetting",
            "aiSensingTemplate": "DefaultTemplate",
            "disableWander": true,
            "billboardHasUIBar": true,
            "NCKMKJMDPDH": ""
        },
        {
            "groupId": 235848003,
            "mapInstId": 3001,
            "aiGroupID": 235848003,
            "aiNeuronSetting": "DefaultSetting",
            "aiSensingTemplate": "DefaultTemplate",
            "NCKMKJMDPDH": ""
        },
        {
            "groupId": 235848003,
            "mapInstId": 3004,
            "aiGroupID": 235848003,
            "aiNeuronSetting": "DefaultSetting",
            "aiSensingTemplate": "DefaultTemplate",
            "NCKMKJMDPDH": ""
        },
        {
            "groupId": 235848005,
            "mapInstId": 5006,
            "aiGroupID": 235848005,
            "aiNeuronSetting": "DefaultSetting",
            "aiSensingTemplate": "DefaultTemplate",
            "NCKMKJMDPDH": ""
        },
        {
            "groupId": 235848005,
            "mapInstId": 5016,
            "aiGroupID": 235848005,
            "aiNeuronSetting": "DefaultSetting",
            "aiSensingTemplate": "DefaultTemplate",
            "NCKMKJMDPDH": ""
        },
        {
            "groupId": 235848005,
            "mapInstId": 5017,
            "aiGroupID": 235848005,
            "aiNeuronSetting": "DefaultSetting",
            "aiSensingTemplate": "DefaultTemplate",
            "NCKMKJMDPDH": ""
        },
        {
            "groupId": 235848006,
            "mapInstId": 6004,
            "aiGroupID": 235848006,
            "aiNeuronSetting": "DefaultSetting",
            "aiSensingTemplate": "DefaultTemplate",
            "NCKMKJMDPDH": ""
        }
    ]
}