{
    "sceneId": 20117,
    "monsters": [
        {
            "groupId": 220117001,
            "mapInstId": 1002,
            "defendAreaID": 1,
            "aiNeuronSetting": "DefaultSetting",
            "aiSensingTemplate": "DefaultTemplate",
            "forceCombatOnSpawn": true,
            "billboardHasUIBar": true,
            "NCKMKJMDPDH": ""
        }
    ]
}