{
    "sceneId": 20145,
    "monsters": [
        {
            "groupId": 220145005,
            "mapInstId": 5002,
            "aiGroupID": 220145005,
            "defendAreaID": 2,
            "aiNeuronSetting": "DefaultSetting",
            "aiSensingTemplate": "DefaultTemplate",
            "NCKMKJMDPDH": ""
        },
        {
            "groupId": 220145005,
            "mapInstId": 5003,
            "aiGroupID": 220145005,
            "defendAreaID": 2,
            "aiNeuronSetting": "DefaultSetting",
            "aiSensingTemplate": "DefaultTemplate",
            "NCKMKJMDPDH": ""
        },
        {
            "groupId": 220145005,
            "mapInstId": 5004,
            "routeId": 1,
            "aiGroupID": 220145005,
            "defendAreaID": 2,
            "aiNeuronSetting": "DefaultSetting",
            "aiSensingTemplate": "DefaultTemplate",
            "NCKMKJMDPDH": ""
        },
        {
            "groupId": 220145005,
            "mapInstId": 5006,
            "routeId": 2,
            "aiGroupID": 220145005,
            "defendAreaID": 2,
            "aiNeuronSetting": "DefaultSetting",
            "aiSensingTemplate": "DefaultTemplate",
            "NCKMKJMDPDH": ""
        },
        {
            "groupId": 220145005,
            "mapInstId": 5007,
            "aiGroupID": 220145005,
            "defendAreaID": 2,
            "aiNeuronSetting": "DefaultSetting",
            "aiSensingTemplate": "DefaultTemplate",
            "NCKMKJMDPDH": ""
        },
        {
            "groupId": 220145005,
            "mapInstId": 5008,
            "aiGroupID": 220145005,
            "defendAreaID": 2,
            "aiNeuronSetting": "DefaultSetting",
            "aiSensingTemplate": "DefaultTemplate",
            "NCKMKJMDPDH": ""
        },
        {
            "groupId": 220145008,
            "mapInstId": 8021,
            "aiGroupID": 220145008,
            "CBNANHBMMNC": true,
            "DGLJAJDAPNH": 5.0,
            "defendAreaID": 1,
            "aiNeuronSetting": "DefaultSetting",
            "aiSensingTemplate": "DefaultTemplate",
            "forceCombatOnSpawn": true,
            "disableWander": true,
            "billboardHasUIBar": true,
            "CJJKJDJDDLJ": 1,
            "LPMJAKBHFIA": 2,
            "NCKMKJMDPDH": ""
        },
        {
            "groupId": 220145008,
            "mapInstId": 8022,
            "aiGroupID": 220145008,
            "CBNANHBMMNC": true,
            "DGLJAJDAPNH": 5.0,
            "defendAreaID": 1,
            "aiNeuronSetting": "DefaultSetting",
            "aiSensingTemplate": "DefaultTemplate",
            "forceCombatOnSpawn": true,
            "disableWander": true,
            "billboardHasUIBar": true,
            "CJJKJDJDDLJ": 2,
            "LPMJAKBHFIA": 2,
            "NCKMKJMDPDH": ""
        },
        {
            "groupId": 220145008,
            "mapInstId": 8023,
            "aiGroupID": 220145008,
            "CBNANHBMMNC": true,
            "DGLJAJDAPNH": 5.0,
            "defendAreaID": 1,
            "aiNeuronSetting": "DefaultSetting",
            "aiSensingTemplate": "DefaultTemplate",
            "forceCombatOnSpawn": true,
            "disableWander": true,
            "NCKMKJMDPDH": ""
        },
        {
            "groupId": 220145008,
            "mapInstId": 8024,
            "aiGroupID": 220145008,
            "CBNANHBMMNC": true,
            "DGLJAJDAPNH": 5.0,
            "defendAreaID": 1,
            "aiNeuronSetting": "DefaultSetting",
            "aiSensingTemplate": "DefaultTemplate",
            "forceCombatOnSpawn": true,
            "disableWander": true,
            "NCKMKJMDPDH": ""
        },
        {
            "groupId": 220145008,
            "mapInstId": 8025,
            "aiGroupID": 220145008,
            "CBNANHBMMNC": true,
            "DGLJAJDAPNH": 5.0,
            "defendAreaID": 1,
            "aiNeuronSetting": "DefaultSetting",
            "aiSensingTemplate": "DefaultTemplate",
            "forceCombatOnSpawn": true,
            "disableWander": true,
            "NCKMKJMDPDH": ""
        },
        {
            "groupId": 220145008,
            "mapInstId": 8026,
            "aiGroupID": 220145008,
            "CBNANHBMMNC": true,
            "DGLJAJDAPNH": 5.0,
            "defendAreaID": 1,
            "aiNeuronSetting": "DefaultSetting",
            "aiSensingTemplate": "DefaultTemplate",
            "forceCombatOnSpawn": true,
            "disableWander": true,
            "NCKMKJMDPDH": ""
        },
        {
            "groupId": 220145009,
            "mapInstId": 9002,
            "aiGroupID": 220145009,
            "aiNeuronSetting": "DefaultSetting",
            "aiSensingTemplate": "DefaultTemplate",
            "NCKMKJMDPDH": ""
        },
        {
            "groupId": 220145009,
            "mapInstId": 9003,
            "aiGroupID": 220145009,
            "aiNeuronSetting": "DefaultSetting",
            "aiSensingTemplate": "DefaultTemplate",
            "NCKMKJMDPDH": ""
        },
        {
            "groupId": 220145009,
            "mapInstId": 9004,
            "aiGroupID": 220145009,
            "aiNeuronSetting": "DefaultSetting",
            "aiSensingTemplate": "DefaultTemplate",
            "NCKMKJMDPDH": ""
        },
        {
            "groupId": 220145010,
            "mapInstId": 10001,
            "routeId": 3,
            "aiNeuronSetting": "DefaultSetting",
            "aiSensingTemplate": "DefaultTemplate",
            "NCKMKJMDPDH": ""
        },
        {
            "groupId": 220145010,
            "mapInstId": 10005,
            "aiNeuronSetting": "DefaultSetting",
            "aiSensingTemplate": "DefaultTemplate",
            "forceCombatOnSpawn": true,
            "disableWander": true,
            "NCKMKJMDPDH": ""
        },
        {
            "groupId": 220145010,
            "mapInstId": 10006,
            "aiNeuronSetting": "DefaultSetting",
            "aiSensingTemplate": "DefaultTemplate",
            "forceCombatOnSpawn": true,
            "disableWander": true,
            "NCKMKJMDPDH": ""
        },
        {
            "groupId": 220145010,
            "mapInstId": 10007,
            "aiNeuronSetting": "DefaultSetting",
            "aiSensingTemplate": "DefaultTemplate",
            "forceCombatOnSpawn": true,
            "disableWander": true,
            "NCKMKJMDPDH": ""
        },
        {
            "groupId": 220145011,
            "mapInstId": 11001,
            "aiGroupID": 220145001,
            "defendAreaID": 1,
            "aiNeuronSetting": "DefaultSetting",
            "aiSensingTemplate": "DefaultTemplate",
            "billboardHasUIBar": true,
            "NCKMKJMDPDH": ""
        },
        {
            "groupId": 220145011,
            "mapInstId": 11003,
            "aiGroupID": 220145011,
            "CBNANHBMMNC": true,
            "DGLJAJDAPNH": 5.0,
            "defendAreaID": 1,
            "aiNeuronSetting": "DefaultSetting",
            "aiSensingTemplate": "DefaultTemplate",
            "forceCombatOnSpawn": true,
            "disableWander": true,
            "NCKMKJMDPDH": ""
        },
        {
            "groupId": 220145011,
            "mapInstId": 11004,
            "aiGroupID": 220145011,
            "CBNANHBMMNC": true,
            "DGLJAJDAPNH": 5.0,
            "defendAreaID": 1,
            "aiNeuronSetting": "DefaultSetting",
            "aiSensingTemplate": "DefaultTemplate",
            "forceCombatOnSpawn": true,
            "disableWander": true,
            "NCKMKJMDPDH": ""
        },
        {
            "groupId": 220145011,
            "mapInstId": 11005,
            "aiGroupID": 220145011,
            "CBNANHBMMNC": true,
            "DGLJAJDAPNH": 5.0,
            "defendAreaID": 1,
            "aiNeuronSetting": "DefaultSetting",
            "aiSensingTemplate": "DefaultTemplate",
            "forceCombatOnSpawn": true,
            "disableWander": true,
            "NCKMKJMDPDH": ""
        },
        {
            "groupId": 220145011,
            "mapInstId": 11006,
            "aiGroupID": 220145011,
            "CBNANHBMMNC": true,
            "DGLJAJDAPNH": 5.0,
            "defendAreaID": 1,
            "aiNeuronSetting": "DefaultSetting",
            "aiSensingTemplate": "DefaultTemplate",
            "forceCombatOnSpawn": true,
            "disableWander": true,
            "NCKMKJMDPDH": ""
        }
    ]
}