{
    "sceneId": 4,
    "monsters": [
        {
            "groupId": 144003001,
            "mapInstId": 1015,
            "defendAreaID": 400300001,
            "aiNeuronSetting": "DefaultSetting",
            "aiSensingTemplate": "DefaultTemplate",
            "NCKMKJMDPDH": ""
        },
        {
            "groupId": 144003001,
            "mapInstId": 1016,
            "defendAreaID": 400300001,
            "aiNeuronSetting": "DefaultSetting",
            "aiSensingTemplate": "DefaultTemplate",
            "NCKMKJMDPDH": ""
        },
        {
            "groupId": 144003001,
            "mapInstId": 1017,
            "defendAreaID": 400300001,
            "aiNeuronSetting": "DefaultSetting",
            "aiSensingTemplate": "DefaultTemplate",
            "NCKMKJMDPDH": ""
        },
        {
            "groupId": 144003003,
            "mapInstId": 3001,
            "aiNeuronSetting": "DefaultSetting",
            "aiSensingTemplate": "DefaultTemplate",
            "disableWander": true,
            "NCKMKJMDPDH": ""
        },
        {
            "groupId": 144003003,
            "mapInstId": 3002,
            "aiNeuronSetting": "DefaultSetting",
            "aiSensingTemplate": "DefaultTemplate",
            "disableWander": true,
            "NCKMKJMDPDH": ""
        },
        {
            "groupId": 144003003,
            "mapInstId": 3004,
            "aiNeuronSetting": "DefaultSetting",
            "aiSensingTemplate": "DefaultTemplate",
            "disableWander": true,
            "NCKMKJMDPDH": ""
        },
        {
            "groupId": 144003003,
            "mapInstId": 3005,
            "aiNeuronSetting": "DefaultSetting",
            "aiSensingTemplate": "DefaultTemplate",
            "disableWander": true,
            "NCKMKJMDPDH": ""
        },
        {
            "groupId": 144003003,
            "mapInstId": 3006,
            "aiNeuronSetting": "DefaultSetting",
            "aiSensingTemplate": "DefaultTemplate",
            "disableWander": true,
            "NCKMKJMDPDH": ""
        },
        {
            "groupId": 144004010,
            "mapInstId": 10017,
            "aiNeuronSetting": "DefaultSetting",
            "aiSensingTemplate": "DefaultTemplate",
            "disableWander": true,
            "NCKMKJMDPDH": ""
        },
        {
            "groupId": 144004010,
            "mapInstId": 10018,
            "aiNeuronSetting": "DefaultSetting",
            "aiSensingTemplate": "DefaultTemplate",
            "disableWander": true,
            "NCKMKJMDPDH": ""
        },
        {
            "groupId": 144004013,
            "mapInstId": 13001,
            "aiGroupID": 144004013,
            "aiNeuronSetting": "DefaultSetting",
            "aiSensingTemplate": "DefaultTemplate",
            "disableWander": true,
            "NCKMKJMDPDH": ""
        },
        {
            "groupId": 144004013,
            "mapInstId": 13004,
            "aiGroupID": 144004013,
            "aiNeuronSetting": "DefaultSetting",
            "aiSensingTemplate": "DefaultTemplate",
            "NCKMKJMDPDH": ""
        },
        {
            "groupId": 144004013,
            "mapInstId": 13005,
            "aiGroupID": 144004013,
            "aiNeuronSetting": "DefaultSetting",
            "aiSensingTemplate": "DefaultTemplate",
            "NCKMKJMDPDH": ""
        },
        {
            "groupId": 144004028,
            "mapInstId": 28001,
            "aiNeuronSetting": "DefaultSetting",
            "aiSensingTemplate": "DefaultTemplate",
            "forceCombatOnSpawn": true,
            "NCKMKJMDPDH": ""
        },
        {
            "groupId": 144004030,
            "mapInstId": 30001,
            "aiNeuronSetting": "DefaultSetting",
            "aiSensingTemplate": "DefaultTemplate",
            "disableWander": true,
            "NCKMKJMDPDH": ""
        },
        {
            "groupId": 144004030,
            "mapInstId": 30003,
            "aiNeuronSetting": "DefaultSetting",
            "aiSensingTemplate": "DefaultTemplate",
            "disableWander": true,
            "NCKMKJMDPDH": ""
        },
        {
            "groupId": 144003031,
            "mapInstId": 31001,
            "aiGroupID": 144003031,
            "aiNeuronSetting": "DefaultSetting",
            "aiSensingTemplate": "DefaultTemplate",
            "forceCombatOnSpawn": true,
            "NCKMKJMDPDH": ""
        },
        {
            "groupId": 144003031,
            "mapInstId": 31002,
            "aiGroupID": 144003031,
            "aiNeuronSetting": "DefaultSetting",
            "aiSensingTemplate": "DefaultTemplate",
            "forceCombatOnSpawn": true,
            "NCKMKJMDPDH": ""
        },
        {
            "groupId": 144003031,
            "mapInstId": 31003,
            "aiGroupID": 144003031,
            "aiNeuronSetting": "DefaultSetting",
            "aiSensingTemplate": "DefaultTemplate",
            "forceCombatOnSpawn": true,
            "NCKMKJMDPDH": ""
        },
        {
            "groupId": 144003031,
            "mapInstId": 31004,
            "aiGroupID": 144003031,
            "aiNeuronSetting": "DefaultSetting",
            "aiSensingTemplate": "DefaultTemplate",
            "forceCombatOnSpawn": true,
            "NCKMKJMDPDH": ""
        },
        {
            "groupId": 144003031,
            "mapInstId": 31005,
            "aiGroupID": 144003031,
            "aiNeuronSetting": "DefaultSetting",
            "aiSensingTemplate": "DefaultTemplate",
            "forceCombatOnSpawn": true,
            "NCKMKJMDPDH": ""
        },
        {
            "groupId": 144003031,
            "mapInstId": 31006,
            "aiGroupID": 144003031,
            "aiNeuronSetting": "DefaultSetting",
            "aiSensingTemplate": "DefaultTemplate",
            "forceCombatOnSpawn": true,
            "NCKMKJMDPDH": ""
        },
        {
            "groupId": 144003031,
            "mapInstId": 31007,
            "aiGroupID": 144003031,
            "aiNeuronSetting": "DefaultSetting",
            "aiSensingTemplate": "DefaultTemplate",
            "forceCombatOnSpawn": true,
            "NCKMKJMDPDH": ""
        },
        {
            "groupId": 144003031,
            "mapInstId": 31008,
            "aiGroupID": 144003031,
            "aiNeuronSetting": "DefaultSetting",
            "aiSensingTemplate": "DefaultTemplate",
            "forceCombatOnSpawn": true,
            "NCKMKJMDPDH": ""
        },
        {
            "groupId": 144003031,
            "mapInstId": 31009,
            "aiGroupID": 144003031,
            "aiNeuronSetting": "DefaultSetting",
            "aiSensingTemplate": "DefaultTemplate",
            "forceCombatOnSpawn": true,
            "NCKMKJMDPDH": ""
        },
        {
            "groupId": 144003031,
            "mapInstId": 31010,
            "aiGroupID": 144003031,
            "aiNeuronSetting": "DefaultSetting",
            "aiSensingTemplate": "DefaultTemplate",
            "forceCombatOnSpawn": true,
            "NCKMKJMDPDH": ""
        },
        {
            "groupId": 144003031,
            "mapInstId": 31011,
            "aiGroupID": 144003031,
            "aiNeuronSetting": "DefaultSetting",
            "aiSensingTemplate": "DefaultTemplate",
            "forceCombatOnSpawn": true,
            "NCKMKJMDPDH": ""
        },
        {
            "groupId": 144003031,
            "mapInstId": 31012,
            "aiGroupID": 144003031,
            "aiNeuronSetting": "DefaultSetting",
            "aiSensingTemplate": "DefaultTemplate",
            "forceCombatOnSpawn": true,
            "NCKMKJMDPDH": ""
        },
        {
            "groupId": 144003031,
            "mapInstId": 31013,
            "aiGroupID": 144003031,
            "aiNeuronSetting": "DefaultSetting",
            "aiSensingTemplate": "DefaultTemplate",
            "forceCombatOnSpawn": true,
            "NCKMKJMDPDH": ""
        },
        {
            "groupId": 144003031,
            "mapInstId": 31039,
            "aiGroupID": 144003031,
            "aiNeuronSetting": "DefaultSetting",
            "aiSensingTemplate": "DefaultTemplate",
            "forceCombatOnSpawn": true,
            "NCKMKJMDPDH": ""
        },
        {
            "groupId": 144003031,
            "mapInstId": 31040,
            "aiGroupID": 144003031,
            "aiNeuronSetting": "DefaultSetting",
            "aiSensingTemplate": "DefaultTemplate",
            "forceCombatOnSpawn": true,
            "NCKMKJMDPDH": ""
        },
        {
            "groupId": 144003031,
            "mapInstId": 31041,
            "aiGroupID": 144003031,
            "aiNeuronSetting": "DefaultSetting",
            "aiSensingTemplate": "DefaultTemplate",
            "forceCombatOnSpawn": true,
            "NCKMKJMDPDH": ""
        },
        {
            "groupId": 144003031,
            "mapInstId": 31042,
            "aiGroupID": 144003031,
            "aiNeuronSetting": "DefaultSetting",
            "aiSensingTemplate": "DefaultTemplate",
            "forceCombatOnSpawn": true,
            "NCKMKJMDPDH": ""
        },
        {
            "groupId": 144003031,
            "mapInstId": 31043,
            "aiGroupID": 144003031,
            "aiNeuronSetting": "DefaultSetting",
            "aiSensingTemplate": "DefaultTemplate",
            "forceCombatOnSpawn": true,
            "NCKMKJMDPDH": ""
        },
        {
            "groupId": 144003031,
            "mapInstId": 31044,
            "aiGroupID": 144003031,
            "aiNeuronSetting": "DefaultSetting",
            "aiSensingTemplate": "DefaultTemplate",
            "forceCombatOnSpawn": true,
            "NCKMKJMDPDH": ""
        },
        {
            "groupId": 144003031,
            "mapInstId": 31045,
            "aiGroupID": 144003031,
            "aiNeuronSetting": "DefaultSetting",
            "aiSensingTemplate": "DefaultTemplate",
            "forceCombatOnSpawn": true,
            "NCKMKJMDPDH": ""
        },
        {
            "groupId": 144003031,
            "mapInstId": 31046,
            "aiGroupID": 144003031,
            "aiNeuronSetting": "DefaultSetting",
            "aiSensingTemplate": "DefaultTemplate",
            "forceCombatOnSpawn": true,
            "NCKMKJMDPDH": ""
        },
        {
            "groupId": 144003031,
            "mapInstId": 31047,
            "aiGroupID": 144003031,
            "aiNeuronSetting": "DefaultSetting",
            "aiSensingTemplate": "DefaultTemplate",
            "forceCombatOnSpawn": true,
            "NCKMKJMDPDH": ""
        },
        {
            "groupId": 144003031,
            "mapInstId": 31048,
            "aiGroupID": 144003031,
            "aiNeuronSetting": "DefaultSetting",
            "aiSensingTemplate": "DefaultTemplate",
            "forceCombatOnSpawn": true,
            "NCKMKJMDPDH": ""
        },
        {
            "groupId": 144003031,
            "mapInstId": 31049,
            "aiGroupID": 144003031,
            "aiNeuronSetting": "DefaultSetting",
            "aiSensingTemplate": "DefaultTemplate",
            "forceCombatOnSpawn": true,
            "NCKMKJMDPDH": ""
        },
        {
            "groupId": 144003031,
            "mapInstId": 31050,
            "aiGroupID": 144003031,
            "aiNeuronSetting": "DefaultSetting",
            "aiSensingTemplate": "DefaultTemplate",
            "forceCombatOnSpawn": true,
            "NCKMKJMDPDH": ""
        },
        {
            "groupId": 144003031,
            "mapInstId": 31051,
            "aiGroupID": 144003031,
            "aiNeuronSetting": "DefaultSetting",
            "aiSensingTemplate": "DefaultTemplate",
            "forceCombatOnSpawn": true,
            "NCKMKJMDPDH": ""
        },
        {
            "groupId": 144003031,
            "mapInstId": 31052,
            "aiGroupID": 144003031,
            "aiNeuronSetting": "DefaultSetting",
            "aiSensingTemplate": "DefaultTemplate",
            "forceCombatOnSpawn": true,
            "NCKMKJMDPDH": ""
        },
        {
            "groupId": 144003031,
            "mapInstId": 31053,
            "aiGroupID": 144003031,
            "aiNeuronSetting": "DefaultSetting",
            "aiSensingTemplate": "DefaultTemplate",
            "forceCombatOnSpawn": true,
            "NCKMKJMDPDH": ""
        },
        {
            "groupId": 144003031,
            "mapInstId": 31054,
            "aiGroupID": 144003031,
            "aiNeuronSetting": "DefaultSetting",
            "aiSensingTemplate": "DefaultTemplate",
            "forceCombatOnSpawn": true,
            "NCKMKJMDPDH": ""
        },
        {
            "groupId": 144003031,
            "mapInstId": 31055,
            "aiGroupID": 144003031,
            "aiNeuronSetting": "DefaultSetting",
            "aiSensingTemplate": "DefaultTemplate",
            "forceCombatOnSpawn": true,
            "NCKMKJMDPDH": ""
        },
        {
            "groupId": 144003031,
            "mapInstId": 31056,
            "aiGroupID": 144003031,
            "aiNeuronSetting": "DefaultSetting",
            "aiSensingTemplate": "DefaultTemplate",
            "forceCombatOnSpawn": true,
            "NCKMKJMDPDH": ""
        },
        {
            "groupId": 144003031,
            "mapInstId": 31057,
            "aiGroupID": 144003031,
            "aiNeuronSetting": "DefaultSetting",
            "aiSensingTemplate": "DefaultTemplate",
            "forceCombatOnSpawn": true,
            "NCKMKJMDPDH": ""
        },
        {
            "groupId": 144003031,
            "mapInstId": 31058,
            "aiGroupID": 144003031,
            "aiNeuronSetting": "DefaultSetting",
            "aiSensingTemplate": "DefaultTemplate",
            "forceCombatOnSpawn": true,
            "NCKMKJMDPDH": ""
        },
        {
            "groupId": 144003031,
            "mapInstId": 31059,
            "aiGroupID": 144003031,
            "aiNeuronSetting": "DefaultSetting",
            "aiSensingTemplate": "DefaultTemplate",
            "forceCombatOnSpawn": true,
            "NCKMKJMDPDH": ""
        },
        {
            "groupId": 144003031,
            "mapInstId": 31060,
            "aiGroupID": 144003031,
            "aiNeuronSetting": "DefaultSetting",
            "aiSensingTemplate": "DefaultTemplate",
            "forceCombatOnSpawn": true,
            "NCKMKJMDPDH": ""
        },
        {
            "groupId": 144003031,
            "mapInstId": 31061,
            "aiGroupID": 144003031,
            "aiNeuronSetting": "DefaultSetting",
            "aiSensingTemplate": "DefaultTemplate",
            "forceCombatOnSpawn": true,
            "NCKMKJMDPDH": ""
        },
        {
            "groupId": 144003031,
            "mapInstId": 31062,
            "aiGroupID": 144003031,
            "aiNeuronSetting": "DefaultSetting",
            "aiSensingTemplate": "DefaultTemplate",
            "forceCombatOnSpawn": true,
            "NCKMKJMDPDH": ""
        },
        {
            "groupId": 144003031,
            "mapInstId": 31063,
            "aiGroupID": 144003031,
            "aiNeuronSetting": "DefaultSetting",
            "aiSensingTemplate": "DefaultTemplate",
            "forceCombatOnSpawn": true,
            "NCKMKJMDPDH": ""
        },
        {
            "groupId": 144003031,
            "mapInstId": 31064,
            "aiGroupID": 144003031,
            "aiNeuronSetting": "DefaultSetting",
            "aiSensingTemplate": "DefaultTemplate",
            "forceCombatOnSpawn": true,
            "NCKMKJMDPDH": ""
        },
        {
            "groupId": 144001036,
            "mapInstId": 36004,
            "defendAreaID": 400100001,
            "aiNeuronSetting": "DefaultSetting",
            "aiSensingTemplate": "DefaultTemplate",
            "disableWander": true,
            "NCKMKJMDPDH": ""
        },
        {
            "groupId": 144001037,
            "mapInstId": 37002,
            "defendAreaID": 400100002,
            "aiNeuronSetting": "DefaultSetting",
            "aiSensingTemplate": "DefaultTemplate",
            "NCKMKJMDPDH": ""
        },
        {
            "groupId": 144001037,
            "mapInstId": 37003,
            "defendAreaID": 400100002,
            "aiNeuronSetting": "DefaultSetting",
            "aiSensingTemplate": "DefaultTemplate",
            "NCKMKJMDPDH": ""
        },
        {
            "groupId": 144004049,
            "mapInstId": 49001,
            "aiGroupID": 144004049,
            "aiNeuronSetting": "DefaultSetting",
            "aiSensingTemplate": "DefaultTemplate",
            "forceCombatOnSpawn": true,
            "disableWander": true,
            "NCKMKJMDPDH": ""
        },
        {
            "groupId": 144004049,
            "mapInstId": 49002,
            "aiGroupID": 144004049,
            "aiNeuronSetting": "DefaultSetting",
            "aiSensingTemplate": "DefaultTemplate",
            "forceCombatOnSpawn": true,
            "disableWander": true,
            "NCKMKJMDPDH": ""
        },
        {
            "groupId": 144004049,
            "mapInstId": 49003,
            "aiGroupID": 144004049,
            "aiNeuronSetting": "DefaultSetting",
            "aiSensingTemplate": "DefaultTemplate",
            "forceCombatOnSpawn": true,
            "disableWander": true,
            "NCKMKJMDPDH": ""
        },
        {
            "groupId": 144004049,
            "mapInstId": 49015,
            "aiGroupID": 144004049,
            "aiNeuronSetting": "DefaultSetting",
            "aiSensingTemplate": "DefaultTemplate",
            "forceCombatOnSpawn": true,
            "disableWander": true,
            "NCKMKJMDPDH": ""
        },
        {
            "groupId": 144004050,
            "mapInstId": 50001,
            "aiGroupID": 144004050,
            "aiNeuronSetting": "DefaultSetting",
            "aiSensingTemplate": "DefaultTemplate",
            "forceCombatOnSpawn": true,
            "disableWander": true,
            "NCKMKJMDPDH": ""
        },
        {
            "groupId": 144004050,
            "mapInstId": 50002,
            "aiGroupID": 144004050,
            "aiNeuronSetting": "DefaultSetting",
            "aiSensingTemplate": "DefaultTemplate",
            "forceCombatOnSpawn": true,
            "disableWander": true,
            "NCKMKJMDPDH": ""
        },
        {
            "groupId": 144004050,
            "mapInstId": 50003,
            "aiGroupID": 144004050,
            "aiNeuronSetting": "DefaultSetting",
            "aiSensingTemplate": "DefaultTemplate",
            "forceCombatOnSpawn": true,
            "disableWander": true,
            "NCKMKJMDPDH": ""
        },
        {
            "groupId": 144004050,
            "mapInstId": 50015,
            "aiGroupID": 144004050,
            "aiNeuronSetting": "DefaultSetting",
            "aiSensingTemplate": "DefaultTemplate",
            "forceCombatOnSpawn": true,
            "disableWander": true,
            "NCKMKJMDPDH": ""
        },
        {
            "groupId": 144003060,
            "mapInstId": 60001,
            "aiGroupID": 144003060,
            "aiNeuronSetting": "DefaultSetting",
            "aiSensingTemplate": "HighAlertTemplate",
            "disableWander": true,
            "NCKMKJMDPDH": ""
        },
        {
            "groupId": 144003060,
            "mapInstId": 60004,
            "aiGroupID": 144003060,
            "aiNeuronSetting": "DefaultSetting",
            "aiSensingTemplate": "DefaultTemplate",
            "NCKMKJMDPDH": ""
        },
        {
            "groupId": 144003060,
            "mapInstId": 60005,
            "aiGroupID": 144003060,
            "aiNeuronSetting": "DefaultSetting",
            "aiSensingTemplate": "HighFeelTemplate",
            "NCKMKJMDPDH": ""
        },
        {
            "groupId": 144003060,
            "mapInstId": 60006,
            "aiGroupID": 144003060,
            "aiNeuronSetting": "DefaultSetting",
            "aiSensingTemplate": "HighAlertTemplate",
            "NCKMKJMDPDH": ""
        },
        {
            "groupId": 144003060,
            "mapInstId": 60007,
            "aiGroupID": 144003060,
            "aiNeuronSetting": "DefaultSetting",
            "aiSensingTemplate": "HighFeelTemplate",
            "NCKMKJMDPDH": ""
        },
        {
            "groupId": 144001102,
            "mapInstId": 102001,
            "aiGroupID": 144001102,
            "aiNeuronSetting": "DefaultSetting",
            "aiSensingTemplate": "HighFeelTemplate",
            "disableWander": true,
            "NCKMKJMDPDH": ""
        },
        {
            "groupId": 144001102,
            "mapInstId": 102002,
            "aiGroupID": 144001102,
            "aiNeuronSetting": "DefaultSetting",
            "aiSensingTemplate": "HighFeelTemplate",
            "forceCombatOnSpawn": true,
            "disableWander": true,
            "NCKMKJMDPDH": ""
        },
        {
            "groupId": 144001102,
            "mapInstId": 102003,
            "aiGroupID": 144001102,
            "aiNeuronSetting": "DefaultSetting",
            "aiSensingTemplate": "HighFeelTemplate",
            "disableWander": true,
            "NCKMKJMDPDH": ""
        },
        {
            "groupId": 144001102,
            "mapInstId": 102005,
            "aiGroupID": 144001102,
            "aiNeuronSetting": "DefaultSetting",
            "aiSensingTemplate": "HighFeelTemplate",
            "disableWander": true,
            "NCKMKJMDPDH": ""
        },
        {
            "groupId": 144001102,
            "mapInstId": 102006,
            "aiGroupID": 144001102,
            "aiNeuronSetting": "DefaultSetting",
            "aiSensingTemplate": "HighFeelTemplate",
            "disableWander": true,
            "NCKMKJMDPDH": ""
        },
        {
            "groupId": 144001102,
            "mapInstId": 102007,
            "aiGroupID": 144001102,
            "aiNeuronSetting": "DefaultSetting",
            "aiSensingTemplate": "HighFeelTemplate",
            "disableWander": true,
            "NCKMKJMDPDH": ""
        },
        {
            "groupId": 144001102,
            "mapInstId": 102008,
            "aiGroupID": 144001102,
            "aiNeuronSetting": "DefaultSetting",
            "aiSensingTemplate": "HighAlertTemplate",
            "forceCombatOnSpawn": true,
            "disableWander": true,
            "NCKMKJMDPDH": ""
        },
        {
            "groupId": 144001102,
            "mapInstId": 102009,
            "aiGroupID": 144001102,
            "aiNeuronSetting": "DefaultSetting",
            "aiSensingTemplate": "HighAlertTemplate",
            "forceCombatOnSpawn": true,
            "disableWander": true,
            "NCKMKJMDPDH": ""
        },
        {
            "groupId": 144001102,
            "mapInstId": 102010,
            "aiGroupID": 144001102,
            "aiNeuronSetting": "DefaultSetting",
            "aiSensingTemplate": "HighAlertTemplate",
            "forceCombatOnSpawn": true,
            "disableWander": true,
            "NCKMKJMDPDH": ""
        },
        {
            "groupId": 144001102,
            "mapInstId": 102011,
            "aiGroupID": 144001102,
            "aiNeuronSetting": "DefaultSetting",
            "aiSensingTemplate": "HighAlertTemplate",
            "forceCombatOnSpawn": true,
            "disableWander": true,
            "NCKMKJMDPDH": ""
        },
        {
            "groupId": 144001102,
            "mapInstId": 102048,
            "aiGroupID": 144001102,
            "aiNeuronSetting": "DefaultSetting",
            "aiSensingTemplate": "HighFeelTemplate",
            "disableWander": true,
            "NCKMKJMDPDH": ""
        },
        {
            "groupId": 144001102,
            "mapInstId": 102049,
            "aiGroupID": 144001102,
            "aiNeuronSetting": "DefaultSetting",
            "aiSensingTemplate": "HighFeelTemplate",
            "disableWander": true,
            "NCKMKJMDPDH": ""
        },
        {
            "groupId": 144001102,
            "mapInstId": 102050,
            "aiGroupID": 144001102,
            "aiNeuronSetting": "DefaultSetting",
            "aiSensingTemplate": "HighAlertTemplate",
            "forceCombatOnSpawn": true,
            "disableWander": true,
            "NCKMKJMDPDH": ""
        },
        {
            "groupId": 144001104,
            "mapInstId": 104001,
            "aiGroupID": 144001104,
            "aiNeuronSetting": "DefaultSetting",
            "aiSensingTemplate": "HighFeelTemplate",
            "disableWander": true,
            "NCKMKJMDPDH": ""
        },
        {
            "groupId": 144001104,
            "mapInstId": 104002,
            "aiGroupID": 144001104,
            "aiNeuronSetting": "DefaultSetting",
            "aiSensingTemplate": "HighAlertTemplate",
            "forceCombatOnSpawn": true,
            "disableWander": true,
            "NCKMKJMDPDH": ""
        },
        {
            "groupId": 144001104,
            "mapInstId": 104003,
            "aiGroupID": 144001104,
            "aiNeuronSetting": "DefaultSetting",
            "aiSensingTemplate": "HighFeelTemplate",
            "disableWander": true,
            "NCKMKJMDPDH": ""
        },
        {
            "groupId": 144001104,
            "mapInstId": 104004,
            "aiGroupID": 144001104,
            "aiNeuronSetting": "DefaultSetting",
            "aiSensingTemplate": "HighFeelTemplate",
            "disableWander": true,
            "NCKMKJMDPDH": ""
        },
        {
            "groupId": 144001104,
            "mapInstId": 104005,
            "aiGroupID": 144001104,
            "aiNeuronSetting": "DefaultSetting",
            "aiSensingTemplate": "HighFeelTemplate",
            "forceCombatOnSpawn": true,
            "disableWander": true,
            "NCKMKJMDPDH": ""
        },
        {
            "groupId": 144001104,
            "mapInstId": 104006,
            "aiGroupID": 144001104,
            "aiNeuronSetting": "DefaultSetting",
            "aiSensingTemplate": "HighAlertTemplate",
            "forceCombatOnSpawn": true,
            "disableWander": true,
            "NCKMKJMDPDH": ""
        },
        {
            "groupId": 144001104,
            "mapInstId": 104007,
            "aiGroupID": 144001104,
            "aiNeuronSetting": "DefaultSetting",
            "aiSensingTemplate": "HighFeelTemplate",
            "disableWander": true,
            "NCKMKJMDPDH": ""
        },
        {
            "groupId": 144001104,
            "mapInstId": 104008,
            "aiGroupID": 144001104,
            "aiNeuronSetting": "DefaultSetting",
            "aiSensingTemplate": "HighFeelTemplate",
            "disableWander": true,
            "NCKMKJMDPDH": ""
        },
        {
            "groupId": 144001104,
            "mapInstId": 104009,
            "aiGroupID": 144001104,
            "aiNeuronSetting": "DefaultSetting",
            "aiSensingTemplate": "HighAlertTemplate",
            "forceCombatOnSpawn": true,
            "disableWander": true,
            "NCKMKJMDPDH": ""
        },
        {
            "groupId": 144001104,
            "mapInstId": 104010,
            "aiGroupID": 144001104,
            "aiNeuronSetting": "DefaultSetting",
            "aiSensingTemplate": "HighFeelTemplate",
            "forceCombatOnSpawn": true,
            "disableWander": true,
            "NCKMKJMDPDH": ""
        },
        {
            "groupId": 144001104,
            "mapInstId": 104011,
            "aiGroupID": 144001104,
            "aiNeuronSetting": "DefaultSetting",
            "aiSensingTemplate": "HighFeelTemplate",
            "forceCombatOnSpawn": true,
            "disableWander": true,
            "NCKMKJMDPDH": ""
        },
        {
            "groupId": 144001104,
            "mapInstId": 104023,
            "aiGroupID": 144001104,
            "aiNeuronSetting": "DefaultSetting",
            "aiSensingTemplate": "HighFeelTemplate",
            "disableWander": true,
            "NCKMKJMDPDH": ""
        },
        {
            "groupId": 144001104,
            "mapInstId": 104026,
            "aiGroupID": 144001104,
            "aiNeuronSetting": "DefaultSetting",
            "aiSensingTemplate": "HighFeelTemplate",
            "disableWander": true,
            "NCKMKJMDPDH": ""
        },
        {
            "groupId": 144001127,
            "mapInstId": 127001,
            "aiNeuronSetting": "DefaultSetting",
            "aiSensingTemplate": "DefaultTemplate",
            "forceCombatOnSpawn": true,
            "NCKMKJMDPDH": ""
        }
    ]
}