{
    "sceneId": 4,
    "monsters": [
        {
            "groupId": 144004004,
            "mapInstId": 4002,
            "aiGroupID": 144004004,
            "aiNeuronSetting": "DefaultSetting",
            "aiSensingTemplate": "DefaultTemplate",
            "forceCombatOnSpawn": true,
            "disableWander": true,
            "NCKMKJMDPDH": ""
        },
        {
            "groupId": 144004004,
            "mapInstId": 4003,
            "aiGroupID": 144004004,
            "aiNeuronSetting": "DefaultSetting",
            "aiSensingTemplate": "DefaultTemplate",
            "forceCombatOnSpawn": true,
            "disableWander": true,
            "NCKMKJMDPDH": ""
        },
        {
            "groupId": 144004004,
            "mapInstId": 4008,
            "aiGroupID": 144004004,
            "aiNeuronSetting": "DefaultSetting",
            "aiSensingTemplate": "DefaultTemplate",
            "forceCombatOnSpawn": true,
            "disableWander": true,
            "NCKMKJMDPDH": ""
        },
        {
            "groupId": 144004004,
            "mapInstId": 4023,
            "aiGroupID": 144004004,
            "aiNeuronSetting": "DefaultSetting",
            "aiSensingTemplate": "DefaultTemplate",
            "forceCombatOnSpawn": true,
            "disableWander": true,
            "NCKMKJMDPDH": ""
        },
        {
            "groupId": 144004004,
            "mapInstId": 4024,
            "aiGroupID": 144004004,
            "aiNeuronSetting": "DefaultSetting",
            "aiSensingTemplate": "DefaultTemplate",
            "forceCombatOnSpawn": true,
            "disableWander": true,
            "NCKMKJMDPDH": ""
        },
        {
            "groupId": 144004004,
            "mapInstId": 4025,
            "aiGroupID": 144004004,
            "aiNeuronSetting": "DefaultSetting",
            "aiSensingTemplate": "DefaultTemplate",
            "forceCombatOnSpawn": true,
            "disableWander": true,
            "NCKMKJMDPDH": ""
        },
        {
            "groupId": 144004004,
            "mapInstId": 4026,
            "aiGroupID": 144004004,
            "aiNeuronSetting": "DefaultSetting",
            "aiSensingTemplate": "DefaultTemplate",
            "forceCombatOnSpawn": true,
            "disableWander": true,
            "NCKMKJMDPDH": ""
        },
        {
            "groupId": 144004004,
            "mapInstId": 4027,
            "aiGroupID": 144004004,
            "aiNeuronSetting": "DefaultSetting",
            "aiSensingTemplate": "DefaultTemplate",
            "forceCombatOnSpawn": true,
            "disableWander": true,
            "NCKMKJMDPDH": ""
        },
        {
            "groupId": 144004004,
            "mapInstId": 4028,
            "aiGroupID": 144004004,
            "aiNeuronSetting": "DefaultSetting",
            "aiSensingTemplate": "DefaultTemplate",
            "forceCombatOnSpawn": true,
            "disableWander": true,
            "NCKMKJMDPDH": ""
        },
        {
            "groupId": 144004004,
            "mapInstId": 4029,
            "aiGroupID": 144004004,
            "aiNeuronSetting": "DefaultSetting",
            "aiSensingTemplate": "DefaultTemplate",
            "forceCombatOnSpawn": true,
            "disableWander": true,
            "NCKMKJMDPDH": ""
        },
        {
            "groupId": 144004004,
            "mapInstId": 4030,
            "aiGroupID": 144004004,
            "aiNeuronSetting": "DefaultSetting",
            "aiSensingTemplate": "DefaultTemplate",
            "forceCombatOnSpawn": true,
            "disableWander": true,
            "NCKMKJMDPDH": ""
        },
        {
            "groupId": 144004004,
            "mapInstId": 4031,
            "aiGroupID": 144004004,
            "aiNeuronSetting": "DefaultSetting",
            "aiSensingTemplate": "DefaultTemplate",
            "forceCombatOnSpawn": true,
            "disableWander": true,
            "NCKMKJMDPDH": ""
        },
        {
            "groupId": 144004004,
            "mapInstId": 4033,
            "aiGroupID": 144004004,
            "aiNeuronSetting": "DefaultSetting",
            "aiSensingTemplate": "DefaultTemplate",
            "forceCombatOnSpawn": true,
            "disableWander": true,
            "NCKMKJMDPDH": ""
        },
        {
            "groupId": 144004004,
            "mapInstId": 4034,
            "aiGroupID": 144004004,
            "aiNeuronSetting": "DefaultSetting",
            "aiSensingTemplate": "DefaultTemplate",
            "forceCombatOnSpawn": true,
            "disableWander": true,
            "NCKMKJMDPDH": ""
        },
        {
            "groupId": 144004004,
            "mapInstId": 4035,
            "aiGroupID": 144004004,
            "aiNeuronSetting": "DefaultSetting",
            "aiSensingTemplate": "DefaultTemplate",
            "forceCombatOnSpawn": true,
            "disableWander": true,
            "NCKMKJMDPDH": ""
        },
        {
            "groupId": 144004004,
            "mapInstId": 4036,
            "aiGroupID": 144004004,
            "aiNeuronSetting": "DefaultSetting",
            "aiSensingTemplate": "DefaultTemplate",
            "forceCombatOnSpawn": true,
            "disableWander": true,
            "NCKMKJMDPDH": ""
        },
        {
            "groupId": 144004004,
            "mapInstId": 4037,
            "aiGroupID": 144004004,
            "aiNeuronSetting": "DefaultSetting",
            "aiSensingTemplate": "DefaultTemplate",
            "forceCombatOnSpawn": true,
            "disableWander": true,
            "NCKMKJMDPDH": ""
        },
        {
            "groupId": 144004004,
            "mapInstId": 4038,
            "aiGroupID": 144004004,
            "aiNeuronSetting": "DefaultSetting",
            "aiSensingTemplate": "DefaultTemplate",
            "forceCombatOnSpawn": true,
            "disableWander": true,
            "NCKMKJMDPDH": ""
        },
        {
            "groupId": 144004004,
            "mapInstId": 4039,
            "aiGroupID": 144004004,
            "aiNeuronSetting": "DefaultSetting",
            "aiSensingTemplate": "DefaultTemplate",
            "forceCombatOnSpawn": true,
            "disableWander": true,
            "NCKMKJMDPDH": ""
        },
        {
            "groupId": 144004004,
            "mapInstId": 4043,
            "aiGroupID": 144004004,
            "aiNeuronSetting": "DefaultSetting",
            "aiSensingTemplate": "DefaultTemplate",
            "forceCombatOnSpawn": true,
            "disableWander": true,
            "NCKMKJMDPDH": ""
        },
        {
            "groupId": 144004004,
            "mapInstId": 4047,
            "aiGroupID": 144004004,
            "aiNeuronSetting": "DefaultSetting",
            "aiSensingTemplate": "DefaultTemplate",
            "forceCombatOnSpawn": true,
            "disableWander": true,
            "NCKMKJMDPDH": ""
        },
        {
            "groupId": 144004004,
            "mapInstId": 4048,
            "aiGroupID": 144004004,
            "aiNeuronSetting": "DefaultSetting",
            "aiSensingTemplate": "DefaultTemplate",
            "forceCombatOnSpawn": true,
            "disableWander": true,
            "NCKMKJMDPDH": ""
        },
        {
            "groupId": 144004004,
            "mapInstId": 4049,
            "aiGroupID": 144004004,
            "aiNeuronSetting": "DefaultSetting",
            "aiSensingTemplate": "DefaultTemplate",
            "forceCombatOnSpawn": true,
            "disableWander": true,
            "NCKMKJMDPDH": ""
        },
        {
            "groupId": 144004004,
            "mapInstId": 4050,
            "aiGroupID": 144004004,
            "aiNeuronSetting": "DefaultSetting",
            "aiSensingTemplate": "DefaultTemplate",
            "forceCombatOnSpawn": true,
            "disableWander": true,
            "NCKMKJMDPDH": ""
        },
        {
            "groupId": 144004004,
            "mapInstId": 4051,
            "aiGroupID": 144004004,
            "aiNeuronSetting": "DefaultSetting",
            "aiSensingTemplate": "DefaultTemplate",
            "forceCombatOnSpawn": true,
            "disableWander": true,
            "NCKMKJMDPDH": ""
        },
        {
            "groupId": 144004004,
            "mapInstId": 4052,
            "aiGroupID": 144004004,
            "aiNeuronSetting": "DefaultSetting",
            "aiSensingTemplate": "DefaultTemplate",
            "forceCombatOnSpawn": true,
            "disableWander": true,
            "NCKMKJMDPDH": ""
        },
        {
            "groupId": 144004004,
            "mapInstId": 4053,
            "aiGroupID": 144004004,
            "aiNeuronSetting": "DefaultSetting",
            "aiSensingTemplate": "DefaultTemplate",
            "forceCombatOnSpawn": true,
            "disableWander": true,
            "NCKMKJMDPDH": ""
        },
        {
            "groupId": 144004004,
            "mapInstId": 4054,
            "aiGroupID": 144004004,
            "aiNeuronSetting": "DefaultSetting",
            "aiSensingTemplate": "DefaultTemplate",
            "forceCombatOnSpawn": true,
            "disableWander": true,
            "NCKMKJMDPDH": ""
        },
        {
            "groupId": 144004004,
            "mapInstId": 4055,
            "aiGroupID": 144004004,
            "aiNeuronSetting": "DefaultSetting",
            "aiSensingTemplate": "DefaultTemplate",
            "forceCombatOnSpawn": true,
            "disableWander": true,
            "NCKMKJMDPDH": ""
        },
        {
            "groupId": 144004004,
            "mapInstId": 4056,
            "aiGroupID": 144004004,
            "aiNeuronSetting": "DefaultSetting",
            "aiSensingTemplate": "DefaultTemplate",
            "forceCombatOnSpawn": true,
            "disableWander": true,
            "NCKMKJMDPDH": ""
        },
        {
            "groupId": 144004004,
            "mapInstId": 4057,
            "aiGroupID": 144004004,
            "aiNeuronSetting": "DefaultSetting",
            "aiSensingTemplate": "DefaultTemplate",
            "forceCombatOnSpawn": true,
            "disableWander": true,
            "NCKMKJMDPDH": ""
        },
        {
            "groupId": 144004004,
            "mapInstId": 4058,
            "aiGroupID": 144004004,
            "aiNeuronSetting": "DefaultSetting",
            "aiSensingTemplate": "DefaultTemplate",
            "forceCombatOnSpawn": true,
            "disableWander": true,
            "NCKMKJMDPDH": ""
        },
        {
            "groupId": 144004004,
            "mapInstId": 4059,
            "aiGroupID": 144004004,
            "aiNeuronSetting": "DefaultSetting",
            "aiSensingTemplate": "DefaultTemplate",
            "forceCombatOnSpawn": true,
            "disableWander": true,
            "NCKMKJMDPDH": ""
        },
        {
            "groupId": 144004008,
            "mapInstId": 8005,
            "aiGroupID": 144004008,
            "aiNeuronSetting": "DefaultSetting",
            "aiSensingTemplate": "DefaultTemplate",
            "forceCombatOnSpawn": true,
            "disableWander": true,
            "NCKMKJMDPDH": ""
        },
        {
            "groupId": 144004008,
            "mapInstId": 8006,
            "aiGroupID": 144004008,
            "aiNeuronSetting": "DefaultSetting",
            "aiSensingTemplate": "DefaultTemplate",
            "forceCombatOnSpawn": true,
            "disableWander": true,
            "NCKMKJMDPDH": ""
        },
        {
            "groupId": 144004008,
            "mapInstId": 8007,
            "aiGroupID": 144004008,
            "aiNeuronSetting": "DefaultSetting",
            "aiSensingTemplate": "DefaultTemplate",
            "forceCombatOnSpawn": true,
            "disableWander": true,
            "NCKMKJMDPDH": ""
        },
        {
            "groupId": 144004008,
            "mapInstId": 8008,
            "aiGroupID": 144004008,
            "aiNeuronSetting": "DefaultSetting",
            "aiSensingTemplate": "DefaultTemplate",
            "forceCombatOnSpawn": true,
            "disableWander": true,
            "NCKMKJMDPDH": ""
        },
        {
            "groupId": 144004008,
            "mapInstId": 8009,
            "aiGroupID": 144004008,
            "aiNeuronSetting": "DefaultSetting",
            "aiSensingTemplate": "DefaultTemplate",
            "forceCombatOnSpawn": true,
            "disableWander": true,
            "NCKMKJMDPDH": ""
        },
        {
            "groupId": 144004008,
            "mapInstId": 8010,
            "aiGroupID": 144004008,
            "aiNeuronSetting": "DefaultSetting",
            "aiSensingTemplate": "DefaultTemplate",
            "forceCombatOnSpawn": true,
            "disableWander": true,
            "NCKMKJMDPDH": ""
        },
        {
            "groupId": 144004008,
            "mapInstId": 8011,
            "aiGroupID": 144004008,
            "aiNeuronSetting": "DefaultSetting",
            "aiSensingTemplate": "DefaultTemplate",
            "forceCombatOnSpawn": true,
            "disableWander": true,
            "NCKMKJMDPDH": ""
        },
        {
            "groupId": 144004008,
            "mapInstId": 8018,
            "aiGroupID": 144004008,
            "aiNeuronSetting": "DefaultSetting",
            "aiSensingTemplate": "DefaultTemplate",
            "forceCombatOnSpawn": true,
            "disableWander": true,
            "NCKMKJMDPDH": ""
        },
        {
            "groupId": 144004008,
            "mapInstId": 8030,
            "aiGroupID": 144004008,
            "aiNeuronSetting": "DefaultSetting",
            "aiSensingTemplate": "DefaultTemplate",
            "forceCombatOnSpawn": true,
            "disableWander": true,
            "NCKMKJMDPDH": ""
        },
        {
            "groupId": 144004008,
            "mapInstId": 8032,
            "aiGroupID": 144004008,
            "aiNeuronSetting": "DefaultSetting",
            "aiSensingTemplate": "DefaultTemplate",
            "forceCombatOnSpawn": true,
            "disableWander": true,
            "NCKMKJMDPDH": ""
        },
        {
            "groupId": 144003010,
            "mapInstId": 10001,
            "aiGroupID": 144003010,
            "aiNeuronSetting": "DefaultSetting",
            "aiSensingTemplate": "DefaultTemplate",
            "forceCombatOnSpawn": true,
            "disableWander": true,
            "NCKMKJMDPDH": ""
        },
        {
            "groupId": 144003010,
            "mapInstId": 10002,
            "aiGroupID": 144003010,
            "aiNeuronSetting": "DefaultSetting",
            "aiSensingTemplate": "DefaultTemplate",
            "forceCombatOnSpawn": true,
            "disableWander": true,
            "NCKMKJMDPDH": ""
        },
        {
            "groupId": 144003010,
            "mapInstId": 10003,
            "aiGroupID": 144003010,
            "aiNeuronSetting": "DefaultSetting",
            "aiSensingTemplate": "DefaultTemplate",
            "forceCombatOnSpawn": true,
            "disableWander": true,
            "NCKMKJMDPDH": ""
        },
        {
            "groupId": 144003010,
            "mapInstId": 10004,
            "aiGroupID": 144003010,
            "aiNeuronSetting": "DefaultSetting",
            "aiSensingTemplate": "DefaultTemplate",
            "forceCombatOnSpawn": true,
            "NCKMKJMDPDH": ""
        },
        {
            "groupId": 144003010,
            "mapInstId": 10005,
            "aiGroupID": 144003010,
            "aiNeuronSetting": "DefaultSetting",
            "aiSensingTemplate": "DefaultTemplate",
            "forceCombatOnSpawn": true,
            "NCKMKJMDPDH": ""
        },
        {
            "groupId": 144003010,
            "mapInstId": 10006,
            "aiGroupID": 144003010,
            "aiNeuronSetting": "DefaultSetting",
            "aiSensingTemplate": "DefaultTemplate",
            "forceCombatOnSpawn": true,
            "NCKMKJMDPDH": ""
        },
        {
            "groupId": 144004010,
            "mapInstId": 10023,
            "aiNeuronSetting": "DefaultSetting",
            "aiSensingTemplate": "DefaultTemplate",
            "disableWander": true,
            "NCKMKJMDPDH": ""
        },
        {
            "groupId": 144003011,
            "mapInstId": 11001,
            "aiGroupID": 144003011,
            "aiNeuronSetting": "DefaultSetting",
            "aiSensingTemplate": "DefaultTemplate",
            "forceCombatOnSpawn": true,
            "disableWander": true,
            "NCKMKJMDPDH": ""
        },
        {
            "groupId": 144003011,
            "mapInstId": 11002,
            "aiGroupID": 144003011,
            "aiNeuronSetting": "DefaultSetting",
            "aiSensingTemplate": "DefaultTemplate",
            "forceCombatOnSpawn": true,
            "disableWander": true,
            "NCKMKJMDPDH": ""
        },
        {
            "groupId": 144003011,
            "mapInstId": 11003,
            "aiGroupID": 144003011,
            "aiNeuronSetting": "DefaultSetting",
            "aiSensingTemplate": "DefaultTemplate",
            "forceCombatOnSpawn": true,
            "disableWander": true,
            "NCKMKJMDPDH": ""
        },
        {
            "groupId": 144003012,
            "mapInstId": 12001,
            "aiGroupID": 144003012,
            "aiNeuronSetting": "DefaultSetting",
            "aiSensingTemplate": "DefaultTemplate",
            "forceCombatOnSpawn": true,
            "disableWander": true,
            "NCKMKJMDPDH": ""
        },
        {
            "groupId": 144004012,
            "mapInstId": 12001,
            "aiGroupID": 144004012,
            "aiNeuronSetting": "DefaultSetting",
            "aiSensingTemplate": "DefaultTemplate",
            "NCKMKJMDPDH": ""
        },
        {
            "groupId": 144003012,
            "mapInstId": 12002,
            "aiGroupID": 144003012,
            "aiNeuronSetting": "DefaultSetting",
            "aiSensingTemplate": "DefaultTemplate",
            "forceCombatOnSpawn": true,
            "disableWander": true,
            "NCKMKJMDPDH": ""
        },
        {
            "groupId": 144003012,
            "mapInstId": 12003,
            "aiGroupID": 144003012,
            "aiNeuronSetting": "DefaultSetting",
            "aiSensingTemplate": "DefaultTemplate",
            "forceCombatOnSpawn": true,
            "disableWander": true,
            "NCKMKJMDPDH": ""
        },
        {
            "groupId": 144004012,
            "mapInstId": 12004,
            "aiGroupID": 144004012,
            "aiNeuronSetting": "DefaultSetting",
            "aiSensingTemplate": "DefaultTemplate",
            "NCKMKJMDPDH": ""
        },
        {
            "groupId": 144004012,
            "mapInstId": 12006,
            "aiGroupID": 144004012,
            "aiNeuronSetting": "DefaultSetting",
            "aiSensingTemplate": "DefaultTemplate",
            "NCKMKJMDPDH": ""
        },
        {
            "groupId": 144004014,
            "mapInstId": 14001,
            "aiGroupID": 144004014,
            "aiNeuronSetting": "DefaultSetting",
            "aiSensingTemplate": "DefaultTemplate",
            "NCKMKJMDPDH": ""
        },
        {
            "groupId": 144004014,
            "mapInstId": 14004,
            "routeId": 400400006,
            "aiGroupID": 144004014,
            "aiNeuronSetting": "DefaultSetting",
            "aiSensingTemplate": "DefaultTemplate",
            "NCKMKJMDPDH": ""
        },
        {
            "groupId": 144004014,
            "mapInstId": 14005,
            "routeId": 400400007,
            "aiGroupID": 144004014,
            "aiNeuronSetting": "DefaultSetting",
            "aiSensingTemplate": "DefaultTemplate",
            "disableWander": true,
            "NCKMKJMDPDH": ""
        },
        {
            "groupId": 144004015,
            "mapInstId": 15005,
            "aiGroupID": 144004015,
            "aiNeuronSetting": "DefaultSetting",
            "aiSensingTemplate": "DefaultTemplate",
            "disableWander": true,
            "NCKMKJMDPDH": ""
        },
        {
            "groupId": 144004015,
            "mapInstId": 15007,
            "aiGroupID": 144004015,
            "aiNeuronSetting": "DefaultSetting",
            "aiSensingTemplate": "DefaultTemplate",
            "disableWander": true,
            "NCKMKJMDPDH": ""
        },
        {
            "groupId": 144004015,
            "mapInstId": 15008,
            "aiGroupID": 144004015,
            "aiNeuronSetting": "DefaultSetting",
            "aiSensingTemplate": "DefaultTemplate",
            "disableWander": true,
            "NCKMKJMDPDH": ""
        },
        {
            "groupId": 144004015,
            "mapInstId": 15009,
            "aiGroupID": 144004015,
            "aiNeuronSetting": "DefaultSetting",
            "aiSensingTemplate": "DefaultTemplate",
            "disableWander": true,
            "NCKMKJMDPDH": ""
        },
        {
            "groupId": 144004017,
            "mapInstId": 17001,
            "aiNeuronSetting": "DefaultSetting",
            "aiSensingTemplate": "DefaultTemplate",
            "disableWander": true,
            "NCKMKJMDPDH": ""
        },
        {
            "groupId": 144004017,
            "mapInstId": 17004,
            "aiNeuronSetting": "DefaultSetting",
            "aiSensingTemplate": "HighFeelTemplate",
            "NCKMKJMDPDH": ""
        },
        {
            "groupId": 144004025,
            "mapInstId": 25001,
            "aiGroupID": 139998265,
            "aiNeuronSetting": "DefaultSetting",
            "aiSensingTemplate": "DefaultTemplate",
            "forceCombatOnSpawn": true,
            "disableWander": true,
            "NCKMKJMDPDH": ""
        },
        {
            "groupId": 144004025,
            "mapInstId": 25002,
            "aiGroupID": 139998265,
            "aiNeuronSetting": "DefaultSetting",
            "aiSensingTemplate": "DefaultTemplate",
            "forceCombatOnSpawn": true,
            "disableWander": true,
            "NCKMKJMDPDH": ""
        },
        {
            "groupId": 144004025,
            "mapInstId": 25003,
            "aiGroupID": 139998265,
            "aiNeuronSetting": "DefaultSetting",
            "aiSensingTemplate": "DefaultTemplate",
            "forceCombatOnSpawn": true,
            "disableWander": true,
            "NCKMKJMDPDH": ""
        },
        {
            "groupId": 144004025,
            "mapInstId": 25004,
            "aiGroupID": 139998265,
            "aiNeuronSetting": "DefaultSetting",
            "aiSensingTemplate": "DefaultTemplate",
            "forceCombatOnSpawn": true,
            "disableWander": true,
            "NCKMKJMDPDH": ""
        },
        {
            "groupId": 144004025,
            "mapInstId": 25005,
            "aiGroupID": 139998265,
            "aiNeuronSetting": "DefaultSetting",
            "aiSensingTemplate": "DefaultTemplate",
            "forceCombatOnSpawn": true,
            "disableWander": true,
            "NCKMKJMDPDH": ""
        },
        {
            "groupId": 144004030,
            "mapInstId": 30002,
            "aiNeuronSetting": "DefaultSetting",
            "aiSensingTemplate": "DefaultTemplate",
            "disableWander": true,
            "NCKMKJMDPDH": ""
        },
        {
            "groupId": 144004030,
            "mapInstId": 30004,
            "aiNeuronSetting": "DefaultSetting",
            "aiSensingTemplate": "DefaultTemplate",
            "disableWander": true,
            "NCKMKJMDPDH": ""
        },
        {
            "groupId": 144004030,
            "mapInstId": 30005,
            "aiNeuronSetting": "DefaultSetting",
            "aiSensingTemplate": "DefaultTemplate",
            "disableWander": true,
            "NCKMKJMDPDH": ""
        },
        {
            "groupId": 144004040,
            "mapInstId": 40001,
            "aiGroupID": 139998265,
            "aiNeuronSetting": "DefaultSetting",
            "aiSensingTemplate": "DefaultTemplate",
            "forceCombatOnSpawn": true,
            "disableWander": true,
            "NCKMKJMDPDH": ""
        },
        {
            "groupId": 144004040,
            "mapInstId": 40002,
            "aiGroupID": 139998265,
            "aiNeuronSetting": "DefaultSetting",
            "aiSensingTemplate": "DefaultTemplate",
            "forceCombatOnSpawn": true,
            "disableWander": true,
            "NCKMKJMDPDH": ""
        },
        {
            "groupId": 144004040,
            "mapInstId": 40003,
            "aiGroupID": 139998265,
            "aiNeuronSetting": "DefaultSetting",
            "aiSensingTemplate": "DefaultTemplate",
            "forceCombatOnSpawn": true,
            "disableWander": true,
            "NCKMKJMDPDH": ""
        },
        {
            "groupId": 144004040,
            "mapInstId": 40004,
            "aiGroupID": 139998265,
            "aiNeuronSetting": "DefaultSetting",
            "aiSensingTemplate": "DefaultTemplate",
            "forceCombatOnSpawn": true,
            "disableWander": true,
            "NCKMKJMDPDH": ""
        },
        {
            "groupId": 144004040,
            "mapInstId": 40005,
            "aiGroupID": 139998265,
            "aiNeuronSetting": "DefaultSetting",
            "aiSensingTemplate": "DefaultTemplate",
            "forceCombatOnSpawn": true,
            "disableWander": true,
            "NCKMKJMDPDH": ""
        },
        {
            "groupId": 144004045,
            "mapInstId": 45001,
            "aiNeuronSetting": "DefaultSetting",
            "aiSensingTemplate": "DefaultTemplate",
            "forceCombatOnSpawn": true,
            "NCKMKJMDPDH": ""
        },
        {
            "groupId": 144004046,
            "mapInstId": 46001,
            "aiGroupID": 144004046,
            "aiNeuronSetting": "DefaultSetting",
            "aiSensingTemplate": "DefaultTemplate",
            "disableWander": true,
            "NCKMKJMDPDH": ""
        },
        {
            "groupId": 144004046,
            "mapInstId": 46004,
            "routeId": 400400008,
            "aiGroupID": 144004046,
            "aiNeuronSetting": "DefaultSetting",
            "aiSensingTemplate": "DefaultTemplate",
            "NCKMKJMDPDH": ""
        },
        {
            "groupId": 144004046,
            "mapInstId": 46005,
            "routeId": 400400009,
            "aiGroupID": 144004046,
            "aiNeuronSetting": "DefaultSetting",
            "aiSensingTemplate": "DefaultTemplate",
            "NCKMKJMDPDH": ""
        },
        {
            "groupId": 144004047,
            "mapInstId": 47001,
            "aiGroupID": 144004047,
            "aiNeuronSetting": "DefaultSetting",
            "aiSensingTemplate": "DefaultTemplate",
            "forceCombatOnSpawn": true,
            "disableWander": true,
            "NCKMKJMDPDH": ""
        },
        {
            "groupId": 144004047,
            "mapInstId": 47002,
            "aiGroupID": 144004047,
            "aiNeuronSetting": "DefaultSetting",
            "aiSensingTemplate": "DefaultTemplate",
            "forceCombatOnSpawn": true,
            "disableWander": true,
            "NCKMKJMDPDH": ""
        },
        {
            "groupId": 144004047,
            "mapInstId": 47004,
            "aiGroupID": 144004047,
            "aiNeuronSetting": "DefaultSetting",
            "aiSensingTemplate": "DefaultTemplate",
            "forceCombatOnSpawn": true,
            "disableWander": true,
            "NCKMKJMDPDH": ""
        },
        {
            "groupId": 144004048,
            "mapInstId": 48001,
            "routeId": 400400011,
            "aiNeuronSetting": "DefaultSetting",
            "aiSensingTemplate": "DefaultTemplate",
            "NCKMKJMDPDH": ""
        },
        {
            "groupId": 144004048,
            "mapInstId": 48002,
            "routeId": 400400010,
            "aiNeuronSetting": "DefaultSetting",
            "aiSensingTemplate": "DefaultTemplate",
            "NCKMKJMDPDH": ""
        },
        {
            "groupId": 144004060,
            "mapInstId": 60001,
            "aiNeuronSetting": "DefaultSetting",
            "aiSensingTemplate": "DefaultTemplate",
            "disableWander": true,
            "NCKMKJMDPDH": ""
        },
        {
            "groupId": 144004060,
            "mapInstId": 60005,
            "aiNeuronSetting": "DefaultSetting",
            "aiSensingTemplate": "DefaultTemplate",
            "disableWander": true,
            "NCKMKJMDPDH": ""
        },
        {
            "groupId": 144004063,
            "mapInstId": 63001,
            "aiNeuronSetting": "DefaultSetting",
            "aiSensingTemplate": "DefaultTemplate",
            "forceCombatOnSpawn": true,
            "NCKMKJMDPDH": ""
        },
        {
            "groupId": 144004063,
            "mapInstId": 63003,
            "aiNeuronSetting": "DefaultSetting",
            "aiSensingTemplate": "DefaultTemplate",
            "forceCombatOnSpawn": true,
            "NCKMKJMDPDH": ""
        },
        {
            "groupId": 144001074,
            "mapInstId": 74001,
            "aiGroupID": 144001074,
            "aiNeuronSetting": "DefaultSetting",
            "aiSensingTemplate": "HighFeelTemplate",
            "disableWander": true,
            "NCKMKJMDPDH": ""
        },
        {
            "groupId": 144001074,
            "mapInstId": 74002,
            "aiGroupID": 144001074,
            "aiNeuronSetting": "DefaultSetting",
            "aiSensingTemplate": "HighAlertTemplate",
            "forceCombatOnSpawn": true,
            "disableWander": true,
            "NCKMKJMDPDH": ""
        },
        {
            "groupId": 144001074,
            "mapInstId": 74003,
            "aiGroupID": 144001074,
            "aiNeuronSetting": "DefaultSetting",
            "aiSensingTemplate": "HighFeelTemplate",
            "disableWander": true,
            "NCKMKJMDPDH": ""
        },
        {
            "groupId": 144001074,
            "mapInstId": 74004,
            "aiGroupID": 144001074,
            "aiNeuronSetting": "DefaultSetting",
            "aiSensingTemplate": "HighFeelTemplate",
            "forceCombatOnSpawn": true,
            "disableWander": true,
            "NCKMKJMDPDH": ""
        },
        {
            "groupId": 144001074,
            "mapInstId": 74005,
            "aiGroupID": 144001074,
            "aiNeuronSetting": "DefaultSetting",
            "aiSensingTemplate": "HighAlertTemplate",
            "forceCombatOnSpawn": true,
            "disableWander": true,
            "NCKMKJMDPDH": ""
        },
        {
            "groupId": 144001074,
            "mapInstId": 74006,
            "aiGroupID": 144001074,
            "aiNeuronSetting": "DefaultSetting",
            "aiSensingTemplate": "HighAlertTemplate",
            "forceCombatOnSpawn": true,
            "disableWander": true,
            "NCKMKJMDPDH": ""
        },
        {
            "groupId": 144001074,
            "mapInstId": 74007,
            "aiGroupID": 144001074,
            "aiNeuronSetting": "DefaultSetting",
            "aiSensingTemplate": "HighAlertTemplate",
            "forceCombatOnSpawn": true,
            "disableWander": true,
            "NCKMKJMDPDH": ""
        },
        {
            "groupId": 144001074,
            "mapInstId": 74008,
            "aiGroupID": 144001074,
            "aiNeuronSetting": "DefaultSetting",
            "aiSensingTemplate": "HighFeelTemplate",
            "forceCombatOnSpawn": true,
            "disableWander": true,
            "NCKMKJMDPDH": ""
        },
        {
            "groupId": 144001074,
            "mapInstId": 74025,
            "aiGroupID": 144001074,
            "aiNeuronSetting": "DefaultSetting",
            "aiSensingTemplate": "HighFeelTemplate",
            "disableWander": true,
            "NCKMKJMDPDH": ""
        },
        {
            "groupId": 144001074,
            "mapInstId": 74037,
            "aiGroupID": 144001074,
            "aiNeuronSetting": "DefaultSetting",
            "aiSensingTemplate": "HighFeelTemplate",
            "forceCombatOnSpawn": true,
            "disableWander": true,
            "NCKMKJMDPDH": ""
        },
        {
            "groupId": 144001074,
            "mapInstId": 74038,
            "aiGroupID": 144001074,
            "aiNeuronSetting": "DefaultSetting",
            "aiSensingTemplate": "HighAlertTemplate",
            "disableWander": true,
            "NCKMKJMDPDH": ""
        },
        {
            "groupId": 144001074,
            "mapInstId": 74039,
            "aiGroupID": 144001074,
            "aiNeuronSetting": "DefaultSetting",
            "aiSensingTemplate": "HighFeelTemplate",
            "disableWander": true,
            "NCKMKJMDPDH": ""
        },
        {
            "groupId": 144001074,
            "mapInstId": 74044,
            "aiGroupID": 144001074,
            "aiNeuronSetting": "DefaultSetting",
            "aiSensingTemplate": "HighFeelTemplate",
            "forceCombatOnSpawn": true,
            "disableWander": true,
            "NCKMKJMDPDH": ""
        },
        {
            "groupId": 144001077,
            "mapInstId": 77001,
            "aiGroupID": 144001077,
            "aiNeuronSetting": "DefaultSetting",
            "aiSensingTemplate": "DefaultTemplate",
            "disableWander": true,
            "NCKMKJMDPDH": ""
        },
        {
            "groupId": 144004077,
            "mapInstId": 77001,
            "aiGroupID": 144004077,
            "aiNeuronSetting": "DefaultSetting",
            "aiSensingTemplate": "HighFeelTemplate",
            "disableWander": true,
            "NCKMKJMDPDH": ""
        },
        {
            "groupId": 144004077,
            "mapInstId": 77002,
            "aiGroupID": 144004077,
            "aiNeuronSetting": "DefaultSetting",
            "aiSensingTemplate": "HighFeelTemplate",
            "disableWander": true,
            "NCKMKJMDPDH": ""
        },
        {
            "groupId": 144004077,
            "mapInstId": 77003,
            "aiGroupID": 144004077,
            "aiNeuronSetting": "DefaultSetting",
            "aiSensingTemplate": "HighFeelTemplate",
            "disableWander": true,
            "NCKMKJMDPDH": ""
        },
        {
            "groupId": 144001077,
            "mapInstId": 77004,
            "aiGroupID": 144001077,
            "aiNeuronSetting": "DefaultSetting",
            "aiSensingTemplate": "DefaultTemplate",
            "NCKMKJMDPDH": ""
        },
        {
            "groupId": 144004077,
            "mapInstId": 77004,
            "aiGroupID": 144004077,
            "aiNeuronSetting": "DefaultSetting",
            "aiSensingTemplate": "HighFeelTemplate",
            "disableWander": true,
            "NCKMKJMDPDH": ""
        },
        {
            "groupId": 144001077,
            "mapInstId": 77005,
            "aiGroupID": 144001077,
            "aiNeuronSetting": "DefaultSetting",
            "aiSensingTemplate": "DefaultTemplate",
            "NCKMKJMDPDH": ""
        },
        {
            "groupId": 144004077,
            "mapInstId": 77005,
            "aiGroupID": 144004077,
            "aiNeuronSetting": "DefaultSetting",
            "aiSensingTemplate": "HighFeelTemplate",
            "disableWander": true,
            "NCKMKJMDPDH": ""
        },
        {
            "groupId": 144004077,
            "mapInstId": 77006,
            "aiGroupID": 144004077,
            "aiNeuronSetting": "DefaultSetting",
            "aiSensingTemplate": "HighFeelTemplate",
            "disableWander": true,
            "NCKMKJMDPDH": ""
        },
        {
            "groupId": 144004077,
            "mapInstId": 77007,
            "aiGroupID": 144004077,
            "aiNeuronSetting": "DefaultSetting",
            "aiSensingTemplate": "HighFeelTemplate",
            "disableWander": true,
            "NCKMKJMDPDH": ""
        },
        {
            "groupId": 144004077,
            "mapInstId": 77008,
            "aiGroupID": 144004077,
            "aiNeuronSetting": "DefaultSetting",
            "aiSensingTemplate": "HighAlertTemplate",
            "forceCombatOnSpawn": true,
            "disableWander": true,
            "NCKMKJMDPDH": ""
        },
        {
            "groupId": 144004077,
            "mapInstId": 77014,
            "aiGroupID": 144004077,
            "aiNeuronSetting": "DefaultSetting",
            "aiSensingTemplate": "HighAlertTemplate",
            "forceCombatOnSpawn": true,
            "disableWander": true,
            "NCKMKJMDPDH": ""
        },
        {
            "groupId": 144001077,
            "mapInstId": 77020,
            "routeId": 400100118,
            "aiGroupID": 144001077,
            "aiNeuronSetting": "DefaultSetting",
            "aiSensingTemplate": "DefaultTemplate",
            "NCKMKJMDPDH": ""
        },
        {
            "groupId": 144004077,
            "mapInstId": 77020,
            "aiGroupID": 144004077,
            "aiNeuronSetting": "DefaultSetting",
            "aiSensingTemplate": "HighFeelTemplate",
            "forceCombatOnSpawn": true,
            "disableWander": true,
            "NCKMKJMDPDH": ""
        },
        {
            "groupId": 144001077,
            "mapInstId": 77021,
            "routeId": 400100119,
            "aiGroupID": 144001077,
            "aiNeuronSetting": "DefaultSetting",
            "aiSensingTemplate": "DefaultTemplate",
            "NCKMKJMDPDH": ""
        },
        {
            "groupId": 144004077,
            "mapInstId": 77030,
            "aiGroupID": 144004077,
            "aiNeuronSetting": "DefaultSetting",
            "aiSensingTemplate": "HighAlertTemplate",
            "forceCombatOnSpawn": true,
            "disableWander": true,
            "NCKMKJMDPDH": ""
        },
        {
            "groupId": 144004077,
            "mapInstId": 77031,
            "aiGroupID": 144004077,
            "aiNeuronSetting": "DefaultSetting",
            "aiSensingTemplate": "HighFeelTemplate",
            "forceCombatOnSpawn": true,
            "disableWander": true,
            "NCKMKJMDPDH": ""
        },
        {
            "groupId": 144004077,
            "mapInstId": 77045,
            "aiGroupID": 144004077,
            "aiNeuronSetting": "DefaultSetting",
            "aiSensingTemplate": "HighAlertTemplate",
            "forceCombatOnSpawn": true,
            "disableWander": true,
            "NCKMKJMDPDH": ""
        },
        {
            "groupId": 144004078,
            "mapInstId": 78001,
            "aiGroupID": 144004078,
            "aiNeuronSetting": "DefaultSetting",
            "aiSensingTemplate": "HighFeelTemplate",
            "disableWander": true,
            "NCKMKJMDPDH": ""
        },
        {
            "groupId": 144004078,
            "mapInstId": 78002,
            "aiGroupID": 144004078,
            "aiNeuronSetting": "DefaultSetting",
            "aiSensingTemplate": "HighAlertTemplate",
            "forceCombatOnSpawn": true,
            "disableWander": true,
            "NCKMKJMDPDH": ""
        },
        {
            "groupId": 144004078,
            "mapInstId": 78003,
            "aiGroupID": 144004078,
            "aiNeuronSetting": "DefaultSetting",
            "aiSensingTemplate": "HighFeelTemplate",
            "disableWander": true,
            "NCKMKJMDPDH": ""
        },
        {
            "groupId": 144004078,
            "mapInstId": 78004,
            "aiGroupID": 144004078,
            "aiNeuronSetting": "DefaultSetting",
            "aiSensingTemplate": "HighFeelTemplate",
            "disableWander": true,
            "NCKMKJMDPDH": ""
        },
        {
            "groupId": 144004078,
            "mapInstId": 78005,
            "aiGroupID": 144004078,
            "aiNeuronSetting": "DefaultSetting",
            "aiSensingTemplate": "HighFeelTemplate",
            "forceCombatOnSpawn": true,
            "disableWander": true,
            "NCKMKJMDPDH": ""
        },
        {
            "groupId": 144004078,
            "mapInstId": 78006,
            "aiGroupID": 144004078,
            "aiNeuronSetting": "DefaultSetting",
            "aiSensingTemplate": "HighFeelTemplate",
            "forceCombatOnSpawn": true,
            "disableWander": true,
            "NCKMKJMDPDH": ""
        },
        {
            "groupId": 144004078,
            "mapInstId": 78007,
            "aiGroupID": 144004078,
            "aiNeuronSetting": "DefaultSetting",
            "aiSensingTemplate": "HighFeelTemplate",
            "disableWander": true,
            "NCKMKJMDPDH": ""
        },
        {
            "groupId": 144004078,
            "mapInstId": 78008,
            "aiGroupID": 144004078,
            "aiNeuronSetting": "DefaultSetting",
            "aiSensingTemplate": "HighFeelTemplate",
            "disableWander": true,
            "NCKMKJMDPDH": ""
        },
        {
            "groupId": 144004078,
            "mapInstId": 78009,
            "aiGroupID": 144004078,
            "aiNeuronSetting": "DefaultSetting",
            "aiSensingTemplate": "HighAlertTemplate",
            "forceCombatOnSpawn": true,
            "disableWander": true,
            "NCKMKJMDPDH": ""
        },
        {
            "groupId": 144004078,
            "mapInstId": 78010,
            "aiGroupID": 144004078,
            "aiNeuronSetting": "DefaultSetting",
            "aiSensingTemplate": "HighFeelTemplate",
            "forceCombatOnSpawn": true,
            "disableWander": true,
            "NCKMKJMDPDH": ""
        },
        {
            "groupId": 144004078,
            "mapInstId": 78011,
            "aiGroupID": 144004078,
            "aiNeuronSetting": "DefaultSetting",
            "aiSensingTemplate": "HighFeelTemplate",
            "forceCombatOnSpawn": true,
            "disableWander": true,
            "NCKMKJMDPDH": ""
        },
        {
            "groupId": 144004078,
            "mapInstId": 78035,
            "aiGroupID": 144004078,
            "aiNeuronSetting": "DefaultSetting",
            "aiSensingTemplate": "HighFeelTemplate",
            "disableWander": true,
            "NCKMKJMDPDH": ""
        },
        {
            "groupId": 144004078,
            "mapInstId": 78051,
            "aiGroupID": 144004078,
            "aiNeuronSetting": "DefaultSetting",
            "aiSensingTemplate": "HighFeelTemplate",
            "disableWander": true,
            "NCKMKJMDPDH": ""
        },
        {
            "groupId": 144004089,
            "mapInstId": 89001,
            "aiNeuronSetting": "DefaultSetting",
            "aiSensingTemplate": "DefaultTemplate",
            "disableWander": true,
            "NCKMKJMDPDH": ""
        },
        {
            "groupId": 144004089,
            "mapInstId": 89004,
            "aiNeuronSetting": "DefaultSetting",
            "aiSensingTemplate": "DefaultTemplate",
            "disableWander": true,
            "NCKMKJMDPDH": ""
        },
        {
            "groupId": 144004089,
            "mapInstId": 89006,
            "aiNeuronSetting": "DefaultSetting",
            "aiSensingTemplate": "DefaultTemplate",
            "disableWander": true,
            "NCKMKJMDPDH": ""
        },
        {
            "groupId": 144004092,
            "mapInstId": 92001,
            "aiGroupID": 144004092,
            "aiNeuronSetting": "DefaultSetting",
            "aiSensingTemplate": "DefaultTemplate",
            "disableWander": true,
            "NCKMKJMDPDH": ""
        },
        {
            "groupId": 144004092,
            "mapInstId": 92004,
            "aiGroupID": 144004092,
            "aiNeuronSetting": "DefaultSetting",
            "aiSensingTemplate": "DefaultTemplate",
            "disableWander": true,
            "NCKMKJMDPDH": ""
        },
        {
            "groupId": 144004092,
            "mapInstId": 92005,
            "aiGroupID": 144004092,
            "aiNeuronSetting": "DefaultSetting",
            "aiSensingTemplate": "DefaultTemplate",
            "disableWander": true,
            "NCKMKJMDPDH": ""
        },
        {
            "groupId": 144004092,
            "mapInstId": 92006,
            "aiGroupID": 144004092,
            "aiNeuronSetting": "DefaultSetting",
            "aiSensingTemplate": "DefaultTemplate",
            "disableWander": true,
            "NCKMKJMDPDH": ""
        },
        {
            "groupId": 144004092,
            "mapInstId": 92007,
            "aiGroupID": 144004092,
            "aiNeuronSetting": "DefaultSetting",
            "aiSensingTemplate": "DefaultTemplate",
            "disableWander": true,
            "NCKMKJMDPDH": ""
        },
        {
            "groupId": 144004092,
            "mapInstId": 92017,
            "aiGroupID": 144004092,
            "aiNeuronSetting": "DefaultSetting",
            "aiSensingTemplate": "DefaultTemplate",
            "NCKMKJMDPDH": ""
        },
        {
            "groupId": 144004093,
            "mapInstId": 93001,
            "routeId": 400400035,
            "aiGroupID": 144004093,
            "aiNeuronSetting": "DefaultSetting",
            "aiSensingTemplate": "DefaultTemplate",
            "NCKMKJMDPDH": ""
        },
        {
            "groupId": 144004093,
            "mapInstId": 93004,
            "routeId": 400400036,
            "aiGroupID": 144004093,
            "aiNeuronSetting": "DefaultSetting",
            "aiSensingTemplate": "DefaultTemplate",
            "NCKMKJMDPDH": ""
        },
        {
            "groupId": 144004093,
            "mapInstId": 93005,
            "aiGroupID": 144004093,
            "aiNeuronSetting": "DefaultSetting",
            "aiSensingTemplate": "DefaultTemplate",
            "NCKMKJMDPDH": ""
        },
        {
            "groupId": 144004093,
            "mapInstId": 93006,
            "routeId": 400400045,
            "aiGroupID": 144004093,
            "aiNeuronSetting": "DefaultSetting",
            "aiSensingTemplate": "DefaultTemplate",
            "NCKMKJMDPDH": ""
        },
        {
            "groupId": 144004093,
            "mapInstId": 93007,
            "routeId": 400400046,
            "aiGroupID": 144004093,
            "aiNeuronSetting": "DefaultSetting",
            "aiSensingTemplate": "DefaultTemplate",
            "NCKMKJMDPDH": ""
        },
        {
            "groupId": 144004094,
            "mapInstId": 94001,
            "aiNeuronSetting": "DefaultSetting",
            "aiSensingTemplate": "DefaultTemplate",
            "forceCombatOnSpawn": true,
            "NCKMKJMDPDH": ""
        },
        {
            "groupId": 144004096,
            "mapInstId": 96006,
            "aiNeuronSetting": "DefaultSetting",
            "aiSensingTemplate": "DefaultTemplate",
            "disableWander": true,
            "NCKMKJMDPDH": ""
        },
        {
            "groupId": 144004096,
            "mapInstId": 96008,
            "aiNeuronSetting": "DefaultSetting",
            "aiSensingTemplate": "DefaultTemplate",
            "landingPointID": 800800001,
            "NCKMKJMDPDH": ""
        },
        {
            "groupId": 144004096,
            "mapInstId": 96012,
            "aiNeuronSetting": "DefaultSetting",
            "aiSensingTemplate": "DefaultTemplate",
            "disableWander": true,
            "NCKMKJMDPDH": ""
        },
        {
            "groupId": 144004096,
            "mapInstId": 96013,
            "aiNeuronSetting": "DefaultSetting",
            "aiSensingTemplate": "DefaultTemplate",
            "disableWander": true,
            "NCKMKJMDPDH": ""
        },
        {
            "groupId": 144004096,
            "mapInstId": 96014,
            "aiNeuronSetting": "DefaultSetting",
            "aiSensingTemplate": "DefaultTemplate",
            "disableWander": true,
            "NCKMKJMDPDH": ""
        },
        {
            "groupId": 144001103,
            "mapInstId": 103001,
            "aiGroupID": 144001103,
            "aiNeuronSetting": "DefaultSetting",
            "aiSensingTemplate": "HighFeelTemplate",
            "disableWander": true,
            "NCKMKJMDPDH": ""
        },
        {
            "groupId": 144001103,
            "mapInstId": 103002,
            "aiGroupID": 144001103,
            "aiNeuronSetting": "DefaultSetting",
            "aiSensingTemplate": "HighFeelTemplate",
            "disableWander": true,
            "NCKMKJMDPDH": ""
        },
        {
            "groupId": 144001103,
            "mapInstId": 103003,
            "aiGroupID": 144001103,
            "aiNeuronSetting": "DefaultSetting",
            "aiSensingTemplate": "HighAlertTemplate",
            "forceCombatOnSpawn": true,
            "disableWander": true,
            "NCKMKJMDPDH": ""
        },
        {
            "groupId": 144001103,
            "mapInstId": 103004,
            "aiGroupID": 144001103,
            "aiNeuronSetting": "DefaultSetting",
            "aiSensingTemplate": "HighFeelTemplate",
            "disableWander": true,
            "NCKMKJMDPDH": ""
        },
        {
            "groupId": 144001103,
            "mapInstId": 103005,
            "aiGroupID": 144001103,
            "aiNeuronSetting": "DefaultSetting",
            "aiSensingTemplate": "HighFeelTemplate",
            "disableWander": true,
            "NCKMKJMDPDH": ""
        },
        {
            "groupId": 144001103,
            "mapInstId": 103006,
            "aiGroupID": 144001103,
            "aiNeuronSetting": "DefaultSetting",
            "aiSensingTemplate": "HighAlertTemplate",
            "forceCombatOnSpawn": true,
            "disableWander": true,
            "NCKMKJMDPDH": ""
        },
        {
            "groupId": 144001103,
            "mapInstId": 103007,
            "aiGroupID": 144001103,
            "aiNeuronSetting": "DefaultSetting",
            "aiSensingTemplate": "HighAlertTemplate",
            "disableWander": true,
            "NCKMKJMDPDH": ""
        },
        {
            "groupId": 144001103,
            "mapInstId": 103008,
            "aiGroupID": 144001103,
            "aiNeuronSetting": "DefaultSetting",
            "aiSensingTemplate": "HighAlertTemplate",
            "forceCombatOnSpawn": true,
            "disableWander": true,
            "NCKMKJMDPDH": ""
        },
        {
            "groupId": 144001103,
            "mapInstId": 103009,
            "aiGroupID": 144001103,
            "aiNeuronSetting": "DefaultSetting",
            "aiSensingTemplate": "HighFeelTemplate",
            "forceCombatOnSpawn": true,
            "disableWander": true,
            "NCKMKJMDPDH": ""
        },
        {
            "groupId": 144001103,
            "mapInstId": 103048,
            "aiGroupID": 144001103,
            "aiNeuronSetting": "DefaultSetting",
            "aiSensingTemplate": "HighFeelTemplate",
            "disableWander": true,
            "NCKMKJMDPDH": ""
        },
        {
            "groupId": 144001103,
            "mapInstId": 103049,
            "aiGroupID": 144001103,
            "aiNeuronSetting": "DefaultSetting",
            "aiSensingTemplate": "HighFeelTemplate",
            "disableWander": true,
            "NCKMKJMDPDH": ""
        },
        {
            "groupId": 144001103,
            "mapInstId": 103050,
            "aiGroupID": 144001103,
            "aiNeuronSetting": "DefaultSetting",
            "aiSensingTemplate": "HighFeelTemplate",
            "disableWander": true,
            "NCKMKJMDPDH": ""
        },
        {
            "groupId": 144001103,
            "mapInstId": 103051,
            "aiGroupID": 144001103,
            "aiNeuronSetting": "DefaultSetting",
            "aiSensingTemplate": "HighFeelTemplate",
            "forceCombatOnSpawn": true,
            "disableWander": true,
            "NCKMKJMDPDH": ""
        },
        {
            "groupId": 144004114,
            "mapInstId": 114002,
            "aiNeuronSetting": "DefaultSetting",
            "aiSensingTemplate": "HighFeelTemplate",
            "NCKMKJMDPDH": ""
        },
        {
            "groupId": 144004116,
            "mapInstId": 116003,
            "aiNeuronSetting": "DefaultSetting",
            "aiSensingTemplate": "HighFeelTemplate",
            "NCKMKJMDPDH": ""
        },
        {
            "groupId": 144004116,
            "mapInstId": 116004,
            "aiNeuronSetting": "DefaultSetting",
            "aiSensingTemplate": "HighFeelTemplate",
            "NCKMKJMDPDH": ""
        },
        {
            "groupId": 144004117,
            "mapInstId": 117004,
            "aiGroupID": 144004117,
            "aiNeuronSetting": "DefaultSetting",
            "aiSensingTemplate": "HighAlertTemplate",
            "NCKMKJMDPDH": ""
        },
        {
            "groupId": 144004117,
            "mapInstId": 117005,
            "aiGroupID": 144004117,
            "aiNeuronSetting": "DefaultSetting",
            "aiSensingTemplate": "HighAlertTemplate",
            "NCKMKJMDPDH": ""
        },
        {
            "groupId": 144004117,
            "mapInstId": 117006,
            "aiGroupID": 144004117,
            "aiNeuronSetting": "DefaultSetting",
            "aiSensingTemplate": "HighAlertTemplate",
            "NCKMKJMDPDH": ""
        },
        {
            "groupId": 144004117,
            "mapInstId": 117017,
            "aiGroupID": 144004117,
            "aiNeuronSetting": "DefaultSetting",
            "aiSensingTemplate": "HighFeelTemplate",
            "NCKMKJMDPDH": ""
        },
        {
            "groupId": 144004117,
            "mapInstId": 117018,
            "aiGroupID": 144004117,
            "aiNeuronSetting": "DefaultSetting",
            "aiSensingTemplate": "HighFeelTemplate",
            "NCKMKJMDPDH": ""
        },
        {
            "groupId": 144004118,
            "mapInstId": 118001,
            "aiGroupID": 144004118,
            "aiNeuronSetting": "DefaultSetting",
            "aiSensingTemplate": "HighFeelTemplate",
            "disableWander": true,
            "NCKMKJMDPDH": ""
        },
        {
            "groupId": 144004118,
            "mapInstId": 118004,
            "aiGroupID": 144004118,
            "aiNeuronSetting": "DefaultSetting",
            "aiSensingTemplate": "DefaultTemplate",
            "disableWander": true,
            "NCKMKJMDPDH": ""
        },
        {
            "groupId": 144004118,
            "mapInstId": 118005,
            "aiGroupID": 144004118,
            "aiNeuronSetting": "DefaultSetting",
            "aiSensingTemplate": "DefaultTemplate",
            "disableWander": true,
            "NCKMKJMDPDH": ""
        },
        {
            "groupId": 144004118,
            "mapInstId": 118018,
            "aiGroupID": 144004118,
            "aiNeuronSetting": "DefaultSetting",
            "aiSensingTemplate": "HighFeelTemplate",
            "disableWander": true,
            "NCKMKJMDPDH": ""
        },
        {
            "groupId": 144004119,
            "mapInstId": 119001,
            "aiGroupID": 144004119,
            "aiNeuronSetting": "DefaultSetting",
            "aiSensingTemplate": "DefaultTemplate",
            "disableWander": true,
            "NCKMKJMDPDH": ""
        },
        {
            "groupId": 144004119,
            "mapInstId": 119004,
            "aiGroupID": 144004119,
            "aiNeuronSetting": "DefaultSetting",
            "aiSensingTemplate": "DefaultTemplate",
            "NCKMKJMDPDH": ""
        },
        {
            "groupId": 144004119,
            "mapInstId": 119007,
            "aiGroupID": 144004119,
            "aiNeuronSetting": "DefaultSetting",
            "aiSensingTemplate": "DefaultTemplate",
            "NCKMKJMDPDH": ""
        },
        {
            "groupId": 144004119,
            "mapInstId": 119016,
            "aiGroupID": 144004119,
            "aiNeuronSetting": "DefaultSetting",
            "aiSensingTemplate": "HighFeelTemplate",
            "NCKMKJMDPDH": ""
        },
        {
            "groupId": 144004119,
            "mapInstId": 119017,
            "aiGroupID": 144004119,
            "aiNeuronSetting": "DefaultSetting",
            "aiSensingTemplate": "HighFeelTemplate",
            "NCKMKJMDPDH": ""
        },
        {
            "groupId": 144004132,
            "mapInstId": 132001,
            "aiNeuronSetting": "DefaultSetting",
            "aiSensingTemplate": "DefaultTemplate",
            "disableWander": true,
            "NCKMKJMDPDH": ""
        },
        {
            "groupId": 144001173,
            "mapInstId": 173001,
            "aiGroupID": 144001173,
            "aiNeuronSetting": "DefaultSetting",
            "aiSensingTemplate": "DefaultTemplate",
            "disableWander": true,
            "NCKMKJMDPDH": ""
        },
        {
            "groupId": 144001173,
            "mapInstId": 173004,
            "aiGroupID": 144001173,
            "aiNeuronSetting": "DefaultSetting",
            "aiSensingTemplate": "HighFeelTemplate",
            "NCKMKJMDPDH": ""
        },
        {
            "groupId": 144001173,
            "mapInstId": 173005,
            "aiGroupID": 144001173,
            "aiNeuronSetting": "DefaultSetting",
            "aiSensingTemplate": "DefaultTemplate",
            "NCKMKJMDPDH": ""
        },
        {
            "groupId": 144001173,
            "mapInstId": 173006,
            "aiGroupID": 144001173,
            "aiNeuronSetting": "DefaultSetting",
            "aiSensingTemplate": "DefaultTemplate",
            "NCKMKJMDPDH": ""
        },
        {
            "groupId": 144001174,
            "mapInstId": 174001,
            "aiGroupID": 144001174,
            "aiNeuronSetting": "DefaultSetting",
            "aiSensingTemplate": "DefaultTemplate",
            "disableWander": true,
            "NCKMKJMDPDH": ""
        },
        {
            "groupId": 144001174,
            "mapInstId": 174004,
            "aiGroupID": 144001174,
            "aiNeuronSetting": "DefaultSetting",
            "aiSensingTemplate": "DefaultTemplate",
            "NCKMKJMDPDH": ""
        },
        {
            "groupId": 144001174,
            "mapInstId": 174005,
            "aiGroupID": 144001174,
            "aiNeuronSetting": "DefaultSetting",
            "aiSensingTemplate": "DefaultTemplate",
            "NCKMKJMDPDH": ""
        },
        {
            "groupId": 144001174,
            "mapInstId": 174006,
            "aiGroupID": 144001174,
            "aiNeuronSetting": "DefaultSetting",
            "aiSensingTemplate": "DefaultTemplate",
            "NCKMKJMDPDH": ""
        },
        {
            "groupId": 144001174,
            "mapInstId": 174007,
            "routeId": 400100106,
            "aiGroupID": 144001174,
            "aiNeuronSetting": "DefaultSetting",
            "aiSensingTemplate": "DefaultTemplate",
            "NCKMKJMDPDH": ""
        },
        {
            "groupId": 144001174,
            "mapInstId": 174008,
            "aiGroupID": 144001174,
            "aiNeuronSetting": "DefaultSetting",
            "aiSensingTemplate": "DefaultTemplate",
            "NCKMKJMDPDH": ""
        },
        {
            "groupId": 144001174,
            "mapInstId": 174009,
            "aiGroupID": 144001174,
            "aiNeuronSetting": "DefaultSetting",
            "aiSensingTemplate": "DefaultTemplate",
            "NCKMKJMDPDH": ""
        },
        {
            "groupId": 144001174,
            "mapInstId": 174010,
            "aiGroupID": 144001174,
            "aiNeuronSetting": "DefaultSetting",
            "aiSensingTemplate": "DefaultTemplate",
            "NCKMKJMDPDH": ""
        },
        {
            "groupId": 144001174,
            "mapInstId": 174011,
            "aiGroupID": 144001174,
            "aiNeuronSetting": "DefaultSetting",
            "aiSensingTemplate": "DefaultTemplate",
            "NCKMKJMDPDH": ""
        },
        {
            "groupId": 144001196,
            "mapInstId": 196001,
            "aiNeuronSetting": "DefaultSetting",
            "aiSensingTemplate": "HighFeelTemplate",
            "disableWander": true,
            "NCKMKJMDPDH": ""
        },
        {
            "groupId": 144001197,
            "mapInstId": 197002,
            "aiNeuronSetting": "Search",
            "aiSensingTemplate": "HighFeelTemplate",
            "disableWander": true,
            "NCKMKJMDPDH": ""
        }
    ]
}