{
    "sceneId": 50032,
    "monsters": [
        {
            "groupId": 250032033,
            "mapInstId": 33001,
            "routeId": 8,
            "aiNeuronSetting": "NeverCombat",
            "aiSensingTemplate": "NeverCombatTemplate",
            "NCKMKJMDPDH": ""
        },
        {
            "groupId": 250032033,
            "mapInstId": 33002,
            "routeId": 8,
            "aiNeuronSetting": "NeverCombat",
            "aiSensingTemplate": "NeverCombatTemplate",
            "NCKMKJMDPDH": ""
        },
        {
            "groupId": 250032033,
            "mapInstId": 33003,
            "routeId": 8,
            "aiNeuronSetting": "NeverCombat",
            "aiSensingTemplate": "NeverCombatTemplate",
            "NCKMKJMDPDH": ""
        },
        {
            "groupId": 250032033,
            "mapInstId": 33004,
            "routeId": 8,
            "aiNeuronSetting": "NeverCombat",
            "aiSensingTemplate": "NeverCombatTemplate",
            "NCKMKJMDPDH": ""
        },
        {
            "groupId": 250032033,
            "mapInstId": 33005,
            "routeId": 8,
            "aiNeuronSetting": "NeverCombat",
            "aiSensingTemplate": "NeverCombatTemplate",
            "NCKMKJMDPDH": ""
        },
        {
            "groupId": 250032033,
            "mapInstId": 33006,
            "routeId": 6,
            "aiNeuronSetting": "NeverCombat",
            "aiSensingTemplate": "NeverCombatTemplate",
            "NCKMKJMDPDH": ""
        },
        {
            "groupId": 250032033,
            "mapInstId": 33007,
            "routeId": 6,
            "aiNeuronSetting": "NeverCombat",
            "aiSensingTemplate": "NeverCombatTemplate",
            "NCKMKJMDPDH": ""
        },
        {
            "groupId": 250032033,
            "mapInstId": 33008,
            "routeId": 6,
            "aiNeuronSetting": "NeverCombat",
            "aiSensingTemplate": "NeverCombatTemplate",
            "NCKMKJMDPDH": ""
        },
        {
            "groupId": 250032033,
            "mapInstId": 33009,
            "routeId": 6,
            "aiNeuronSetting": "NeverCombat",
            "aiSensingTemplate": "NeverCombatTemplate",
            "NCKMKJMDPDH": ""
        },
        {
            "groupId": 250032033,
            "mapInstId": 33010,
            "routeId": 6,
            "aiNeuronSetting": "NeverCombat",
            "aiSensingTemplate": "NeverCombatTemplate",
            "NCKMKJMDPDH": ""
        },
        {
            "groupId": 250032033,
            "mapInstId": 33011,
            "routeId": 8,
            "aiNeuronSetting": "NeverCombat",
            "aiSensingTemplate": "NeverCombatTemplate",
            "NCKMKJMDPDH": ""
        },
        {
            "groupId": 250032033,
            "mapInstId": 33012,
            "routeId": 8,
            "aiNeuronSetting": "NeverCombat",
            "aiSensingTemplate": "NeverCombatTemplate",
            "NCKMKJMDPDH": ""
        },
        {
            "groupId": 250032033,
            "mapInstId": 33013,
            "routeId": 8,
            "aiNeuronSetting": "NeverCombat",
            "aiSensingTemplate": "NeverCombatTemplate",
            "NCKMKJMDPDH": ""
        },
        {
            "groupId": 250032033,
            "mapInstId": 33014,
            "routeId": 8,
            "aiNeuronSetting": "NeverCombat",
            "aiSensingTemplate": "NeverCombatTemplate",
            "NCKMKJMDPDH": ""
        },
        {
            "groupId": 250032033,
            "mapInstId": 33015,
            "routeId": 8,
            "aiNeuronSetting": "NeverCombat",
            "aiSensingTemplate": "NeverCombatTemplate",
            "NCKMKJMDPDH": ""
        },
        {
            "groupId": 250032033,
            "mapInstId": 33016,
            "routeId": 6,
            "aiNeuronSetting": "NeverCombat",
            "aiSensingTemplate": "NeverCombatTemplate",
            "NCKMKJMDPDH": ""
        },
        {
            "groupId": 250032033,
            "mapInstId": 33017,
            "routeId": 6,
            "aiNeuronSetting": "NeverCombat",
            "aiSensingTemplate": "NeverCombatTemplate",
            "NCKMKJMDPDH": ""
        },
        {
            "groupId": 250032033,
            "mapInstId": 33018,
            "routeId": 6,
            "aiNeuronSetting": "NeverCombat",
            "aiSensingTemplate": "NeverCombatTemplate",
            "NCKMKJMDPDH": ""
        },
        {
            "groupId": 250032033,
            "mapInstId": 33019,
            "routeId": 6,
            "aiNeuronSetting": "NeverCombat",
            "aiSensingTemplate": "NeverCombatTemplate",
            "NCKMKJMDPDH": ""
        },
        {
            "groupId": 250032033,
            "mapInstId": 33020,
            "routeId": 6,
            "aiNeuronSetting": "NeverCombat",
            "aiSensingTemplate": "NeverCombatTemplate",
            "NCKMKJMDPDH": ""
        },
        {
            "groupId": 250032034,
            "mapInstId": 34001,
            "routeId": 8,
            "aiNeuronSetting": "NeverCombat",
            "aiSensingTemplate": "NeverCombatTemplate",
            "NCKMKJMDPDH": ""
        },
        {
            "groupId": 250032034,
            "mapInstId": 34002,
            "routeId": 8,
            "aiNeuronSetting": "NeverCombat",
            "aiSensingTemplate": "NeverCombatTemplate",
            "NCKMKJMDPDH": ""
        },
        {
            "groupId": 250032034,
            "mapInstId": 34003,
            "routeId": 8,
            "aiNeuronSetting": "NeverCombat",
            "aiSensingTemplate": "NeverCombatTemplate",
            "NCKMKJMDPDH": ""
        },
        {
            "groupId": 250032034,
            "mapInstId": 34004,
            "routeId": 8,
            "aiNeuronSetting": "NeverCombat",
            "aiSensingTemplate": "NeverCombatTemplate",
            "NCKMKJMDPDH": ""
        },
        {
            "groupId": 250032034,
            "mapInstId": 34005,
            "routeId": 8,
            "aiNeuronSetting": "NeverCombat",
            "aiSensingTemplate": "NeverCombatTemplate",
            "NCKMKJMDPDH": ""
        },
        {
            "groupId": 250032034,
            "mapInstId": 34006,
            "routeId": 6,
            "aiNeuronSetting": "NeverCombat",
            "aiSensingTemplate": "NeverCombatTemplate",
            "NCKMKJMDPDH": ""
        },
        {
            "groupId": 250032034,
            "mapInstId": 34007,
            "routeId": 6,
            "aiNeuronSetting": "NeverCombat",
            "aiSensingTemplate": "NeverCombatTemplate",
            "NCKMKJMDPDH": ""
        },
        {
            "groupId": 250032034,
            "mapInstId": 34008,
            "routeId": 6,
            "aiNeuronSetting": "NeverCombat",
            "aiSensingTemplate": "NeverCombatTemplate",
            "NCKMKJMDPDH": ""
        },
        {
            "groupId": 250032034,
            "mapInstId": 34009,
            "routeId": 6,
            "aiNeuronSetting": "NeverCombat",
            "aiSensingTemplate": "NeverCombatTemplate",
            "NCKMKJMDPDH": ""
        },
        {
            "groupId": 250032034,
            "mapInstId": 34010,
            "routeId": 6,
            "aiNeuronSetting": "NeverCombat",
            "aiSensingTemplate": "NeverCombatTemplate",
            "NCKMKJMDPDH": ""
        },
        {
            "groupId": 250032034,
            "mapInstId": 34011,
            "routeId": 8,
            "aiNeuronSetting": "NeverCombat",
            "aiSensingTemplate": "NeverCombatTemplate",
            "NCKMKJMDPDH": ""
        },
        {
            "groupId": 250032034,
            "mapInstId": 34012,
            "routeId": 8,
            "aiNeuronSetting": "NeverCombat",
            "aiSensingTemplate": "NeverCombatTemplate",
            "NCKMKJMDPDH": ""
        },
        {
            "groupId": 250032034,
            "mapInstId": 34013,
            "routeId": 8,
            "aiNeuronSetting": "NeverCombat",
            "aiSensingTemplate": "NeverCombatTemplate",
            "NCKMKJMDPDH": ""
        },
        {
            "groupId": 250032034,
            "mapInstId": 34014,
            "routeId": 8,
            "aiNeuronSetting": "NeverCombat",
            "aiSensingTemplate": "NeverCombatTemplate",
            "NCKMKJMDPDH": ""
        },
        {
            "groupId": 250032034,
            "mapInstId": 34015,
            "routeId": 8,
            "aiNeuronSetting": "NeverCombat",
            "aiSensingTemplate": "NeverCombatTemplate",
            "NCKMKJMDPDH": ""
        },
        {
            "groupId": 250032034,
            "mapInstId": 34016,
            "routeId": 6,
            "aiNeuronSetting": "NeverCombat",
            "aiSensingTemplate": "NeverCombatTemplate",
            "NCKMKJMDPDH": ""
        },
        {
            "groupId": 250032034,
            "mapInstId": 34017,
            "routeId": 6,
            "aiNeuronSetting": "NeverCombat",
            "aiSensingTemplate": "NeverCombatTemplate",
            "NCKMKJMDPDH": ""
        },
        {
            "groupId": 250032034,
            "mapInstId": 34018,
            "routeId": 6,
            "aiNeuronSetting": "NeverCombat",
            "aiSensingTemplate": "NeverCombatTemplate",
            "NCKMKJMDPDH": ""
        },
        {
            "groupId": 250032034,
            "mapInstId": 34019,
            "routeId": 6,
            "aiNeuronSetting": "NeverCombat",
            "aiSensingTemplate": "NeverCombatTemplate",
            "NCKMKJMDPDH": ""
        },
        {
            "groupId": 250032034,
            "mapInstId": 34020,
            "routeId": 6,
            "aiNeuronSetting": "NeverCombat",
            "aiSensingTemplate": "NeverCombatTemplate",
            "NCKMKJMDPDH": ""
        },
        {
            "groupId": 250032034,
            "mapInstId": 34021,
            "routeId": 7,
            "aiNeuronSetting": "NeverCombat",
            "aiSensingTemplate": "NeverCombatTemplate",
            "NCKMKJMDPDH": ""
        },
        {
            "groupId": 250032034,
            "mapInstId": 34022,
            "routeId": 7,
            "aiNeuronSetting": "NeverCombat",
            "aiSensingTemplate": "NeverCombatTemplate",
            "NCKMKJMDPDH": ""
        },
        {
            "groupId": 250032034,
            "mapInstId": 34023,
            "routeId": 5,
            "aiNeuronSetting": "NeverCombat",
            "aiSensingTemplate": "NeverCombatTemplate",
            "NCKMKJMDPDH": ""
        },
        {
            "groupId": 250032034,
            "mapInstId": 34024,
            "routeId": 5,
            "aiNeuronSetting": "NeverCombat",
            "aiSensingTemplate": "NeverCombatTemplate",
            "NCKMKJMDPDH": ""
        },
        {
            "groupId": 250032034,
            "mapInstId": 34025,
            "routeId": 7,
            "aiNeuronSetting": "NeverCombat",
            "aiSensingTemplate": "NeverCombatTemplate",
            "NCKMKJMDPDH": ""
        },
        {
            "groupId": 250032034,
            "mapInstId": 34026,
            "routeId": 7,
            "aiNeuronSetting": "NeverCombat",
            "aiSensingTemplate": "NeverCombatTemplate",
            "NCKMKJMDPDH": ""
        },
        {
            "groupId": 250032034,
            "mapInstId": 34027,
            "routeId": 5,
            "aiNeuronSetting": "NeverCombat",
            "aiSensingTemplate": "NeverCombatTemplate",
            "NCKMKJMDPDH": ""
        },
        {
            "groupId": 250032034,
            "mapInstId": 34028,
            "routeId": 5,
            "aiNeuronSetting": "NeverCombat",
            "aiSensingTemplate": "NeverCombatTemplate",
            "NCKMKJMDPDH": ""
        },
        {
            "groupId": 250032035,
            "mapInstId": 35001,
            "routeId": 7,
            "aiNeuronSetting": "NeverCombat",
            "aiSensingTemplate": "NeverCombatTemplate",
            "NCKMKJMDPDH": ""
        },
        {
            "groupId": 250032035,
            "mapInstId": 35002,
            "routeId": 7,
            "aiNeuronSetting": "NeverCombat",
            "aiSensingTemplate": "NeverCombatTemplate",
            "NCKMKJMDPDH": ""
        },
        {
            "groupId": 250032035,
            "mapInstId": 35003,
            "routeId": 7,
            "aiNeuronSetting": "NeverCombat",
            "aiSensingTemplate": "NeverCombatTemplate",
            "NCKMKJMDPDH": ""
        },
        {
            "groupId": 250032035,
            "mapInstId": 35004,
            "routeId": 7,
            "aiNeuronSetting": "NeverCombat",
            "aiSensingTemplate": "NeverCombatTemplate",
            "NCKMKJMDPDH": ""
        },
        {
            "groupId": 250032035,
            "mapInstId": 35005,
            "routeId": 7,
            "aiNeuronSetting": "NeverCombat",
            "aiSensingTemplate": "NeverCombatTemplate",
            "NCKMKJMDPDH": ""
        },
        {
            "groupId": 250032035,
            "mapInstId": 35006,
            "routeId": 5,
            "aiNeuronSetting": "NeverCombat",
            "aiSensingTemplate": "NeverCombatTemplate",
            "NCKMKJMDPDH": ""
        },
        {
            "groupId": 250032035,
            "mapInstId": 35007,
            "routeId": 5,
            "aiNeuronSetting": "NeverCombat",
            "aiSensingTemplate": "NeverCombatTemplate",
            "NCKMKJMDPDH": ""
        },
        {
            "groupId": 250032035,
            "mapInstId": 35008,
            "routeId": 5,
            "aiNeuronSetting": "NeverCombat",
            "aiSensingTemplate": "NeverCombatTemplate",
            "NCKMKJMDPDH": ""
        },
        {
            "groupId": 250032035,
            "mapInstId": 35009,
            "routeId": 5,
            "aiNeuronSetting": "NeverCombat",
            "aiSensingTemplate": "NeverCombatTemplate",
            "NCKMKJMDPDH": ""
        },
        {
            "groupId": 250032035,
            "mapInstId": 35010,
            "routeId": 5,
            "aiNeuronSetting": "NeverCombat",
            "aiSensingTemplate": "NeverCombatTemplate",
            "NCKMKJMDPDH": ""
        },
        {
            "groupId": 250032035,
            "mapInstId": 35011,
            "routeId": 7,
            "aiNeuronSetting": "NeverCombat",
            "aiSensingTemplate": "NeverCombatTemplate",
            "NCKMKJMDPDH": ""
        },
        {
            "groupId": 250032035,
            "mapInstId": 35012,
            "routeId": 7,
            "aiNeuronSetting": "NeverCombat",
            "aiSensingTemplate": "NeverCombatTemplate",
            "NCKMKJMDPDH": ""
        },
        {
            "groupId": 250032035,
            "mapInstId": 35013,
            "routeId": 7,
            "aiNeuronSetting": "NeverCombat",
            "aiSensingTemplate": "NeverCombatTemplate",
            "NCKMKJMDPDH": ""
        },
        {
            "groupId": 250032035,
            "mapInstId": 35014,
            "routeId": 7,
            "aiNeuronSetting": "NeverCombat",
            "aiSensingTemplate": "NeverCombatTemplate",
            "NCKMKJMDPDH": ""
        },
        {
            "groupId": 250032035,
            "mapInstId": 35015,
            "routeId": 7,
            "aiNeuronSetting": "NeverCombat",
            "aiSensingTemplate": "NeverCombatTemplate",
            "NCKMKJMDPDH": ""
        },
        {
            "groupId": 250032036,
            "mapInstId": 36001,
            "routeId": 8,
            "aiNeuronSetting": "NeverCombat",
            "aiSensingTemplate": "NeverCombatTemplate",
            "NCKMKJMDPDH": ""
        },
        {
            "groupId": 250032036,
            "mapInstId": 36002,
            "routeId": 8,
            "aiNeuronSetting": "NeverCombat",
            "aiSensingTemplate": "NeverCombatTemplate",
            "NCKMKJMDPDH": ""
        },
        {
            "groupId": 250032036,
            "mapInstId": 36003,
            "routeId": 7,
            "aiNeuronSetting": "NeverCombat",
            "aiSensingTemplate": "NeverCombatTemplate",
            "NCKMKJMDPDH": ""
        },
        {
            "groupId": 250032036,
            "mapInstId": 36004,
            "routeId": 7,
            "aiNeuronSetting": "NeverCombat",
            "aiSensingTemplate": "NeverCombatTemplate",
            "NCKMKJMDPDH": ""
        },
        {
            "groupId": 250032036,
            "mapInstId": 36005,
            "routeId": 7,
            "aiNeuronSetting": "NeverCombat",
            "aiSensingTemplate": "NeverCombatTemplate",
            "NCKMKJMDPDH": ""
        },
        {
            "groupId": 250032036,
            "mapInstId": 36006,
            "routeId": 5,
            "aiNeuronSetting": "NeverCombat",
            "aiSensingTemplate": "NeverCombatTemplate",
            "NCKMKJMDPDH": ""
        },
        {
            "groupId": 250032036,
            "mapInstId": 36007,
            "routeId": 5,
            "aiNeuronSetting": "NeverCombat",
            "aiSensingTemplate": "NeverCombatTemplate",
            "NCKMKJMDPDH": ""
        }
    ]
}