{
    "sceneId": 44002,
    "monsters": [
        {
            "groupId": 244002002,
            "mapInstId": 2001,
            "aiNeuronSetting": "DefaultSetting",
            "aiSensingTemplate": "DefaultTemplate",
            "disableWander": true,
            "NCKMKJMDPDH": ""
        },
        {
            "groupId": 244002002,
            "mapInstId": 2002,
            "aiNeuronSetting": "DefaultSetting",
            "aiSensingTemplate": "DefaultTemplate",
            "disableWander": true,
            "NCKMKJMDPDH": ""
        },
        {
            "groupId": 244002004,
            "mapInstId": 4001,
            "aiNeuronSetting": "DefaultSetting",
            "aiSensingTemplate": "DefaultTemplate",
            "disableWander": true,
            "NCKMKJMDPDH": ""
        },
        {
            "groupId": 244002004,
            "mapInstId": 4002,
            "aiNeuronSetting": "DefaultSetting",
            "aiSensingTemplate": "DefaultTemplate",
            "disableWander": true,
            "NCKMKJMDPDH": ""
        },
        {
            "groupId": 244002004,
            "mapInstId": 4003,
            "aiNeuronSetting": "DefaultSetting",
            "aiSensingTemplate": "DefaultTemplate",
            "disableWander": true,
            "NCKMKJMDPDH": ""
        },
        {
            "groupId": 244002004,
            "mapInstId": 4004,
            "aiNeuronSetting": "DefaultSetting",
            "aiSensingTemplate": "DefaultTemplate",
            "disableWander": true,
            "NCKMKJMDPDH": ""
        },
        {
            "groupId": 244002004,
            "mapInstId": 4006,
            "aiNeuronSetting": "DefaultSetting",
            "aiSensingTemplate": "DefaultTemplate",
            "disableWander": true,
            "NCKMKJMDPDH": ""
        },
        {
            "groupId": 244002004,
            "mapInstId": 4007,
            "aiNeuronSetting": "DefaultSetting",
            "aiSensingTemplate": "DefaultTemplate",
            "disableWander": true,
            "NCKMKJMDPDH": ""
        },
        {
            "groupId": 244002004,
            "mapInstId": 4008,
            "aiNeuronSetting": "DefaultSetting",
            "aiSensingTemplate": "DefaultTemplate",
            "disableWander": true,
            "NCKMKJMDPDH": ""
        },
        {
            "groupId": 244002004,
            "mapInstId": 4009,
            "aiNeuronSetting": "DefaultSetting",
            "aiSensingTemplate": "DefaultTemplate",
            "disableWander": true,
            "NCKMKJMDPDH": ""
        },
        {
            "groupId": 244002004,
            "mapInstId": 4010,
            "aiNeuronSetting": "DefaultSetting",
            "aiSensingTemplate": "DefaultTemplate",
            "disableWander": true,
            "NCKMKJMDPDH": ""
        },
        {
            "groupId": 244002004,
            "mapInstId": 4011,
            "aiNeuronSetting": "DefaultSetting",
            "aiSensingTemplate": "DefaultTemplate",
            "disableWander": true,
            "NCKMKJMDPDH": ""
        },
        {
            "groupId": 244002004,
            "mapInstId": 4012,
            "aiNeuronSetting": "DefaultSetting",
            "aiSensingTemplate": "DefaultTemplate",
            "disableWander": true,
            "NCKMKJMDPDH": ""
        },
        {
            "groupId": 244002004,
            "mapInstId": 4013,
            "aiNeuronSetting": "DefaultSetting",
            "aiSensingTemplate": "DefaultTemplate",
            "disableWander": true,
            "NCKMKJMDPDH": ""
        },
        {
            "groupId": 244002006,
            "mapInstId": 6001,
            "aiNeuronSetting": "DefaultSetting",
            "aiSensingTemplate": "DefaultTemplate",
            "disableWander": true,
            "NCKMKJMDPDH": ""
        },
        {
            "groupId": 244002006,
            "mapInstId": 6002,
            "aiNeuronSetting": "DefaultSetting",
            "aiSensingTemplate": "DefaultTemplate",
            "disableWander": true,
            "NCKMKJMDPDH": ""
        },
        {
            "groupId": 244002006,
            "mapInstId": 6003,
            "aiNeuronSetting": "DefaultSetting",
            "aiSensingTemplate": "DefaultTemplate",
            "disableWander": true,
            "NCKMKJMDPDH": ""
        },
        {
            "groupId": 244002006,
            "mapInstId": 6004,
            "aiNeuronSetting": "DefaultSetting",
            "aiSensingTemplate": "DefaultTemplate",
            "disableWander": true,
            "NCKMKJMDPDH": ""
        },
        {
            "groupId": 244002006,
            "mapInstId": 6005,
            "aiNeuronSetting": "DefaultSetting",
            "aiSensingTemplate": "DefaultTemplate",
            "disableWander": true,
            "NCKMKJMDPDH": ""
        },
        {
            "groupId": 244002008,
            "mapInstId": 8001,
            "aiNeuronSetting": "DefaultSetting",
            "aiSensingTemplate": "DefaultTemplate",
            "disableWander": true,
            "NCKMKJMDPDH": ""
        },
        {
            "groupId": 244002008,
            "mapInstId": 8002,
            "aiNeuronSetting": "DefaultSetting",
            "aiSensingTemplate": "DefaultTemplate",
            "disableWander": true,
            "NCKMKJMDPDH": ""
        },
        {
            "groupId": 244002008,
            "mapInstId": 8003,
            "aiNeuronSetting": "DefaultSetting",
            "aiSensingTemplate": "DefaultTemplate",
            "disableWander": true,
            "NCKMKJMDPDH": ""
        },
        {
            "groupId": 244002008,
            "mapInstId": 8004,
            "aiNeuronSetting": "DefaultSetting",
            "aiSensingTemplate": "DefaultTemplate",
            "disableWander": true,
            "NCKMKJMDPDH": ""
        },
        {
            "groupId": 244002008,
            "mapInstId": 8005,
            "aiNeuronSetting": "DefaultSetting",
            "aiSensingTemplate": "DefaultTemplate",
            "disableWander": true,
            "NCKMKJMDPDH": ""
        },
        {
            "groupId": 244002008,
            "mapInstId": 8006,
            "aiNeuronSetting": "DefaultSetting",
            "aiSensingTemplate": "DefaultTemplate",
            "disableWander": true,
            "NCKMKJMDPDH": ""
        },
        {
            "groupId": 244002008,
            "mapInstId": 8007,
            "aiNeuronSetting": "DefaultSetting",
            "aiSensingTemplate": "DefaultTemplate",
            "disableWander": true,
            "NCKMKJMDPDH": ""
        },
        {
            "groupId": 244002008,
            "mapInstId": 8009,
            "aiNeuronSetting": "DefaultSetting",
            "aiSensingTemplate": "DefaultTemplate",
            "disableWander": true,
            "NCKMKJMDPDH": ""
        },
        {
            "groupId": 244002008,
            "mapInstId": 8010,
            "aiNeuronSetting": "DefaultSetting",
            "aiSensingTemplate": "DefaultTemplate",
            "disableWander": true,
            "NCKMKJMDPDH": ""
        },
        {
            "groupId": 244002008,
            "mapInstId": 8011,
            "aiNeuronSetting": "DefaultSetting",
            "aiSensingTemplate": "DefaultTemplate",
            "disableWander": true,
            "NCKMKJMDPDH": ""
        },
        {
            "groupId": 244002008,
            "mapInstId": 8013,
            "aiNeuronSetting": "DefaultSetting",
            "aiSensingTemplate": "DefaultTemplate",
            "disableWander": true,
            "NCKMKJMDPDH": ""
        }
    ]
}