{
    "sceneId": 35707,
    "monsters": [
        {
            "groupId": 235707007,
            "mapInstId": 7001,
            "aiGroupID": 235707007,
            "aiNeuronSetting": "DefaultSetting",
            "aiSensingTemplate": "DefaultTemplate",
            "forceCombatOnSpawn": true,
            "NCKMKJMDPDH": ""
        },
        {
            "groupId": 235707007,
            "mapInstId": 7002,
            "aiGroupID": 235707007,
            "aiNeuronSetting": "DefaultSetting",
            "aiSensingTemplate": "DefaultTemplate",
            "forceCombatOnSpawn": true,
            "NCKMKJMDPDH": ""
        },
        {
            "groupId": 235707008,
            "mapInstId": 8003,
            "aiGroupID": 235707008,
            "aiNeuronSetting": "DefaultSetting",
            "aiSensingTemplate": "DefaultTemplate",
            "forceCombatOnSpawn": true,
            "NCKMKJMDPDH": ""
        }
    ]
}