{
    "sceneId": 40012,
    "monsters": [
        {
            "groupId": 240012006,
            "mapInstId": 6003,
            "aiGroupID": 240012006,
            "aiNeuronSetting": "DefaultSetting",
            "aiSensingTemplate": "DefaultTemplate",
            "NCKMKJMDPDH": ""
        },
        {
            "groupId": 240012006,
            "mapInstId": 6004,
            "aiGroupID": 240012006,
            "aiNeuronSetting": "DefaultSetting",
            "aiSensingTemplate": "DefaultTemplate",
            "NCKMKJMDPDH": ""
        },
        {
            "groupId": 240012006,
            "mapInstId": 6005,
            "aiGroupID": 240012006,
            "aiNeuronSetting": "DefaultSetting",
            "aiSensingTemplate": "DefaultTemplate",
            "NCKMKJMDPDH": ""
        },
        {
            "groupId": 240012006,
            "mapInstId": 6006,
            "aiGroupID": 240012006,
            "aiNeuronSetting": "DefaultSetting",
            "aiSensingTemplate": "DefaultTemplate",
            "NCKMKJMDPDH": ""
        },
        {
            "groupId": 240012006,
            "mapInstId": 6007,
            "aiGroupID": 240012006,
            "aiNeuronSetting": "DefaultSetting",
            "aiSensingTemplate": "DefaultTemplate",
            "NCKMKJMDPDH": ""
        },
        {
            "groupId": 240012006,
            "mapInstId": 6008,
            "aiGroupID": 240012006,
            "aiNeuronSetting": "DefaultSetting",
            "aiSensingTemplate": "DefaultTemplate",
            "NCKMKJMDPDH": ""
        },
        {
            "groupId": 240012006,
            "mapInstId": 6009,
            "aiGroupID": 240012006,
            "aiNeuronSetting": "DefaultSetting",
            "aiSensingTemplate": "DefaultTemplate",
            "NCKMKJMDPDH": ""
        },
        {
            "groupId": 240012006,
            "mapInstId": 6010,
            "aiGroupID": 240012006,
            "aiNeuronSetting": "DefaultSetting",
            "aiSensingTemplate": "DefaultTemplate",
            "NCKMKJMDPDH": ""
        }
    ]
}