{
    "sceneId": 40300,
    "monsters": [
        {
            "groupId": 240300001,
            "mapInstId": 1001,
            "aiGroupID": 240300001,
            "CBNANHBMMNC": true,
            "DGLJAJDAPNH": 999.0,
            "LGAONPKJDEC": true,
            "clearThreatTargetDistance": 999.0,
            "aiNeuronSetting": "DefaultSetting",
            "aiSensingTemplate": "DefaultTemplate",
            "forceCombatOnSpawn": true,
            "NCKMKJMDPDH": ""
        },
        {
            "groupId": 240300001,
            "mapInstId": 1002,
            "aiGroupID": 240300001,
            "CBNANHBMMNC": true,
            "DGLJAJDAPNH": 999.0,
            "LGAONPKJDEC": true,
            "clearThreatTargetDistance": 999.0,
            "aiNeuronSetting": "DefaultSetting",
            "aiSensingTemplate": "DefaultTemplate",
            "forceCombatOnSpawn": true,
            "NCKMKJMDPDH": ""
        },
        {
            "groupId": 240300001,
            "mapInstId": 1003,
            "aiGroupID": 240300001,
            "CBNANHBMMNC": true,
            "DGLJAJDAPNH": 999.0,
            "LGAONPKJDEC": true,
            "clearThreatTargetDistance": 999.0,
            "aiNeuronSetting": "DefaultSetting",
            "aiSensingTemplate": "DefaultTemplate",
            "forceCombatOnSpawn": true,
            "NCKMKJMDPDH": ""
        },
        {
            "groupId": 240300001,
            "mapInstId": 1004,
            "aiGroupID": 240300001,
            "CBNANHBMMNC": true,
            "DGLJAJDAPNH": 999.0,
            "LGAONPKJDEC": true,
            "clearThreatTargetDistance": 999.0,
            "aiNeuronSetting": "DefaultSetting",
            "aiSensingTemplate": "DefaultTemplate",
            "forceCombatOnSpawn": true,
            "NCKMKJMDPDH": ""
        },
        {
            "groupId": 240300001,
            "mapInstId": 1005,
            "aiGroupID": 240300001,
            "CBNANHBMMNC": true,
            "DGLJAJDAPNH": 999.0,
            "LGAONPKJDEC": true,
            "clearThreatTargetDistance": 999.0,
            "aiNeuronSetting": "DefaultSetting",
            "aiSensingTemplate": "DefaultTemplate",
            "forceCombatOnSpawn": true,
            "NCKMKJMDPDH": ""
        },
        {
            "groupId": 240300001,
            "mapInstId": 1006,
            "aiGroupID": 240300001,
            "CBNANHBMMNC": true,
            "DGLJAJDAPNH": 999.0,
            "LGAONPKJDEC": true,
            "clearThreatTargetDistance": 999.0,
            "aiNeuronSetting": "DefaultSetting",
            "aiSensingTemplate": "DefaultTemplate",
            "forceCombatOnSpawn": true,
            "NCKMKJMDPDH": ""
        },
        {
            "groupId": 240300001,
            "mapInstId": 1007,
            "aiGroupID": 240300001,
            "CBNANHBMMNC": true,
            "DGLJAJDAPNH": 999.0,
            "LGAONPKJDEC": true,
            "clearThreatTargetDistance": 999.0,
            "aiNeuronSetting": "DefaultSetting",
            "aiSensingTemplate": "DefaultTemplate",
            "forceCombatOnSpawn": true,
            "NCKMKJMDPDH": ""
        },
        {
            "groupId": 240300001,
            "mapInstId": 1008,
            "aiGroupID": 240300001,
            "CBNANHBMMNC": true,
            "DGLJAJDAPNH": 999.0,
            "LGAONPKJDEC": true,
            "clearThreatTargetDistance": 999.0,
            "aiNeuronSetting": "DefaultSetting",
            "aiSensingTemplate": "DefaultTemplate",
            "forceCombatOnSpawn": true,
            "NCKMKJMDPDH": ""
        },
        {
            "groupId": 240300001,
            "mapInstId": 1009,
            "aiGroupID": 240300001,
            "CBNANHBMMNC": true,
            "DGLJAJDAPNH": 999.0,
            "LGAONPKJDEC": true,
            "clearThreatTargetDistance": 999.0,
            "aiNeuronSetting": "DefaultSetting",
            "aiSensingTemplate": "DefaultTemplate",
            "forceCombatOnSpawn": true,
            "NCKMKJMDPDH": ""
        },
        {
            "groupId": 240300001,
            "mapInstId": 1010,
            "aiGroupID": 240300001,
            "CBNANHBMMNC": true,
            "DGLJAJDAPNH": 999.0,
            "LGAONPKJDEC": true,
            "clearThreatTargetDistance": 999.0,
            "aiNeuronSetting": "DefaultSetting",
            "aiSensingTemplate": "DefaultTemplate",
            "forceCombatOnSpawn": true,
            "NCKMKJMDPDH": ""
        },
        {
            "groupId": 240300001,
            "mapInstId": 1012,
            "aiGroupID": 240300001,
            "CBNANHBMMNC": true,
            "DGLJAJDAPNH": 999.0,
            "LGAONPKJDEC": true,
            "clearThreatTargetDistance": 999.0,
            "aiNeuronSetting": "DefaultSetting",
            "aiSensingTemplate": "DefaultTemplate",
            "forceCombatOnSpawn": true,
            "NCKMKJMDPDH": ""
        },
        {
            "groupId": 240300001,
            "mapInstId": 1013,
            "aiGroupID": 240300001,
            "CBNANHBMMNC": true,
            "DGLJAJDAPNH": 999.0,
            "LGAONPKJDEC": true,
            "clearThreatTargetDistance": 999.0,
            "aiNeuronSetting": "DefaultSetting",
            "aiSensingTemplate": "DefaultTemplate",
            "forceCombatOnSpawn": true,
            "NCKMKJMDPDH": ""
        },
        {
            "groupId": 240300001,
            "mapInstId": 1015,
            "aiGroupID": 240300001,
            "CBNANHBMMNC": true,
            "DGLJAJDAPNH": 999.0,
            "LGAONPKJDEC": true,
            "clearThreatTargetDistance": 999.0,
            "aiNeuronSetting": "DefaultSetting",
            "aiSensingTemplate": "DefaultTemplate",
            "forceCombatOnSpawn": true,
            "NCKMKJMDPDH": ""
        },
        {
            "groupId": 240300001,
            "mapInstId": 1016,
            "aiGroupID": 240300001,
            "CBNANHBMMNC": true,
            "DGLJAJDAPNH": 999.0,
            "LGAONPKJDEC": true,
            "clearThreatTargetDistance": 999.0,
            "aiNeuronSetting": "DefaultSetting",
            "aiSensingTemplate": "DefaultTemplate",
            "forceCombatOnSpawn": true,
            "NCKMKJMDPDH": ""
        },
        {
            "groupId": 240300001,
            "mapInstId": 1017,
            "aiGroupID": 240300001,
            "CBNANHBMMNC": true,
            "DGLJAJDAPNH": 999.0,
            "LGAONPKJDEC": true,
            "clearThreatTargetDistance": 999.0,
            "aiNeuronSetting": "DefaultSetting",
            "aiSensingTemplate": "DefaultTemplate",
            "forceCombatOnSpawn": true,
            "NCKMKJMDPDH": ""
        },
        {
            "groupId": 240300001,
            "mapInstId": 1018,
            "aiGroupID": 240300001,
            "CBNANHBMMNC": true,
            "DGLJAJDAPNH": 999.0,
            "LGAONPKJDEC": true,
            "clearThreatTargetDistance": 999.0,
            "aiNeuronSetting": "DefaultSetting",
            "aiSensingTemplate": "DefaultTemplate",
            "forceCombatOnSpawn": true,
            "NCKMKJMDPDH": ""
        },
        {
            "groupId": 240300001,
            "mapInstId": 1019,
            "aiGroupID": 240300001,
            "CBNANHBMMNC": true,
            "DGLJAJDAPNH": 999.0,
            "LGAONPKJDEC": true,
            "clearThreatTargetDistance": 999.0,
            "aiNeuronSetting": "DefaultSetting",
            "aiSensingTemplate": "DefaultTemplate",
            "forceCombatOnSpawn": true,
            "NCKMKJMDPDH": ""
        },
        {
            "groupId": 240300001,
            "mapInstId": 1020,
            "aiGroupID": 240300001,
            "CBNANHBMMNC": true,
            "DGLJAJDAPNH": 999.0,
            "LGAONPKJDEC": true,
            "clearThreatTargetDistance": 999.0,
            "aiNeuronSetting": "DefaultSetting",
            "aiSensingTemplate": "DefaultTemplate",
            "forceCombatOnSpawn": true,
            "NCKMKJMDPDH": ""
        },
        {
            "groupId": 240300001,
            "mapInstId": 1021,
            "aiGroupID": 240300001,
            "CBNANHBMMNC": true,
            "DGLJAJDAPNH": 999.0,
            "LGAONPKJDEC": true,
            "clearThreatTargetDistance": 999.0,
            "aiNeuronSetting": "DefaultSetting",
            "aiSensingTemplate": "DefaultTemplate",
            "forceCombatOnSpawn": true,
            "NCKMKJMDPDH": ""
        },
        {
            "groupId": 240300001,
            "mapInstId": 1022,
            "aiGroupID": 240300001,
            "CBNANHBMMNC": true,
            "DGLJAJDAPNH": 999.0,
            "LGAONPKJDEC": true,
            "clearThreatTargetDistance": 999.0,
            "aiNeuronSetting": "DefaultSetting",
            "aiSensingTemplate": "DefaultTemplate",
            "forceCombatOnSpawn": true,
            "NCKMKJMDPDH": ""
        }
    ]
}