{
    "sceneId": 40025,
    "monsters": [
        {
            "groupId": 240025002,
            "mapInstId": 2002,
            "aiNeuronSetting": "DefaultSetting",
            "aiSensingTemplate": "DefaultTemplate",
            "forceCombatOnSpawn": true,
            "billboardHasUIBar": true,
            "NCKMKJMDPDH": ""
        },
        {
            "groupId": 240025002,
            "mapInstId": 2003,
            "aiNeuronSetting": "DefaultSetting",
            "aiSensingTemplate": "DefaultTemplate",
            "forceCombatOnSpawn": true,
            "billboardHasUIBar": true,
            "NCKMKJMDPDH": ""
        },
        {
            "groupId": 240025002,
            "mapInstId": 2004,
            "aiNeuronSetting": "DefaultSetting",
            "aiSensingTemplate": "DefaultTemplate",
            "forceCombatOnSpawn": true,
            "billboardHasUIBar": true,
            "NCKMKJMDPDH": ""
        }
    ]
}