{
    "HBPGBNCBOMP": "",
    "KENGMFPNLEP": "",
    "group": [
        [
            {
                "$type": "ConfigSteerInterAction",
                "type": "STEER_TO",
                "duration": 1.0,
                "steerType": "RETURN",
                "useSteerAnim": true,
                "interruptFreestyle": true,
                "targetNpcAlias": ""
            },
            {
                "$type": "ConfigCameraMoveInterAction",
                "type": "CAMERA_FOCUS",
                "duration": 1.0,
                "cameraPosType": "EXIT",
                "camTargetType": "TO_INTEE",
                "lerpRatio": 2.0,
                "lerpPattern": 9,
                "targetNpcAlias": ""
            },
            {
                "$type": "ConfigDialogInterAction",
                "type": "DIALOG_CLEAR",
                "playAudio": false
            }
        ]
    ]
}