{
    "HBPGBNCBOMP": "",
    "KENGMFPNLEP": "",
    "group": [
        [
            {
                "$type": "ConfigSetAnimatorAction",
                "type": "SET_ANIMATOR",
                "paramType": "Bool",
                "paramName": "Talk",
                "boolValue": true
            },
            {
                "$type": "ConfigSteerInterAction",
                "type": "STEER_TO",
                "duration": 0.75,
                "steerType": "TO_LOCAL_AVATAR_ADVANCED",
                "useSteerAnim": true,
                "targetNpcAlias": ""
            }
        ]
    ]
}