{
    "HBPGBNCBOMP": "",
    "KENGMFPNLEP": "",
    "group": [
        [
            {
                "$type": "ConfigCutsceneInterAction",
                "type": "CUTSCENE",
                "cutsceneCfg": {
                    "$type": "ConfigTimeline",
                    "type": "TIME_LINE_PREFAB",
                    "luaDataPath": "",
                    "resPath": "ART/CameraAni/Quest/Ca_Quest_AmborSQ_ShowEndPoint1",
                    "castListPath": "",
                    "entityBan": ""
                }
            }
        ]
    ]
}