{
    "LevelEntity_ScaramoucheBoss": {
        "FDMMICFLKHA": [
            29070106
        ]
    },
    "LevelEntity_Activity_ClearFollowPet": {
        "teamAbilities": [
            {
                "abilityID": "",
                "abilityName": "Avatar_QuestAbility_ClearFollowPet",
                "abilityOverride": ""
            }
        ]
    }
}