{
    "sceneId": 20140,
    "gadgets": [
        {
            "groupId": 220140004,
            "mapInstId": 4048,
            "followMoveAttachPoint": "",
            "uiIndicator": {
                "templateName": "Normal_Chest_Icon"
            },
            "FHNLHBMDPAH": ""
        },
        {
            "groupId": 220140021,
            "mapInstId": 21014,
            "followMoveAttachPoint": "",
            "uiIndicator": {
                "templateName": "Normal_Chest_Icon"
            },
            "FHNLHBMDPAH": ""
        },
        {
            "groupId": 220140023,
            "mapInstId": 23014,
            "followMoveAttachPoint": "",
            "uiIndicator": {
                "templateName": "Normal_Chest_Icon"
            },
            "FHNLHBMDPAH": ""
        }
    ]
}