{
    "sceneId": 9,
    "gadgets": [
        {
            "groupId": 199001001,
            "mapInstId": 1001,
            "followMoveAttachPoint": "",
            "uiIndicator": {
                "templateName": "SocialActivity_Engine_Icon"
            },
            "FHNLHBMDPAH": ""
        },
        {
            "groupId": 199001001,
            "mapInstId": 1024,
            "followMoveAttachPoint": "Part1",
            "followMoveTargetInstanceId": 1001,
            "FHNLHBMDPAH": ""
        },
        {
            "groupId": 199001001,
            "mapInstId": 1025,
            "followMoveAttachPoint": "Part2",
            "followMoveTargetInstanceId": 1001,
            "FHNLHBMDPAH": ""
        },
        {
            "groupId": 199001001,
            "mapInstId": 1026,
            "followMoveAttachPoint": "Part3",
            "followMoveTargetInstanceId": 1001,
            "FHNLHBMDPAH": ""
        },
        {
            "groupId": 199001001,
            "mapInstId": 1031,
            "followMoveAttachPoint": "Part4",
            "followMoveTargetInstanceId": 1001,
            "FHNLHBMDPAH": ""
        },
        {
            "groupId": 199001004,
            "mapInstId": 4002,
            "followMoveAttachPoint": "",
            "trigger": {
                "NHCPEFBMPLC": true,
                "triggerFlag": "TeleportV2",
                "BOIGOFNOPDG": {
                    "$type": "ConfigShapeRect",
                    "useHeight": true,
                    "height": 2.0,
                    "width": 1.0,
                    "length": 3.0
                },
                "EIBECKPGBJD": true,
                "JIKKPDOLFIB": {
                    "$type": "ConfigLocalTriggerMetaTeleportV2",
                    "vectorParam": {
                        "x": 202.0,
                        "y": 103.0,
                        "z": 312.0
                    },
                    "stringParam": "",
                    "ANDEKCFCLOL": "SummerTime"
                }
            },
            "FHNLHBMDPAH": ""
        },
        {
            "groupId": 199001008,
            "mapInstId": 8002,
            "followMoveAttachPoint": "",
            "trigger": {
                "NHCPEFBMPLC": true,
                "triggerFlag": "TeleportV2",
                "BOIGOFNOPDG": {
                    "$type": "ConfigShapeRect",
                    "useHeight": true,
                    "height": 2.0,
                    "width": 1.0,
                    "length": 3.0
                },
                "EIBECKPGBJD": true,
                "JIKKPDOLFIB": {
                    "$type": "ConfigLocalTriggerMetaTeleportV2",
                    "vectorParam": {
                        "x": 194.0,
                        "y": 135.0,
                        "z": 293.0
                    },
                    "stringParam": "",
                    "ANDEKCFCLOL": "SummerTime"
                }
            },
            "FHNLHBMDPAH": ""
        },
        {
            "groupId": 199001033,
            "mapInstId": 33006,
            "followMoveAttachPoint": "",
            "uiIndicator": {
                "templateName": "Normal_Chest_Icon"
            },
            "FHNLHBMDPAH": ""
        },
        {
            "groupId": 199001034,
            "mapInstId": 34006,
            "followMoveAttachPoint": "",
            "uiIndicator": {
                "templateName": "Normal_Chest_Icon"
            },
            "FHNLHBMDPAH": ""
        },
        {
            "groupId": 199001057,
            "mapInstId": 57012,
            "followMoveAttachPoint": "",
            "uiIndicator": {
                "templateName": "Normal_Chest_Icon"
            },
            "FHNLHBMDPAH": ""
        },
        {
            "groupId": 199001058,
            "mapInstId": 58003,
            "followMoveAttachPoint": "",
            "uiIndicator": {
                "templateName": "Normal_Chest_Icon"
            },
            "FHNLHBMDPAH": ""
        },
        {
            "groupId": 199001059,
            "mapInstId": 59002,
            "followMoveAttachPoint": "",
            "uiIndicator": {
                "templateName": "Normal_Chest_Icon"
            },
            "FHNLHBMDPAH": ""
        },
        {
            "groupId": 199001060,
            "mapInstId": 60004,
            "followMoveAttachPoint": "",
            "uiIndicator": {
                "templateName": "Normal_Chest_Icon"
            },
            "FHNLHBMDPAH": ""
        },
        {
            "groupId": 199001091,
            "mapInstId": 91098,
            "followMoveAttachPoint": "",
            "uiIndicator": {
                "templateName": "SocialActivity_Target_Icon"
            },
            "FHNLHBMDPAH": ""
        },
        {
            "groupId": 199001091,
            "mapInstId": 91099,
            "followMoveAttachPoint": "",
            "uiIndicator": {
                "templateName": "SocialActivity_Target_Icon"
            },
            "FHNLHBMDPAH": ""
        },
        {
            "groupId": 199001091,
            "mapInstId": 91101,
            "followMoveAttachPoint": "",
            "uiIndicator": {
                "templateName": "SocialActivity_Target_Icon"
            },
            "FHNLHBMDPAH": ""
        },
        {
            "groupId": 199001091,
            "mapInstId": 91102,
            "followMoveAttachPoint": "",
            "uiIndicator": {
                "templateName": "SocialActivity_Target_Icon"
            },
            "FHNLHBMDPAH": ""
        },
        {
            "groupId": 199001091,
            "mapInstId": 91103,
            "followMoveAttachPoint": "",
            "uiIndicator": {
                "templateName": "SocialActivity_Target_Icon"
            },
            "FHNLHBMDPAH": ""
        },
        {
            "groupId": 199001091,
            "mapInstId": 91104,
            "followMoveAttachPoint": "",
            "uiIndicator": {
                "templateName": "SocialActivity_Target_Icon"
            },
            "FHNLHBMDPAH": ""
        },
        {
            "groupId": 199001091,
            "mapInstId": 91115,
            "followMoveAttachPoint": "",
            "uiIndicator": {
                "templateName": "SocialActivity_Target_Icon"
            },
            "FHNLHBMDPAH": ""
        },
        {
            "groupId": 199001091,
            "mapInstId": 91157,
            "followMoveAttachPoint": "",
            "uiIndicator": {
                "templateName": "SocialActivity_Target_Icon"
            },
            "FHNLHBMDPAH": ""
        },
        {
            "groupId": 199001091,
            "mapInstId": 91159,
            "followMoveAttachPoint": "",
            "uiIndicator": {
                "templateName": "SocialActivity_Target_Icon"
            },
            "FHNLHBMDPAH": ""
        },
        {
            "groupId": 199001094,
            "mapInstId": 94001,
            "followMoveAttachPoint": "",
            "uiIndicator": {
                "templateName": "SummerTimeV2_Race_Icon"
            },
            "FHNLHBMDPAH": ""
        },
        {
            "groupId": 199001094,
            "mapInstId": 94004,
            "followMoveAttachPoint": "",
            "uiIndicator": {
                "templateName": "GadgetCreate_Icon"
            },
            "FHNLHBMDPAH": ""
        },
        {
            "groupId": 199001094,
            "mapInstId": 94005,
            "followMoveAttachPoint": "",
            "uiIndicator": {
                "templateName": "SocialActivity_Target_Icon"
            },
            "FHNLHBMDPAH": ""
        },
        {
            "groupId": 199001094,
            "mapInstId": 94006,
            "followMoveAttachPoint": "",
            "uiIndicator": {
                "templateName": "GadgetCreate_Icon"
            },
            "FHNLHBMDPAH": ""
        },
        {
            "groupId": 199001094,
            "mapInstId": 94020,
            "followMoveAttachPoint": "",
            "uiIndicator": {
                "templateName": "GadgetCreate_Icon"
            },
            "FHNLHBMDPAH": ""
        },
        {
            "groupId": 199001094,
            "mapInstId": 94021,
            "followMoveAttachPoint": "",
            "uiIndicator": {
                "templateName": "SocialActivity_Target_Icon"
            },
            "FHNLHBMDPAH": ""
        },
        {
            "groupId": 199001094,
            "mapInstId": 94023,
            "followMoveAttachPoint": "",
            "uiIndicator": {
                "templateName": "SocialActivity_Target_Icon"
            },
            "FHNLHBMDPAH": ""
        },
        {
            "groupId": 199001094,
            "mapInstId": 94030,
            "followMoveAttachPoint": "",
            "uiIndicator": {
                "templateName": "SocialActivity_Target_Icon"
            },
            "FHNLHBMDPAH": ""
        },
        {
            "groupId": 199001094,
            "mapInstId": 94033,
            "followMoveAttachPoint": "",
            "uiIndicator": {
                "templateName": "SocialActivity_Target_Icon"
            },
            "FHNLHBMDPAH": ""
        },
        {
            "groupId": 199001094,
            "mapInstId": 94037,
            "followMoveAttachPoint": "",
            "uiIndicator": {
                "templateName": "SocialActivity_Target_Icon"
            },
            "FHNLHBMDPAH": ""
        },
        {
            "groupId": 199001094,
            "mapInstId": 94055,
            "followMoveAttachPoint": "",
            "uiIndicator": {
                "templateName": "SocialActivity_Target_Icon"
            },
            "FHNLHBMDPAH": ""
        },
        {
            "groupId": 199001094,
            "mapInstId": 94088,
            "followMoveAttachPoint": "",
            "uiIndicator": {
                "templateName": "SocialActivity_Target_Icon"
            },
            "FHNLHBMDPAH": ""
        },
        {
            "groupId": 199001097,
            "mapInstId": 97010,
            "followMoveAttachPoint": "",
            "uiIndicator": {
                "templateName": "Normal_Chest_Icon"
            },
            "FHNLHBMDPAH": ""
        },
        {
            "groupId": 199001098,
            "mapInstId": 98001,
            "followMoveAttachPoint": "",
            "uiIndicator": {
                "templateName": "SummerTimeV2_Race_Icon"
            },
            "FHNLHBMDPAH": ""
        },
        {
            "groupId": 199001098,
            "mapInstId": 98002,
            "followMoveAttachPoint": "",
            "uiIndicator": {
                "templateName": "SocialActivity_Target_Icon"
            },
            "FHNLHBMDPAH": ""
        },
        {
            "groupId": 199001098,
            "mapInstId": 98003,
            "followMoveAttachPoint": "",
            "uiIndicator": {
                "templateName": "SocialActivity_Target_Icon"
            },
            "FHNLHBMDPAH": ""
        },
        {
            "groupId": 199001098,
            "mapInstId": 98056,
            "followMoveAttachPoint": "",
            "uiIndicator": {
                "templateName": "SocialActivity_Target_Icon"
            },
            "FHNLHBMDPAH": ""
        },
        {
            "groupId": 199001098,
            "mapInstId": 98062,
            "followMoveAttachPoint": "",
            "uiIndicator": {
                "templateName": "SocialActivity_Target_Icon"
            },
            "FHNLHBMDPAH": ""
        },
        {
            "groupId": 199001098,
            "mapInstId": 98092,
            "followMoveAttachPoint": "",
            "uiIndicator": {
                "templateName": "SocialActivity_Target_Icon"
            },
            "FHNLHBMDPAH": ""
        },
        {
            "groupId": 199001098,
            "mapInstId": 98100,
            "followMoveAttachPoint": "",
            "uiIndicator": {
                "templateName": "SocialActivity_Target_Icon"
            },
            "FHNLHBMDPAH": ""
        },
        {
            "groupId": 199001098,
            "mapInstId": 98130,
            "followMoveAttachPoint": "",
            "uiIndicator": {
                "templateName": "SocialActivity_Target_Icon"
            },
            "FHNLHBMDPAH": ""
        },
        {
            "groupId": 199001098,
            "mapInstId": 98151,
            "followMoveAttachPoint": "",
            "uiIndicator": {
                "templateName": "SocialActivity_Target_Icon"
            },
            "FHNLHBMDPAH": ""
        },
        {
            "groupId": 199001098,
            "mapInstId": 98152,
            "followMoveAttachPoint": "",
            "uiIndicator": {
                "templateName": "SocialActivity_Target_Icon"
            },
            "FHNLHBMDPAH": ""
        },
        {
            "groupId": 199001098,
            "mapInstId": 98167,
            "followMoveAttachPoint": "",
            "uiIndicator": {
                "templateName": "SocialActivity_Target_Icon"
            },
            "FHNLHBMDPAH": ""
        },
        {
            "groupId": 199001098,
            "mapInstId": 98173,
            "followMoveAttachPoint": "",
            "uiIndicator": {
                "templateName": "SocialActivity_Target_Icon"
            },
            "FHNLHBMDPAH": ""
        },
        {
            "groupId": 199001098,
            "mapInstId": 98257,
            "followMoveAttachPoint": "",
            "uiIndicator": {
                "templateName": "SocialActivity_Target_Icon"
            },
            "FHNLHBMDPAH": ""
        },
        {
            "groupId": 199001098,
            "mapInstId": 98286,
            "followMoveAttachPoint": "",
            "uiIndicator": {
                "templateName": "SocialActivity_Target_Icon"
            },
            "FHNLHBMDPAH": ""
        },
        {
            "groupId": 199001100,
            "mapInstId": 100003,
            "followMoveAttachPoint": "",
            "uiIndicator": {
                "templateName": "SocialActivity_Target_Icon"
            },
            "FHNLHBMDPAH": ""
        },
        {
            "groupId": 199001100,
            "mapInstId": 100021,
            "followMoveAttachPoint": "",
            "uiIndicator": {
                "templateName": "SocialActivity_Target_Icon"
            },
            "FHNLHBMDPAH": ""
        },
        {
            "groupId": 199001100,
            "mapInstId": 100034,
            "followMoveAttachPoint": "",
            "uiIndicator": {
                "templateName": "SocialActivity_Target_Icon"
            },
            "FHNLHBMDPAH": ""
        },
        {
            "groupId": 199001100,
            "mapInstId": 100040,
            "followMoveAttachPoint": "",
            "uiIndicator": {
                "templateName": "SocialActivity_Target_Icon"
            },
            "FHNLHBMDPAH": ""
        },
        {
            "groupId": 199001100,
            "mapInstId": 100046,
            "followMoveAttachPoint": "",
            "uiIndicator": {
                "templateName": "SocialActivity_Target_Icon"
            },
            "FHNLHBMDPAH": ""
        },
        {
            "groupId": 199001100,
            "mapInstId": 100052,
            "followMoveAttachPoint": "",
            "uiIndicator": {
                "templateName": "SocialActivity_Target_Icon"
            },
            "FHNLHBMDPAH": ""
        },
        {
            "groupId": 199001100,
            "mapInstId": 100055,
            "followMoveAttachPoint": "",
            "uiIndicator": {
                "templateName": "SocialActivity_Target_Icon"
            },
            "FHNLHBMDPAH": ""
        },
        {
            "groupId": 199001100,
            "mapInstId": 100100,
            "followMoveAttachPoint": "",
            "uiIndicator": {
                "templateName": "SocialActivity_Target_Icon"
            },
            "FHNLHBMDPAH": ""
        },
        {
            "groupId": 199001100,
            "mapInstId": 100112,
            "followMoveAttachPoint": "",
            "uiIndicator": {
                "templateName": "SocialActivity_Target_Icon"
            },
            "FHNLHBMDPAH": ""
        },
        {
            "groupId": 199001100,
            "mapInstId": 100157,
            "followMoveAttachPoint": "",
            "uiIndicator": {
                "templateName": "SocialActivity_Target_Icon"
            },
            "FHNLHBMDPAH": ""
        },
        {
            "groupId": 199001100,
            "mapInstId": 100158,
            "followMoveAttachPoint": "",
            "uiIndicator": {
                "templateName": "SocialActivity_Target_Icon"
            },
            "FHNLHBMDPAH": ""
        },
        {
            "groupId": 199001100,
            "mapInstId": 100174,
            "followMoveAttachPoint": "",
            "uiIndicator": {
                "templateName": "SocialActivity_Target_Icon"
            },
            "FHNLHBMDPAH": ""
        },
        {
            "groupId": 199001100,
            "mapInstId": 100183,
            "followMoveAttachPoint": "",
            "uiIndicator": {
                "templateName": "SocialActivity_Target_Icon"
            },
            "FHNLHBMDPAH": ""
        },
        {
            "groupId": 199001100,
            "mapInstId": 100194,
            "followMoveAttachPoint": "",
            "uiIndicator": {
                "templateName": "SocialActivity_Target_Icon"
            },
            "FHNLHBMDPAH": ""
        },
        {
            "groupId": 199001100,
            "mapInstId": 100196,
            "followMoveAttachPoint": "",
            "uiIndicator": {
                "templateName": "SocialActivity_Target_Icon"
            },
            "FHNLHBMDPAH": ""
        },
        {
            "groupId": 199001100,
            "mapInstId": 100229,
            "followMoveAttachPoint": "",
            "uiIndicator": {
                "templateName": "SocialActivity_Target_Icon"
            },
            "FHNLHBMDPAH": ""
        },
        {
            "groupId": 199001100,
            "mapInstId": 100230,
            "followMoveAttachPoint": "",
            "uiIndicator": {
                "templateName": "SocialActivity_Target_Icon"
            },
            "FHNLHBMDPAH": ""
        },
        {
            "groupId": 199001100,
            "mapInstId": 100231,
            "followMoveAttachPoint": "",
            "uiIndicator": {
                "templateName": "SocialActivity_Target_Icon"
            },
            "FHNLHBMDPAH": ""
        },
        {
            "groupId": 199001100,
            "mapInstId": 100254,
            "followMoveAttachPoint": "",
            "uiIndicator": {
                "templateName": "SocialActivity_Target_Icon"
            },
            "FHNLHBMDPAH": ""
        },
        {
            "groupId": 199001100,
            "mapInstId": 100255,
            "followMoveAttachPoint": "",
            "uiIndicator": {
                "templateName": "SocialActivity_Target_Icon"
            },
            "FHNLHBMDPAH": ""
        },
        {
            "groupId": 199001100,
            "mapInstId": 100256,
            "followMoveAttachPoint": "",
            "uiIndicator": {
                "templateName": "SocialActivity_Target_Icon"
            },
            "FHNLHBMDPAH": ""
        },
        {
            "groupId": 199001100,
            "mapInstId": 100271,
            "followMoveAttachPoint": "",
            "uiIndicator": {
                "templateName": "SocialActivity_Target_Icon"
            },
            "FHNLHBMDPAH": ""
        },
        {
            "groupId": 199001100,
            "mapInstId": 100272,
            "followMoveAttachPoint": "",
            "uiIndicator": {
                "templateName": "SocialActivity_Target_Icon"
            },
            "FHNLHBMDPAH": ""
        },
        {
            "groupId": 199001104,
            "mapInstId": 104001,
            "followMoveAttachPoint": "",
            "uiIndicator": {
                "templateName": "SocialActivity_Start_Worktop_Icon"
            },
            "FHNLHBMDPAH": ""
        },
        {
            "groupId": 199001106,
            "mapInstId": 106004,
            "followMoveAttachPoint": "",
            "uiIndicator": {
                "templateName": "Normal_Chest_Icon"
            },
            "FHNLHBMDPAH": ""
        },
        {
            "groupId": 199001108,
            "mapInstId": 108008,
            "followMoveAttachPoint": "",
            "uiIndicator": {
                "templateName": "Normal_Chest_Icon"
            },
            "FHNLHBMDPAH": ""
        },
        {
            "groupId": 199001109,
            "mapInstId": 109026,
            "followMoveAttachPoint": "",
            "uiIndicator": {
                "templateName": "Normal_Chest_Icon"
            },
            "FHNLHBMDPAH": ""
        },
        {
            "groupId": 199001126,
            "mapInstId": 126002,
            "followMoveAttachPoint": "",
            "uiIndicator": {
                "templateName": "Normal_Chest_Icon"
            },
            "FHNLHBMDPAH": ""
        },
        {
            "groupId": 199001126,
            "mapInstId": 126005,
            "followMoveAttachPoint": "",
            "uiIndicator": {
                "templateName": "Normal_Chest_Icon"
            },
            "FHNLHBMDPAH": ""
        },
        {
            "groupId": 199001128,
            "mapInstId": 128006,
            "followMoveAttachPoint": "",
            "uiIndicator": {
                "templateName": "Normal_Chest_Icon"
            },
            "FHNLHBMDPAH": ""
        },
        {
            "groupId": 199001129,
            "mapInstId": 129002,
            "followMoveAttachPoint": "",
            "uiIndicator": {
                "templateName": "Normal_Chest_Icon"
            },
            "FHNLHBMDPAH": ""
        },
        {
            "groupId": 199001138,
            "mapInstId": 138002,
            "followMoveAttachPoint": "",
            "uiIndicator": {
                "templateName": "Normal_Chest_Icon"
            },
            "FHNLHBMDPAH": ""
        },
        {
            "groupId": 199001148,
            "mapInstId": 148021,
            "followMoveAttachPoint": "",
            "uiIndicator": {
                "templateName": "Normal_Chest_Icon"
            },
            "FHNLHBMDPAH": ""
        },
        {
            "groupId": 199001151,
            "mapInstId": 151001,
            "followMoveAttachPoint": "",
            "uiIndicator": {
                "templateName": "ChestUnlock_Icon"
            },
            "FHNLHBMDPAH": ""
        },
        {
            "groupId": 199001156,
            "mapInstId": 156008,
            "followMoveAttachPoint": "",
            "uiIndicator": {
                "templateName": "Normal_Chest_Icon"
            },
            "FHNLHBMDPAH": ""
        },
        {
            "groupId": 199001157,
            "mapInstId": 157002,
            "followMoveAttachPoint": "",
            "uiIndicator": {
                "templateName": "Normal_Chest_Icon"
            },
            "FHNLHBMDPAH": ""
        },
        {
            "groupId": 199001158,
            "mapInstId": 158001,
            "followMoveAttachPoint": "",
            "uiIndicator": {
                "templateName": "GadgetCreate_Icon"
            },
            "FHNLHBMDPAH": ""
        },
        {
            "groupId": 199001158,
            "mapInstId": 158003,
            "followMoveAttachPoint": "",
            "uiIndicator": {
                "templateName": "Normal_Chest_Icon"
            },
            "FHNLHBMDPAH": ""
        },
        {
            "groupId": 199001158,
            "mapInstId": 158004,
            "followMoveAttachPoint": "",
            "uiIndicator": {
                "templateName": "GadgetCreate_Icon"
            },
            "FHNLHBMDPAH": ""
        },
        {
            "groupId": 199001158,
            "mapInstId": 158013,
            "followMoveAttachPoint": "",
            "uiIndicator": {
                "templateName": "GadgetCreate_Icon"
            },
            "FHNLHBMDPAH": ""
        },
        {
            "groupId": 199001158,
            "mapInstId": 158014,
            "followMoveAttachPoint": "",
            "uiIndicator": {
                "templateName": "GadgetCreate_Icon"
            },
            "FHNLHBMDPAH": ""
        },
        {
            "groupId": 199001158,
            "mapInstId": 158015,
            "followMoveAttachPoint": "",
            "uiIndicator": {
                "templateName": "GadgetCreate_Icon"
            },
            "FHNLHBMDPAH": ""
        },
        {
            "groupId": 199001158,
            "mapInstId": 158016,
            "followMoveAttachPoint": "",
            "uiIndicator": {
                "templateName": "GadgetCreate_Icon"
            },
            "FHNLHBMDPAH": ""
        },
        {
            "groupId": 199001161,
            "mapInstId": 161002,
            "followMoveAttachPoint": "",
            "uiIndicator": {
                "templateName": "Normal_Chest_Icon"
            },
            "FHNLHBMDPAH": ""
        },
        {
            "groupId": 199001162,
            "mapInstId": 162002,
            "followMoveAttachPoint": "",
            "uiIndicator": {
                "templateName": "Normal_Chest_Icon"
            },
            "FHNLHBMDPAH": ""
        },
        {
            "groupId": 199001173,
            "mapInstId": 173002,
            "followMoveAttachPoint": "",
            "uiIndicator": {
                "templateName": "Normal_Chest_Icon"
            },
            "FHNLHBMDPAH": ""
        },
        {
            "groupId": 199001175,
            "mapInstId": 175002,
            "followMoveAttachPoint": "",
            "uiIndicator": {
                "templateName": "Normal_Chest_Icon"
            },
            "FHNLHBMDPAH": ""
        },
        {
            "groupId": 199001177,
            "mapInstId": 177001,
            "followMoveAttachPoint": "",
            "uiIndicator": {
                "templateName": "Normal_Chest_Icon"
            },
            "FHNLHBMDPAH": ""
        },
        {
            "groupId": 199001178,
            "mapInstId": 178002,
            "followMoveAttachPoint": "",
            "uiIndicator": {
                "templateName": "Normal_Chest_Icon"
            },
            "FHNLHBMDPAH": ""
        },
        {
            "groupId": 199001182,
            "mapInstId": 182011,
            "followMoveAttachPoint": "",
            "uiIndicator": {
                "templateName": "ChestUnlock_Icon"
            },
            "FHNLHBMDPAH": ""
        },
        {
            "groupId": 199001197,
            "mapInstId": 197002,
            "followMoveAttachPoint": "",
            "uiIndicator": {
                "templateName": "Normal_Chest_Icon"
            },
            "FHNLHBMDPAH": ""
        },
        {
            "groupId": 199001198,
            "mapInstId": 198011,
            "followMoveAttachPoint": "",
            "uiIndicator": {
                "templateName": "ChestUnlock_Icon"
            },
            "FHNLHBMDPAH": ""
        },
        {
            "groupId": 199001200,
            "mapInstId": 200002,
            "followMoveAttachPoint": "",
            "uiIndicator": {
                "templateName": "Normal_Chest_Icon"
            },
            "FHNLHBMDPAH": ""
        },
        {
            "groupId": 199001201,
            "mapInstId": 201004,
            "followMoveAttachPoint": "",
            "uiIndicator": {
                "templateName": "Normal_Chest_Icon"
            },
            "FHNLHBMDPAH": ""
        },
        {
            "groupId": 199001224,
            "mapInstId": 224002,
            "followMoveAttachPoint": "",
            "uiIndicator": {
                "templateName": "Normal_Chest_Icon"
            },
            "FHNLHBMDPAH": ""
        },
        {
            "groupId": 199001234,
            "mapInstId": 234002,
            "followMoveAttachPoint": "",
            "uiIndicator": {
                "templateName": "Normal_Chest_Icon"
            },
            "FHNLHBMDPAH": ""
        },
        {
            "groupId": 199001242,
            "mapInstId": 242004,
            "followMoveAttachPoint": "",
            "uiIndicator": {
                "templateName": "Normal_Chest_Icon"
            },
            "FHNLHBMDPAH": ""
        },
        {
            "groupId": 199001243,
            "mapInstId": 243001,
            "followMoveAttachPoint": "",
            "uiIndicator": {
                "templateName": "Normal_Chest_Icon"
            },
            "FHNLHBMDPAH": ""
        },
        {
            "groupId": 199001244,
            "mapInstId": 244001,
            "followMoveAttachPoint": "",
            "uiIndicator": {
                "templateName": "Normal_Chest_Icon"
            },
            "FHNLHBMDPAH": ""
        },
        {
            "groupId": 199001245,
            "mapInstId": 245001,
            "followMoveAttachPoint": "",
            "uiIndicator": {
                "templateName": "Normal_Chest_Icon"
            },
            "FHNLHBMDPAH": ""
        },
        {
            "groupId": 199001246,
            "mapInstId": 246001,
            "followMoveAttachPoint": "",
            "uiIndicator": {
                "templateName": "Normal_Chest_Icon"
            },
            "FHNLHBMDPAH": ""
        },
        {
            "groupId": 199001248,
            "mapInstId": 248001,
            "followMoveAttachPoint": "",
            "uiIndicator": {
                "templateName": "Normal_Chest_Icon"
            },
            "FHNLHBMDPAH": ""
        },
        {
            "groupId": 199001252,
            "mapInstId": 252001,
            "followMoveAttachPoint": "",
            "uiIndicator": {
                "templateName": "ChestUnlock_Icon"
            },
            "FHNLHBMDPAH": ""
        }
    ]
}