{
    "sceneId": 47103,
    "gadgets": [
        {
            "groupId": 247103002,
            "mapInstId": 2008,
            "followMoveAttachPoint": "",
            "uiIndicator": {
                "templateName": "Normal_Quest_Icon_GuidePoint"
            },
            "FHNLHBMDPAH": ""
        },
        {
            "groupId": 247103002,
            "mapInstId": 2009,
            "followMoveAttachPoint": "",
            "uiIndicator": {
                "templateName": "Normal_Quest_Icon_GuidePoint"
            },
            "FHNLHBMDPAH": ""
        }
    ]
}