{
    "sceneId": 3,
    "gadgets": [
        {
            "groupId": 133303001,
            "mapInstId": 1002,
            "followMoveAttachPoint": "",
            "uiIndicator": {
                "templateName": "Normal_Chest_Icon"
            },
            "FHNLHBMDPAH": ""
        },
        {
            "groupId": 133303002,
            "mapInstId": 2009,
            "followMoveAttachPoint": "",
            "uiIndicator": {
                "templateName": "Blossom_Chest_Icon"
            },
            "FHNLHBMDPAH": ""
        },
        {
            "groupId": 133303003,
            "mapInstId": 3009,
            "followMoveAttachPoint": "",
            "uiIndicator": {
                "templateName": "Blossom_Chest_Icon"
            },
            "FHNLHBMDPAH": ""
        },
        {
            "groupId": 133303004,
            "mapInstId": 4009,
            "followMoveAttachPoint": "",
            "uiIndicator": {
                "templateName": "Blossom_Chest_Icon"
            },
            "FHNLHBMDPAH": ""
        },
        {
            "groupId": 133303005,
            "mapInstId": 5009,
            "followMoveAttachPoint": "",
            "uiIndicator": {
                "templateName": "Blossom_Chest_Icon"
            },
            "FHNLHBMDPAH": ""
        },
        {
            "groupId": 133303006,
            "mapInstId": 6009,
            "followMoveAttachPoint": "",
            "uiIndicator": {
                "templateName": "Blossom_Chest_Icon"
            },
            "FHNLHBMDPAH": ""
        },
        {
            "groupId": 133303019,
            "mapInstId": 19024,
            "followMoveAttachPoint": "",
            "uiIndicator": {
                "templateName": "Normal_Chest_Icon"
            },
            "FHNLHBMDPAH": ""
        },
        {
            "groupId": 133303019,
            "mapInstId": 19055,
            "followMoveAttachPoint": "",
            "uiIndicator": {
                "templateName": "GadgetCreate_Icon"
            },
            "FHNLHBMDPAH": ""
        },
        {
            "groupId": 133303020,
            "mapInstId": 20024,
            "followMoveAttachPoint": "",
            "uiIndicator": {
                "templateName": "Normal_Chest_Icon"
            },
            "FHNLHBMDPAH": ""
        },
        {
            "groupId": 133303020,
            "mapInstId": 20026,
            "followMoveAttachPoint": "",
            "uiIndicator": {
                "templateName": "GadgetCreate_Icon"
            },
            "FHNLHBMDPAH": ""
        },
        {
            "groupId": 133303021,
            "mapInstId": 21024,
            "followMoveAttachPoint": "",
            "uiIndicator": {
                "templateName": "Normal_Chest_Icon"
            },
            "FHNLHBMDPAH": ""
        },
        {
            "groupId": 133303021,
            "mapInstId": 21056,
            "followMoveAttachPoint": "",
            "uiIndicator": {
                "templateName": "GadgetCreate_Icon"
            },
            "FHNLHBMDPAH": ""
        },
        {
            "groupId": 133303040,
            "mapInstId": 40003,
            "followMoveAttachPoint": "",
            "uiIndicator": {
                "templateName": "Normal_Chest_Icon"
            },
            "FHNLHBMDPAH": ""
        },
        {
            "groupId": 133303043,
            "mapInstId": 43009,
            "followMoveAttachPoint": "",
            "uiIndicator": {
                "templateName": "Normal_Chest_Icon"
            },
            "FHNLHBMDPAH": ""
        },
        {
            "groupId": 133303045,
            "mapInstId": 45002,
            "followMoveAttachPoint": "",
            "uiIndicator": {
                "templateName": "Normal_Chest_Icon"
            },
            "FHNLHBMDPAH": ""
        },
        {
            "groupId": 133303046,
            "mapInstId": 46004,
            "followMoveAttachPoint": "",
            "uiIndicator": {
                "templateName": "Normal_Chest_Icon"
            },
            "FHNLHBMDPAH": ""
        },
        {
            "groupId": 133303047,
            "mapInstId": 47003,
            "followMoveAttachPoint": "",
            "uiIndicator": {
                "templateName": "Normal_Chest_Icon"
            },
            "FHNLHBMDPAH": ""
        },
        {
            "groupId": 133303053,
            "mapInstId": 53017,
            "followMoveAttachPoint": "",
            "uiIndicator": {
                "templateName": "Normal_Chest_Icon"
            },
            "FHNLHBMDPAH": ""
        },
        {
            "groupId": 133303053,
            "mapInstId": 53028,
            "followMoveAttachPoint": "",
            "uiIndicator": {
                "templateName": "Normal_Chest_Icon"
            },
            "FHNLHBMDPAH": ""
        },
        {
            "groupId": 133303053,
            "mapInstId": 53034,
            "followMoveAttachPoint": "",
            "uiIndicator": {
                "templateName": "Normal_Chest_Icon"
            },
            "FHNLHBMDPAH": ""
        },
        {
            "groupId": 133303066,
            "mapInstId": 66002,
            "followMoveAttachPoint": "",
            "uiIndicator": {
                "templateName": "Normal_Chest_Icon"
            },
            "FHNLHBMDPAH": ""
        },
        {
            "groupId": 133303073,
            "mapInstId": 73002,
            "followMoveAttachPoint": "",
            "uiIndicator": {
                "templateName": "Normal_Chest_Icon"
            },
            "FHNLHBMDPAH": ""
        },
        {
            "groupId": 133303074,
            "mapInstId": 74002,
            "followMoveAttachPoint": "",
            "uiIndicator": {
                "templateName": "Normal_Chest_Icon"
            },
            "FHNLHBMDPAH": ""
        },
        {
            "groupId": 133303075,
            "mapInstId": 75002,
            "followMoveAttachPoint": "",
            "uiIndicator": {
                "templateName": "Normal_Chest_Icon"
            },
            "FHNLHBMDPAH": ""
        },
        {
            "groupId": 133303076,
            "mapInstId": 76002,
            "followMoveAttachPoint": "",
            "uiIndicator": {
                "templateName": "Normal_Chest_Icon"
            },
            "FHNLHBMDPAH": ""
        },
        {
            "groupId": 133303077,
            "mapInstId": 77002,
            "followMoveAttachPoint": "",
            "uiIndicator": {
                "templateName": "Normal_Chest_Icon"
            },
            "FHNLHBMDPAH": ""
        },
        {
            "groupId": 133303078,
            "mapInstId": 78002,
            "followMoveAttachPoint": "",
            "uiIndicator": {
                "templateName": "Normal_Chest_Icon"
            },
            "FHNLHBMDPAH": ""
        },
        {
            "groupId": 133303079,
            "mapInstId": 79002,
            "followMoveAttachPoint": "",
            "uiIndicator": {
                "templateName": "Normal_Chest_Icon"
            },
            "FHNLHBMDPAH": ""
        },
        {
            "groupId": 133303080,
            "mapInstId": 80002,
            "followMoveAttachPoint": "",
            "uiIndicator": {
                "templateName": "Normal_Chest_Icon"
            },
            "FHNLHBMDPAH": ""
        },
        {
            "groupId": 133303087,
            "mapInstId": 87002,
            "followMoveAttachPoint": "",
            "uiIndicator": {
                "templateName": "Normal_Chest_Icon"
            },
            "FHNLHBMDPAH": ""
        },
        {
            "groupId": 133303088,
            "mapInstId": 88002,
            "followMoveAttachPoint": "",
            "uiIndicator": {
                "templateName": "Normal_Chest_Icon"
            },
            "FHNLHBMDPAH": ""
        },
        {
            "groupId": 133303091,
            "mapInstId": 91002,
            "followMoveAttachPoint": "",
            "uiIndicator": {
                "templateName": "Normal_Chest_Icon"
            },
            "FHNLHBMDPAH": ""
        },
        {
            "groupId": 133303099,
            "mapInstId": 99002,
            "followMoveAttachPoint": "",
            "uiIndicator": {
                "templateName": "Normal_Chest_Icon"
            },
            "FHNLHBMDPAH": ""
        },
        {
            "groupId": 133303101,
            "mapInstId": 101002,
            "followMoveAttachPoint": "",
            "uiIndicator": {
                "templateName": "Normal_Chest_Icon"
            },
            "FHNLHBMDPAH": ""
        },
        {
            "groupId": 133303104,
            "mapInstId": 104002,
            "followMoveAttachPoint": "",
            "uiIndicator": {
                "templateName": "Normal_Chest_Icon"
            },
            "FHNLHBMDPAH": ""
        },
        {
            "groupId": 133303105,
            "mapInstId": 105002,
            "followMoveAttachPoint": "",
            "uiIndicator": {
                "templateName": "Normal_Chest_Icon"
            },
            "FHNLHBMDPAH": ""
        },
        {
            "groupId": 133303106,
            "mapInstId": 106002,
            "followMoveAttachPoint": "",
            "uiIndicator": {
                "templateName": "Normal_Chest_Icon"
            },
            "FHNLHBMDPAH": ""
        },
        {
            "groupId": 133303107,
            "mapInstId": 107002,
            "followMoveAttachPoint": "",
            "uiIndicator": {
                "templateName": "Normal_Chest_Icon"
            },
            "FHNLHBMDPAH": ""
        },
        {
            "groupId": 133303108,
            "mapInstId": 108002,
            "followMoveAttachPoint": "",
            "uiIndicator": {
                "templateName": "Normal_Chest_Icon"
            },
            "FHNLHBMDPAH": ""
        },
        {
            "groupId": 133303109,
            "mapInstId": 109002,
            "followMoveAttachPoint": "",
            "uiIndicator": {
                "templateName": "Normal_Chest_Icon"
            },
            "FHNLHBMDPAH": ""
        },
        {
            "groupId": 133303111,
            "mapInstId": 111004,
            "followMoveAttachPoint": "",
            "uiIndicator": {
                "templateName": "Normal_Chest_Icon"
            },
            "FHNLHBMDPAH": ""
        },
        {
            "groupId": 133303114,
            "mapInstId": 114001,
            "followMoveAttachPoint": "",
            "uiIndicator": {
                "templateName": "Normal_Chest_Icon"
            },
            "FHNLHBMDPAH": ""
        },
        {
            "groupId": 133303120,
            "mapInstId": 120004,
            "followMoveAttachPoint": "",
            "uiIndicator": {
                "templateName": "Normal_Chest_Icon"
            },
            "FHNLHBMDPAH": ""
        },
        {
            "groupId": 133303129,
            "mapInstId": 129002,
            "followMoveAttachPoint": "",
            "uiIndicator": {
                "templateName": "Normal_Chest_Icon"
            },
            "FHNLHBMDPAH": ""
        },
        {
            "groupId": 133303146,
            "mapInstId": 146002,
            "followMoveAttachPoint": "",
            "uiIndicator": {
                "templateName": "Normal_Chest_Icon"
            },
            "FHNLHBMDPAH": ""
        },
        {
            "groupId": 133303148,
            "mapInstId": 148004,
            "followMoveAttachPoint": "",
            "uiIndicator": {
                "templateName": "Normal_Chest_Icon"
            },
            "FHNLHBMDPAH": ""
        },
        {
            "groupId": 133303153,
            "mapInstId": 153008,
            "followMoveAttachPoint": "",
            "uiIndicator": {
                "templateName": "Normal_Chest_Icon"
            },
            "FHNLHBMDPAH": ""
        },
        {
            "groupId": 133303157,
            "mapInstId": 157005,
            "followMoveAttachPoint": "",
            "uiIndicator": {
                "templateName": "Normal_Chest_Icon"
            },
            "FHNLHBMDPAH": ""
        },
        {
            "groupId": 133303163,
            "mapInstId": 163004,
            "followMoveAttachPoint": "",
            "uiIndicator": {
                "templateName": "ChestUnlock_Icon"
            },
            "FHNLHBMDPAH": ""
        },
        {
            "groupId": 133303164,
            "mapInstId": 164007,
            "followMoveAttachPoint": "",
            "uiIndicator": {
                "templateName": "Normal_Chest_Icon"
            },
            "FHNLHBMDPAH": ""
        },
        {
            "groupId": 133303168,
            "mapInstId": 168005,
            "followMoveAttachPoint": "",
            "uiIndicator": {
                "templateName": "Normal_Chest_Icon"
            },
            "FHNLHBMDPAH": ""
        },
        {
            "groupId": 133303173,
            "mapInstId": 173005,
            "followMoveAttachPoint": "",
            "uiIndicator": {
                "templateName": "Normal_DailyTask_Icon_GuidePoint"
            },
            "FHNLHBMDPAH": ""
        },
        {
            "groupId": 133303173,
            "mapInstId": 173006,
            "followMoveAttachPoint": "",
            "uiIndicator": {
                "templateName": "Normal_DailyTask_Icon_GravityBoard"
            },
            "FHNLHBMDPAH": ""
        },
        {
            "groupId": 133303173,
            "mapInstId": 173008,
            "followMoveAttachPoint": "",
            "uiIndicator": {
                "templateName": "Normal_DailyTask_Icon_GuidePoint"
            },
            "FHNLHBMDPAH": ""
        },
        {
            "groupId": 133303173,
            "mapInstId": 173010,
            "followMoveAttachPoint": "",
            "uiIndicator": {
                "templateName": "Normal_DailyTask_Icon_GuidePoint"
            },
            "FHNLHBMDPAH": ""
        },
        {
            "groupId": 133303173,
            "mapInstId": 173012,
            "followMoveAttachPoint": "",
            "uiIndicator": {
                "templateName": "Normal_DailyTask_Icon_GuidePoint"
            },
            "FHNLHBMDPAH": ""
        },
        {
            "groupId": 133303173,
            "mapInstId": 173014,
            "followMoveAttachPoint": "",
            "uiIndicator": {
                "templateName": "Normal_DailyTask_Icon_GuidePoint"
            },
            "FHNLHBMDPAH": ""
        },
        {
            "groupId": 133303176,
            "mapInstId": 176009,
            "followMoveAttachPoint": "",
            "uiIndicator": {
                "templateName": "Normal_DailyTask_Icon",
                "paramDatas": {
                    "TaskDummy": "EVENT_32304"
                }
            },
            "FHNLHBMDPAH": ""
        },
        {
            "groupId": 133303176,
            "mapInstId": 176010,
            "followMoveAttachPoint": "",
            "uiIndicator": {
                "templateName": "Normal_DailyTask_Icon",
                "paramDatas": {
                    "TaskDummy": "EVENT_32304"
                }
            },
            "FHNLHBMDPAH": ""
        },
        {
            "groupId": 133303191,
            "mapInstId": 191004,
            "followMoveAttachPoint": "",
            "uiIndicator": {
                "templateName": "Normal_Chest_Icon"
            },
            "FHNLHBMDPAH": ""
        },
        {
            "groupId": 133303199,
            "mapInstId": 199005,
            "followMoveAttachPoint": "",
            "uiIndicator": {
                "templateName": "Normal_Chest_Icon"
            },
            "FHNLHBMDPAH": ""
        },
        {
            "groupId": 133303201,
            "mapInstId": 201002,
            "followMoveAttachPoint": "",
            "uiIndicator": {
                "templateName": "Normal_Chest_Icon"
            },
            "FHNLHBMDPAH": ""
        },
        {
            "groupId": 133303207,
            "mapInstId": 207004,
            "followMoveAttachPoint": "",
            "uiIndicator": {
                "templateName": "Normal_Chest_Icon",
                "paramDatas": {
                    "show_distance": "10",
                    "hide_distance": "12"
                }
            },
            "FHNLHBMDPAH": ""
        },
        {
            "groupId": 133303208,
            "mapInstId": 208004,
            "followMoveAttachPoint": "",
            "uiIndicator": {
                "templateName": "Normal_Chest_Icon"
            },
            "FHNLHBMDPAH": ""
        },
        {
            "groupId": 133303227,
            "mapInstId": 227001,
            "followMoveAttachPoint": "",
            "uiIndicator": {
                "templateName": "GadgetCreate_Icon"
            },
            "FHNLHBMDPAH": ""
        },
        {
            "groupId": 133303227,
            "mapInstId": 227003,
            "followMoveAttachPoint": "",
            "uiIndicator": {
                "templateName": "Normal_Chest_Icon"
            },
            "FHNLHBMDPAH": ""
        },
        {
            "groupId": 133303227,
            "mapInstId": 227004,
            "followMoveAttachPoint": "",
            "uiIndicator": {
                "templateName": "GadgetCreate_Icon"
            },
            "FHNLHBMDPAH": ""
        },
        {
            "groupId": 133303227,
            "mapInstId": 227013,
            "followMoveAttachPoint": "",
            "uiIndicator": {
                "templateName": "GadgetCreate_Icon"
            },
            "FHNLHBMDPAH": ""
        },
        {
            "groupId": 133303227,
            "mapInstId": 227014,
            "followMoveAttachPoint": "",
            "uiIndicator": {
                "templateName": "GadgetCreate_Icon"
            },
            "FHNLHBMDPAH": ""
        },
        {
            "groupId": 133303236,
            "mapInstId": 236007,
            "followMoveAttachPoint": "",
            "uiIndicator": {
                "templateName": "Normal_Chest_Icon"
            },
            "FHNLHBMDPAH": ""
        },
        {
            "groupId": 133303259,
            "mapInstId": 259001,
            "followMoveAttachPoint": "",
            "uiIndicator": {
                "templateName": "GadgetCreate_Icon"
            },
            "FHNLHBMDPAH": ""
        },
        {
            "groupId": 133303259,
            "mapInstId": 259003,
            "followMoveAttachPoint": "",
            "uiIndicator": {
                "templateName": "Normal_Chest_Icon"
            },
            "FHNLHBMDPAH": ""
        },
        {
            "groupId": 133303259,
            "mapInstId": 259004,
            "followMoveAttachPoint": "",
            "uiIndicator": {
                "templateName": "GadgetCreate_Icon"
            },
            "FHNLHBMDPAH": ""
        },
        {
            "groupId": 133303259,
            "mapInstId": 259014,
            "followMoveAttachPoint": "",
            "uiIndicator": {
                "templateName": "GadgetCreate_Icon"
            },
            "FHNLHBMDPAH": ""
        },
        {
            "groupId": 133303265,
            "mapInstId": 265001,
            "followMoveAttachPoint": "",
            "uiIndicator": {
                "templateName": "Normal_Chest_Icon"
            },
            "FHNLHBMDPAH": ""
        },
        {
            "groupId": 133303268,
            "mapInstId": 268001,
            "followMoveAttachPoint": "",
            "uiIndicator": {
                "templateName": "GadgetCreate_Icon"
            },
            "FHNLHBMDPAH": ""
        },
        {
            "groupId": 133303268,
            "mapInstId": 268003,
            "followMoveAttachPoint": "",
            "uiIndicator": {
                "templateName": "Normal_Chest_Icon"
            },
            "FHNLHBMDPAH": ""
        },
        {
            "groupId": 133303268,
            "mapInstId": 268004,
            "followMoveAttachPoint": "",
            "uiIndicator": {
                "templateName": "GadgetCreate_Icon"
            },
            "FHNLHBMDPAH": ""
        },
        {
            "groupId": 133303268,
            "mapInstId": 268013,
            "followMoveAttachPoint": "",
            "uiIndicator": {
                "templateName": "GadgetCreate_Icon"
            },
            "FHNLHBMDPAH": ""
        },
        {
            "groupId": 133303268,
            "mapInstId": 268014,
            "followMoveAttachPoint": "",
            "uiIndicator": {
                "templateName": "GadgetCreate_Icon"
            },
            "FHNLHBMDPAH": ""
        },
        {
            "groupId": 133303271,
            "mapInstId": 271001,
            "followMoveAttachPoint": "",
            "uiIndicator": {
                "templateName": "Normal_Chest_Icon"
            },
            "FHNLHBMDPAH": ""
        },
        {
            "groupId": 133303272,
            "mapInstId": 272002,
            "followMoveAttachPoint": "",
            "uiIndicator": {
                "templateName": "Normal_Chest_Icon"
            },
            "FHNLHBMDPAH": ""
        },
        {
            "groupId": 133303274,
            "mapInstId": 274007,
            "followMoveAttachPoint": "",
            "uiIndicator": {
                "templateName": "Normal_Chest_Icon"
            },
            "FHNLHBMDPAH": ""
        },
        {
            "groupId": 133303275,
            "mapInstId": 275004,
            "followMoveAttachPoint": "",
            "uiIndicator": {
                "templateName": "Normal_Chest_Icon"
            },
            "FHNLHBMDPAH": ""
        },
        {
            "groupId": 133303279,
            "mapInstId": 279004,
            "followMoveAttachPoint": "",
            "uiIndicator": {
                "templateName": "Normal_Chest_Icon"
            },
            "FHNLHBMDPAH": ""
        },
        {
            "groupId": 133303283,
            "mapInstId": 283004,
            "followMoveAttachPoint": "",
            "uiIndicator": {
                "templateName": "Normal_Chest_Icon"
            },
            "FHNLHBMDPAH": ""
        },
        {
            "groupId": 133303287,
            "mapInstId": 287004,
            "followMoveAttachPoint": "",
            "uiIndicator": {
                "templateName": "Normal_Chest_Icon"
            },
            "FHNLHBMDPAH": ""
        },
        {
            "groupId": 133303291,
            "mapInstId": 291004,
            "followMoveAttachPoint": "",
            "uiIndicator": {
                "templateName": "Normal_Chest_Icon"
            },
            "FHNLHBMDPAH": ""
        },
        {
            "groupId": 133303295,
            "mapInstId": 295004,
            "followMoveAttachPoint": "",
            "uiIndicator": {
                "templateName": "Normal_Chest_Icon"
            },
            "FHNLHBMDPAH": ""
        },
        {
            "groupId": 133303299,
            "mapInstId": 299004,
            "followMoveAttachPoint": "",
            "uiIndicator": {
                "templateName": "Normal_Chest_Icon"
            },
            "FHNLHBMDPAH": ""
        },
        {
            "groupId": 133303303,
            "mapInstId": 303004,
            "followMoveAttachPoint": "",
            "uiIndicator": {
                "templateName": "Normal_Chest_Icon"
            },
            "FHNLHBMDPAH": ""
        },
        {
            "groupId": 133303307,
            "mapInstId": 307007,
            "followMoveAttachPoint": "",
            "uiIndicator": {
                "templateName": "Normal_Chest_Icon"
            },
            "FHNLHBMDPAH": ""
        },
        {
            "groupId": 133303308,
            "mapInstId": 308011,
            "followMoveAttachPoint": "",
            "uiIndicator": {
                "templateName": "Normal_Chest_Icon"
            },
            "FHNLHBMDPAH": ""
        },
        {
            "groupId": 133303312,
            "mapInstId": 312018,
            "followMoveAttachPoint": "",
            "uiIndicator": {
                "templateName": "Normal_Chest_Icon"
            },
            "FHNLHBMDPAH": ""
        },
        {
            "groupId": 133303315,
            "mapInstId": 315007,
            "followMoveAttachPoint": "",
            "uiIndicator": {
                "templateName": "Normal_Chest_Icon"
            },
            "FHNLHBMDPAH": ""
        },
        {
            "groupId": 133303316,
            "mapInstId": 316007,
            "followMoveAttachPoint": "",
            "uiIndicator": {
                "templateName": "Normal_Chest_Icon"
            },
            "FHNLHBMDPAH": ""
        },
        {
            "groupId": 133303325,
            "mapInstId": 325004,
            "followMoveAttachPoint": "",
            "uiIndicator": {
                "templateName": "Normal_Chest_Icon"
            },
            "FHNLHBMDPAH": ""
        },
        {
            "groupId": 133303327,
            "mapInstId": 327004,
            "followMoveAttachPoint": "",
            "uiIndicator": {
                "templateName": "Normal_Chest_Icon"
            },
            "FHNLHBMDPAH": ""
        },
        {
            "groupId": 133303329,
            "mapInstId": 329004,
            "followMoveAttachPoint": "",
            "uiIndicator": {
                "templateName": "Normal_Chest_Icon"
            },
            "FHNLHBMDPAH": ""
        },
        {
            "groupId": 133303333,
            "mapInstId": 333009,
            "followMoveAttachPoint": "",
            "uiIndicator": {
                "templateName": "Normal_Chest_Icon"
            },
            "FHNLHBMDPAH": ""
        },
        {
            "groupId": 133303334,
            "mapInstId": 334006,
            "followMoveAttachPoint": "",
            "uiIndicator": {
                "templateName": "Normal_Chest_Icon"
            },
            "FHNLHBMDPAH": ""
        },
        {
            "groupId": 133303335,
            "mapInstId": 335002,
            "followMoveAttachPoint": "",
            "uiIndicator": {
                "templateName": "Normal_Chest_Icon"
            },
            "FHNLHBMDPAH": ""
        },
        {
            "groupId": 133303340,
            "mapInstId": 340001,
            "followMoveAttachPoint": "",
            "uiIndicator": {
                "templateName": "Normal_Chest_Icon"
            },
            "FHNLHBMDPAH": ""
        },
        {
            "groupId": 133303345,
            "mapInstId": 345007,
            "followMoveAttachPoint": "",
            "uiIndicator": {
                "templateName": "Normal_Chest_Icon"
            },
            "FHNLHBMDPAH": ""
        },
        {
            "groupId": 133303349,
            "mapInstId": 349002,
            "followMoveAttachPoint": "",
            "uiIndicator": {
                "templateName": "Normal_Chest_Icon"
            },
            "FHNLHBMDPAH": ""
        },
        {
            "groupId": 133303356,
            "mapInstId": 356005,
            "followMoveAttachPoint": "",
            "uiIndicator": {
                "templateName": "Normal_Chest_Icon"
            },
            "FHNLHBMDPAH": ""
        },
        {
            "groupId": 133303359,
            "mapInstId": 359001,
            "followMoveAttachPoint": "",
            "uiIndicator": {
                "templateName": "Normal_Chest_Icon"
            },
            "FHNLHBMDPAH": ""
        },
        {
            "groupId": 133303362,
            "mapInstId": 362001,
            "followMoveAttachPoint": "",
            "uiIndicator": {
                "templateName": "Normal_Chest_Icon"
            },
            "FHNLHBMDPAH": ""
        },
        {
            "groupId": 133303368,
            "mapInstId": 368001,
            "followMoveAttachPoint": "",
            "uiIndicator": {
                "templateName": "Normal_Chest_Icon"
            },
            "FHNLHBMDPAH": ""
        },
        {
            "groupId": 133303372,
            "mapInstId": 372003,
            "followMoveAttachPoint": "",
            "trigger": {
                "NHCPEFBMPLC": true,
                "triggerFlag": "TeleportWithoutPaimonReminder",
                "EIBECKPGBJD": true,
                "JIKKPDOLFIB": {
                    "$type": "ConfigLocalTriggerMeta",
                    "vectorParam": {
                        "x": -1871.2039794921875,
                        "y": 324.5096130371094,
                        "z": 3731.93505859375
                    },
                    "floatParam": 326.0,
                    "stringParam": ""
                }
            },
            "FHNLHBMDPAH": ""
        },
        {
            "groupId": 133303372,
            "mapInstId": 372004,
            "followMoveAttachPoint": "",
            "trigger": {
                "NHCPEFBMPLC": true,
                "triggerFlag": "TeleportWithoutPaimonReminder",
                "EIBECKPGBJD": true,
                "JIKKPDOLFIB": {
                    "$type": "ConfigLocalTriggerMeta",
                    "vectorParam": {
                        "x": -1879.1910400390625,
                        "y": 366.8262939453125,
                        "z": 3755.012939453125
                    },
                    "floatParam": 141.0,
                    "stringParam": ""
                }
            },
            "FHNLHBMDPAH": ""
        },
        {
            "groupId": 133303373,
            "mapInstId": 373003,
            "followMoveAttachPoint": "",
            "trigger": {
                "NHCPEFBMPLC": true,
                "triggerFlag": "TeleportWithoutPaimonReminder",
                "EIBECKPGBJD": true,
                "JIKKPDOLFIB": {
                    "$type": "ConfigLocalTriggerMeta",
                    "vectorParam": {
                        "x": -1400.5040283203125,
                        "y": 239.5937957763672,
                        "z": 3714.0869140625
                    },
                    "floatParam": 193.0,
                    "stringParam": ""
                }
            },
            "FHNLHBMDPAH": ""
        },
        {
            "groupId": 133303373,
            "mapInstId": 373004,
            "followMoveAttachPoint": "",
            "trigger": {
                "NHCPEFBMPLC": true,
                "triggerFlag": "TeleportWithoutPaimonReminder",
                "EIBECKPGBJD": true,
                "JIKKPDOLFIB": {
                    "$type": "ConfigLocalTriggerMeta",
                    "vectorParam": {
                        "x": -1415.06103515625,
                        "y": 288.1098937988281,
                        "z": 3718.4541015625
                    },
                    "floatParam": 24.0,
                    "stringParam": ""
                }
            },
            "FHNLHBMDPAH": ""
        },
        {
            "groupId": 133303397,
            "mapInstId": 397008,
            "followMoveAttachPoint": "",
            "uiIndicator": {
                "templateName": "Normal_Chest_Icon"
            },
            "FHNLHBMDPAH": ""
        },
        {
            "groupId": 133303398,
            "mapInstId": 398006,
            "followMoveAttachPoint": "",
            "uiIndicator": {
                "templateName": "Normal_Chest_Icon"
            },
            "FHNLHBMDPAH": ""
        },
        {
            "groupId": 133303410,
            "mapInstId": 410004,
            "followMoveAttachPoint": "",
            "uiIndicator": {
                "templateName": "Normal_Chest_Icon"
            },
            "FHNLHBMDPAH": ""
        },
        {
            "groupId": 133303415,
            "mapInstId": 415001,
            "followMoveAttachPoint": "",
            "uiIndicator": {
                "templateName": "Normal_Chest_Icon"
            },
            "FHNLHBMDPAH": ""
        },
        {
            "groupId": 133303419,
            "mapInstId": 419004,
            "followMoveAttachPoint": "",
            "uiIndicator": {
                "templateName": "Normal_Chest_Icon"
            },
            "FHNLHBMDPAH": ""
        },
        {
            "groupId": 133303421,
            "mapInstId": 421003,
            "followMoveAttachPoint": "",
            "uiIndicator": {
                "templateName": "Normal_Chest_Icon"
            },
            "FHNLHBMDPAH": ""
        },
        {
            "groupId": 133303423,
            "mapInstId": 423002,
            "followMoveAttachPoint": "",
            "uiIndicator": {
                "templateName": "Normal_Chest_Icon"
            },
            "FHNLHBMDPAH": ""
        },
        {
            "groupId": 133303429,
            "mapInstId": 429003,
            "followMoveAttachPoint": "",
            "uiIndicator": {
                "templateName": "Normal_Chest_Icon"
            },
            "FHNLHBMDPAH": ""
        },
        {
            "groupId": 133303431,
            "mapInstId": 431007,
            "followMoveAttachPoint": "",
            "uiIndicator": {
                "templateName": "Normal_Chest_Icon"
            },
            "FHNLHBMDPAH": ""
        },
        {
            "groupId": 133303442,
            "mapInstId": 442002,
            "followMoveAttachPoint": "",
            "uiIndicator": {
                "templateName": "Normal_Chest_Icon"
            },
            "FHNLHBMDPAH": ""
        },
        {
            "groupId": 133303448,
            "mapInstId": 448002,
            "followMoveAttachPoint": "",
            "uiIndicator": {
                "templateName": "Normal_Chest_Icon"
            },
            "FHNLHBMDPAH": ""
        },
        {
            "groupId": 133303453,
            "mapInstId": 453001,
            "followMoveAttachPoint": "",
            "uiIndicator": {
                "templateName": "Normal_Chest_Icon"
            },
            "FHNLHBMDPAH": ""
        },
        {
            "groupId": 133303454,
            "mapInstId": 454001,
            "followMoveAttachPoint": "",
            "uiIndicator": {
                "templateName": "Normal_Chest_Icon"
            },
            "FHNLHBMDPAH": ""
        },
        {
            "groupId": 133303455,
            "mapInstId": 455004,
            "followMoveAttachPoint": "",
            "uiIndicator": {
                "templateName": "Normal_Chest_Icon"
            },
            "FHNLHBMDPAH": ""
        },
        {
            "groupId": 133303457,
            "mapInstId": 457004,
            "followMoveAttachPoint": "",
            "uiIndicator": {
                "templateName": "Normal_Chest_Icon"
            },
            "FHNLHBMDPAH": ""
        },
        {
            "groupId": 133303461,
            "mapInstId": 461004,
            "followMoveAttachPoint": "",
            "uiIndicator": {
                "templateName": "Normal_Chest_Icon"
            },
            "FHNLHBMDPAH": ""
        },
        {
            "groupId": 133303468,
            "mapInstId": 468007,
            "followMoveAttachPoint": "",
            "uiIndicator": {
                "templateName": "ChestUnlock_Icon"
            },
            "FHNLHBMDPAH": ""
        },
        {
            "groupId": 133303474,
            "mapInstId": 474001,
            "followMoveAttachPoint": "",
            "uiIndicator": {
                "templateName": "Normal_Chest_Icon"
            },
            "FHNLHBMDPAH": ""
        },
        {
            "groupId": 133303478,
            "mapInstId": 478018,
            "followMoveAttachPoint": "",
            "uiIndicator": {
                "templateName": "Normal_Chest_Icon"
            },
            "FHNLHBMDPAH": ""
        },
        {
            "groupId": 133303484,
            "mapInstId": 484002,
            "followMoveAttachPoint": "",
            "uiIndicator": {
                "templateName": "Normal_DailyTask_Icon"
            },
            "FHNLHBMDPAH": ""
        },
        {
            "groupId": 133303486,
            "mapInstId": 486005,
            "followMoveAttachPoint": "",
            "uiIndicator": {
                "templateName": "Normal_Chest_Icon"
            },
            "FHNLHBMDPAH": ""
        },
        {
            "groupId": 133303487,
            "mapInstId": 487003,
            "followMoveAttachPoint": "",
            "uiIndicator": {
                "templateName": "Normal_Chest_Icon"
            },
            "FHNLHBMDPAH": ""
        },
        {
            "groupId": 133303488,
            "mapInstId": 488003,
            "followMoveAttachPoint": "",
            "uiIndicator": {
                "templateName": "Normal_Chest_Icon"
            },
            "FHNLHBMDPAH": ""
        },
        {
            "groupId": 133303492,
            "mapInstId": 492002,
            "followMoveAttachPoint": "",
            "uiIndicator": {
                "templateName": "Normal_Chest_Icon"
            },
            "FHNLHBMDPAH": ""
        },
        {
            "groupId": 133303493,
            "mapInstId": 493001,
            "followMoveAttachPoint": "",
            "uiIndicator": {
                "templateName": "Normal_Chest_Icon"
            },
            "FHNLHBMDPAH": ""
        },
        {
            "groupId": 133303495,
            "mapInstId": 495003,
            "followMoveAttachPoint": "",
            "uiIndicator": {
                "templateName": "Normal_Chest_Icon"
            },
            "FHNLHBMDPAH": ""
        },
        {
            "groupId": 133303497,
            "mapInstId": 497004,
            "followMoveAttachPoint": "",
            "uiIndicator": {
                "templateName": "Normal_Chest_Icon"
            },
            "FHNLHBMDPAH": ""
        },
        {
            "groupId": 133303498,
            "mapInstId": 498003,
            "followMoveAttachPoint": "",
            "uiIndicator": {
                "templateName": "Normal_Chest_Icon"
            },
            "FHNLHBMDPAH": ""
        },
        {
            "groupId": 133303500,
            "mapInstId": 500002,
            "followMoveAttachPoint": "",
            "uiIndicator": {
                "templateName": "Normal_Chest_Icon"
            },
            "FHNLHBMDPAH": ""
        },
        {
            "groupId": 133303501,
            "mapInstId": 501003,
            "followMoveAttachPoint": "",
            "uiIndicator": {
                "templateName": "Normal_Chest_Icon"
            },
            "FHNLHBMDPAH": ""
        },
        {
            "groupId": 133303502,
            "mapInstId": 502003,
            "followMoveAttachPoint": "",
            "uiIndicator": {
                "templateName": "Normal_Chest_Icon"
            },
            "FHNLHBMDPAH": ""
        },
        {
            "groupId": 133303505,
            "mapInstId": 505005,
            "followMoveAttachPoint": "",
            "uiIndicator": {
                "templateName": "Normal_Chest_Icon"
            },
            "FHNLHBMDPAH": ""
        },
        {
            "groupId": 133303525,
            "mapInstId": 525002,
            "followMoveAttachPoint": "",
            "uiIndicator": {
                "templateName": "Normal_Chest_Icon"
            },
            "FHNLHBMDPAH": ""
        },
        {
            "groupId": 133303529,
            "mapInstId": 529004,
            "followMoveAttachPoint": "",
            "uiIndicator": {
                "templateName": "Normal_Chest_Icon"
            },
            "FHNLHBMDPAH": ""
        },
        {
            "groupId": 133303531,
            "mapInstId": 531004,
            "followMoveAttachPoint": "",
            "uiIndicator": {
                "templateName": "Normal_Chest_Icon"
            },
            "FHNLHBMDPAH": ""
        },
        {
            "groupId": 133303548,
            "mapInstId": 548001,
            "followMoveAttachPoint": "",
            "uiIndicator": {
                "templateName": "Normal_Chest_Icon"
            },
            "FHNLHBMDPAH": ""
        },
        {
            "groupId": 133303549,
            "mapInstId": 549005,
            "followMoveAttachPoint": "",
            "uiIndicator": {
                "templateName": "Normal_Chest_Icon"
            },
            "FHNLHBMDPAH": ""
        },
        {
            "groupId": 133303556,
            "mapInstId": 556005,
            "followMoveAttachPoint": "",
            "uiIndicator": {
                "templateName": "Normal_Chest_Icon"
            },
            "FHNLHBMDPAH": ""
        },
        {
            "groupId": 133303561,
            "mapInstId": 561004,
            "followMoveAttachPoint": "",
            "uiIndicator": {
                "templateName": "Normal_Chest_Icon"
            },
            "FHNLHBMDPAH": ""
        },
        {
            "groupId": 133303566,
            "mapInstId": 566004,
            "followMoveAttachPoint": "",
            "uiIndicator": {
                "templateName": "Normal_Chest_Icon"
            },
            "FHNLHBMDPAH": ""
        },
        {
            "groupId": 133303571,
            "mapInstId": 571003,
            "followMoveAttachPoint": "",
            "uiIndicator": {
                "templateName": "Normal_Chest_Icon"
            },
            "FHNLHBMDPAH": ""
        },
        {
            "groupId": 133303575,
            "mapInstId": 575002,
            "followMoveAttachPoint": "",
            "uiIndicator": {
                "templateName": "Normal_Chest_Icon"
            },
            "FHNLHBMDPAH": ""
        },
        {
            "groupId": 133303582,
            "mapInstId": 582001,
            "followMoveAttachPoint": "",
            "uiIndicator": {
                "templateName": "Normal_Chest_Icon"
            },
            "FHNLHBMDPAH": ""
        },
        {
            "groupId": 133303600,
            "mapInstId": 600003,
            "followMoveAttachPoint": "",
            "uiIndicator": {
                "templateName": "Normal_Chest_Icon"
            },
            "FHNLHBMDPAH": ""
        },
        {
            "groupId": 133303601,
            "mapInstId": 601003,
            "followMoveAttachPoint": "",
            "uiIndicator": {
                "templateName": "Normal_Chest_Icon"
            },
            "FHNLHBMDPAH": ""
        },
        {
            "groupId": 133303644,
            "mapInstId": 644001,
            "followMoveAttachPoint": "",
            "uiIndicator": {
                "templateName": "UI_NPCTopIcon_Blessing"
            },
            "FHNLHBMDPAH": ""
        },
        {
            "groupId": 133303657,
            "mapInstId": 657002,
            "followMoveAttachPoint": "",
            "uiIndicator": {
                "templateName": "Normal_Chest_Icon"
            },
            "FHNLHBMDPAH": ""
        },
        {
            "groupId": 133303659,
            "mapInstId": 659001,
            "followMoveAttachPoint": "",
            "uiIndicator": {
                "templateName": "Normal_Chest_Icon"
            },
            "FHNLHBMDPAH": ""
        },
        {
            "groupId": 133303668,
            "mapInstId": 668001,
            "followMoveAttachPoint": "",
            "uiIndicator": {
                "templateName": "CoinCollect_Board_Icon"
            },
            "FHNLHBMDPAH": ""
        }
    ]
}