{
    "sceneId": 20145,
    "gadgets": [
        {
            "groupId": 220145002,
            "mapInstId": 2003,
            "followMoveAttachPoint": "",
            "trigger": {
                "NHCPEFBMPLC": true,
                "triggerFlag": "TeleportWithoutPaimonReminder",
                "EIBECKPGBJD": true,
                "JIKKPDOLFIB": {
                    "$type": "ConfigLocalTriggerMeta",
                    "vectorParam": {
                        "x": 468.3609924316406,
                        "y": 67.44223022460938,
                        "z": 526.8054809570312
                    },
                    "floatParam": 239.0,
                    "stringParam": ""
                }
            },
            "FHNLHBMDPAH": ""
        },
        {
            "groupId": 220145002,
            "mapInstId": 2004,
            "followMoveAttachPoint": "",
            "trigger": {
                "NHCPEFBMPLC": true,
                "triggerFlag": "TeleportWithoutPaimonReminder",
                "EIBECKPGBJD": true,
                "JIKKPDOLFIB": {
                    "$type": "ConfigLocalTriggerMeta",
                    "vectorParam": {
                        "x": 485.2445068359375,
                        "y": 97.16607666015625,
                        "z": 511.13189697265625
                    },
                    "floatParam": 321.0,
                    "stringParam": ""
                }
            },
            "FHNLHBMDPAH": ""
        },
        {
            "groupId": 220145003,
            "mapInstId": 3003,
            "followMoveAttachPoint": "",
            "trigger": {
                "NHCPEFBMPLC": true,
                "triggerFlag": "TeleportWithoutPaimonReminder",
                "EIBECKPGBJD": true,
                "JIKKPDOLFIB": {
                    "$type": "ConfigLocalTriggerMeta",
                    "vectorParam": {
                        "x": 432.1265869140625,
                        "y": 115.84950256347656,
                        "z": 529.0737915039062
                    },
                    "floatParam": 131.0,
                    "stringParam": ""
                }
            },
            "FHNLHBMDPAH": ""
        },
        {
            "groupId": 220145003,
            "mapInstId": 3004,
            "followMoveAttachPoint": "",
            "trigger": {
                "NHCPEFBMPLC": true,
                "triggerFlag": "TeleportWithoutPaimonReminder",
                "EIBECKPGBJD": true,
                "JIKKPDOLFIB": {
                    "$type": "ConfigLocalTriggerMeta",
                    "vectorParam": {
                        "x": 569.5087890625,
                        "y": 92.11956024169922,
                        "z": 519.0051879882812
                    },
                    "floatParam": 318.0,
                    "stringParam": ""
                }
            },
            "FHNLHBMDPAH": ""
        },
        {
            "groupId": 220145009,
            "mapInstId": 9001,
            "followMoveAttachPoint": "",
            "uiIndicator": {
                "templateName": "Normal_Chest_Icon"
            },
            "FHNLHBMDPAH": ""
        }
    ]
}