{
    "sceneId": 20148,
    "gadgets": [
        {
            "groupId": 220148002,
            "mapInstId": 2001,
            "followMoveAttachPoint": "",
            "uiIndicator": {
                "templateName": "Normal_Quest_Icon_GuidePoint"
            },
            "FHNLHBMDPAH": ""
        }
    ]
}