[
    {
        "id": 1,
        "LLHKCKOBCEL": 171071907
    },
    {
        "id": 2,
        "LLHKCKOBCEL": 1061035051
    },
    {
        "id": 3,
        "unlockCond": "DUEL_LEVEL",
        "GEPDGCLJHDF": 3,
        "LLHKCKOBCEL": 1773509819
    },
    {
        "id": 4,
        "unlockCond": "DUEL_LEVEL",
        "GEPDGCLJHDF": 3,
        "LLHKCKOBCEL": 3642687843
    },
    {
        "id": 5,
        "unlockCond": "DUEL_LEVEL",
        "GEPDGCLJHDF": 5,
        "LLHKCKOBCEL": 1489486907
    },
    {
        "id": 6,
        "unlockCond": "DUEL_LEVEL",
        "GEPDGCLJHDF": 5,
        "LLHKCKOBCEL": 665882659
    },
    {
        "id": 7,
        "unlockCond": "DUEL_LEVEL",
        "GEPDGCLJHDF": 7,
        "LLHKCKOBCEL": 2041915275
    },
    {
        "id": 8,
        "unlockCond": "DUEL_LEVEL",
        "GEPDGCLJHDF": 7,
        "LLHKCKOBCEL": 1117366971
    },
    {
        "id": 9,
        "unlockCond": "DUEL_LEVEL",
        "GEPDGCLJHDF": 10,
        "LLHKCKOBCEL": 1051809523
    },
    {
        "id": 10,
        "unlockCond": "DUEL_LEVEL",
        "GEPDGCLJHDF": 10,
        "LLHKCKOBCEL": 3896187699
    }
]