[
    {
        "id": 10000031,
        "iconName": "UI_AvatarIcon_Fischl"
    },
    {
        "id": 10000039,
        "iconName": "UI_AvatarIcon_Diona"
    },
    {
        "id": 10000002,
        "iconName": "UI_AvatarIcon_Ayaka"
    },
    {
        "id": 10000003,
        "iconName": "UI_AvatarIcon_Qin"
    },
    {
        "id": 10000014,
        "iconName": "UI_AvatarIcon_Barbara"
    },
    {
        "id": 10000015,
        "iconName": "UI_AvatarIcon_Kaeya"
    },
    {
        "id": 10000016,
        "iconName": "UI_AvatarIcon_Diluc"
    },
    {
        "id": 10000020,
        "iconName": "UI_AvatarIcon_Razor"
    },
    {
        "id": 10000023,
        "iconName": "UI_AvatarIcon_Xiangling"
    },
    {
        "id": 10000025,
        "iconName": "UI_AvatarIcon_Xingqiu"
    },
    {
        "id": 10000027,
        "iconName": "UI_AvatarIcon_Ningguang"
    },
    {
        "id": 10000032,
        "iconName": "UI_AvatarIcon_Bennett"
    },
    {
        "id": 10000034,
        "iconName": "UI_AvatarIcon_Noel"
    },
    {
        "id": 10000036,
        "iconName": "UI_AvatarIcon_Chongyun"
    },
    {
        "id": 10000037,
        "iconName": "UI_AvatarIcon_Ganyu"
    },
    {
        "id": 10000041,
        "iconName": "UI_AvatarIcon_Mona"
    },
    {
        "id": 10000042,
        "iconName": "UI_AvatarIcon_Keqing"
    },
    {
        "id": 10000043,
        "iconName": "UI_AvatarIcon_Sucrose"
    },
    {
        "id": 10000049,
        "iconName": "UI_AvatarIcon_Yoimiya"
    },
    {
        "id": 10000067,
        "iconName": "UI_AvatarIcon_Collei"
    },
    {
        "id": 10000071,
        "iconName": "UI_AvatarIcon_Cyno"
    },
    {
        "id": 10000072,
        "iconName": "UI_AvatarIcon_Aozi"
    },
    {
        "id": 10000029,
        "iconName": "UI_AvatarIcon_Klee"
    },
    {
        "id": 10000024,
        "iconName": "UI_AvatarIcon_Beidou"
    },
    {
        "id": 20000001,
        "type": "NPC",
        "iconName": "UI_Gcg_NPC_Mengde_Atla"
    },
    {
        "id": 20000002,
        "type": "NPC",
        "iconName": "UI_Gcg_NPC_Mengde_Marcoli"
    },
    {
        "id": 20000003,
        "type": "NPC",
        "iconName": "UI_Gcg_NPC_Mengde_Beleren"
    },
    {
        "id": 20000004,
        "type": "NPC",
        "iconName": "UI_Gcg_NPC_Mengde_Jialu"
    },
    {
        "id": 20000005,
        "type": "NPC",
        "iconName": "UI_Gcg_NPC_Mengde_NanayaYumi"
    },
    {
        "id": 20000006,
        "type": "NPC",
        "iconName": "UI_Gcg_NPC_Mengde_Suyun"
    },
    {
        "id": 21000001,
        "type": "NPC",
        "iconName": "UI_Gcg_NPC_Mengde_Arther"
    },
    {
        "id": 21000002,
        "type": "NPC",
        "iconName": "UI_Gcg_NPC_Mengde_Blanche"
    },
    {
        "id": 21000003,
        "type": "NPC",
        "iconName": "UI_Gcg_NPC_Mengde_Cyrus"
    },
    {
        "id": 21000004,
        "type": "NPC",
        "iconName": "UI_Gcg_NPC_Mengde_Donna"
    },
    {
        "id": 21000005,
        "type": "NPC",
        "iconName": "UI_Gcg_NPC_Mengde_Ellin"
    },
    {
        "id": 21000006,
        "type": "NPC",
        "iconName": "UI_Gcg_NPC_Mengde_Jack"
    },
    {
        "id": 21000007,
        "type": "NPC",
        "iconName": "UI_Gcg_NPC_Mengde_Marjorie"
    },
    {
        "id": 21000008,
        "type": "NPC",
        "iconName": "UI_Gcg_NPC_Mengde_Patton"
    },
    {
        "id": 21000009,
        "type": "NPC",
        "iconName": "UI_Gcg_NPC_Mengde_Swan"
    },
    {
        "id": 21000010,
        "type": "NPC",
        "iconName": "UI_Gcg_NPC_Mengde_Timaeus"
    },
    {
        "id": 21000011,
        "type": "NPC",
        "iconName": "UI_Gcg_NPC_Mengde_Timi"
    },
    {
        "id": 21000012,
        "type": "NPC",
        "iconName": "UI_Gcg_NPC_Mengde_Wagner"
    },
    {
        "id": 22000001,
        "type": "NPC",
        "iconName": "UI_Gcg_NPC_Liyue_Buyun"
    },
    {
        "id": 22000002,
        "type": "NPC",
        "iconName": "UI_Gcg_NPC_Liyue_ChefMao"
    },
    {
        "id": 22000003,
        "type": "NPC",
        "iconName": "UI_Gcg_NPC_Liyue_Chuyi"
    },
    {
        "id": 22000004,
        "type": "NPC",
        "iconName": "UI_Gcg_NPC_Liyue_Huaian"
    },
    {
        "id": 22000005,
        "type": "NPC",
        "iconName": "UI_Gcg_NPC_Liyue_IronTongueTian"
    },
    {
        "id": 22000006,
        "type": "NPC",
        "iconName": "UI_Gcg_NPC_Liyue_Jifang"
    },
    {
        "id": 22000007,
        "type": "NPC",
        "iconName": "UI_Gcg_NPC_Liyue_Lan"
    },
    {
        "id": 22000008,
        "type": "NPC",
        "iconName": "UI_Gcg_NPC_Liyue_MadamePing"
    },
    {
        "id": 22000009,
        "type": "NPC",
        "iconName": "UI_Gcg_NPC_Liyue_Shitou"
    },
    {
        "id": 22000010,
        "type": "NPC",
        "iconName": "UI_Gcg_NPC_Liyue_TeaMasterLiusu"
    },
    {
        "id": 22000011,
        "type": "NPC",
        "iconName": "UI_Gcg_NPC_Liyue_UncleTian"
    },
    {
        "id": 22000012,
        "type": "NPC",
        "iconName": "UI_Gcg_NPC_Liyue_VerrGoldet"
    },
    {
        "id": 23000001,
        "type": "NPC",
        "iconName": "UI_Gcg_NPC_Inazuma_FuruyaNoboru"
    },
    {
        "id": 23000002,
        "type": "NPC",
        "iconName": "UI_Gcg_NPC_Inazuma_Kaede"
    },
    {
        "id": 23000003,
        "type": "NPC",
        "iconName": "UI_Gcg_NPC_Inazuma_Karpillia"
    },
    {
        "id": 23000004,
        "type": "NPC",
        "iconName": "UI_Gcg_NPC_Inazuma_Kurisu"
    },
    {
        "id": 23000005,
        "type": "NPC",
        "iconName": "UI_Gcg_NPC_Inazuma_Kuroda"
    },
    {
        "id": 23000006,
        "type": "NPC",
        "iconName": "UI_Gcg_NPC_Inazuma_Qiuyue"
    },
    {
        "id": 23000007,
        "type": "NPC",
        "iconName": "UI_Gcg_NPC_Inazuma_Ryuji"
    },
    {
        "id": 23000008,
        "type": "NPC",
        "iconName": "UI_Gcg_NPC_Inazuma_MikoshiGenichiro"
    },
    {
        "id": 23000009,
        "type": "NPC",
        "iconName": "UI_Gcg_NPC_Inazuma_Tomoki"
    },
    {
        "id": 23000010,
        "type": "NPC",
        "iconName": "UI_Gcg_NPC_Inazuma_YamashiroKenta"
    },
    {
        "id": 23000011,
        "type": "NPC",
        "iconName": "UI_Gcg_NPC_Inazuma_Shigeru"
    },
    {
        "id": 23000012,
        "type": "NPC",
        "iconName": "UI_Gcg_NPC_Inazuma_Ryoko"
    },
    {
        "id": 24000001,
        "type": "NPC",
        "iconName": "UI_Gcg_NPC_Sumeru_Ahangar"
    },
    {
        "id": 24000002,
        "type": "NPC",
        "iconName": "UI_Gcg_NPC_Sumeru_Amir"
    },
    {
        "id": 24000003,
        "type": "NPC",
        "iconName": "UI_Gcg_NPC_Sumeru_Asfand"
    },
    {
        "id": 24000004,
        "type": "NPC",
        "iconName": "UI_Gcg_NPC_Sumeru_Darina"
    },
    {
        "id": 24000005,
        "type": "NPC",
        "iconName": "UI_Gcg_NPC_Sumeru_Elham"
    },
    {
        "id": 24000006,
        "type": "NPC",
        "iconName": "UI_Gcg_NPC_Sumeru_Farahnaz"
    },
    {
        "id": 24000007,
        "type": "NPC",
        "iconName": "UI_Gcg_NPC_Sumeru_Feresht"
    },
    {
        "id": 24000008,
        "type": "NPC",
        "iconName": "UI_Gcg_NPC_Sumeru_Hushang"
    },
    {
        "id": 24000009,
        "type": "NPC",
        "iconName": "UI_Gcg_NPC_Sumeru_Kimiya"
    },
    {
        "id": 24000010,
        "type": "NPC",
        "iconName": "UI_Gcg_NPC_Sumeru_Nasrin"
    },
    {
        "id": 24000011,
        "type": "NPC",
        "iconName": "UI_Gcg_NPC_Sumeru_Rama"
    },
    {
        "id": 24000012,
        "type": "NPC",
        "iconName": "UI_Gcg_NPC_Sumeru_Royinjan"
    },
    {
        "id": 24000013,
        "type": "NPC",
        "iconName": "UI_Gcg_NPC_Sumeru_Rudaba"
    },
    {
        "id": 24000014,
        "type": "NPC",
        "iconName": "UI_Gcg_NPC_Sumeru_Sareh"
    },
    {
        "id": 24000015,
        "type": "NPC",
        "iconName": "UI_Gcg_NPC_Sumeru_SheikhZubayr"
    },
    {
        "id": 24000016,
        "type": "NPC",
        "iconName": "UI_Gcg_NPC_Sumeru_Sulaykha"
    },
    {
        "id": 24000017,
        "type": "NPC",
        "iconName": "UI_Gcg_NPC_Sumeru_Yohanan"
    },
    {
        "id": 24000018,
        "type": "NPC",
        "iconName": "UI_Gcg_NPC_Sumeru_Yunus"
    },
    {
        "id": 24000019,
        "type": "NPC",
        "iconName": "UI_Gcg_NPC_Sumeru_Taraneh"
    },
    {
        "id": 24000020,
        "type": "NPC",
        "iconName": "UI_Gcg_NPC_Sumeru_Azariq"
    },
    {
        "id": 24000021,
        "type": "NPC",
        "iconName": "UI_Gcg_NPC_Sumeru_Yuften"
    },
    {
        "id": 24000022,
        "type": "NPC",
        "iconName": "UI_Gcg_NPC_Sumeru_Massela"
    },
    {
        "id": 24000023,
        "type": "NPC",
        "iconName": "UI_Gcg_NPC_Sumeru_Tanjiyy"
    },
    {
        "id": 24000024,
        "type": "NPC",
        "iconName": "UI_Gcg_NPC_Sumeru_Jeht"
    },
    {
        "id": 24000025,
        "type": "NPC",
        "iconName": "UI_Gcg_NPC_Sumeru_Djinn"
    },
    {
        "id": 30000001,
        "type": "Monster",
        "iconName": "UI_MonsterIcon_Abyss_Water_01"
    },
    {
        "id": 30000002,
        "type": "Monster",
        "iconName": "UI_MonsterIcon_Brute_None_01"
    },
    {
        "id": 40000001,
        "type": "NPC",
        "iconName": "UI_Gcg_NPC_Animal_Cat_Prince"
    },
    {
        "id": 40000002,
        "type": "NPC",
        "iconName": "UI_Gcg_NPC_Animal_Cat_Baobab"
    },
    {
        "id": 40000003,
        "type": "NPC",
        "iconName": "UI_Gcg_NPC_Animal_Cat_Fennec"
    },
    {
        "id": 40000004,
        "type": "NPC",
        "iconName": "UI_Gcg_NPC_Animal_Cat_Pilot"
    },
    {
        "id": 40000005,
        "type": "NPC",
        "iconName": "UI_Gcg_NPC_Animal_Cat_Rose"
    },
    {
        "id": 40000006,
        "type": "NPC",
        "iconName": "UI_Gcg_NPC_Animal_Cat_Snake"
    }
]