{
    "HBPGBNCBOMP": "",
    "KENGMFPNLEP": "",
    "group": [
        [
            {
                "$type": "ConfigUITriggerInterAction",
                "type": "UI_TRIGGER",
                "contextName": "HomeworldBGMPage",
                "param": ""
            },
            {
                "$type": "ConfigCameraMoveInterAction",
                "type": "CAMERA_MOVE",
                "duration": 0.75,
                "cameraPosType": "RELATIVE_POS_TO_INTEE",
                "camPosOffset": {
                    "y": 1.2999999523162842,
                    "z": 3.0
                },
                "nearLength": 5.0,
                "camTargetType": "RELATIVE_TO_INTEE",
                "camForwardTargetOffset": {
                    "x": -0.8999999761581421,
                    "y": 0.7599999904632568
                },
                "camFov": 40.0,
                "lerpRatio": 1.0,
                "cameraBlendType": "EaseOutQuad",
                "cutFrameTrans": {},
                "targetNpcAlias": ""
            }
        ],
        [
            {
                "$type": "ConfigCameraMoveInterAction",
                "type": "CAMERA_MOVE",
                "duration": 0.75,
                "cameraPosType": "EXIT",
                "camTargetType": "TO_INTEE",
                "lerpRatio": 5.0,
                "targetNpcAlias": ""
            }
        ]
    ]
}