{
    "HBPGBNCBOMP": "",
    "KENGMFPNLEP": "",
    "group": [
        [
            {
                "$type": "ConfigUITriggerInterAction",
                "type": "UI_TRIGGER",
                "contextName": "MichiaeMatsuriRecoverButton",
                "param": ""
            }
        ],
        [
            {
                "$type": "ConfigCutsceneInterAction",
                "type": "CUTSCENE",
                "cutsceneCfg": {
                    "$type": "ConfigTimeline",
                    "type": "TIME_LINE_PREFAB",
                    "luaDataPath": "",
                    "resPath": "ART/Cutscene/Cs_Scene_OfferingLampStatue",
                    "castListPath": "",
                    "entityBan": "",
                    "fadeInDuration": 0.0,
                    "forceGC": false
                }
            }
        ]
    ]
}