{
    "HBPGBNCBOMP": "",
    "KENGMFPNLEP": "",
    "group": [
        [
            {
                "$type": "ConfigUITriggerInterAction",
                "type": "UI_TRIGGER",
                "contextName": "MPPlayPage",
                "param": "MP_PLAY_WINTER_CAMP"
            },
            {
                "$type": "ConfigCameraMoveInterAction",
                "type": "CAMERA_MOVE",
                "duration": 0.75,
                "cameraPosType": "RELATIVE_TO_INTEE_ONLY",
                "camPosOffset": {
                    "x": -2.0,
                    "y": 0.30000001192092896,
                    "z": 7.0
                },
                "nearLength": 5.0,
                "camTargetType": "RELATIVE_TO_INTEE_FORWARD",
                "camForwardTargetOffset": {
                    "x": -1.2999999523162842,
                    "y": 1.5
                },
                "camFov": 25.0,
                "lerpRatio": 5.0,
                "cameraBlendType": "EaseOutQuad",
                "targetNpcAlias": ""
            }
        ],
        [
            {
                "$type": "ConfigCameraMoveInterAction",
                "type": "CAMERA_MOVE",
                "duration": 0.5,
                "cameraPosType": "EXIT",
                "camTargetType": "TO_INTEE",
                "lerpRatio": 5.0,
                "targetNpcAlias": ""
            }
        ]
    ]
}