{
    "HBPGBNCBOMP": "",
    "KENGMFPNLEP": "",
    "group": [
        [
            {
                "$type": "ConfigUITriggerInterAction",
                "type": "UI_TRIGGER",
                "contextName": "MichiaeMatsuriOfferingPage",
                "param": ""
            },
            {
                "$type": "ConfigCameraMoveInterAction",
                "type": "CAMERA_MOVE",
                "duration": 0.75,
                "camPosOffset": {
                    "x": 283.260009765625,
                    "y": 317.17999267578125,
                    "z": 353.5199890136719
                },
                "nearLength": 5.0,
                "camForwardTargetOffset": {
                    "x": 282.9840087890625,
                    "y": 317.3160095214844,
                    "z": 352.1520080566406
                },
                "camFov": 30.0,
                "lerpRatio": 1.0,
                "cameraBlendType": "EaseInOutQuad",
                "cutFrameTrans": {
                    "duration": 0.75
                },
                "needZAxisRotate": true,
                "rotateAngle": -0.5699999928474426,
                "targetNpcAlias": ""
            }
        ],
        [
            {
                "$type": "ConfigCameraMoveInterAction",
                "type": "CAMERA_MOVE",
                "duration": 0.75,
                "cameraPosType": "EXIT",
                "camTargetType": "TO_INTEE",
                "lerpRatio": 5.0,
                "targetNpcAlias": ""
            }
        ]
    ]
}