{
    "HBPGBNCBOMP": "",
    "KENGMFPNLEP": "",
    "startFade": {
        "startFadeOutDuration": 0.0
    },
    "endFade": {
        "startFadeOutDuration": 0.0
    },
    "actors": [
        {
            "alias": "Avatar",
            "visible": true,
            "bornPointName": "",
            "relativePosNpcAlias": ""
        },
        {
            "configID": 20268,
            "alias": "20268",
            "visible": true,
            "bornPointName": "",
            "relativePosNpcAlias": ""
        }
    ],
    "group": [
        [
            {
                "$type": "ConfigSpeechBubbleAction",
                "type": "SPEECH_BUBBLE",
                "delayTime": 0.20000000298023224,
                "duration": 2.0,
                "aliasList": [
                    "20268"
                ],
                "dialogID": 728000101,
                "priority": 4,
                "holdOn": true
            }
        ]
    ],
    "groupId": [
        {
            "grpId": 2299890847,
            "nextGrpId": 2299890848
        },
        {
            "index": 1,
            "grpId": 2299890848,
            "nextGrpId": 2299890849
        }
    ]
}