{
    "HBPGBNCBOMP": "",
    "isSimpleTalk": true,
    "KENGMFPNLEP": "",
    "disableNpcLod": true,
    "startFade": {
        "startFadeOutDuration": 0.0
    },
    "endFade": {
        "startFadeOutDuration": 0.0
    },
    "actors": [
        {
            "alias": "Avatar",
            "visible": true,
            "bornPointName": "",
            "relativePosNpcAlias": ""
        },
        {
            "configID": 1005,
            "alias": "1005",
            "visible": true,
            "bornPointName": "",
            "useRelativePos": true,
            "relativePos": {
                "x": -0.5,
                "z": 0.5
            },
            "removeActorType": "REMOVE_WITH_DISAPPEAR",
            "relativePosNpcAlias": ""
        }
    ],
    "group": [
        [
            {
                "$type": "ConfigDialogInterAction",
                "type": "DIALOG",
                "aliasList": [
                    "1005"
                ],
                "dialogID": 790030101,
                "protectTime": 0.5
            }
        ],
        [
            {
                "$type": "ConfigDialogInterAction",
                "type": "DIALOG",
                "aliasList": [
                    "1005"
                ],
                "dialogID": 790030102,
                "protectTime": 0.5
            }
        ],
        [
            {
                "$type": "ConfigDialogInterAction",
                "type": "DIALOG",
                "aliasList": [
                    "1005"
                ],
                "dialogID": 790030103,
                "protectTime": 0.5
            }
        ],
        [
            {
                "$type": "ConfigDialogInterAction",
                "type": "DIALOG",
                "aliasList": [
                    "1005"
                ],
                "dialogID": 790030104,
                "protectTime": 0.5
            }
        ],
        [
            {
                "$type": "ConfigDialogInterAction",
                "type": "DIALOG",
                "aliasList": [
                    "1005"
                ],
                "dialogID": 790030105,
                "protectTime": 0.5
            }
        ],
        [
            {
                "$type": "ConfigDialogInterAction",
                "type": "DIALOG",
                "aliasList": [
                    "1005"
                ],
                "dialogID": 790030106,
                "protectTime": 0.5
            }
        ],
        [
            {
                "$type": "ConfigDialogInterAction",
                "type": "DIALOG",
                "aliasList": [
                    "1005"
                ],
                "dialogID": 790030107,
                "protectTime": 0.5
            }
        ],
        [
            {
                "$type": "ConfigDialogSelectAction",
                "type": "DIALOG_SELECT",
                "delayTime": 0.4000000059604645,
                "aliasList": [
                    "Avatar"
                ],
                "dialogIDList": [
                    790030109
                ],
                "grpIDList": [
                    1685137398
                ],
                "useGrpId": true
            },
            {
                "$type": "ConfigDialogInterAction",
                "type": "DIALOG",
                "aliasList": [
                    "1005"
                ],
                "dialogID": 790030108,
                "protectTime": 0.5
            }
        ],
        [
            {
                "$type": "ConfigDialogInterAction",
                "type": "DIALOG",
                "aliasList": [
                    "1005"
                ],
                "dialogID": 790030110,
                "protectTime": 0.5
            }
        ],
        [
            {
                "$type": "ConfigDialogInterAction",
                "type": "DIALOG",
                "aliasList": [
                    "1005"
                ],
                "dialogID": 790030111,
                "protectTime": 0.5
            }
        ],
        [
            {
                "$type": "ConfigDialogInterAction",
                "type": "DIALOG",
                "aliasList": [
                    "1005"
                ],
                "dialogID": 790030112,
                "protectTime": 0.5
            }
        ]
    ],
    "groupId": [
        {
            "grpId": 1685137390,
            "nextGrpId": 1685137391
        },
        {
            "index": 1,
            "grpId": 1685137391,
            "nextGrpId": 1685137392
        },
        {
            "index": 2,
            "grpId": 1685137392,
            "nextGrpId": 1685137393
        },
        {
            "index": 3,
            "grpId": 1685137393,
            "nextGrpId": 1685137394
        },
        {
            "index": 4,
            "grpId": 1685137394,
            "nextGrpId": 1685137395
        },
        {
            "index": 5,
            "grpId": 1685137395,
            "nextGrpId": 1685137396
        },
        {
            "index": 6,
            "grpId": 1685137396,
            "nextGrpId": 1685137397
        },
        {
            "index": 7,
            "grpId": 1685137397,
            "nextGrpId": 1685137398
        },
        {
            "index": 8,
            "grpId": 1685137398,
            "nextGrpId": 699651586
        },
        {
            "index": 9,
            "grpId": 699651586,
            "nextGrpId": 699651587
        },
        {
            "index": 10,
            "grpId": 699651587,
            "nextGrpId": 699651588
        }
    ]
}