{
    "HBPGBNCBOMP": "",
    "startBlackKeepTime": 0.5,
    "KENGMFPNLEP": "",
    "disableNpcLod": true,
    "startFade": {
        "startFadeInDuration": 0.5,
        "startFadeOutDuration": 0.5
    },
    "endFade": {
        "startFadeOutDuration": 0.0
    },
    "actors": [
        {
            "alias": "Avatar",
            "visible": true,
            "bornPointName": "Q2011Player",
            "relativePosNpcAlias": ""
        },
        {
            "configID": 1031,
            "alias": "1031",
            "visible": true,
            "bornPointName": "Q2011Beidou01",
            "relativePosNpcAlias": ""
        },
        {
            "configID": 1005,
            "alias": "1005",
            "visible": true,
            "bornPointName": "Q2011Paimon",
            "removeActorType": "REMOVE_WITH_DISAPPEAR",
            "relativePosNpcAlias": ""
        }
    ],
    "group": [
        [
            {
                "$type": "ConfigSimpleBlackScreenAction",
                "type": "SIMPLE_BLACK_SCREEN",
                "duration": 1.0,
                "durationToBlack": 0.5,
                "durationKeepBlack": 0.5,
                "durationFromBlack": 0.5,
                "textMapID": ""
            },
            {
                "$type": "ConfigTimeProtectAction",
                "type": "TIME_PROTECT",
                "duration": 1.0
            }
        ],
        [
            {
                "$type": "ConfigDialogInterAction",
                "type": "DIALOG",
                "aliasList": [
                    "1031"
                ],
                "dialogID": 20110301,
                "protectTime": 0.5
            }
        ],
        [
            {
                "$type": "ConfigDialogSelectAction",
                "type": "DIALOG_SELECT",
                "delayTime": 0.4000000059604645,
                "aliasList": [
                    "Avatar"
                ],
                "dialogIDList": [
                    20110303,
                    20110304
                ],
                "grpIDList": [
                    2711906256,
                    2711906256
                ],
                "useGrpId": true
            },
            {
                "$type": "ConfigDialogInterAction",
                "type": "DIALOG",
                "aliasList": [
                    "1031"
                ],
                "dialogID": 20110302,
                "protectTime": 0.5
            }
        ],
        [
            {
                "$type": "ConfigDialogInterAction",
                "type": "DIALOG",
                "aliasList": [
                    "1031"
                ],
                "dialogID": 20110305,
                "protectTime": 0.5
            }
        ],
        [
            {
                "$type": "ConfigDialogInterAction",
                "type": "DIALOG",
                "aliasList": [
                    "1031"
                ],
                "dialogID": 20110306,
                "protectTime": 0.5
            }
        ],
        [
            {
                "$type": "ConfigDialogInterAction",
                "type": "DIALOG",
                "aliasList": [
                    "1031"
                ],
                "dialogID": 20110307,
                "protectTime": 0.5
            }
        ],
        [
            {
                "$type": "ConfigDialogInterAction",
                "type": "DIALOG",
                "aliasList": [
                    "1005"
                ],
                "dialogID": 20110308,
                "protectTime": 0.5
            }
        ],
        [
            {
                "$type": "ConfigTimeProtectAction",
                "type": "TIME_PROTECT",
                "duration": 0.10000000149011612
            },
            {
                "$type": "ConfigVisibleInterAction",
                "type": "VISIBLE",
                "delayTime": 0.6000000238418579,
                "aliasList": [
                    "1005"
                ]
            }
        ]
    ],
    "groupId": [
        {
            "grpId": 2711906253,
            "nextGrpId": 2711906254
        },
        {
            "index": 1,
            "grpId": 2711906254,
            "nextGrpId": 2711906255
        },
        {
            "index": 2,
            "grpId": 2711906255,
            "nextGrpId": 2711906256
        },
        {
            "index": 3,
            "grpId": 2711906256,
            "nextGrpId": 2711906257
        },
        {
            "index": 4,
            "grpId": 2711906257,
            "nextGrpId": 2711906258
        },
        {
            "index": 5,
            "grpId": 2711906258,
            "nextGrpId": 2711906259
        },
        {
            "index": 6,
            "grpId": 2711906259,
            "nextGrpId": 2711906260
        },
        {
            "index": 7,
            "grpId": 2711906260,
            "nextGrpId": 2711906261
        }
    ],
    "freeStyleDic": {
        "1031": []
    }
}