{
    "HBPGBNCBOMP": "",
    "KENGMFPNLEP": "",
    "disableNpcLod": true,
    "AGMGHOIPEIH": true,
    "startFade": {
        "startFadeOutDuration": 0.0
    },
    "endFade": {
        "startFadeOutDuration": 0.0
    },
    "actors": [
        {
            "alias": "Avatar",
            "visible": true,
            "bornPointName": "",
            "relativePosType": "AVATAR_NEW",
            "relativePosNpcAlias": ""
        },
        {
            "configID": 513,
            "alias": "513",
            "visible": true,
            "bornPointName": "Q1917204_N513",
            "removeActorType": "REMOVE",
            "relativePosType": "AVATAR_NEW",
            "relativePosNpcAlias": ""
        }
    ],
    "group": [
        [
            {
                "$type": "ConfigCameraMoveInterAction",
                "type": "CAMERA_MOVE",
                "duration": 1.0,
                "actionId": 111,
                "cameraPosType": "RELATIVE_TO_TARGET_ENTITY",
                "camTargetType": "RELATIVE_TO_TARGET_ENTITY",
                "camFov": 30.0,
                "lerpPattern": 6,
                "cameraBlendType": "EaseInOutCubic",
                "cutFrameTrans": {},
                "openCameraDither": false,
                "targetNpcAlias": "513",
                "closeTreeLeafDither": true
            },
            {
                "$type": "ConfigDialogInterAction",
                "type": "DIALOG",
                "aliasList": [
                    "513"
                ],
                "actionId": 106,
                "dialogID": 191720401,
                "protectTime": 0.5
            },
            {
                "$type": "ConfigEmotionTemplateAction",
                "type": "EMOTION_TEMPLATE",
                "aliasList": [
                    "513"
                ],
                "actionId": 112,
                "emoTemplateID": 10100
            }
        ],
        [
            {
                "$type": "ConfigDialogInterAction",
                "type": "DIALOG",
                "aliasList": [
                    "513"
                ],
                "actionId": 108,
                "dialogID": 191720402,
                "protectTime": 0.5
            },
            {
                "$type": "ConfigEmotionTemplateAction",
                "type": "EMOTION_TEMPLATE",
                "aliasList": [
                    "513"
                ],
                "actionId": 113,
                "emoTemplateID": 10201
            }
        ],
        [
            {
                "$type": "ConfigDialogInterAction",
                "type": "DIALOG",
                "aliasList": [
                    "513"
                ],
                "actionId": 110,
                "dialogID": 191720403,
                "protectTime": 0.5
            },
            {
                "$type": "ConfigEmotionTemplateAction",
                "type": "EMOTION_TEMPLATE",
                "aliasList": [
                    "513"
                ],
                "actionId": 114,
                "emoTemplateID": 10100
            }
        ],
        [
            {
                "$type": "ConfigSimpleBlackScreenAction",
                "type": "SIMPLE_BLACK_SCREEN",
                "actionId": 102,
                "durationToBlack": 0.5,
                "durationKeepBlack": 2.0,
                "durationFromBlack": 0.5,
                "textMapID": ""
            },
            {
                "$type": "ConfigDialogInterAction",
                "type": "DIALOG_CLEAR",
                "actionId": 103
            },
            {
                "$type": "ConfigVisibleInterAction",
                "type": "VISIBLE",
                "delayTime": 0.6000000238418579,
                "aliasList": [
                    "Avatar"
                ],
                "actionId": 104,
                "isVisible": true
            }
        ]
    ],
    "groupId": [
        {
            "grpId": 1404965682,
            "nextGrpId": 1404965683
        },
        {
            "index": 1,
            "grpId": 1404965683,
            "nextGrpId": 1404965684
        },
        {
            "index": 2,
            "grpId": 1404965684,
            "nextGrpId": 1404965685
        },
        {
            "index": 3,
            "grpId": 1404965685,
            "nextGrpId": 1404965686
        }
    ],
    "freeStyleDic": {
        "513": [
            10100,
            10201
        ]
    }
}