{
    "HBPGBNCBOMP": "",
    "dontUseDefaultFinish": true,
    "startBlackKeepTime": 0.5,
    "KENGMFPNLEP": "",
    "disableNpcLod": true,
    "startFade": {
        "startFadeInDuration": 0.5,
        "startFadeOutDuration": 0.5
    },
    "endFade": {
        "startFadeOutDuration": 0.0
    },
    "actors": [
        {
            "alias": "Avatar",
            "visible": true,
            "bornPointName": "Q1911101born",
            "relativePosNpcAlias": ""
        },
        {
            "configID": 12148,
            "alias": "12148",
            "visible": true,
            "bornPointName": "Q1911101mass1",
            "relativePosNpcAlias": ""
        },
        {
            "configID": 12149,
            "alias": "12149",
            "visible": true,
            "bornPointName": "Q1911101mass2",
            "relativePosNpcAlias": ""
        },
        {
            "configID": 503,
            "alias": "503",
            "visible": true,
            "bornPointName": "Q1911101tuoma",
            "relativePosNpcAlias": ""
        }
    ],
    "group": [
        [
            {
                "$type": "ConfigTeleportToAction",
                "type": "TELEPORT_TO",
                "aliasList": [
                    "12149"
                ],
                "position": {
                    "x": -2574.013916015625,
                    "y": 275.6210021972656,
                    "z": -4612.33203125
                },
                "forward": {
                    "x": 0.6190000176429749,
                    "z": -0.7860000133514404
                }
            },
            {
                "$type": "ConfigBodyLangInterAction",
                "type": "BODY_LANG",
                "aliasList": [
                    "12149"
                ],
                "bodyLangParam": 1120,
                "forceDoFreeStyle": true,
                "canDoRepeatFreeStyle": false
            },
            {
                "$type": "ConfigLookAtInterAction",
                "type": "LOOK_AT",
                "aliasList": [
                    "12148"
                ],
                "enableHead": true,
                "useTargetPos": true,
                "enableAbsolute": true,
                "targetPosition": {
                    "x": -2574.452880859375,
                    "y": 277.5740051269531,
                    "z": -4612.15380859375
                },
                "headTurnTime": 0.5,
                "targetNpcAlias": ""
            },
            {
                "$type": "ConfigTeleportToAction",
                "type": "TELEPORT_TO",
                "aliasList": [
                    "503"
                ],
                "position": {
                    "x": -2574.531982421875,
                    "y": 275.6210021972656,
                    "z": -4618.39794921875
                },
                "forward": {
                    "x": 0.7480000257492065,
                    "z": 3.569999933242798
                }
            },
            {
                "$type": "ConfigLookAtInterAction",
                "type": "LOOK_AT",
                "aliasList": [
                    "503"
                ],
                "enableHead": true,
                "useTargetPos": true,
                "enableAbsolute": true,
                "targetPosition": {
                    "x": -2573.971923828125,
                    "y": 277.25201416015625,
                    "z": -4615.5517578125
                },
                "headTurnTime": 0.5,
                "targetNpcAlias": "",
                "lookAtTargetType": "CAMERA"
            },
            {
                "$type": "ConfigLookAtInterAction",
                "type": "LOOK_AT",
                "aliasList": [
                    "12149"
                ],
                "enableHead": true,
                "useTargetPos": true,
                "enableAbsolute": true,
                "targetPosition": {
                    "x": -2572.35400390625,
                    "y": 277.5740051269531,
                    "z": -4614.41796875
                },
                "headTurnTime": 0.4000000059604645,
                "targetNpcAlias": ""
            },
            {
                "$type": "ConfigVisibleInterAction",
                "type": "VISIBLE",
                "aliasList": [
                    "Avatar"
                ]
            },
            {
                "$type": "ConfigBlackScreenAction",
                "type": "BLACK_SCREEN",
                "blackScreenType": "KEEP_BLACK",
                "durationKeepBlack": 0.5,
                "inteePos": "",
                "textMapID": "",
                "useTextFade": true
            },
            {
                "$type": "ConfigTimeProtectAction",
                "type": "TIME_PROTECT",
                "duration": 1.0
            },
            {
                "$type": "ConfigTeleportToAction",
                "type": "TELEPORT_TO",
                "aliasList": [
                    "12148"
                ],
                "position": {
                    "x": -2571.9208984375,
                    "y": 275.6210021972656,
                    "z": -4615.0029296875
                },
                "forward": {
                    "x": -0.6370000243186951,
                    "z": 0.7699999809265137
                }
            },
            {
                "$type": "ConfigBodyLangInterAction",
                "type": "BODY_LANG",
                "aliasList": [
                    "12148"
                ],
                "bodyLangParam": 1120,
                "forceDoFreeStyle": true,
                "canDoRepeatFreeStyle": false
            },
            {
                "$type": "ConfigTeleportToAction",
                "type": "TELEPORT_TO",
                "aliasList": [
                    "Avatar"
                ],
                "position": {
                    "x": -2571.54296875,
                    "y": 275.6210021972656,
                    "z": -4613.4091796875
                },
                "forward": {
                    "x": -2.1730000972747803,
                    "z": -3.878000020980835
                }
            }
        ],
        [
            {
                "$type": "ConfigDialogInterAction",
                "type": "DIALOG",
                "aliasList": [
                    "12148"
                ],
                "dialogID": 191110101,
                "protectTime": 0.5
            },
            {
                "$type": "ConfigEmoSyncInterAction",
                "type": "EMO_SYNC",
                "aliasList": [
                    "12148"
                ],
                "dataPath": "Cs_Emo_Avatar_Simple_Common_Set/Cs_Emo_Avatar_Talk/Cs_Emo_Coop_Common/Cs_Emo_Coop_Thoma_01/Cs_Emo_191110101",
                "phonemePath": "",
                "emotionPath": "",
                "mateDataPath": "",
                "matePhonemePath": "",
                "mateEmotionPath": "",
                "dataPathHashList": [
                    9777017986131755475,
                    7060946973579185565,
                    7595679568403854705,
                    8044129884696351600
                ]
            },
            {
                "$type": "ConfigCameraMoveInterAction",
                "type": "CAMERA_MOVE",
                "duration": 1.0,
                "cameraPosType": "RELATIVE_TO_TARGET_ENTITY",
                "camTargetType": "RELATIVE_TO_TARGET_ENTITY",
                "camFov": 30.0,
                "lerpPattern": 6,
                "cameraBlendType": "EaseInOutCubic",
                "cutFrameTrans": {},
                "openCameraDither": false,
                "targetNpcAlias": "12148",
                "closeTreeLeafDither": true
            },
            {
                "$type": "ConfigBlackScreenAction",
                "type": "BLACK_SCREEN",
                "blackScreenType": "FROM_BLACK",
                "durationFromBlack": 0.5,
                "inteePos": "",
                "textMapID": "",
                "useTextFade": true
            },
            {
                "$type": "ConfigBodyLangInterAction",
                "type": "BODY_LANG",
                "delayTime": 1.2610000371932983,
                "aliasList": [
                    "12148"
                ],
                "isContinue": true,
                "forceDoFreeStyle": true,
                "canDoRepeatFreeStyle": false
            },
            {
                "$type": "ConfigBodyLangInterAction",
                "type": "BODY_LANG",
                "delayTime": 1.8029999732971191,
                "aliasList": [
                    "12148"
                ],
                "bodyLangParam": 1171,
                "forceDoFreeStyle": true,
                "canDoRepeatFreeStyle": false
            }
        ],
        [
            {
                "$type": "ConfigDialogInterAction",
                "type": "DIALOG",
                "aliasList": [
                    "12149"
                ],
                "dialogID": 191110102,
                "protectTime": 0.5
            },
            {
                "$type": "ConfigEmoSyncInterAction",
                "type": "EMO_SYNC",
                "aliasList": [
                    "12149"
                ],
                "dataPath": "Cs_Emo_Avatar_Simple_Common_Set/Cs_Emo_Avatar_Talk/Cs_Emo_Coop_Common/Cs_Emo_Coop_Thoma_01/Cs_Emo_191110102",
                "phonemePath": "",
                "emotionPath": "",
                "mateDataPath": "",
                "matePhonemePath": "",
                "mateEmotionPath": "",
                "dataPathHashList": [
                    13271429334714854743,
                    17664640510540524872,
                    4648612271590410421,
                    16113050421518148346
                ]
            },
            {
                "$type": "ConfigEmoSyncInterAction",
                "type": "EMO_SYNC",
                "aliasList": [
                    "12148"
                ],
                "dataPath": "",
                "phonemePath": "Cs_Emo_NPC_Common/Cs_Emo_NPC_Normal01",
                "emotionPath": "Cs_Emo_NPC_Common/Cs_Emo_NPC_Upset01",
                "mateDataPath": "",
                "matePhonemePath": "",
                "mateEmotionPath": "",
                "phonemePathHashList": [
                    12803840960998583578,
                    3437050431160283015,
                    6548526936325855136,
                    1274732080047098512
                ],
                "emotionPathHashList": [
                    6685696142296485075,
                    4251642632157619052,
                    12579597121068042023,
                    12854476297611419165
                ]
            },
            {
                "$type": "ConfigCameraMoveInterAction",
                "type": "CAMERA_MOVE",
                "duration": 1.0,
                "cameraPosType": "RELATIVE_TO_TARGET_ENTITY",
                "camTargetType": "RELATIVE_TO_TARGET_ENTITY",
                "camFov": 30.0,
                "lerpPattern": 6,
                "cameraBlendType": "EaseInOutCubic",
                "cutFrameTrans": {},
                "openCameraDither": false,
                "targetNpcAlias": "12149",
                "closeTreeLeafDither": true
            },
            {
                "$type": "ConfigBodyLangInterAction",
                "type": "BODY_LANG",
                "aliasList": [
                    "12148"
                ],
                "isContinue": true,
                "forceDoFreeStyle": true,
                "canDoRepeatFreeStyle": false
            },
            {
                "$type": "ConfigBodyLangInterAction",
                "type": "BODY_LANG",
                "delayTime": 1.437000036239624,
                "aliasList": [
                    "12149"
                ],
                "isContinue": true,
                "forceDoFreeStyle": true,
                "canDoRepeatFreeStyle": false
            },
            {
                "$type": "ConfigBodyLangInterAction",
                "type": "BODY_LANG",
                "delayTime": 4.017000198364258,
                "aliasList": [
                    "12149"
                ],
                "bodyLangParam": 1171,
                "forceDoFreeStyle": true,
                "canDoRepeatFreeStyle": false
            }
        ],
        [
            {
                "$type": "ConfigEmoSyncInterAction",
                "type": "EMO_SYNC",
                "aliasList": [
                    "12148"
                ],
                "dataPath": "Cs_Emo_Avatar_Simple_Common_Set/Cs_Emo_Avatar_Talk/Cs_Emo_Coop_Common/Cs_Emo_Coop_Thoma_01/Cs_Emo_191110103",
                "phonemePath": "",
                "emotionPath": "",
                "mateDataPath": "",
                "matePhonemePath": "",
                "mateEmotionPath": "",
                "dataPathHashList": [
                    15249223757492516249,
                    13977723647772811089,
                    15769101159135777452,
                    18231960234239051128
                ]
            },
            {
                "$type": "ConfigLookAtEyeCtrlInterAction",
                "type": "LOOK_AT_EYECTRL",
                "aliasList": [
                    "12148"
                ],
                "useTargetPos": false,
                "eyeRotateVecLeft": {
                    "z": 3.0
                },
                "eyeRotateVecRight": {
                    "z": 3.0
                },
                "turnTime": 1.0,
                "targetNpcAlias": "",
                "targetPoint": "Face"
            },
            {
                "$type": "ConfigBodyLangInterAction",
                "type": "BODY_LANG",
                "aliasList": [
                    "12149"
                ],
                "isContinue": true,
                "forceDoFreeStyle": true,
                "canDoRepeatFreeStyle": false
            },
            {
                "$type": "ConfigCameraMoveInterAction",
                "type": "CAMERA_MOVE",
                "duration": 1.0,
                "cameraPosType": "RELATIVE_TO_TARGET_ENTITY",
                "camTargetType": "RELATIVE_TO_TARGET_ENTITY",
                "camFov": 30.0,
                "lerpPattern": 6,
                "cameraBlendType": "EaseInOutCubic",
                "cutFrameTrans": {},
                "openCameraDither": false,
                "targetNpcAlias": "12148",
                "closeTreeLeafDither": true
            },
            {
                "$type": "ConfigDialogInterAction",
                "type": "DIALOG",
                "aliasList": [
                    "12148"
                ],
                "dialogID": 191110103,
                "protectTime": 0.5
            },
            {
                "$type": "ConfigLookAtInterAction",
                "type": "LOOK_AT",
                "aliasList": [
                    "12148"
                ],
                "enableHead": true,
                "headRotateVec": {
                    "y": 25.833999633789062
                },
                "headTurnTime": 0.5,
                "targetNpcAlias": ""
            },
            {
                "$type": "ConfigBodyLangInterAction",
                "type": "BODY_LANG",
                "delayTime": 1.7760000228881836,
                "aliasList": [
                    "12148"
                ],
                "bodyLangParam": 4040,
                "forceDoFreeStyle": true,
                "canDoRepeatFreeStyle": false
            },
            {
                "$type": "ConfigLookAtEyeCtrlInterAction",
                "type": "LOOK_AT_EYECTRL",
                "delayTime": 4.445000171661377,
                "aliasList": [
                    "12148"
                ],
                "useTargetPos": false,
                "turnTime": 0.10000000149011612,
                "targetNpcAlias": "",
                "targetPoint": "Face"
            },
            {
                "$type": "ConfigLookAtInterAction",
                "type": "LOOK_AT",
                "delayTime": 4.468999862670898,
                "aliasList": [
                    "12148"
                ],
                "enableHead": true,
                "headTurnTime": 0.30000001192092896,
                "targetNpcAlias": "12149"
            },
            {
                "$type": "ConfigBodyLangInterAction",
                "type": "BODY_LANG",
                "delayTime": 4.49399995803833,
                "aliasList": [
                    "12148"
                ],
                "isContinue": true,
                "forceDoFreeStyle": true,
                "canDoRepeatFreeStyle": false
            },
            {
                "$type": "ConfigBodyLangInterAction",
                "type": "BODY_LANG",
                "delayTime": 5.043000221252441,
                "aliasList": [
                    "12148"
                ],
                "bodyLangParam": 1171,
                "forceDoFreeStyle": true,
                "canDoRepeatFreeStyle": false
            }
        ],
        [
            {
                "$type": "ConfigEmoSyncInterAction",
                "type": "EMO_SYNC",
                "aliasList": [
                    "12148"
                ],
                "dataPath": "Cs_Emo_Avatar_Simple_Common_Set/Cs_Emo_Avatar_Talk/Cs_Emo_Coop_Common/Cs_Emo_Coop_Thoma_01/Cs_Emo_191110104",
                "phonemePath": "",
                "emotionPath": "",
                "mateDataPath": "",
                "matePhonemePath": "",
                "mateEmotionPath": "",
                "dataPathHashList": [
                    16201932133119593510,
                    16403615476057870865,
                    6242455363136962946,
                    10389891186762140432
                ]
            },
            {
                "$type": "ConfigLookAtEyeCtrlInterAction",
                "type": "LOOK_AT_EYECTRL",
                "aliasList": [
                    "12148"
                ],
                "useTargetPos": false,
                "turnTime": 0.10000000149011612,
                "targetNpcAlias": "",
                "targetPoint": "Face"
            },
            {
                "$type": "ConfigBodyLangInterAction",
                "type": "BODY_LANG",
                "aliasList": [
                    "12149"
                ],
                "isContinue": true,
                "forceDoFreeStyle": true,
                "canDoRepeatFreeStyle": false
            },
            {
                "$type": "ConfigLookAtInterAction",
                "type": "LOOK_AT",
                "aliasList": [
                    "12148"
                ],
                "enableHead": true,
                "headTurnTime": 0.30000001192092896,
                "targetNpcAlias": "12149"
            },
            {
                "$type": "ConfigDialogInterAction",
                "type": "DIALOG",
                "aliasList": [
                    "12148"
                ],
                "dialogID": 191110104,
                "protectTime": 0.5
            },
            {
                "$type": "ConfigBodyLangInterAction",
                "type": "BODY_LANG",
                "aliasList": [
                    "12148"
                ],
                "isContinue": true,
                "forceDoFreeStyle": true,
                "canDoRepeatFreeStyle": false
            },
            {
                "$type": "ConfigBodyLangInterAction",
                "type": "BODY_LANG",
                "delayTime": 1.5670000314712524,
                "aliasList": [
                    "12148"
                ],
                "bodyLangParam": 1120,
                "forceDoFreeStyle": true,
                "canDoRepeatFreeStyle": false
            }
        ],
        [
            {
                "$type": "ConfigDialogInterAction",
                "type": "DIALOG",
                "aliasList": [
                    "12149"
                ],
                "dialogID": 191110105,
                "protectTime": 0.5
            },
            {
                "$type": "ConfigEmoSyncInterAction",
                "type": "EMO_SYNC",
                "aliasList": [
                    "12149"
                ],
                "dataPath": "Cs_Emo_Avatar_Simple_Common_Set/Cs_Emo_Avatar_Talk/Cs_Emo_Coop_Common/Cs_Emo_Coop_Thoma_01/Cs_Emo_191110105",
                "phonemePath": "",
                "emotionPath": "",
                "mateDataPath": "",
                "matePhonemePath": "",
                "mateEmotionPath": "",
                "dataPathHashList": [
                    13969877549910121449,
                    458310071006952804,
                    1638464105113947281,
                    6221705620371083974
                ]
            },
            {
                "$type": "ConfigBodyLangInterAction",
                "type": "BODY_LANG",
                "aliasList": [
                    "12148"
                ],
                "isContinue": true,
                "forceDoFreeStyle": true,
                "canDoRepeatFreeStyle": false
            },
            {
                "$type": "ConfigCameraMoveInterAction",
                "type": "CAMERA_MOVE",
                "duration": 1.0,
                "cameraPosType": "RELATIVE_TO_TARGET_ENTITY",
                "camTargetType": "RELATIVE_TO_TARGET_ENTITY",
                "camFov": 30.0,
                "lerpPattern": 6,
                "cameraBlendType": "EaseInOutCubic",
                "cutFrameTrans": {},
                "openCameraDither": false,
                "targetNpcAlias": "12149",
                "closeTreeLeafDither": true
            },
            {
                "$type": "ConfigDialogSelectAction",
                "type": "DIALOG_SELECT",
                "delayTime": 0.4000000059604645,
                "aliasList": [
                    "Avatar"
                ],
                "dialogIDList": [
                    191110106,
                    191110107
                ],
                "grpIDList": [
                    1250512510,
                    1250512510
                ],
                "useGrpId": true
            },
            {
                "$type": "ConfigBodyLangInterAction",
                "type": "BODY_LANG",
                "delayTime": 1.1390000581741333,
                "aliasList": [
                    "12149"
                ],
                "bodyLangParam": 1171,
                "forceDoFreeStyle": true,
                "canDoRepeatFreeStyle": false
            }
        ],
        [
            {
                "$type": "ConfigBodyLangInterAction",
                "type": "BODY_LANG",
                "aliasList": [
                    "12149"
                ],
                "isContinue": true,
                "forceDoFreeStyle": true,
                "canDoRepeatFreeStyle": false
            },
            {
                "$type": "ConfigSimpleBlackScreenAction",
                "type": "SIMPLE_BLACK_SCREEN",
                "aliasList": [
                    "503"
                ],
                "durationToBlack": 0.5,
                "durationKeepBlack": 2.5,
                "durationFromBlack": 0.5,
                "textMapID": "Coop_Message_Q1911101",
                "useTextFade": true
            },
            {
                "$type": "ConfigEmotionTemplateAction",
                "type": "EMOTION_TEMPLATE",
                "aliasList": [
                    "503"
                ],
                "emoTemplateID": 10100
            },
            {
                "$type": "ConfigAudioPlayAction",
                "type": "AUDIO_PLAY",
                "audioEventStr": "Play_sfx_quest_Coop105001_1911101_foot"
            },
            {
                "$type": "ConfigDialogInterAction",
                "type": "DIALOG_CLEAR",
                "dialogID": 191110105
            },
            {
                "$type": "ConfigTimeProtectAction",
                "type": "TIME_PROTECT",
                "duration": 2.5
            },
            {
                "$type": "ConfigEmoSyncInterAction",
                "type": "EMO_SYNC",
                "delayTime": 2.0,
                "aliasList": [
                    "503"
                ],
                "dataPath": "Cs_Emo_Avatar_Simple_Common_Set/Cs_Emo_Avatar_Talk/Cs_Emo_Coop_Common/Cs_Emo_Coop_Thoma_01/Cs_Emo_191110108",
                "phonemePath": "",
                "emotionPath": "",
                "mateDataPath": "",
                "matePhonemePath": "",
                "mateEmotionPath": "",
                "enableBlink": false,
                "dataPathHashList": [
                    17513093610851965902,
                    14650191630787117598,
                    3827465338222904413,
                    10020306644753111740
                ]
            },
            {
                "$type": "ConfigEmotionTemplateAction",
                "type": "EMOTION_TEMPLATE",
                "delayTime": 2.0,
                "aliasList": [
                    "503"
                ],
                "emoTemplateID": 10301
            },
            {
                "$type": "ConfigCameraMoveInterAction",
                "type": "CAMERA_MOVE",
                "delayTime": 2.0,
                "duration": 1.0,
                "cameraPosType": "RELATIVE_TO_TARGET_ENTITY",
                "camTargetType": "RELATIVE_TO_TARGET_ENTITY",
                "camFov": 30.0,
                "lerpPattern": 6,
                "cameraBlendType": "EaseInOutCubic",
                "cutFrameTrans": {},
                "openCameraDither": false,
                "targetNpcAlias": "503",
                "closeTreeLeafDither": true
            },
            {
                "$type": "ConfigDialogInterAction",
                "type": "DIALOG",
                "delayTime": 2.0,
                "aliasList": [
                    "503"
                ],
                "dialogID": 191110108,
                "protectTime": 0.5
            }
        ],
        [
            {
                "$type": "ConfigDialogInterAction",
                "type": "DIALOG",
                "aliasList": [
                    "503"
                ],
                "dialogID": 191110109,
                "protectTime": 0.800000011920929
            },
            {
                "$type": "ConfigEmotionTemplateAction",
                "type": "EMOTION_TEMPLATE",
                "aliasList": [
                    "503"
                ],
                "emoTemplateID": 10100
            },
            {
                "$type": "ConfigEmoSyncInterAction",
                "type": "EMO_SYNC",
                "aliasList": [
                    "503"
                ],
                "dataPath": "Cs_Emo_Avatar_Simple_Common_Set/Cs_Emo_Avatar_Talk/Cs_Emo_Coop_Common/Cs_Emo_Coop_Thoma_01/Cs_Emo_191110109",
                "phonemePath": "",
                "emotionPath": "",
                "mateDataPath": "",
                "matePhonemePath": "",
                "mateEmotionPath": "",
                "dataPathHashList": [
                    3027368357460084794,
                    8398329296026538141,
                    5816426081144591156,
                    3113713439815833030
                ]
            },
            {
                "$type": "ConfigTeleportToAction",
                "type": "TELEPORT_TO",
                "aliasList": [
                    "12148"
                ],
                "position": {
                    "x": -2571.9208984375,
                    "y": 275.6210021972656,
                    "z": -4615.0029296875
                },
                "forward": {
                    "x": -1.3910000324249268,
                    "z": -1.7589999437332153
                }
            },
            {
                "$type": "ConfigBodyLangInterAction",
                "type": "BODY_LANG",
                "aliasList": [
                    "12148"
                ],
                "isContinue": true,
                "forceDoFreeStyle": true,
                "canDoRepeatFreeStyle": false
            },
            {
                "$type": "ConfigLookAtInterAction",
                "type": "LOOK_AT",
                "delayTime": 0.20000000298023224,
                "aliasList": [
                    "12148"
                ],
                "enableHead": true,
                "headTurnTime": 0.5,
                "targetNpcAlias": ""
            }
        ],
        [
            {
                "$type": "ConfigBodyLangInterAction",
                "type": "BODY_LANG",
                "aliasList": [
                    "12148"
                ],
                "bodyLangParam": 1171,
                "forceDoFreeStyle": true,
                "canDoRepeatFreeStyle": false
            },
            {
                "$type": "ConfigEmoSyncInterAction",
                "type": "EMO_SYNC",
                "aliasList": [
                    "12148"
                ],
                "dataPath": "Cs_Emo_Avatar_Simple_Common_Set/Cs_Emo_Avatar_Talk/Cs_Emo_Coop_Common/Cs_Emo_Coop_Thoma_01/Cs_Emo_191110110",
                "phonemePath": "",
                "emotionPath": "",
                "mateDataPath": "",
                "matePhonemePath": "",
                "mateEmotionPath": "",
                "dataPathHashList": [
                    17104976527127787045,
                    14824601382549647788,
                    2753776936510707240,
                    1430023617586885649
                ]
            },
            {
                "$type": "ConfigLookAtInterAction",
                "type": "LOOK_AT",
                "aliasList": [
                    "12148"
                ],
                "enableHead": true,
                "headTurnTime": 0.5,
                "targetNpcAlias": ""
            },
            {
                "$type": "ConfigDialogInterAction",
                "type": "DIALOG",
                "aliasList": [
                    "12148"
                ],
                "dialogID": 191110110,
                "protectTime": 0.5
            },
            {
                "$type": "ConfigCameraMoveInterAction",
                "type": "CAMERA_MOVE",
                "duration": 1.0,
                "cameraPosType": "RELATIVE_TO_TARGET_ENTITY",
                "camTargetType": "RELATIVE_TO_TARGET_ENTITY",
                "camFov": 30.0,
                "lerpPattern": 6,
                "cameraBlendType": "EaseInOutCubic",
                "cutFrameTrans": {},
                "openCameraDither": false,
                "targetNpcAlias": "12148",
                "closeTreeLeafDither": true
            },
            {
                "$type": "ConfigLookAtEyeCtrlInterAction",
                "type": "LOOK_AT_EYECTRL",
                "delayTime": 1.9210000038146973,
                "aliasList": [
                    "12148"
                ],
                "useTargetPos": false,
                "eyeRotateVecLeft": {
                    "x": 2.0,
                    "z": 2.0
                },
                "eyeRotateVecRight": {
                    "x": 2.0,
                    "z": 2.0
                },
                "turnTime": 0.10000000149011612,
                "targetNpcAlias": "",
                "targetPoint": "Face"
            },
            {
                "$type": "ConfigLookAtInterAction",
                "type": "LOOK_AT",
                "delayTime": 1.9600000381469727,
                "aliasList": [
                    "12148"
                ],
                "enableHead": true,
                "headRotateVec": {
                    "x": 22.02199935913086,
                    "y": 5.979000091552734
                },
                "headTurnTime": 0.30000001192092896,
                "targetNpcAlias": ""
            },
            {
                "$type": "ConfigLookAtEyeCtrlInterAction",
                "type": "LOOK_AT_EYECTRL",
                "delayTime": 3.7799999713897705,
                "aliasList": [
                    "12148"
                ],
                "useTargetPos": false,
                "turnTime": 0.10000000149011612,
                "targetNpcAlias": "",
                "targetPoint": "Face"
            },
            {
                "$type": "ConfigLookAtInterAction",
                "type": "LOOK_AT",
                "delayTime": 3.799999952316284,
                "aliasList": [
                    "12148"
                ],
                "enableHead": true,
                "headTurnTime": 0.30000001192092896,
                "targetNpcAlias": ""
            }
        ],
        [
            {
                "$type": "ConfigBodyLangInterAction",
                "type": "BODY_LANG",
                "aliasList": [
                    "12148"
                ],
                "bodyLangParam": 1120,
                "forceDoFreeStyle": true,
                "canDoRepeatFreeStyle": false
            },
            {
                "$type": "ConfigEmoSyncInterAction",
                "type": "EMO_SYNC",
                "aliasList": [
                    "12148"
                ],
                "dataPath": "Cs_Emo_Avatar_Simple_Common_Set/Cs_Emo_Avatar_Talk/Cs_Emo_Coop_Common/Cs_Emo_Coop_Thoma_01/Cs_Emo_191110111",
                "phonemePath": "",
                "emotionPath": "",
                "mateDataPath": "",
                "matePhonemePath": "",
                "mateEmotionPath": "",
                "dataPathHashList": [
                    18247284624035915913,
                    8317142236020159903,
                    15663362825470214538,
                    11552636011646055025
                ]
            },
            {
                "$type": "ConfigEmotionTemplateAction",
                "type": "EMOTION_TEMPLATE",
                "aliasList": [
                    "503"
                ],
                "emoTemplateID": 10100
            },
            {
                "$type": "ConfigDialogInterAction",
                "type": "DIALOG",
                "aliasList": [
                    "12148"
                ],
                "dialogID": 191110111,
                "protectTime": 0.5
            },
            {
                "$type": "ConfigLookAtInterAction",
                "type": "LOOK_AT",
                "aliasList": [
                    "12148"
                ],
                "enableHead": true,
                "headTurnTime": 0.5,
                "targetNpcAlias": ""
            },
            {
                "$type": "ConfigLookAtEyeCtrlInterAction",
                "type": "LOOK_AT_EYECTRL",
                "aliasList": [
                    "12148"
                ],
                "useTargetPos": false,
                "turnTime": 1.0,
                "targetNpcAlias": "",
                "targetPoint": "Face"
            },
            {
                "$type": "ConfigBodyLangInterAction",
                "type": "BODY_LANG",
                "delayTime": 1.6660000085830688,
                "aliasList": [
                    "12148"
                ],
                "isContinue": true,
                "forceDoFreeStyle": true,
                "canDoRepeatFreeStyle": false
            },
            {
                "$type": "ConfigBodyLangInterAction",
                "type": "BODY_LANG",
                "delayTime": 3.2909998893737793,
                "aliasList": [
                    "12148"
                ],
                "bodyLangParam": 1171,
                "forceDoFreeStyle": true,
                "canDoRepeatFreeStyle": false
            }
        ],
        [
            {
                "$type": "ConfigEmotionTemplateAction",
                "type": "EMOTION_TEMPLATE",
                "aliasList": [
                    "503"
                ],
                "emoTemplateID": 10101
            },
            {
                "$type": "ConfigEmoSyncInterAction",
                "type": "EMO_SYNC",
                "aliasList": [
                    "503"
                ],
                "dataPath": "Cs_Emo_Avatar_Simple_Common_Set/Cs_Emo_Avatar_Talk/Cs_Emo_Coop_Common/Cs_Emo_Coop_Thoma_01/Cs_Emo_191110112",
                "phonemePath": "",
                "emotionPath": "",
                "mateDataPath": "",
                "matePhonemePath": "",
                "mateEmotionPath": "",
                "dataPathHashList": [
                    10553469376888861308,
                    5387420166988774958,
                    10821398155839044689,
                    5382541386549426685
                ]
            },
            {
                "$type": "ConfigDialogInterAction",
                "type": "DIALOG",
                "aliasList": [
                    "503"
                ],
                "dialogID": 191110112,
                "protectTime": 0.5
            },
            {
                "$type": "ConfigCameraMoveInterAction",
                "type": "CAMERA_MOVE",
                "duration": 1.0,
                "cameraPosType": "RELATIVE_TO_TARGET_ENTITY",
                "camTargetType": "RELATIVE_TO_TARGET_ENTITY",
                "camFov": 30.0,
                "lerpPattern": 6,
                "cameraBlendType": "EaseInOutCubic",
                "cutFrameTrans": {},
                "openCameraDither": false,
                "targetNpcAlias": "503",
                "closeTreeLeafDither": true
            },
            {
                "$type": "ConfigBodyLangInterAction",
                "type": "BODY_LANG",
                "aliasList": [
                    "12148"
                ],
                "isContinue": true,
                "forceDoFreeStyle": true,
                "canDoRepeatFreeStyle": false
            }
        ],
        [
            {
                "$type": "ConfigEmotionTemplateAction",
                "type": "EMOTION_TEMPLATE",
                "aliasList": [
                    "503"
                ],
                "emoTemplateID": 10100
            },
            {
                "$type": "ConfigEmoSyncInterAction",
                "type": "EMO_SYNC",
                "aliasList": [
                    "503"
                ],
                "dataPath": "Cs_Emo_Avatar_Simple_Common_Set/Cs_Emo_Avatar_Talk/Cs_Emo_Coop_Common/Cs_Emo_Coop_Thoma_01/Cs_Emo_191110113",
                "phonemePath": "",
                "emotionPath": "",
                "mateDataPath": "",
                "matePhonemePath": "",
                "mateEmotionPath": "",
                "dataPathHashList": [
                    11806094945106001131,
                    9375563542849833824,
                    1686014051699626983,
                    8887005240337418264
                ]
            },
            {
                "$type": "ConfigDialogInterAction",
                "type": "DIALOG",
                "aliasList": [
                    "503"
                ],
                "dialogID": 191110113,
                "protectTime": 0.5
            },
            {
                "$type": "ConfigDialogSelectAction",
                "type": "DIALOG_SELECT",
                "delayTime": 0.4000000059604645,
                "aliasList": [
                    "Avatar"
                ],
                "dialogIDList": [
                    191110114
                ],
                "grpIDList": [
                    111182011
                ],
                "useGrpId": true
            }
        ],
        [
            {
                "$type": "ConfigEmoSyncInterAction",
                "type": "EMO_SYNC",
                "aliasList": [
                    "503"
                ],
                "dataPath": "Cs_Emo_Avatar_Simple_Common_Set/Cs_Emo_Avatar_Talk/Cs_Emo_Coop_Common/Cs_Emo_Coop_Thoma_01/Cs_Emo_191110115",
                "phonemePath": "",
                "emotionPath": "",
                "mateDataPath": "",
                "matePhonemePath": "",
                "mateEmotionPath": "",
                "dataPathHashList": [
                    6519239598024949783,
                    17810777895439434041,
                    17917013951931329434,
                    10737308243284937373
                ]
            },
            {
                "$type": "ConfigEmotionTemplateAction",
                "type": "EMOTION_TEMPLATE",
                "aliasList": [
                    "503"
                ],
                "emoTemplateID": 10101
            },
            {
                "$type": "ConfigDialogInterAction",
                "type": "DIALOG",
                "aliasList": [
                    "503"
                ],
                "dialogID": 191110115,
                "protectTime": 0.5
            }
        ],
        [
            {
                "$type": "ConfigEmoSyncInterAction",
                "type": "EMO_SYNC",
                "aliasList": [
                    "503"
                ],
                "dataPath": "Cs_Emo_Avatar_Simple_Common_Set/Cs_Emo_Avatar_Talk/Cs_Emo_Coop_Common/Cs_Emo_Coop_Thoma_01/Cs_Emo_191110116",
                "phonemePath": "",
                "emotionPath": "",
                "mateDataPath": "",
                "matePhonemePath": "",
                "mateEmotionPath": "",
                "dataPathHashList": [
                    17448814324828167644,
                    12570620649948288232,
                    796576198996487049,
                    4860844493301008202
                ]
            },
            {
                "$type": "ConfigEmotionTemplateAction",
                "type": "EMOTION_TEMPLATE",
                "aliasList": [
                    "503"
                ],
                "emoTemplateID": 10101
            },
            {
                "$type": "ConfigDialogInterAction",
                "type": "DIALOG",
                "aliasList": [
                    "503"
                ],
                "dialogID": 191110116,
                "protectTime": 0.5
            }
        ],
        [
            {
                "$type": "ConfigEmoSyncInterAction",
                "type": "EMO_SYNC",
                "aliasList": [
                    "503"
                ],
                "dataPath": "Cs_Emo_Avatar_Simple_Common_Set/Cs_Emo_Avatar_Talk/Cs_Emo_Coop_Common/Cs_Emo_Coop_Thoma_01/Cs_Emo_191110117",
                "phonemePath": "",
                "emotionPath": "",
                "mateDataPath": "",
                "matePhonemePath": "",
                "mateEmotionPath": "",
                "dataPathHashList": [
                    14421210369529740685,
                    9759828178739037717,
                    14811403415285294234,
                    7353867042397564454
                ]
            },
            {
                "$type": "ConfigEmotionTemplateAction",
                "type": "EMOTION_TEMPLATE",
                "aliasList": [
                    "503"
                ],
                "emoTemplateID": 10100
            },
            {
                "$type": "ConfigDialogInterAction",
                "type": "DIALOG",
                "aliasList": [
                    "503"
                ],
                "dialogID": 191110117,
                "protectTime": 0.5
            }
        ],
        [
            {
                "$type": "ConfigEmoSyncInterAction",
                "type": "EMO_SYNC",
                "aliasList": [
                    "503"
                ],
                "dataPath": "Cs_Emo_Avatar_Simple_Common_Set/Cs_Emo_Avatar_Talk/Cs_Emo_Coop_Common/Cs_Emo_Coop_Thoma_01/Cs_Emo_191110118",
                "phonemePath": "",
                "emotionPath": "",
                "mateDataPath": "",
                "matePhonemePath": "",
                "mateEmotionPath": "",
                "dataPathHashList": [
                    7857920056217276656,
                    2351581893583450456,
                    4050142305061811881,
                    1131987279037004462
                ]
            },
            {
                "$type": "ConfigEmotionTemplateAction",
                "type": "EMOTION_TEMPLATE",
                "aliasList": [
                    "503"
                ],
                "emoTemplateID": 10100
            },
            {
                "$type": "ConfigDialogInterAction",
                "type": "DIALOG",
                "aliasList": [
                    "503"
                ],
                "dialogID": 191110118,
                "protectTime": 0.5
            }
        ]
    ],
    "groupId": [
        {
            "grpId": 1250512504,
            "nextGrpId": 1250512505
        },
        {
            "index": 1,
            "grpId": 1250512505,
            "nextGrpId": 1250512506
        },
        {
            "index": 2,
            "grpId": 1250512506,
            "nextGrpId": 1250512507
        },
        {
            "index": 3,
            "grpId": 1250512507,
            "nextGrpId": 1250512508
        },
        {
            "index": 4,
            "grpId": 1250512508,
            "nextGrpId": 1250512509
        },
        {
            "index": 5,
            "grpId": 1250512509,
            "nextGrpId": 1250512510
        },
        {
            "index": 6,
            "grpId": 1250512510,
            "nextGrpId": 1250512511
        },
        {
            "index": 7,
            "grpId": 1250512511,
            "nextGrpId": 1250512512
        },
        {
            "index": 8,
            "grpId": 1250512512,
            "nextGrpId": 111182008
        },
        {
            "index": 9,
            "grpId": 111182008,
            "nextGrpId": 111182009
        },
        {
            "index": 10,
            "grpId": 111182009,
            "nextGrpId": 111182010
        },
        {
            "index": 11,
            "grpId": 111182010,
            "nextGrpId": 111182011
        },
        {
            "index": 12,
            "grpId": 111182011,
            "nextGrpId": 111182012
        },
        {
            "index": 13,
            "grpId": 111182012,
            "nextGrpId": 111182013
        },
        {
            "index": 14,
            "grpId": 111182013,
            "nextGrpId": 111182014
        },
        {
            "index": 15,
            "grpId": 111182014,
            "nextGrpId": 111182015
        }
    ],
    "freeStyleDic": {
        "12148": [
            1120,
            1171,
            4040
        ],
        "12149": [
            1120,
            1171
        ],
        "503": [
            10100,
            10301,
            10101
        ]
    }
}