{
    "HBPGBNCBOMP": "",
    "startBlackKeepTime": 0.5,
    "KENGMFPNLEP": "",
    "disableNpcLod": true,
    "NIHBFFCCJJN": true,
    "AGMGHOIPEIH": true,
    "startFade": {
        "startFadeInDuration": 0.5,
        "startFadeOutDuration": 0.0
    },
    "endFade": {
        "startFadeOutDuration": 0.0
    },
    "actors": [
        {
            "alias": "Avatar",
            "visible": true,
            "bornPointName": "",
            "relativePosNpcAlias": ""
        }
    ],
    "group": [
        [
            {
                "$type": "ConfigTimeProtectAction",
                "type": "TIME_PROTECT",
                "duration": 2.0
            },
            {
                "$type": "ConfigUITriggerInterAction",
                "type": "UI_TRIGGER",
                "duration": 1.2000000476837158,
                "contextName": "CoopDefeatDialog",
                "param": "105901 QUEST_Message_Q19039"
            },
            {
                "$type": "ConfigDialogInterAction",
                "type": "DIALOG_CLEAR"
            },
            {
                "$type": "ConfigSimpleBlackScreenAction",
                "type": "SIMPLE_BLACK_SCREEN",
                "duration": 1.5,
                "durationKeepBlack": 1.2999999523162842,
                "durationFromBlack": 0.20000000298023224,
                "textMapID": ""
            }
        ]
    ],
    "groupId": [
        {
            "grpId": 172599769,
            "nextGrpId": 172599770
        }
    ]
}