{
    "HBPGBNCBOMP": "",
    "startBlackKeepTime": 1.0,
    "KENGMFPNLEP": "",
    "disableNpcLod": true,
    "startFade": {
        "startFadeInDuration": 0.5,
        "startFadeOutDuration": 0.5
    },
    "endFade": {
        "startFadeOutDuration": 0.0
    },
    "actors": [
        {
            "alias": "Avatar",
            "visible": true,
            "bornPointName": "",
            "relativePosNpcAlias": ""
        },
        {
            "configID": 506,
            "alias": "506",
            "visible": true,
            "bornPointName": "COOP10240101Beidou10",
            "relativePosNpcAlias": ""
        },
        {
            "configID": 12217,
            "alias": "12217",
            "visible": true,
            "bornPointName": "COOP10240101Stander06",
            "relativePosNpcAlias": ""
        },
        {
            "configID": 12218,
            "alias": "12218",
            "visible": true,
            "bornPointName": "COOP10240101QianYan02",
            "relativePosNpcAlias": ""
        },
        {
            "configID": 12227,
            "alias": "12227",
            "visible": true,
            "bornPointName": "COOP10240101soldier01",
            "relativePosNpcAlias": ""
        },
        {
            "configID": 12228,
            "alias": "12228",
            "visible": true,
            "bornPointName": "COOP10240101soldier02",
            "relativePosNpcAlias": ""
        }
    ],
    "group": [
        [
            {
                "$type": "ConfigVisibleInterAction",
                "type": "VISIBLE",
                "aliasList": [
                    "12218"
                ]
            },
            {
                "$type": "ConfigLookAtInterAction",
                "type": "LOOK_AT",
                "aliasList": [
                    "12218"
                ],
                "enableHead": true,
                "headTurnTime": 0.5,
                "targetNpcAlias": ""
            },
            {
                "$type": "ConfigTeleportToAction",
                "type": "TELEPORT_TO",
                "aliasList": [
                    "12217"
                ],
                "position": {
                    "x": -111.01599884033203,
                    "y": 200.4530029296875,
                    "z": -634.905029296875
                },
                "forward": {
                    "x": 0.953000009059906,
                    "z": 0.6679999828338623
                }
            },
            {
                "$type": "ConfigLookAtInterAction",
                "type": "LOOK_AT",
                "aliasList": [
                    "12227"
                ],
                "enableHead": true,
                "headTurnTime": 0.5,
                "targetNpcAlias": ""
            },
            {
                "$type": "ConfigVisibleInterAction",
                "type": "VISIBLE",
                "aliasList": [
                    "12228"
                ]
            },
            {
                "$type": "ConfigLookAtInterAction",
                "type": "LOOK_AT",
                "aliasList": [
                    "12228"
                ],
                "enableHead": true,
                "headTurnTime": 0.5,
                "targetNpcAlias": ""
            },
            {
                "$type": "ConfigVisibleInterAction",
                "type": "VISIBLE",
                "aliasList": [
                    "12227"
                ]
            },
            {
                "$type": "ConfigEmotionTemplateAction",
                "type": "EMOTION_TEMPLATE",
                "aliasList": [
                    "506"
                ],
                "emoTemplateID": 10100
            },
            {
                "$type": "ConfigTeleportToAction",
                "type": "TELEPORT_TO",
                "aliasList": [
                    "Avatar"
                ],
                "position": {
                    "x": -107.43499755859375,
                    "y": 201.1529998779297,
                    "z": -635.1710205078125
                },
                "forward": {
                    "x": -2.1519999504089355,
                    "y": -0.5339999794960022,
                    "z": 0.33000001311302185
                }
            },
            {
                "$type": "ConfigCameraMoveInterAction",
                "type": "CAMERA_MOVE",
                "duration": 1.0,
                "camPosOffset": {
                    "x": -84.53399658203125,
                    "y": 206.83200073242188,
                    "z": -644.406982421875
                },
                "camForwardTargetOffset": {
                    "x": -85.44999694824219,
                    "y": 206.61199951171875,
                    "z": -644.072998046875
                },
                "camFov": 25.0,
                "lerpPattern": 6,
                "cameraBlendType": "EaseInOutCubic",
                "cutFrameTrans": {},
                "openCameraDither": false,
                "targetNpcAlias": "",
                "closeTreeLeafDither": true
            },
            {
                "$type": "ConfigBodyLangInterAction",
                "type": "BODY_LANG",
                "aliasList": [
                    "12217"
                ],
                "isContinue": true,
                "forceDoFreeStyle": true,
                "canDoRepeatFreeStyle": false
            },
            {
                "$type": "ConfigLookAtInterAction",
                "type": "LOOK_AT",
                "aliasList": [
                    "12217"
                ],
                "enableHead": true,
                "headTurnTime": 0.5,
                "targetNpcAlias": ""
            },
            {
                "$type": "ConfigLookAtInterAction",
                "type": "LOOK_AT",
                "aliasList": [
                    "506"
                ],
                "enableHead": true,
                "headTurnTime": 0.5,
                "targetNpcAlias": ""
            },
            {
                "$type": "ConfigCameraDOFAction",
                "type": "CAMERA_DOF",
                "delayTime": 0.30000001192092896,
                "focusDistance": 6.0,
                "focusRange": 6.0,
                "quality": 3
            }
        ],
        [
            {
                "$type": "ConfigEmotionTemplateAction",
                "type": "EMOTION_TEMPLATE",
                "aliasList": [
                    "506"
                ],
                "emoTemplateID": 10401
            },
            {
                "$type": "ConfigLookAtInterAction",
                "type": "LOOK_AT",
                "aliasList": [
                    "12217"
                ],
                "enableHead": true,
                "headTurnTime": 0.5,
                "targetNpcAlias": ""
            },
            {
                "$type": "ConfigBodyLangInterAction",
                "type": "BODY_LANG",
                "aliasList": [
                    "12217"
                ],
                "bodyLangParam": 1171,
                "forceDoFreeStyle": true,
                "canDoRepeatFreeStyle": false
            },
            {
                "$type": "ConfigCameraMoveInterAction",
                "type": "CAMERA_MOVE",
                "duration": 1.0,
                "camPosOffset": {
                    "x": -84.53399658203125,
                    "y": 206.83200073242188,
                    "z": -644.406982421875
                },
                "camForwardTargetOffset": {
                    "x": -85.44999694824219,
                    "y": 206.61199951171875,
                    "z": -644.072998046875
                },
                "camFov": 25.0,
                "lerpPattern": 6,
                "cameraBlendType": "EaseInOutCubic",
                "cutFrameTrans": {},
                "openCameraDither": false,
                "targetNpcAlias": "",
                "closeTreeLeafDither": true
            },
            {
                "$type": "ConfigTimeProtectAction",
                "type": "TIME_PROTECT",
                "duration": 5.099999904632568
            },
            {
                "$type": "ConfigCameraMoveInterAction",
                "type": "CAMERA_MOVE",
                "delayTime": 0.10000000149011612,
                "duration": 5.0,
                "camPosOffset": {
                    "x": -84.52799987792969,
                    "y": 206.84500122070312,
                    "z": -644.3820190429688
                },
                "camForwardTargetOffset": {
                    "x": -85.44499969482422,
                    "y": 206.625,
                    "z": -644.0479736328125
                },
                "camFov": 25.0,
                "cameraBlendType": "Linear",
                "cutFrameTrans": {},
                "needZAxisRotate": true,
                "openCameraDither": false,
                "targetNpcAlias": "",
                "closeTreeLeafDither": true
            },
            {
                "$type": "ConfigBodyLangInterAction",
                "type": "BODY_LANG",
                "delayTime": 3.7669999599456787,
                "aliasList": [
                    "12217"
                ],
                "bodyLangParam": 5010,
                "forceDoFreeStyle": true,
                "canDoRepeatFreeStyle": false
            }
        ],
        [
            {
                "$type": "ConfigEmoSyncInterAction",
                "type": "EMO_SYNC",
                "aliasList": [
                    "12217"
                ],
                "dataPath": "Cs_Emo_Avatar_Simple_Common_Set/Cs_Emo_Avatar_Talk/Cs_Emo_Coop_Common/Cs_Emo_Coop_BeiDou_01/Cs_Emo_190520701",
                "phonemePath": "",
                "emotionPath": "",
                "mateDataPath": "",
                "matePhonemePath": "",
                "mateEmotionPath": "",
                "dataPathHashList": [
                    1366828736366233365,
                    13920882602504008911,
                    13349052133609895578,
                    3867645669196233990
                ]
            },
            {
                "$type": "ConfigVisibleInterAction",
                "type": "VISIBLE",
                "aliasList": [
                    "12228"
                ],
                "isVisible": true
            },
            {
                "$type": "ConfigVisibleInterAction",
                "type": "VISIBLE",
                "aliasList": [
                    "12227"
                ],
                "isVisible": true
            },
            {
                "$type": "ConfigVisibleInterAction",
                "type": "VISIBLE",
                "aliasList": [
                    "12218"
                ],
                "isVisible": true
            },
            {
                "$type": "ConfigVisibleInterAction",
                "type": "VISIBLE",
                "aliasList": [
                    "Avatar"
                ]
            },
            {
                "$type": "ConfigCameraMoveInterAction",
                "type": "CAMERA_MOVE",
                "duration": 1.0,
                "cameraPosType": "RELATIVE_TO_TARGET_ENTITY",
                "camTargetType": "RELATIVE_TO_TARGET_ENTITY",
                "camFov": 30.0,
                "lerpPattern": 6,
                "cameraBlendType": "EaseInOutCubic",
                "cutFrameTrans": {},
                "openCameraDither": false,
                "targetNpcAlias": "12217",
                "closeTreeLeafDither": true
            },
            {
                "$type": "ConfigBodyLangInterAction",
                "type": "BODY_LANG",
                "aliasList": [
                    "12217"
                ],
                "bodyLangParam": 1171,
                "forceDoFreeStyle": true,
                "canDoRepeatFreeStyle": false
            },
            {
                "$type": "ConfigDialogInterAction",
                "type": "DIALOG",
                "aliasList": [
                    "12217"
                ],
                "dialogID": 190520701,
                "protectTime": 0.5
            },
            {
                "$type": "ConfigBodyLangInterAction",
                "type": "BODY_LANG",
                "delayTime": 4.127999782562256,
                "aliasList": [
                    "12217"
                ],
                "bodyLangParam": 5010,
                "forceDoFreeStyle": true,
                "canDoRepeatFreeStyle": false
            }
        ],
        [
            {
                "$type": "ConfigEmotionTemplateAction",
                "type": "EMOTION_TEMPLATE",
                "aliasList": [
                    "506"
                ],
                "emoTemplateID": 10100
            },
            {
                "$type": "ConfigEmoSyncInterAction",
                "type": "EMO_SYNC",
                "aliasList": [
                    "506"
                ],
                "dataPath": "Cs_Emo_Avatar_Simple_Common_Set/Cs_Emo_Avatar_Talk/Cs_Emo_Coop_Common/Cs_Emo_Coop_BeiDou_01/Cs_Emo_190520702_2",
                "phonemePath": "",
                "emotionPath": "",
                "mateDataPath": "Cs_Emo_Avatar_Simple_Common_Set/Cs_Emo_Avatar_Talk/Cs_Emo_Coop_Common/Cs_Emo_Coop_BeiDou_01/Cs_Emo_190520702_1",
                "matePhonemePath": "",
                "mateEmotionPath": "",
                "dataPathHashList": [
                    15905649727011241888,
                    1335837656054844194,
                    16235094637080266308,
                    1146427378836758347
                ],
                "mateDataPathHashList": [
                    2531820191421524815,
                    6119226911294048566,
                    12721678242022882503,
                    6432139024027076335
                ]
            },
            {
                "$type": "ConfigCameraMoveInterAction",
                "type": "CAMERA_MOVE",
                "duration": 1.0,
                "cameraPosType": "RELATIVE_TO_TARGET_ENTITY",
                "camTargetType": "RELATIVE_TO_TARGET_ENTITY",
                "camFov": 30.0,
                "lerpPattern": 6,
                "cameraBlendType": "EaseInOutCubic",
                "cutFrameTrans": {},
                "openCameraDither": false,
                "targetNpcAlias": "506",
                "closeTreeLeafDither": true
            },
            {
                "$type": "ConfigDialogInterAction",
                "type": "DIALOG",
                "aliasList": [
                    "506"
                ],
                "dialogID": 190520702,
                "protectTime": 0.5
            }
        ],
        [
            {
                "$type": "ConfigBodyLangInterAction",
                "type": "BODY_LANG",
                "aliasList": [
                    "12217"
                ],
                "isContinue": true,
                "forceDoFreeStyle": true,
                "canDoRepeatFreeStyle": false
            },
            {
                "$type": "ConfigEmoSyncInterAction",
                "type": "EMO_SYNC",
                "aliasList": [
                    "12217"
                ],
                "dataPath": "Cs_Emo_Avatar_Simple_Common_Set/Cs_Emo_Avatar_Talk/Cs_Emo_Coop_Common/Cs_Emo_Coop_BeiDou_01/Cs_Emo_190520703",
                "phonemePath": "",
                "emotionPath": "",
                "mateDataPath": "",
                "matePhonemePath": "",
                "mateEmotionPath": "",
                "dataPathHashList": [
                    5812769278755537350,
                    12793679086935896868,
                    1935601130559840377,
                    3377850135773760695
                ]
            },
            {
                "$type": "ConfigCameraMoveInterAction",
                "type": "CAMERA_MOVE",
                "duration": 1.0,
                "cameraPosType": "RELATIVE_TO_TARGET_ENTITY",
                "camTargetType": "RELATIVE_TO_TARGET_ENTITY",
                "camFov": 30.0,
                "lerpPattern": 6,
                "cameraBlendType": "EaseInOutCubic",
                "cutFrameTrans": {},
                "openCameraDither": false,
                "targetNpcAlias": "12217",
                "closeTreeLeafDither": true
            },
            {
                "$type": "ConfigDialogInterAction",
                "type": "DIALOG",
                "aliasList": [
                    "12217"
                ],
                "dialogID": 190520703,
                "protectTime": 0.5
            },
            {
                "$type": "ConfigBodyLangInterAction",
                "type": "BODY_LANG",
                "delayTime": 0.9240000247955322,
                "aliasList": [
                    "12217"
                ],
                "bodyLangParam": 5010,
                "forceDoFreeStyle": true,
                "canDoRepeatFreeStyle": false
            }
        ],
        [
            {
                "$type": "ConfigEmotionTemplateAction",
                "type": "EMOTION_TEMPLATE",
                "aliasList": [
                    "506"
                ],
                "emoTemplateID": 10101
            },
            {
                "$type": "ConfigEmoSyncInterAction",
                "type": "EMO_SYNC",
                "aliasList": [
                    "506"
                ],
                "dataPath": "Cs_Emo_Avatar_Simple_Common_Set/Cs_Emo_Avatar_Talk/Cs_Emo_Coop_Common/Cs_Emo_Coop_BeiDou_01/Cs_Emo_190520704",
                "phonemePath": "",
                "emotionPath": "",
                "mateDataPath": "",
                "matePhonemePath": "",
                "mateEmotionPath": "",
                "dataPathHashList": [
                    2123850927306775227,
                    16663651037039460641,
                    12255368558269924749,
                    2227177606891405994
                ]
            },
            {
                "$type": "ConfigCameraMoveInterAction",
                "type": "CAMERA_MOVE",
                "duration": 1.0,
                "cameraPosType": "RELATIVE_TO_TARGET_ENTITY",
                "camTargetType": "RELATIVE_TO_TARGET_ENTITY",
                "camFov": 30.0,
                "lerpPattern": 6,
                "cameraBlendType": "EaseInOutCubic",
                "cutFrameTrans": {},
                "openCameraDither": false,
                "targetNpcAlias": "506",
                "closeTreeLeafDither": true
            },
            {
                "$type": "ConfigDialogInterAction",
                "type": "DIALOG",
                "aliasList": [
                    "506"
                ],
                "dialogID": 190520704,
                "protectTime": 0.5
            }
        ],
        [
            {
                "$type": "ConfigEmoSyncInterAction",
                "type": "EMO_SYNC",
                "aliasList": [
                    "506"
                ],
                "dataPath": "Cs_Emo_Avatar_Simple_Common_Set/Cs_Emo_Avatar_Talk/Cs_Emo_Coop_Common/Cs_Emo_Coop_BeiDou_01/Cs_Emo_190520705",
                "phonemePath": "",
                "emotionPath": "",
                "mateDataPath": "",
                "matePhonemePath": "",
                "mateEmotionPath": "",
                "dataPathHashList": [
                    14451830587289699216,
                    9551739005403778278,
                    11249273359004615404,
                    16877145648103340932
                ]
            },
            {
                "$type": "ConfigBodyLangInterAction",
                "type": "BODY_LANG",
                "aliasList": [
                    "12217"
                ],
                "isContinue": true,
                "forceDoFreeStyle": true,
                "canDoRepeatFreeStyle": false
            },
            {
                "$type": "ConfigDialogInterAction",
                "type": "DIALOG",
                "aliasList": [
                    "506"
                ],
                "dialogID": 190520705,
                "protectTime": 0.5
            },
            {
                "$type": "ConfigEmotionTemplateAction",
                "type": "EMOTION_TEMPLATE",
                "aliasList": [
                    "506"
                ],
                "emoTemplateID": 10100
            }
        ],
        [
            {
                "$type": "ConfigTeleportToAction",
                "type": "TELEPORT_TO",
                "aliasList": [
                    "12218"
                ],
                "position": {
                    "x": -111.63400268554688,
                    "y": 200.8350067138672,
                    "z": -627.375
                },
                "forward": {
                    "x": 1.1180000305175781,
                    "y": 0.09600000083446503,
                    "z": -2.687000036239624
                }
            },
            {
                "$type": "ConfigTeleportToAction",
                "type": "TELEPORT_TO",
                "aliasList": [
                    "12227"
                ],
                "position": {
                    "x": -113.4800033569336,
                    "y": 200.79600524902344,
                    "z": -625.4970092773438
                },
                "forward": {
                    "x": 1.1430000066757202,
                    "y": -0.14399999380111694,
                    "z": -1.934999942779541
                }
            },
            {
                "$type": "ConfigTeleportToAction",
                "type": "TELEPORT_TO",
                "aliasList": [
                    "12228"
                ],
                "position": {
                    "x": -112.0719985961914,
                    "y": 201.03399658203125,
                    "z": -624.427978515625
                },
                "forward": {
                    "x": 1.1050000190734863,
                    "y": 0.07400000095367432,
                    "z": -2.6480000019073486
                }
            },
            {
                "$type": "ConfigEmoSyncInterAction",
                "type": "EMO_SYNC",
                "aliasList": [
                    "12217"
                ],
                "dataPath": "Cs_Emo_Avatar_Simple_Common_Set/Cs_Emo_Avatar_Talk/Cs_Emo_Coop_Common/Cs_Emo_Coop_BeiDou_01/Cs_Emo_190520706",
                "phonemePath": "",
                "emotionPath": "",
                "mateDataPath": "",
                "matePhonemePath": "",
                "mateEmotionPath": "",
                "dataPathHashList": [
                    258114541070466259,
                    5825198979190306202,
                    8649475801063618279,
                    4387564695891072354
                ]
            },
            {
                "$type": "ConfigCameraMoveInterAction",
                "type": "CAMERA_MOVE",
                "duration": 1.0,
                "cameraPosType": "RELATIVE_TO_TARGET_ENTITY",
                "camTargetType": "RELATIVE_TO_TARGET_ENTITY",
                "camFov": 30.0,
                "lerpPattern": 6,
                "cameraBlendType": "EaseInOutCubic",
                "cutFrameTrans": {},
                "openCameraDither": false,
                "targetNpcAlias": "12217",
                "closeTreeLeafDither": true
            },
            {
                "$type": "ConfigDialogInterAction",
                "type": "DIALOG",
                "aliasList": [
                    "12217"
                ],
                "dialogID": 190520706,
                "protectTime": 0.5
            },
            {
                "$type": "ConfigBodyLangInterAction",
                "type": "BODY_LANG",
                "aliasList": [
                    "12217"
                ],
                "bodyLangParam": 1171,
                "forceDoFreeStyle": true,
                "canDoRepeatFreeStyle": false
            }
        ],
        [
            {
                "$type": "ConfigMoveToAction",
                "type": "MOVE_TO",
                "aliasList": [
                    "12227"
                ],
                "moveType": "WALK",
                "routeList": [
                    {
                        "x": -112.7969970703125,
                        "y": 200.7519989013672,
                        "z": -626.8510131835938
                    }
                ],
                "exactlyMove": true
            },
            {
                "$type": "ConfigLookAtInterAction",
                "type": "LOOK_AT",
                "aliasList": [
                    "12218"
                ],
                "enableHead": true,
                "useTargetPos": true,
                "enableAbsolute": true,
                "targetPosition": {
                    "x": -109.02200317382812,
                    "y": 202.80499267578125,
                    "z": -632.458984375
                },
                "headTurnTime": 0.4000000059604645,
                "targetNpcAlias": ""
            },
            {
                "$type": "ConfigEmoSyncInterAction",
                "type": "EMO_SYNC",
                "aliasList": [
                    "12218"
                ],
                "dataPath": "Cs_Emo_Avatar_Simple_Common_Set/Cs_Emo_Avatar_Talk/Cs_Emo_Coop_Common/Cs_Emo_Coop_BeiDou_01/Cs_Emo_190520707",
                "phonemePath": "",
                "emotionPath": "",
                "mateDataPath": "",
                "matePhonemePath": "",
                "mateEmotionPath": "",
                "dataPathHashList": [
                    2468151006397565900,
                    17003529112648668277,
                    17525003073480953429,
                    13609518280171596672
                ]
            },
            {
                "$type": "ConfigLookAtInterAction",
                "type": "LOOK_AT",
                "aliasList": [
                    "12228"
                ],
                "enableHead": true,
                "useTargetPos": true,
                "enableAbsolute": true,
                "targetPosition": {
                    "x": -109.02200317382812,
                    "y": 202.80499267578125,
                    "z": -632.458984375
                },
                "headTurnTime": 0.4000000059604645,
                "targetNpcAlias": ""
            },
            {
                "$type": "ConfigMoveToAction",
                "type": "MOVE_TO",
                "aliasList": [
                    "12228"
                ],
                "moveType": "WALK",
                "routeList": [
                    {
                        "x": -111.61399841308594,
                        "y": 200.94400024414062,
                        "z": -626.2429809570312
                    }
                ],
                "exactlyMove": true
            },
            {
                "$type": "ConfigLookAtInterAction",
                "type": "LOOK_AT",
                "aliasList": [
                    "12227"
                ],
                "enableHead": true,
                "useTargetPos": true,
                "enableAbsolute": true,
                "targetPosition": {
                    "x": -109.02200317382812,
                    "y": 202.80499267578125,
                    "z": -632.458984375
                },
                "headTurnTime": 0.4000000059604645,
                "targetNpcAlias": ""
            },
            {
                "$type": "ConfigBodyLangInterAction",
                "type": "BODY_LANG",
                "aliasList": [
                    "506"
                ],
                "isContinue": true,
                "forceDoFreeStyle": true,
                "canDoRepeatFreeStyle": false
            },
            {
                "$type": "ConfigCameraMoveInterAction",
                "type": "CAMERA_MOVE",
                "duration": 1.0,
                "camPosOffset": {
                    "x": -111.51000213623047,
                    "y": 201.89100646972656,
                    "z": -634.1279907226562
                },
                "camForwardTargetOffset": {
                    "x": -111.49299621582031,
                    "y": 201.906005859375,
                    "z": -633.1279907226562
                },
                "camFov": 20.0,
                "lerpPattern": 6,
                "cameraBlendType": "EaseOutQuad",
                "cutFrameTrans": {},
                "openCameraDither": false,
                "targetNpcAlias": "",
                "closeTreeLeafDither": true
            },
            {
                "$type": "ConfigBodyLangInterAction",
                "type": "BODY_LANG",
                "aliasList": [
                    "12217"
                ],
                "isContinue": true,
                "forceDoFreeStyle": true,
                "canDoRepeatFreeStyle": false
            },
            {
                "$type": "ConfigMoveToAction",
                "type": "MOVE_TO",
                "aliasList": [
                    "12218"
                ],
                "moveType": "WALK",
                "routeList": [
                    {
                        "x": -110.82099914550781,
                        "y": 200.94500732421875,
                        "z": -629.10400390625
                    }
                ],
                "exactlyMove": true
            },
            {
                "$type": "ConfigDialogInterAction",
                "type": "DIALOG",
                "aliasList": [
                    "12218"
                ],
                "dialogID": 190520707,
                "protectTime": 0.5
            },
            {
                "$type": "ConfigCameraMoveInterAction",
                "type": "CAMERA_MOVE",
                "delayTime": 0.10000000149011612,
                "duration": 4.0,
                "camPosOffset": {
                    "x": -110.88099670410156,
                    "y": 202.13900756835938,
                    "z": -634.1079711914062
                },
                "camForwardTargetOffset": {
                    "x": -110.96399688720703,
                    "y": 202.13800048828125,
                    "z": -633.1110229492188
                },
                "camFov": 20.0,
                "cameraBlendType": "EaseOutQuad",
                "cutFrameTrans": {},
                "needZAxisRotate": true,
                "openCameraDither": false,
                "targetNpcAlias": "",
                "closeTreeLeafDither": true
            }
        ],
        [
            {
                "$type": "ConfigLookAtInterAction",
                "type": "LOOK_AT",
                "aliasList": [
                    "12217"
                ],
                "enableHead": true,
                "headTurnTime": 0.4000000059604645,
                "targetNpcAlias": "12218"
            },
            {
                "$type": "ConfigTeleportToAction",
                "type": "TELEPORT_TO",
                "aliasList": [
                    "12227"
                ],
                "position": {
                    "x": -112.7969970703125,
                    "y": 200.7519989013672,
                    "z": -626.8510131835938
                },
                "forward": {
                    "x": 0.9549999833106995,
                    "y": 0.04399999976158142,
                    "z": -1.7230000495910645
                }
            },
            {
                "$type": "ConfigLookAtInterAction",
                "type": "LOOK_AT",
                "aliasList": [
                    "12227"
                ],
                "enableHead": true,
                "headTurnTime": 0.5,
                "targetNpcAlias": "506"
            },
            {
                "$type": "ConfigDialogInterAction",
                "type": "DIALOG",
                "aliasList": [
                    "12218"
                ],
                "dialogID": 190520708,
                "protectTime": 1.5
            },
            {
                "$type": "ConfigLookAtInterAction",
                "type": "LOOK_AT",
                "aliasList": [
                    "12218"
                ],
                "enableHead": true,
                "headTurnTime": 0.5,
                "targetNpcAlias": "506"
            },
            {
                "$type": "ConfigEmoSyncInterAction",
                "type": "EMO_SYNC",
                "aliasList": [
                    "12218"
                ],
                "dataPath": "Cs_Emo_Avatar_Simple_Common_Set/Cs_Emo_Avatar_Talk/Cs_Emo_Coop_Common/Cs_Emo_Coop_BeiDou_01/Cs_Emo_190520708",
                "phonemePath": "",
                "emotionPath": "",
                "mateDataPath": "",
                "matePhonemePath": "",
                "mateEmotionPath": "",
                "dataPathHashList": [
                    14677933674147189913,
                    17339916462998183635,
                    7715566810221639162,
                    16378368696817676227
                ]
            },
            {
                "$type": "ConfigTeleportToAction",
                "type": "TELEPORT_TO",
                "aliasList": [
                    "12218"
                ],
                "position": {
                    "x": -110.92400360107422,
                    "y": 200.9320068359375,
                    "z": -629.1500244140625
                },
                "forward": {
                    "x": 0.40799999237060547,
                    "z": -0.9129999876022339
                }
            },
            {
                "$type": "ConfigLookAtInterAction",
                "type": "LOOK_AT",
                "aliasList": [
                    "12228"
                ],
                "enableHead": true,
                "headTurnTime": 0.5,
                "targetNpcAlias": "506"
            },
            {
                "$type": "ConfigCameraMoveInterAction",
                "type": "CAMERA_MOVE",
                "duration": 1.0,
                "camPosOffset": {
                    "x": -107.19599914550781,
                    "y": 202.80099487304688,
                    "z": -637.218017578125
                },
                "camForwardTargetOffset": {
                    "x": -107.59500122070312,
                    "y": 202.697998046875,
                    "z": -636.3070068359375
                },
                "camFov": 20.0,
                "lerpPattern": 6,
                "cameraBlendType": "EaseInOutCubic",
                "cutFrameTrans": {},
                "openCameraDither": false,
                "targetNpcAlias": "",
                "closeTreeLeafDither": true
            },
            {
                "$type": "ConfigLookAtInterAction",
                "type": "LOOK_AT",
                "aliasList": [
                    "506"
                ],
                "enableHead": true,
                "headTurnTime": 0.4000000059604645,
                "targetNpcAlias": "12218"
            },
            {
                "$type": "ConfigTeleportToAction",
                "type": "TELEPORT_TO",
                "aliasList": [
                    "12217"
                ],
                "position": {
                    "x": -109.81300354003906,
                    "y": 200.83799743652344,
                    "z": -633.7429809570312
                },
                "forward": {
                    "x": 3.759000062942505,
                    "y": -0.38499999046325684,
                    "z": 2.125
                }
            },
            {
                "$type": "ConfigTeleportToAction",
                "type": "TELEPORT_TO",
                "aliasList": [
                    "12228"
                ],
                "position": {
                    "x": -111.16699981689453,
                    "y": 200.97900390625,
                    "z": -626.4639892578125
                },
                "forward": {
                    "x": 0.6859999895095825,
                    "y": 0.05400000140070915,
                    "z": -1.7649999856948853
                }
            },
            {
                "$type": "ConfigCameraMoveInterAction",
                "type": "CAMERA_MOVE",
                "delayTime": 0.10000000149011612,
                "duration": 12.0,
                "camPosOffset": {
                    "x": -107.0979995727539,
                    "y": 202.74000549316406,
                    "z": -637.3460083007812
                },
                "camForwardTargetOffset": {
                    "x": -107.50299835205078,
                    "y": 202.64300537109375,
                    "z": -636.43701171875
                },
                "camFov": 20.0,
                "cameraBlendType": "EaseOutQuad",
                "cutFrameTrans": {},
                "openCameraDither": false,
                "targetNpcAlias": "",
                "closeTreeLeafDither": true
            },
            {
                "$type": "ConfigSteerInterAction",
                "type": "STEER_TO",
                "delayTime": 0.5609999895095825,
                "duration": 0.800000011920929,
                "aliasList": [
                    "506"
                ],
                "steerType": "ABSOLUTE",
                "steerDir": {
                    "x": -108.87000274658203,
                    "y": 201.10800170898438,
                    "z": -631.8790283203125
                },
                "useSteerAnim": true,
                "interruptFreestyle": true,
                "forceSteer": true,
                "targetNpcAlias": ""
            },
            {
                "$type": "ConfigSteerInterAction",
                "type": "STEER_TO",
                "delayTime": 0.800000011920929,
                "duration": 0.800000011920929,
                "aliasList": [
                    "12217"
                ],
                "steerType": "ABSOLUTE",
                "steerDir": {
                    "x": -110.76499938964844,
                    "y": 200.9669952392578,
                    "z": -629.9619750976562
                },
                "useSteerAnim": true,
                "interruptFreestyle": true,
                "forceSteer": true,
                "targetNpcAlias": ""
            },
            {
                "$type": "ConfigLookAtInterAction",
                "type": "LOOK_AT",
                "delayTime": 1.437999963760376,
                "aliasList": [
                    "506"
                ],
                "enableHead": true,
                "headTurnTime": 0.30000001192092896,
                "targetNpcAlias": "12218"
            },
            {
                "$type": "ConfigLookAtInterAction",
                "type": "LOOK_AT",
                "delayTime": 1.725000023841858,
                "aliasList": [
                    "12217"
                ],
                "enableHead": true,
                "headTurnTime": 0.30000001192092896,
                "targetNpcAlias": "12218"
            },
            {
                "$type": "ConfigBodyLangInterAction",
                "type": "BODY_LANG",
                "delayTime": 2.4579999446868896,
                "aliasList": [
                    "506"
                ],
                "bodyLangParam": 1230,
                "forceDoFreeStyle": true,
                "canDoRepeatFreeStyle": false
            }
        ],
        [
            {
                "$type": "ConfigLookAtInterAction",
                "type": "LOOK_AT",
                "aliasList": [
                    "12217"
                ],
                "enableHead": true,
                "headTurnTime": 0.5,
                "targetNpcAlias": ""
            },
            {
                "$type": "ConfigTeleportToAction",
                "type": "TELEPORT_TO",
                "aliasList": [
                    "506"
                ],
                "position": {
                    "x": -108.06600189208984,
                    "y": 201.156005859375,
                    "z": -633.052001953125
                },
                "forward": {
                    "x": -0.8040000200271606,
                    "y": -0.1340000033378601,
                    "z": -0.3050000071525574
                }
            },
            {
                "$type": "ConfigTeleportToAction",
                "type": "TELEPORT_TO",
                "aliasList": [
                    "12217"
                ],
                "position": {
                    "x": -111.01599884033203,
                    "y": 200.4530029296875,
                    "z": -634.905029296875
                },
                "forward": {
                    "x": 0.953000009059906,
                    "z": 0.30399999022483826
                }
            },
            {
                "$type": "ConfigEmoSyncInterAction",
                "type": "EMO_SYNC",
                "aliasList": [
                    "12218"
                ],
                "dataPath": "Cs_Emo_Avatar_Simple_Common_Set/Cs_Emo_Avatar_Talk/Cs_Emo_Coop_Common/Cs_Emo_Coop_BeiDou_01/Cs_Emo_190520709",
                "phonemePath": "",
                "emotionPath": "",
                "mateDataPath": "",
                "matePhonemePath": "",
                "mateEmotionPath": "",
                "dataPathHashList": [
                    4329774116493740170,
                    10923822875302337821,
                    2828754436694662498,
                    11009375666423492118
                ]
            },
            {
                "$type": "ConfigCameraMoveInterAction",
                "type": "CAMERA_MOVE",
                "duration": 1.0,
                "camPosOffset": {
                    "x": -110.30899810791016,
                    "y": 202.45199584960938,
                    "z": -631.2789916992188
                },
                "camForwardTargetOffset": {
                    "x": -110.56900024414062,
                    "y": 202.47500610351562,
                    "z": -630.3140258789062
                },
                "camFov": 20.0,
                "lerpPattern": 6,
                "cameraBlendType": "EaseInOutCubic",
                "cutFrameTrans": {},
                "openCameraDither": false,
                "targetNpcAlias": "",
                "closeTreeLeafDither": true
            },
            {
                "$type": "ConfigDialogInterAction",
                "type": "DIALOG",
                "aliasList": [
                    "12218"
                ],
                "dialogID": 190520709,
                "protectTime": 1.5
            },
            {
                "$type": "ConfigSteerInterAction",
                "type": "STEER_TO",
                "delayTime": 0.10000000149011612,
                "duration": 0.10000000149011612,
                "aliasList": [
                    "506"
                ],
                "steerType": "ABSOLUTE",
                "steerDir": {
                    "x": -108.63099670410156,
                    "y": 201.05099487304688,
                    "z": -633.302001953125
                },
                "useSteerAnim": true,
                "interruptFreestyle": true,
                "forceSteer": true,
                "targetNpcAlias": ""
            },
            {
                "$type": "ConfigCameraMoveInterAction",
                "type": "CAMERA_MOVE",
                "delayTime": 0.10000000149011612,
                "duration": 14.0,
                "camPosOffset": {
                    "x": -110.35199737548828,
                    "y": 202.46299743652344,
                    "z": -631.1190185546875
                },
                "camForwardTargetOffset": {
                    "x": -110.61199951171875,
                    "y": 202.48599243164062,
                    "z": -630.1539916992188
                },
                "camFov": 20.0,
                "cameraBlendType": "EaseOutQuad",
                "cutFrameTrans": {},
                "openCameraDither": false,
                "targetNpcAlias": "",
                "closeTreeLeafDither": true
            },
            {
                "$type": "ConfigDialogSelectAction",
                "type": "DIALOG_SELECT",
                "delayTime": 0.4000000059604645,
                "aliasList": [
                    "Avatar"
                ],
                "dialogIDList": [
                    190520710,
                    190520711
                ],
                "grpIDList": [
                    919069471,
                    919069471
                ],
                "useGrpId": true
            },
            {
                "$type": "ConfigLookAtInterAction",
                "type": "LOOK_AT",
                "delayTime": 1.0,
                "aliasList": [
                    "506"
                ],
                "enableHead": true,
                "headTurnTime": 0.5,
                "targetNpcAlias": ""
            },
            {
                "$type": "ConfigEmotionTemplateAction",
                "type": "EMOTION_TEMPLATE",
                "delayTime": 1.0,
                "aliasList": [
                    "506"
                ],
                "emoTemplateID": 10100
            }
        ],
        [
            {
                "$type": "ConfigEmoSyncInterAction",
                "type": "EMO_SYNC",
                "aliasList": [
                    "506"
                ],
                "dataPath": "Cs_Emo_Avatar_Simple_Common_Set/Cs_Emo_Avatar_Talk/Cs_Emo_Coop_Common/Cs_Emo_Coop_BeiDou_01/Cs_Emo_190520712",
                "phonemePath": "",
                "emotionPath": "",
                "mateDataPath": "",
                "matePhonemePath": "",
                "mateEmotionPath": "",
                "dataPathHashList": [
                    15523228182138619363,
                    15412784856935238508,
                    13226244532184872513,
                    8989632646174581226
                ]
            },
            {
                "$type": "ConfigLookAtInterAction",
                "type": "LOOK_AT",
                "aliasList": [
                    "506"
                ],
                "enableHead": true,
                "headTurnTime": 0.10000000149011612,
                "targetNpcAlias": ""
            },
            {
                "$type": "ConfigEmoSyncInterAction",
                "type": "EMO_SYNC",
                "aliasList": [
                    "12218"
                ],
                "dataPath": "",
                "phonemePath": "Cs_Emo_NPC_Common/Cs_Emo_NPC_Angry01",
                "emotionPath": "Cs_Emo_NPC_Common/Cs_Emo_NPC_Angry01",
                "mateDataPath": "",
                "matePhonemePath": "",
                "mateEmotionPath": "",
                "phonemePathHashList": [
                    9218657655395275517,
                    6356428425152214583,
                    11840959722219800112,
                    50070356133267922
                ],
                "emotionPathHashList": [
                    5555574328354538894,
                    6902058826788250658,
                    16686799597816672641,
                    13665732757931042568
                ]
            },
            {
                "$type": "ConfigCameraMoveInterAction",
                "type": "CAMERA_MOVE",
                "duration": 1.0,
                "cameraPosType": "RELATIVE_TO_TARGET_ENTITY",
                "camTargetType": "RELATIVE_TO_TARGET_ENTITY",
                "camFov": 30.0,
                "lerpPattern": 6,
                "cameraBlendType": "EaseInOutCubic",
                "cutFrameTrans": {},
                "openCameraDither": false,
                "targetNpcAlias": "506",
                "closeTreeLeafDither": true
            },
            {
                "$type": "ConfigDialogInterAction",
                "type": "DIALOG",
                "aliasList": [
                    "506"
                ],
                "dialogID": 190520712,
                "protectTime": 0.5
            },
            {
                "$type": "ConfigEmotionTemplateAction",
                "type": "EMOTION_TEMPLATE",
                "aliasList": [
                    "506"
                ],
                "emoTemplateID": 10401
            }
        ],
        [
            {
                "$type": "ConfigBlackScreenAction",
                "type": "BLACK_SCREEN",
                "duration": 3.0,
                "durationToBlack": 0.30000001192092896,
                "durationKeepBlack": 2.4000000953674316,
                "durationFromBlack": 0.30000001192092896,
                "inteePos": "",
                "textMapID": "COOP_Message_Q1905212",
                "useTextFade": true
            },
            {
                "$type": "ConfigLookAtInterAction",
                "type": "LOOK_AT",
                "aliasList": [
                    "12227"
                ],
                "enableHead": true,
                "headRotateVec": {
                    "x": 357.7090148925781
                },
                "headTurnTime": 0.5,
                "targetNpcAlias": ""
            },
            {
                "$type": "ConfigTimeProtectAction",
                "type": "TIME_PROTECT",
                "duration": 3.0
            },
            {
                "$type": "ConfigDialogInterAction",
                "type": "DIALOG_CLEAR",
                "delayTime": 0.00800000037997961,
                "duration": 2.0
            },
            {
                "$type": "ConfigCameraMoveInterAction",
                "type": "CAMERA_MOVE",
                "delayTime": 1.0,
                "duration": 1.0,
                "camPosOffset": {
                    "x": -110.49299621582031,
                    "y": 202.60800170898438,
                    "z": -630.1669921875
                },
                "camForwardTargetOffset": {
                    "x": -110.9540023803711,
                    "y": 202.58099365234375,
                    "z": -629.280029296875
                },
                "camFov": 20.0,
                "lerpPattern": 6,
                "cameraBlendType": "EaseInOutCubic",
                "cutFrameTrans": {},
                "openCameraDither": false,
                "targetNpcAlias": "",
                "closeTreeLeafDither": true
            }
        ],
        [
            {
                "$type": "ConfigLookAtInterAction",
                "type": "LOOK_AT",
                "aliasList": [
                    "12227"
                ],
                "enableHead": true,
                "headTurnTime": 0.4000000059604645,
                "targetNpcAlias": "12218"
            },
            {
                "$type": "ConfigDialogInterAction",
                "type": "DIALOG",
                "aliasList": [
                    "12227"
                ],
                "dialogID": 190520713,
                "protectTime": 0.5
            },
            {
                "$type": "ConfigEmoSyncInterAction",
                "type": "EMO_SYNC",
                "aliasList": [
                    "12227"
                ],
                "dataPath": "Cs_Emo_Avatar_Simple_Common_Set/Cs_Emo_Avatar_Talk/Cs_Emo_Coop_Common/Cs_Emo_Coop_BeiDou_01/Cs_Emo_190520713",
                "phonemePath": "",
                "emotionPath": "",
                "mateDataPath": "",
                "matePhonemePath": "",
                "mateEmotionPath": "",
                "dataPathHashList": [
                    4278259999567211505,
                    6632159406906891906,
                    13404140014106963342,
                    761180379363754081
                ]
            },
            {
                "$type": "ConfigEmoSyncInterAction",
                "type": "EMO_SYNC",
                "aliasList": [
                    "12218"
                ],
                "dataPath": "",
                "phonemePath": "Cs_Emo_NPC_Common/Cs_Emo_NPC_Angry01",
                "emotionPath": "Cs_Emo_NPC_Common/Cs_Emo_NPC_Angry01",
                "mateDataPath": "",
                "matePhonemePath": "",
                "mateEmotionPath": "",
                "phonemePathHashList": [
                    9218657655395275517,
                    6356428425152214583,
                    11840959722219800112,
                    50070356133267922
                ],
                "emotionPathHashList": [
                    5555574328354538894,
                    6902058826788250658,
                    16686799597816672641,
                    13665732757931042568
                ]
            },
            {
                "$type": "ConfigCameraMoveInterAction",
                "type": "CAMERA_MOVE",
                "duration": 1.0,
                "camPosOffset": {
                    "x": -110.49299621582031,
                    "y": 202.60800170898438,
                    "z": -630.1669921875
                },
                "camForwardTargetOffset": {
                    "x": -110.9540023803711,
                    "y": 202.58099365234375,
                    "z": -629.280029296875
                },
                "camFov": 20.0,
                "lerpPattern": 6,
                "cameraBlendType": "EaseInOutCubic",
                "cutFrameTrans": {},
                "openCameraDither": false,
                "targetNpcAlias": "",
                "closeTreeLeafDither": true
            },
            {
                "$type": "ConfigCameraMoveInterAction",
                "type": "CAMERA_MOVE",
                "delayTime": 0.10000000149011612,
                "duration": 18.0,
                "camPosOffset": {
                    "x": -110.51899719238281,
                    "y": 202.61199951171875,
                    "z": -630.1799926757812
                },
                "camForwardTargetOffset": {
                    "x": -110.9800033569336,
                    "y": 202.5850067138672,
                    "z": -629.2930297851562
                },
                "camFov": 20.0,
                "cameraBlendType": "EaseOutQuad",
                "cutFrameTrans": {},
                "openCameraDither": false,
                "targetNpcAlias": "",
                "closeTreeLeafDither": true
            },
            {
                "$type": "ConfigLookAtEyeCtrlInterAction",
                "type": "LOOK_AT_EYECTRL",
                "delayTime": 0.30000001192092896,
                "aliasList": [
                    "12218"
                ],
                "useTargetPos": false,
                "eyeRotateVecLeft": {
                    "x": 2.0,
                    "z": 2.0
                },
                "eyeRotateVecRight": {
                    "x": 2.0,
                    "z": 2.0
                },
                "turnTime": 0.20000000298023224,
                "targetNpcAlias": "",
                "targetPoint": "Face"
            },
            {
                "$type": "ConfigLookAtInterAction",
                "type": "LOOK_AT",
                "delayTime": 0.34599998593330383,
                "aliasList": [
                    "12218"
                ],
                "enableHead": true,
                "headRotateVec": {
                    "x": 2.5299999713897705,
                    "y": 6.763999938964844
                },
                "headTurnTime": 0.30000001192092896,
                "targetNpcAlias": ""
            },
            {
                "$type": "ConfigLookAtInterAction",
                "type": "LOOK_AT",
                "delayTime": 0.4000000059604645,
                "aliasList": [
                    "12228"
                ],
                "enableHead": true,
                "headTurnTime": 0.4000000059604645,
                "targetNpcAlias": "12218"
            }
        ],
        [
            {
                "$type": "ConfigLookAtEyeCtrlInterAction",
                "type": "LOOK_AT_EYECTRL",
                "aliasList": [
                    "12218"
                ],
                "useTargetPos": false,
                "eyeRotateVecLeft": {
                    "x": 2.0,
                    "z": 2.0
                },
                "eyeRotateVecRight": {
                    "x": 2.0,
                    "z": 2.0
                },
                "turnTime": 0.10000000149011612,
                "targetNpcAlias": "",
                "targetPoint": "Face"
            },
            {
                "$type": "ConfigLookAtInterAction",
                "type": "LOOK_AT",
                "aliasList": [
                    "12228"
                ],
                "enableHead": true,
                "headRotateVec": {
                    "x": 1.5190000534057617
                },
                "headTurnTime": 0.5,
                "targetNpcAlias": ""
            },
            {
                "$type": "ConfigBodyLangInterAction",
                "type": "BODY_LANG",
                "aliasList": [
                    "12228"
                ],
                "isContinue": true,
                "forceDoFreeStyle": true,
                "canDoRepeatFreeStyle": false
            },
            {
                "$type": "ConfigDialogInterAction",
                "type": "DIALOG",
                "aliasList": [
                    "12218"
                ],
                "dialogID": 190520714,
                "protectTime": 0.5
            },
            {
                "$type": "ConfigEmoSyncInterAction",
                "type": "EMO_SYNC",
                "aliasList": [
                    "12218"
                ],
                "dataPath": "Cs_Emo_Avatar_Simple_Common_Set/Cs_Emo_Avatar_Talk/Cs_Emo_Coop_Common/Cs_Emo_Coop_BeiDou_01/Cs_Emo_190520714",
                "phonemePath": "",
                "emotionPath": "",
                "mateDataPath": "",
                "matePhonemePath": "",
                "mateEmotionPath": "",
                "dataPathHashList": [
                    6445499274400166285,
                    2100679567009998190,
                    13079772737188100853,
                    7806547812952644525
                ]
            },
            {
                "$type": "ConfigLookAtInterAction",
                "type": "LOOK_AT",
                "aliasList": [
                    "12218"
                ],
                "enableHead": true,
                "headRotateVec": {
                    "x": 7.883999824523926,
                    "y": 6.0879998207092285
                },
                "headTurnTime": 0.30000001192092896,
                "targetNpcAlias": ""
            }
        ],
        [
            {
                "$type": "ConfigDialogInterAction",
                "type": "DIALOG",
                "aliasList": [
                    "12228"
                ],
                "dialogID": 190520715,
                "protectTime": 0.5
            },
            {
                "$type": "ConfigEmoSyncInterAction",
                "type": "EMO_SYNC",
                "aliasList": [
                    "12228"
                ],
                "dataPath": "Cs_Emo_Avatar_Simple_Common_Set/Cs_Emo_Avatar_Talk/Cs_Emo_Coop_Common/Cs_Emo_Coop_BeiDou_01/Cs_Emo_190520715",
                "phonemePath": "",
                "emotionPath": "",
                "mateDataPath": "",
                "matePhonemePath": "",
                "mateEmotionPath": "",
                "dataPathHashList": [
                    11873843126074269033,
                    5327881236710227217,
                    17769642167445445512,
                    3846103944497014834
                ]
            },
            {
                "$type": "ConfigCameraMoveInterAction",
                "type": "CAMERA_MOVE",
                "duration": 1.0,
                "cameraPosType": "RELATIVE_TO_TARGET_ENTITY",
                "camTargetType": "RELATIVE_TO_TARGET_ENTITY",
                "camFov": 30.0,
                "lerpPattern": 6,
                "cameraBlendType": "EaseInOutCubic",
                "cutFrameTrans": {},
                "openCameraDither": false,
                "targetNpcAlias": "12228",
                "closeTreeLeafDither": true
            },
            {
                "$type": "ConfigLookAtEyeCtrlInterAction",
                "type": "LOOK_AT_EYECTRL",
                "aliasList": [
                    "12218"
                ],
                "useTargetPos": false,
                "turnTime": 1.0,
                "targetNpcAlias": "",
                "targetPoint": "Face"
            },
            {
                "$type": "ConfigBodyLangInterAction",
                "type": "BODY_LANG",
                "delayTime": 2.1480000019073486,
                "aliasList": [
                    "12228"
                ],
                "bodyLangParam": 4040,
                "forceDoFreeStyle": true,
                "canDoRepeatFreeStyle": false
            },
            {
                "$type": "ConfigBodyLangInterAction",
                "type": "BODY_LANG",
                "delayTime": 7.265999794006348,
                "aliasList": [
                    "12228"
                ],
                "bodyLangParam": 4030,
                "forceDoFreeStyle": true,
                "canDoRepeatFreeStyle": false
            }
        ],
        [
            {
                "$type": "ConfigBodyLangInterAction",
                "type": "BODY_LANG",
                "aliasList": [
                    "12218"
                ],
                "forceDoFreeStyle": true,
                "canDoRepeatFreeStyle": false
            },
            {
                "$type": "ConfigLookAtInterAction",
                "type": "LOOK_AT",
                "aliasList": [
                    "12218"
                ],
                "enableHead": true,
                "headTurnTime": 0.5,
                "targetNpcAlias": ""
            },
            {
                "$type": "ConfigBodyLangInterAction",
                "type": "BODY_LANG",
                "aliasList": [
                    "12228"
                ],
                "isContinue": true,
                "forceDoFreeStyle": true,
                "canDoRepeatFreeStyle": false
            },
            {
                "$type": "ConfigEmoSyncInterAction",
                "type": "EMO_SYNC",
                "aliasList": [
                    "12227"
                ],
                "dataPath": "",
                "phonemePath": "Cs_Emo_NPC_Common/Cs_Emo_NPC_Angry01",
                "emotionPath": "Cs_Emo_NPC_Common/Cs_Emo_NPC_Normal01",
                "mateDataPath": "",
                "matePhonemePath": "",
                "mateEmotionPath": "",
                "phonemePathHashList": [
                    9218657655395275517,
                    6356428425152214583,
                    11840959722219800112,
                    50070356133267922
                ],
                "emotionPathHashList": [
                    10638823098752766568,
                    16550434959365186937,
                    16779490980036678760,
                    2038118027140397243
                ]
            },
            {
                "$type": "ConfigDialogInterAction",
                "type": "DIALOG",
                "aliasList": [
                    "506"
                ],
                "dialogID": 190520716,
                "protectTime": 0.5
            },
            {
                "$type": "ConfigCameraMoveInterAction",
                "type": "CAMERA_MOVE",
                "duration": 1.0,
                "cameraPosType": "RELATIVE_TO_TARGET_ENTITY",
                "camTargetType": "RELATIVE_TO_TARGET_ENTITY",
                "camFov": 30.0,
                "lerpPattern": 6,
                "cameraBlendType": "EaseInOutCubic",
                "cutFrameTrans": {},
                "openCameraDither": false,
                "targetNpcAlias": "506",
                "closeTreeLeafDither": true
            },
            {
                "$type": "ConfigEmoSyncInterAction",
                "type": "EMO_SYNC",
                "aliasList": [
                    "506"
                ],
                "dataPath": "Cs_Emo_Avatar_Simple_Common_Set/Cs_Emo_Avatar_Talk/Cs_Emo_Coop_Common/Cs_Emo_Coop_BeiDou_01/Cs_Emo_190520716",
                "phonemePath": "",
                "emotionPath": "",
                "mateDataPath": "",
                "matePhonemePath": "",
                "mateEmotionPath": "",
                "dataPathHashList": [
                    3090828869369147741,
                    9635338065835732335,
                    8477414832131154110,
                    9067042170956254591
                ]
            },
            {
                "$type": "ConfigEmotionTemplateAction",
                "type": "EMOTION_TEMPLATE",
                "aliasList": [
                    "506"
                ],
                "emoTemplateID": 10100
            }
        ],
        [
            {
                "$type": "ConfigEmoSyncInterAction",
                "type": "EMO_SYNC",
                "aliasList": [
                    "12218"
                ],
                "dataPath": "Cs_Emo_Avatar_Simple_Common_Set/Cs_Emo_Avatar_Talk/Cs_Emo_Coop_Common/Cs_Emo_Coop_BeiDou_01/Cs_Emo_190520717",
                "phonemePath": "",
                "emotionPath": "",
                "mateDataPath": "",
                "matePhonemePath": "",
                "mateEmotionPath": "",
                "dataPathHashList": [
                    9057583837497886385,
                    9247519389371662415,
                    17471159153187747776,
                    5044575150810202658
                ]
            },
            {
                "$type": "ConfigEmoSyncInterAction",
                "type": "EMO_SYNC",
                "aliasList": [
                    "12227"
                ],
                "dataPath": "",
                "phonemePath": "Cs_Emo_NPC_Common/Cs_Emo_NPC_Angry01",
                "emotionPath": "Cs_Emo_NPC_Common/Cs_Emo_NPC_Normal01",
                "mateDataPath": "",
                "matePhonemePath": "",
                "mateEmotionPath": "",
                "phonemePathHashList": [
                    9218657655395275517,
                    6356428425152214583,
                    11840959722219800112,
                    50070356133267922
                ],
                "emotionPathHashList": [
                    10638823098752766568,
                    16550434959365186937,
                    16779490980036678760,
                    2038118027140397243
                ]
            },
            {
                "$type": "ConfigTeleportToAction",
                "type": "TELEPORT_TO",
                "aliasList": [
                    "12228"
                ],
                "position": {
                    "x": -110.34200286865234,
                    "y": 201.11599731445312,
                    "z": -626.10400390625
                },
                "forward": {
                    "x": -0.7870000004768372,
                    "y": -0.13699999451637268,
                    "z": 1.8609999418258667
                }
            },
            {
                "$type": "ConfigLookAtInterAction",
                "type": "LOOK_AT",
                "aliasList": [
                    "12218"
                ],
                "enableHead": true,
                "headRotateVec": {
                    "y": 14.270000457763672
                },
                "headTurnTime": 0.5,
                "targetNpcAlias": ""
            },
            {
                "$type": "ConfigDialogInterAction",
                "type": "DIALOG",
                "aliasList": [
                    "12218"
                ],
                "dialogID": 190520717,
                "protectTime": 0.5
            },
            {
                "$type": "ConfigCameraMoveInterAction",
                "type": "CAMERA_MOVE",
                "duration": 1.0,
                "camPosOffset": {
                    "x": -109.8290023803711,
                    "y": 202.82899475097656,
                    "z": -629.8770141601562
                },
                "camForwardTargetOffset": {
                    "x": -110.65699768066406,
                    "y": 202.62100219726562,
                    "z": -629.3569946289062
                },
                "camFov": 20.0,
                "lerpPattern": 6,
                "cameraBlendType": "EaseInOutCubic",
                "cutFrameTrans": {},
                "openCameraDither": false,
                "targetNpcAlias": "",
                "closeTreeLeafDither": true
            },
            {
                "$type": "ConfigLookAtInterAction",
                "type": "LOOK_AT",
                "delayTime": 1.319000005722046,
                "aliasList": [
                    "12218"
                ],
                "enableHead": true,
                "headTurnTime": 0.5,
                "targetNpcAlias": ""
            },
            {
                "$type": "ConfigBodyLangInterAction",
                "type": "BODY_LANG",
                "delayTime": 1.3910000324249268,
                "aliasList": [
                    "12218"
                ],
                "bodyLangParam": 4030,
                "forceDoFreeStyle": true,
                "canDoRepeatFreeStyle": false
            }
        ],
        [
            {
                "$type": "ConfigBodyLangInterAction",
                "type": "BODY_LANG",
                "aliasList": [
                    "12218"
                ],
                "isContinue": true,
                "forceDoFreeStyle": true,
                "canDoRepeatFreeStyle": false
            },
            {
                "$type": "ConfigEmoSyncInterAction",
                "type": "EMO_SYNC",
                "aliasList": [
                    "12218"
                ],
                "dataPath": "Cs_Emo_Avatar_Simple_Common_Set/Cs_Emo_Avatar_Talk/Cs_Emo_Coop_Common/Cs_Emo_Coop_BeiDou_01/Cs_Emo_190520718",
                "phonemePath": "",
                "emotionPath": "",
                "mateDataPath": "",
                "matePhonemePath": "",
                "mateEmotionPath": "",
                "dataPathHashList": [
                    5377422361749985636,
                    17969568052022268087,
                    9229914295814739779,
                    7410700118012352454
                ]
            },
            {
                "$type": "ConfigVisibleInterAction",
                "type": "VISIBLE",
                "aliasList": [
                    "12228"
                ]
            },
            {
                "$type": "ConfigLookAtInterAction",
                "type": "LOOK_AT",
                "aliasList": [
                    "12218"
                ],
                "enableHead": true,
                "headRotateVec": {
                    "x": 317.2300109863281,
                    "y": 8.017000198364258
                },
                "headTurnTime": 0.4000000059604645,
                "targetNpcAlias": ""
            },
            {
                "$type": "ConfigDialogInterAction",
                "type": "DIALOG",
                "aliasList": [
                    "12218"
                ],
                "dialogID": 190520718,
                "protectTime": 5.0
            },
            {
                "$type": "ConfigCameraMoveInterAction",
                "type": "CAMERA_MOVE",
                "duration": 1.0,
                "camPosOffset": {
                    "x": -109.8290023803711,
                    "y": 202.82899475097656,
                    "z": -629.8770141601562
                },
                "camForwardTargetOffset": {
                    "x": -110.65699768066406,
                    "y": 202.62100219726562,
                    "z": -629.3569946289062
                },
                "camFov": 20.0,
                "lerpPattern": 6,
                "cameraBlendType": "EaseInOutCubic",
                "cutFrameTrans": {},
                "openCameraDither": false,
                "targetNpcAlias": "",
                "closeTreeLeafDither": true
            },
            {
                "$type": "ConfigBodyLangInterAction",
                "type": "BODY_LANG",
                "aliasList": [
                    "12217"
                ],
                "isContinue": true,
                "forceDoFreeStyle": true,
                "canDoRepeatFreeStyle": false
            },
            {
                "$type": "ConfigLookAtInterAction",
                "type": "LOOK_AT",
                "aliasList": [
                    "12217"
                ],
                "enableHead": true,
                "headTurnTime": 0.5,
                "targetNpcAlias": ""
            },
            {
                "$type": "ConfigSteerInterAction",
                "type": "STEER_TO",
                "delayTime": 0.48399999737739563,
                "duration": 0.800000011920929,
                "aliasList": [
                    "12218"
                ],
                "steerType": "ABSOLUTE",
                "steerDir": {
                    "x": -111.1780014038086,
                    "y": 200.87899780273438,
                    "z": -627.6820068359375
                },
                "useSteerAnim": true,
                "interruptFreestyle": true,
                "forceSteer": true,
                "targetNpcAlias": ""
            },
            {
                "$type": "ConfigLookAtInterAction",
                "type": "LOOK_AT",
                "delayTime": 0.800000011920929,
                "aliasList": [
                    "12227"
                ],
                "enableHead": true,
                "headTurnTime": 0.4000000059604645,
                "targetNpcAlias": "12218"
            },
            {
                "$type": "ConfigCameraMoveInterAction",
                "type": "CAMERA_MOVE",
                "delayTime": 0.8999999761581421,
                "duration": 5.0,
                "camPosOffset": {
                    "x": -109.83699798583984,
                    "y": 202.75100708007812,
                    "z": -629.9199829101562
                },
                "camForwardTargetOffset": {
                    "x": -110.64299774169922,
                    "y": 202.6479949951172,
                    "z": -629.3369750976562
                },
                "camFov": 20.0,
                "cutFrameTrans": {},
                "needZAxisRotate": true,
                "rotateAngle": 0.32899999618530273,
                "openCameraDither": false,
                "targetNpcAlias": "",
                "closeTreeLeafDither": true
            },
            {
                "$type": "ConfigLookAtInterAction",
                "type": "LOOK_AT",
                "delayTime": 1.3639999628067017,
                "aliasList": [
                    "12218"
                ],
                "enableHead": true,
                "useTargetPos": true,
                "enableAbsolute": true,
                "targetPosition": {
                    "x": -113.01599884033203,
                    "y": 203.0399932861328,
                    "z": -617.572998046875
                },
                "headTurnTime": 0.30000001192092896,
                "targetNpcAlias": ""
            },
            {
                "$type": "ConfigMoveToAction",
                "type": "MOVE_TO",
                "delayTime": 1.399999976158142,
                "aliasList": [
                    "12218"
                ],
                "moveType": "WALK",
                "routeList": [
                    {
                        "x": -112.04199981689453,
                        "y": 201.36500549316406,
                        "z": -618.9710083007812
                    }
                ],
                "exactlyMove": true
            },
            {
                "$type": "ConfigSteerInterAction",
                "type": "STEER_TO",
                "delayTime": 2.200000047683716,
                "duration": 0.800000011920929,
                "aliasList": [
                    "12227"
                ],
                "steerType": "ABSOLUTE",
                "steerDir": {
                    "x": -112.79000091552734,
                    "y": 200.8209991455078,
                    "z": -626.1190185546875
                },
                "useSteerAnim": true,
                "interruptFreestyle": true,
                "forceSteer": true,
                "targetNpcAlias": ""
            },
            {
                "$type": "ConfigLookAtInterAction",
                "type": "LOOK_AT",
                "delayTime": 3.0,
                "aliasList": [
                    "12227"
                ],
                "enableHead": true,
                "useTargetPos": true,
                "enableAbsolute": true,
                "targetPosition": {
                    "x": -113.00800323486328,
                    "y": 202.50999450683594,
                    "z": -620.3880004882812
                },
                "headTurnTime": 0.30000001192092896,
                "targetNpcAlias": ""
            },
            {
                "$type": "ConfigMoveToAction",
                "type": "MOVE_TO",
                "delayTime": 3.0999999046325684,
                "aliasList": [
                    "12227"
                ],
                "moveType": "WALK",
                "routeList": [
                    {
                        "x": -113.43499755859375,
                        "y": 200.93600463867188,
                        "z": -618.9849853515625
                    }
                ],
                "exactlyMove": true
            }
        ],
        [
            {
                "$type": "ConfigVisibleInterAction",
                "type": "VISIBLE",
                "aliasList": [
                    "12218"
                ]
            },
            {
                "$type": "ConfigLookAtInterAction",
                "type": "LOOK_AT",
                "aliasList": [
                    "12217"
                ],
                "enableHead": true,
                "headTurnTime": 0.5,
                "targetNpcAlias": ""
            },
            {
                "$type": "ConfigVisibleInterAction",
                "type": "VISIBLE",
                "aliasList": [
                    "12228"
                ]
            },
            {
                "$type": "ConfigVisibleInterAction",
                "type": "VISIBLE",
                "aliasList": [
                    "12227"
                ]
            },
            {
                "$type": "ConfigEmoSyncInterAction",
                "type": "EMO_SYNC",
                "aliasList": [
                    "12217"
                ],
                "dataPath": "Cs_Emo_Avatar_Simple_Common_Set/Cs_Emo_Avatar_Talk/Cs_Emo_Coop_Common/Cs_Emo_Coop_BeiDou_01/Cs_Emo_190520719",
                "phonemePath": "",
                "emotionPath": "",
                "mateDataPath": "",
                "matePhonemePath": "",
                "mateEmotionPath": "",
                "dataPathHashList": [
                    8340612166158809535,
                    11915856686383425947,
                    2059266156921720525,
                    6004670134815197885
                ]
            },
            {
                "$type": "ConfigCameraMoveInterAction",
                "type": "CAMERA_MOVE",
                "duration": 1.0,
                "cameraPosType": "RELATIVE_TO_TARGET_ENTITY",
                "camTargetType": "RELATIVE_TO_TARGET_ENTITY",
                "camFov": 30.0,
                "lerpPattern": 6,
                "cameraBlendType": "EaseInOutCubic",
                "cutFrameTrans": {},
                "openCameraDither": false,
                "targetNpcAlias": "12217",
                "closeTreeLeafDither": true
            },
            {
                "$type": "ConfigDialogInterAction",
                "type": "DIALOG",
                "aliasList": [
                    "12217"
                ],
                "dialogID": 190520719,
                "protectTime": 0.5
            },
            {
                "$type": "ConfigDialogSelectAction",
                "type": "DIALOG_SELECT",
                "delayTime": 0.4000000059604645,
                "aliasList": [
                    "Avatar"
                ],
                "dialogIDList": [
                    190520720,
                    190520721
                ],
                "grpIDList": [
                    919069501,
                    919069501
                ],
                "useGrpId": true
            },
            {
                "$type": "ConfigBodyLangInterAction",
                "type": "BODY_LANG",
                "delayTime": 1.0989999771118164,
                "aliasList": [
                    "12217"
                ],
                "bodyLangParam": 5010,
                "forceDoFreeStyle": true,
                "canDoRepeatFreeStyle": false
            }
        ],
        [
            {
                "$type": "ConfigEmoSyncInterAction",
                "type": "EMO_SYNC",
                "aliasList": [
                    "12217"
                ],
                "dataPath": "Cs_Emo_Avatar_Simple_Common_Set/Cs_Emo_Avatar_Talk/Cs_Emo_Coop_Common/Cs_Emo_Coop_BeiDou_01/Cs_Emo_190520722",
                "phonemePath": "",
                "emotionPath": "",
                "mateDataPath": "",
                "matePhonemePath": "",
                "mateEmotionPath": "",
                "dataPathHashList": [
                    7362696653853006474,
                    9786409917933037797,
                    10359951205401731034,
                    6789693965575657331
                ]
            },
            {
                "$type": "ConfigVisibleInterAction",
                "type": "VISIBLE",
                "aliasList": [
                    "12218"
                ]
            },
            {
                "$type": "ConfigVisibleInterAction",
                "type": "VISIBLE",
                "aliasList": [
                    "12227"
                ]
            },
            {
                "$type": "ConfigDialogInterAction",
                "type": "DIALOG",
                "aliasList": [
                    "12217"
                ],
                "dialogID": 190520722,
                "protectTime": 0.5
            },
            {
                "$type": "ConfigBodyLangInterAction",
                "type": "BODY_LANG",
                "aliasList": [
                    "12217"
                ],
                "isContinue": true,
                "forceDoFreeStyle": true,
                "canDoRepeatFreeStyle": false
            },
            {
                "$type": "ConfigBodyLangInterAction",
                "type": "BODY_LANG",
                "delayTime": 1.1360000371932983,
                "aliasList": [
                    "12217"
                ],
                "bodyLangParam": 1171,
                "forceDoFreeStyle": true,
                "canDoRepeatFreeStyle": false
            }
        ],
        [
            {
                "$type": "ConfigEmoSyncInterAction",
                "type": "EMO_SYNC",
                "aliasList": [
                    "506"
                ],
                "dataPath": "Cs_Emo_Avatar_Simple_Common_Set/Cs_Emo_Avatar_Talk/Cs_Emo_Coop_Common/Cs_Emo_Coop_BeiDou_01/Cs_Emo_190520723",
                "phonemePath": "",
                "emotionPath": "",
                "mateDataPath": "",
                "matePhonemePath": "",
                "mateEmotionPath": "",
                "dataPathHashList": [
                    369791609871907804,
                    12769081989641455682,
                    4536293279636361493,
                    7660314635786588653
                ]
            },
            {
                "$type": "ConfigBodyLangInterAction",
                "type": "BODY_LANG",
                "aliasList": [
                    "12217"
                ],
                "isContinue": true,
                "forceDoFreeStyle": true,
                "canDoRepeatFreeStyle": false
            },
            {
                "$type": "ConfigEmotionTemplateAction",
                "type": "EMOTION_TEMPLATE",
                "aliasList": [
                    "506"
                ],
                "emoTemplateID": 10401
            },
            {
                "$type": "ConfigCameraMoveInterAction",
                "type": "CAMERA_MOVE",
                "duration": 1.0,
                "cameraPosType": "RELATIVE_TO_TARGET_ENTITY",
                "camTargetType": "RELATIVE_TO_TARGET_ENTITY",
                "camFov": 30.0,
                "lerpPattern": 6,
                "cameraBlendType": "EaseInOutCubic",
                "cutFrameTrans": {},
                "openCameraDither": false,
                "targetNpcAlias": "506",
                "closeTreeLeafDither": true
            },
            {
                "$type": "ConfigDialogInterAction",
                "type": "DIALOG",
                "aliasList": [
                    "506"
                ],
                "dialogID": 190520723,
                "protectTime": 0.5
            }
        ],
        [
            {
                "$type": "ConfigBodyLangInterAction",
                "type": "BODY_LANG",
                "aliasList": [
                    "12217"
                ],
                "bodyLangParam": 1171,
                "forceDoFreeStyle": true,
                "canDoRepeatFreeStyle": false
            },
            {
                "$type": "ConfigEmoSyncInterAction",
                "type": "EMO_SYNC",
                "aliasList": [
                    "12217"
                ],
                "dataPath": "Cs_Emo_Avatar_Simple_Common_Set/Cs_Emo_Avatar_Talk/Cs_Emo_Coop_Common/Cs_Emo_Coop_BeiDou_01/Cs_Emo_190520724",
                "phonemePath": "",
                "emotionPath": "",
                "mateDataPath": "",
                "matePhonemePath": "",
                "mateEmotionPath": "",
                "dataPathHashList": [
                    6598933169670632315,
                    15051398667458572764,
                    12936392794598762830,
                    405305688539655459
                ]
            },
            {
                "$type": "ConfigCameraMoveInterAction",
                "type": "CAMERA_MOVE",
                "duration": 1.0,
                "cameraPosType": "RELATIVE_TO_TARGET_ENTITY",
                "camTargetType": "RELATIVE_TO_TARGET_ENTITY",
                "camFov": 30.0,
                "lerpPattern": 6,
                "cameraBlendType": "EaseInOutCubic",
                "cutFrameTrans": {},
                "openCameraDither": false,
                "targetNpcAlias": "12217",
                "closeTreeLeafDither": true
            },
            {
                "$type": "ConfigDialogInterAction",
                "type": "DIALOG",
                "aliasList": [
                    "12217"
                ],
                "dialogID": 190520724,
                "protectTime": 0.5
            },
            {
                "$type": "ConfigBodyLangInterAction",
                "type": "BODY_LANG",
                "delayTime": 5.525000095367432,
                "aliasList": [
                    "12217"
                ],
                "bodyLangParam": 5010,
                "forceDoFreeStyle": true,
                "canDoRepeatFreeStyle": false
            }
        ],
        [
            {
                "$type": "ConfigEmotionTemplateAction",
                "type": "EMOTION_TEMPLATE",
                "aliasList": [
                    "506"
                ],
                "emoTemplateID": 10100
            },
            {
                "$type": "ConfigBodyLangInterAction",
                "type": "BODY_LANG",
                "aliasList": [
                    "12217"
                ],
                "isContinue": true,
                "forceDoFreeStyle": true,
                "canDoRepeatFreeStyle": false
            },
            {
                "$type": "ConfigTimeProtectAction",
                "type": "TIME_PROTECT",
                "duration": 0.699999988079071
            },
            {
                "$type": "ConfigDialogInterAction",
                "type": "DIALOG_CLEAR"
            },
            {
                "$type": "ConfigSimpleBlackScreenAction",
                "type": "SIMPLE_BLACK_SCREEN",
                "durationToBlack": 0.5,
                "durationKeepBlack": 1.0,
                "durationFromBlack": 0.5,
                "textMapID": ""
            },
            {
                "$type": "ConfigVisibleInterAction",
                "type": "VISIBLE",
                "delayTime": 0.6000000238418579,
                "aliasList": [
                    "12218"
                ]
            },
            {
                "$type": "ConfigVisibleInterAction",
                "type": "VISIBLE",
                "delayTime": 0.6000000238418579,
                "aliasList": [
                    "12227"
                ]
            },
            {
                "$type": "ConfigVisibleInterAction",
                "type": "VISIBLE",
                "delayTime": 0.6000000238418579,
                "aliasList": [
                    "12228"
                ]
            },
            {
                "$type": "ConfigVisibleInterAction",
                "type": "VISIBLE",
                "delayTime": 0.6000000238418579,
                "aliasList": [
                    "Avatar"
                ],
                "isVisible": true
            },
            {
                "$type": "ConfigCameraMoveInterAction",
                "type": "CAMERA_MOVE",
                "delayTime": 0.6000000238418579,
                "duration": 0.10000000149011612,
                "camPosOffset": {
                    "x": -112.40699768066406,
                    "y": 201.91299438476562,
                    "z": -636.2150268554688
                },
                "camForwardTargetOffset": {
                    "x": -111.5719985961914,
                    "y": 201.77499389648438,
                    "z": -635.6829833984375
                },
                "lerpPattern": 6,
                "cameraBlendType": "EaseInOutCubic",
                "cutFrameTrans": {},
                "openCameraDither": false,
                "targetNpcAlias": "",
                "closeTreeLeafDither": true
            },
            {
                "$type": "ConfigVisibleInterAction",
                "type": "VISIBLE",
                "delayTime": 0.6000000238418579,
                "aliasList": [
                    "12217"
                ]
            }
        ]
    ],
    "groupId": [
        {
            "grpId": 2523499379,
            "nextGrpId": 2523499380
        },
        {
            "index": 1,
            "grpId": 2523499380,
            "nextGrpId": 2523499381
        },
        {
            "index": 2,
            "grpId": 2523499381,
            "nextGrpId": 2523499382
        },
        {
            "index": 3,
            "grpId": 2523499382,
            "nextGrpId": 2523499383
        },
        {
            "index": 4,
            "grpId": 2523499383,
            "nextGrpId": 2523499384
        },
        {
            "index": 5,
            "grpId": 2523499384,
            "nextGrpId": 2523499385
        },
        {
            "index": 6,
            "grpId": 2523499385,
            "nextGrpId": 2523499386
        },
        {
            "index": 7,
            "grpId": 2523499386,
            "nextGrpId": 2523499387
        },
        {
            "index": 8,
            "grpId": 2523499387,
            "nextGrpId": 919069469
        },
        {
            "index": 9,
            "grpId": 919069469,
            "nextGrpId": 919069470
        },
        {
            "index": 10,
            "grpId": 919069470,
            "nextGrpId": 919069471
        },
        {
            "index": 11,
            "grpId": 919069471,
            "nextGrpId": 919069472
        },
        {
            "index": 12,
            "grpId": 919069472,
            "nextGrpId": 919069473
        },
        {
            "index": 13,
            "grpId": 919069473,
            "nextGrpId": 919069474
        },
        {
            "index": 14,
            "grpId": 919069474,
            "nextGrpId": 919069475
        },
        {
            "index": 15,
            "grpId": 919069475,
            "nextGrpId": 919069476
        },
        {
            "index": 16,
            "grpId": 919069476,
            "nextGrpId": 919069477
        },
        {
            "index": 17,
            "grpId": 919069477,
            "nextGrpId": 919069478
        },
        {
            "index": 18,
            "grpId": 919069478,
            "nextGrpId": 919069500
        },
        {
            "index": 19,
            "grpId": 919069500,
            "nextGrpId": 919069501
        },
        {
            "index": 20,
            "grpId": 919069501,
            "nextGrpId": 919069502
        },
        {
            "index": 21,
            "grpId": 919069502,
            "nextGrpId": 919069503
        },
        {
            "index": 22,
            "grpId": 919069503,
            "nextGrpId": 919069504
        },
        {
            "index": 23,
            "grpId": 919069504,
            "nextGrpId": 919069505
        }
    ],
    "freeStyleDic": {
        "506": [
            10100,
            10401,
            10101,
            1230
        ],
        "12217": [
            1171,
            5010
        ],
        "12218": [
            4030
        ],
        "12227": [],
        "12228": [
            4040,
            4030
        ]
    }
}