{
    "HBPGBNCBOMP": "",
    "startBlackKeepTime": 1.0,
    "KENGMFPNLEP": "",
    "disableNpcLod": true,
    "startFade": {
        "startFadeInDuration": 0.5,
        "startFadeOutDuration": 0.5
    },
    "endFade": {
        "startFadeOutDuration": 0.0
    },
    "actors": [
        {
            "alias": "Avatar",
            "visible": true,
            "bornPointName": "",
            "relativePosNpcAlias": ""
        },
        {
            "configID": 12309,
            "alias": "12309",
            "visible": true,
            "bornPointName": "Q1913706_C1913707FakeC",
            "relativePosNpcAlias": ""
        }
    ],
    "group": [
        [
            {
                "$type": "ConfigVisibleInterAction",
                "type": "VISIBLE",
                "aliasList": [
                    "Avatar"
                ]
            },
            {
                "$type": "ConfigLookAtInterAction",
                "type": "LOOK_AT",
                "aliasList": [
                    "12309"
                ],
                "headTurnTime": 0.5,
                "targetNpcAlias": ""
            },
            {
                "$type": "ConfigBodyLangInterAction",
                "type": "BODY_LANG",
                "aliasList": [
                    "12309"
                ],
                "isContinue": true,
                "forceDoFreeStyle": true,
                "canDoRepeatFreeStyle": false
            },
            {
                "$type": "ConfigLookAtInterAction",
                "type": "LOOK_AT",
                "aliasList": [
                    "Avatar"
                ],
                "headTurnTime": 0.5,
                "targetNpcAlias": ""
            },
            {
                "$type": "ConfigCameraMoveInterAction",
                "type": "CAMERA_FOCUS",
                "duration": 0.10000000149011612,
                "targetNpcAlias": ""
            },
            {
                "$type": "ConfigTimeProtectAction",
                "type": "TIME_PROTECT",
                "duration": 0.10000000149011612
            },
            {
                "$type": "ConfigCameraMoveInterAction",
                "type": "CAMERA_MOVE",
                "duration": 1.0,
                "cameraPosType": "RELATIVE_TO_TARGET_ENTITY",
                "camTargetType": "RELATIVE_TO_TARGET_ENTITY",
                "camFov": 30.0,
                "lerpPattern": 6,
                "cameraBlendType": "EaseInOutCubic",
                "cutFrameTrans": {},
                "openCameraDither": false,
                "targetNpcAlias": "12309",
                "closeTreeLeafDither": true
            }
        ],
        [
            {
                "$type": "ConfigBodyLangInterAction",
                "type": "BODY_LANG",
                "aliasList": [
                    "12309"
                ],
                "bodyLangParam": 1160,
                "forceDoFreeStyle": true,
                "canDoRepeatFreeStyle": false
            },
            {
                "$type": "ConfigEmoSyncInterAction",
                "type": "EMO_SYNC",
                "aliasList": [
                    "12309"
                ],
                "dataPath": "Cs_Emo_Avatar_Simple_Common_Set/Cs_Emo_Avatar_Talk/Cs_Emo_Coop_Common/Cs_Emo_Coop_Ningguang_01/Cs_Emo_191370901",
                "phonemePath": "",
                "emotionPath": "",
                "mateDataPath": "",
                "matePhonemePath": "",
                "mateEmotionPath": "",
                "dataPathHashList": [
                    2130404940837641214,
                    11758812277091398910,
                    16400362535050043079,
                    8198742112208552027
                ]
            },
            {
                "$type": "ConfigCameraMoveInterAction",
                "type": "CAMERA_MOVE",
                "duration": 1.0,
                "cameraPosType": "RELATIVE_TO_TARGET_ENTITY",
                "camTargetType": "RELATIVE_TO_TARGET_ENTITY",
                "camFov": 30.0,
                "lerpPattern": 6,
                "cameraBlendType": "EaseInOutCubic",
                "cutFrameTrans": {},
                "openCameraDither": false,
                "targetNpcAlias": "12309",
                "closeTreeLeafDither": true
            },
            {
                "$type": "ConfigDialogInterAction",
                "type": "DIALOG",
                "aliasList": [
                    "12309"
                ],
                "dialogID": 191370901,
                "protectTime": 0.5
            }
        ],
        [
            {
                "$type": "ConfigEmoSyncInterAction",
                "type": "EMO_SYNC",
                "aliasList": [
                    "12309"
                ],
                "dataPath": "Cs_Emo_Avatar_Simple_Common_Set/Cs_Emo_Avatar_Talk/Cs_Emo_Coop_Common/Cs_Emo_Coop_Ningguang_01/Cs_Emo_191370902",
                "phonemePath": "",
                "emotionPath": "",
                "mateDataPath": "",
                "matePhonemePath": "",
                "mateEmotionPath": "",
                "dataPathHashList": [
                    15099291493732070399,
                    1118906606508457515,
                    1755528511691856942,
                    15755205282364086702
                ]
            },
            {
                "$type": "ConfigBodyLangInterAction",
                "type": "BODY_LANG",
                "aliasList": [
                    "12309"
                ],
                "isContinue": true,
                "forceDoFreeStyle": true,
                "canDoRepeatFreeStyle": false
            },
            {
                "$type": "ConfigDialogInterAction",
                "type": "DIALOG",
                "aliasList": [
                    "12309"
                ],
                "dialogID": 191370902,
                "protectTime": 0.5
            }
        ],
        [
            {
                "$type": "ConfigDialogInterAction",
                "type": "DIALOG_CLEAR",
                "dialogID": 191370902
            },
            {
                "$type": "ConfigSimpleBlackScreenAction",
                "type": "SIMPLE_BLACK_SCREEN",
                "durationToBlack": 0.5,
                "durationKeepBlack": 1.0,
                "durationFromBlack": 0.5,
                "textMapID": "",
                "useTextFade": true
            },
            {
                "$type": "ConfigTimeProtectAction",
                "type": "TIME_PROTECT",
                "duration": 0.699999988079071
            },
            {
                "$type": "ConfigVisibleInterAction",
                "type": "VISIBLE",
                "delayTime": 0.6000000238418579,
                "aliasList": [
                    "Avatar"
                ],
                "isVisible": true
            },
            {
                "$type": "ConfigCameraMoveInterAction",
                "type": "CAMERA_MOVE",
                "delayTime": 0.6000000238418579,
                "duration": 0.10000000149011612,
                "camPosOffset": {
                    "x": -594.1710205078125,
                    "y": 227.54800415039062,
                    "z": 330.7139892578125
                },
                "camForwardTargetOffset": {
                    "x": -593.2009887695312,
                    "y": 227.45799255371094,
                    "z": 330.489990234375
                },
                "lerpPattern": 6,
                "cameraBlendType": "EaseInOutCubic",
                "cutFrameTrans": {},
                "needZAxisRotate": true,
                "openCameraDither": false,
                "targetNpcAlias": "",
                "closeTreeLeafDither": true
            }
        ]
    ],
    "groupId": [
        {
            "grpId": 1841688410,
            "nextGrpId": 1841688411
        },
        {
            "index": 1,
            "grpId": 1841688411,
            "nextGrpId": 1841688412
        },
        {
            "index": 2,
            "grpId": 1841688412,
            "nextGrpId": 1841688413
        },
        {
            "index": 3,
            "grpId": 1841688413,
            "nextGrpId": 1841688414
        }
    ],
    "freeStyleDic": {
        "12309": [
            1160
        ]
    }
}