{
    "HBPGBNCBOMP": "",
    "startBlackKeepTime": 0.5,
    "KENGMFPNLEP": "",
    "disableNpcLod": true,
    "AGMGHOIPEIH": true,
    "startFade": {
        "startFadeInDuration": 0.5,
        "startFadeOutDuration": 0.0
    },
    "endFade": {
        "startFadeOutDuration": 0.0
    },
    "actors": [
        {
            "alias": "Avatar",
            "visible": true,
            "bornPointName": "",
            "relativePosNpcAlias": ""
        }
    ],
    "group": [
        [
            {
                "$type": "ConfigTimeProtectAction",
                "type": "TIME_PROTECT",
                "duration": 0.20000000298023224
            },
            {
                "$type": "ConfigUITriggerInterAction",
                "type": "UI_TRIGGER",
                "duration": 1.2000000476837158,
                "actionId": 108,
                "contextName": "CoopDefeatDialog",
                "param": "105901 COOP_Message_103402_Fail_01"
            },
            {
                "$type": "ConfigDialogInterAction",
                "type": "DIALOG_CLEAR",
                "actionId": 109
            },
            {
                "$type": "ConfigSimpleBlackScreenAction",
                "type": "SIMPLE_BLACK_SCREEN",
                "duration": 1.5,
                "actionId": 110,
                "durationKeepBlack": 1.2999999523162842,
                "durationFromBlack": 0.20000000298023224,
                "textMapID": ""
            },
            {
                "$type": "ConfigVisibleInterAction",
                "type": "VISIBLE",
                "aliasList": [
                    "Avatar"
                ],
                "actionId": 111,
                "isVisible": true
            }
        ]
    ],
    "groupId": [
        {
            "grpId": 250295658,
            "nextGrpId": 250295659
        }
    ]
}