{
    "HBPGBNCBOMP": "",
    "startBlackKeepTime": 1.0,
    "KENGMFPNLEP": "",
    "disableNpcLod": true,
    "NIHBFFCCJJN": true,
    "startFade": {
        "startFadeInDuration": 0.5,
        "startFadeOutDuration": 0.5
    },
    "endFade": {
        "startFadeInDuration": 0.5,
        "startFadeOutDuration": 0.5
    },
    "actors": [
        {
            "alias": "Avatar",
            "visible": true,
            "bornPointName": "Q1914511_C1914511_N10000005",
            "relativePosNpcAlias": ""
        },
        {
            "configID": 1034,
            "alias": "1034",
            "visible": true,
            "bornPointName": "Q1914511_C1914511_N1034",
            "relativePosNpcAlias": ""
        },
        {
            "configID": 510,
            "alias": "510",
            "visible": true,
            "bornPointName": "Q1914511_C1914511_N510",
            "removeActorType": "REMOVE",
            "relativePosNpcAlias": ""
        }
    ],
    "group": [
        [
            {
                "$type": "ConfigTimeProtectAction",
                "type": "TIME_PROTECT",
                "duration": 0.5
            },
            {
                "$type": "ConfigBlackScreenAction",
                "type": "BLACK_SCREEN",
                "blackScreenType": "KEEP_BLACK",
                "durationKeepBlack": 0.5,
                "inteePos": "",
                "textMapID": "",
                "useTextFade": true
            },
            {
                "$type": "ConfigVisibleInterAction",
                "type": "VISIBLE",
                "aliasList": [
                    "Avatar"
                ]
            },
            {
                "$type": "ConfigTeleportToAction",
                "type": "TELEPORT_TO",
                "aliasList": [
                    "Avatar"
                ],
                "position": {
                    "x": -2466.69091796875,
                    "y": 447.9830017089844,
                    "z": -4418.81787109375
                },
                "forward": {
                    "x": 0.367000013589859,
                    "y": 0.0729999989271164,
                    "z": -1.309000015258789
                },
                "openLongDisTeleport": true
            },
            {
                "$type": "ConfigTeleportToAction",
                "type": "TELEPORT_TO",
                "aliasList": [
                    "1034"
                ],
                "position": {
                    "x": -2465.462890625,
                    "y": 448.2449951171875,
                    "z": -4422.041015625
                },
                "forward": {
                    "x": -1.1640000343322754,
                    "z": 1.7740000486373901
                },
                "openLongDisTeleport": true
            },
            {
                "$type": "ConfigLookAtInterAction",
                "type": "LOOK_AT",
                "aliasList": [
                    "1034"
                ],
                "headTurnTime": 0.5,
                "targetNpcAlias": ""
            },
            {
                "$type": "ConfigEmotionTemplateAction",
                "type": "EMOTION_TEMPLATE",
                "aliasList": [
                    "510"
                ],
                "emoTemplateID": 10100
            },
            {
                "$type": "ConfigTeleportToAction",
                "type": "TELEPORT_TO",
                "aliasList": [
                    "510"
                ],
                "position": {
                    "x": -2467.873046875,
                    "y": 447.9830017089844,
                    "z": -4419.63720703125
                },
                "forward": {
                    "x": 1.1710000038146973,
                    "y": 0.20000000298023224,
                    "z": -0.7200000286102295
                },
                "openLongDisTeleport": true
            },
            {
                "$type": "ConfigLookAtInterAction",
                "type": "LOOK_AT",
                "aliasList": [
                    "510"
                ],
                "headTurnTime": 0.5,
                "targetNpcAlias": ""
            }
        ],
        [
            {
                "$type": "ConfigCameraMoveInterAction",
                "type": "CAMERA_MOVE",
                "duration": 1.0,
                "cameraPosType": "RELATIVE_TO_TARGET_ENTITY",
                "camTargetType": "RELATIVE_TO_TARGET_ENTITY",
                "camFov": 30.0,
                "lerpPattern": 6,
                "cameraBlendType": "EaseInOutCubic",
                "cutFrameTrans": {},
                "openCameraDither": false,
                "targetNpcAlias": "1034",
                "closeTreeLeafDither": true
            },
            {
                "$type": "ConfigBlackScreenAction",
                "type": "BLACK_SCREEN",
                "blackScreenType": "FROM_BLACK",
                "durationFromBlack": 0.5,
                "inteePos": "",
                "textMapID": "",
                "useTextFade": true
            },
            {
                "$type": "ConfigDialogInterAction",
                "type": "DIALOG",
                "aliasList": [
                    "1034"
                ],
                "dialogID": 191450701,
                "protectTime": 0.5
            },
            {
                "$type": "ConfigEmoSyncInterAction",
                "type": "EMO_SYNC",
                "aliasList": [
                    "1034"
                ],
                "dataPath": "Cs_Emo_Avatar_Simple_Common_Set/Cs_Emo_Avatar_Talk/Cs_Emo_Coop_Common/Cs_Emo_Coop_Shinobu_01/Cs_Emo_191450701",
                "phonemePath": "",
                "emotionPath": "",
                "mateDataPath": "",
                "matePhonemePath": "",
                "mateEmotionPath": "",
                "dataPathHashList": [
                    15890785905202122285,
                    10839138115721954312,
                    2279373544298149491,
                    17580002853985919343
                ]
            },
            {
                "$type": "ConfigBodyLangInterAction",
                "type": "BODY_LANG",
                "delayTime": 1.5729999542236328,
                "aliasList": [
                    "1034"
                ],
                "bodyLangParam": 1173,
                "forceDoFreeStyle": true,
                "canDoRepeatFreeStyle": false
            }
        ],
        [
            {
                "$type": "ConfigDialogInterAction",
                "type": "DIALOG",
                "aliasList": [
                    "1034"
                ],
                "dialogID": 191450702,
                "protectTime": 0.5
            },
            {
                "$type": "ConfigEmoSyncInterAction",
                "type": "EMO_SYNC",
                "aliasList": [
                    "1034"
                ],
                "dataPath": "Cs_Emo_Avatar_Simple_Common_Set/Cs_Emo_Avatar_Talk/Cs_Emo_Coop_Common/Cs_Emo_Coop_Shinobu_01/Cs_Emo_191450702",
                "phonemePath": "",
                "emotionPath": "",
                "mateDataPath": "",
                "matePhonemePath": "",
                "mateEmotionPath": "",
                "dataPathHashList": [
                    2155306396295707605,
                    14783762807557788561,
                    3831363524601300708,
                    4350122107284532819
                ]
            },
            {
                "$type": "ConfigBodyLangInterAction",
                "type": "BODY_LANG",
                "aliasList": [
                    "1034"
                ],
                "bodyLangParam": 1172,
                "forceDoFreeStyle": true,
                "canDoRepeatFreeStyle": false
            }
        ],
        [
            {
                "$type": "ConfigDialogInterAction",
                "type": "DIALOG",
                "aliasList": [
                    "1034"
                ],
                "dialogID": 191450703,
                "protectTime": 0.5
            },
            {
                "$type": "ConfigEmoSyncInterAction",
                "type": "EMO_SYNC",
                "aliasList": [
                    "1034"
                ],
                "dataPath": "Cs_Emo_Avatar_Simple_Common_Set/Cs_Emo_Avatar_Talk/Cs_Emo_Coop_Common/Cs_Emo_Coop_Shinobu_01/Cs_Emo_191450703",
                "phonemePath": "",
                "emotionPath": "",
                "mateDataPath": "",
                "matePhonemePath": "",
                "mateEmotionPath": "",
                "dataPathHashList": [
                    10921248362799275483,
                    10985193324327620024,
                    15230469289790382535,
                    2834988828817124549
                ]
            },
            {
                "$type": "ConfigBodyLangInterAction",
                "type": "BODY_LANG",
                "aliasList": [
                    "1034"
                ],
                "bodyLangParam": 1120,
                "forceDoFreeStyle": true,
                "canDoRepeatFreeStyle": false
            },
            {
                "$type": "ConfigEmotionTemplateAction",
                "type": "EMOTION_TEMPLATE",
                "aliasList": [
                    "510"
                ],
                "emoTemplateID": 10100
            },
            {
                "$type": "ConfigDialogSelectAction",
                "type": "DIALOG_SELECT",
                "delayTime": 0.4000000059604645,
                "aliasList": [
                    "Avatar"
                ],
                "dialogIDList": [
                    191450704,
                    191450705
                ],
                "grpIDList": [
                    319858495,
                    319858495
                ],
                "useGrpId": true
            }
        ],
        [
            {
                "$type": "ConfigCameraMoveInterAction",
                "type": "CAMERA_MOVE",
                "duration": 1.0,
                "cameraPosType": "RELATIVE_TO_TARGET_ENTITY",
                "camTargetType": "RELATIVE_TO_TARGET_ENTITY",
                "camFov": 30.0,
                "lerpPattern": 6,
                "cameraBlendType": "EaseInOutCubic",
                "cutFrameTrans": {},
                "openCameraDither": false,
                "targetNpcAlias": "510",
                "closeTreeLeafDither": true
            },
            {
                "$type": "ConfigDialogInterAction",
                "type": "DIALOG",
                "aliasList": [
                    "510"
                ],
                "dialogID": 191450706,
                "protectTime": 0.5
            },
            {
                "$type": "ConfigEmotionTemplateAction",
                "type": "EMOTION_TEMPLATE",
                "aliasList": [
                    "510"
                ],
                "emoTemplateID": 10100
            }
        ],
        [
            {
                "$type": "ConfigDialogInterAction",
                "type": "DIALOG",
                "aliasList": [
                    "510"
                ],
                "dialogID": 191450707,
                "protectTime": 0.5
            },
            {
                "$type": "ConfigEmotionTemplateAction",
                "type": "EMOTION_TEMPLATE",
                "aliasList": [
                    "510"
                ],
                "emoTemplateID": 10601
            }
        ],
        [
            {
                "$type": "ConfigCameraMoveInterAction",
                "type": "CAMERA_MOVE",
                "duration": 1.0,
                "cameraPosType": "RELATIVE_TO_TARGET_ENTITY",
                "camTargetType": "RELATIVE_TO_TARGET_ENTITY",
                "camFov": 30.0,
                "lerpPattern": 6,
                "cameraBlendType": "EaseInOutCubic",
                "cutFrameTrans": {},
                "openCameraDither": false,
                "targetNpcAlias": "1034",
                "closeTreeLeafDither": true
            },
            {
                "$type": "ConfigDialogInterAction",
                "type": "DIALOG",
                "aliasList": [
                    "1034"
                ],
                "dialogID": 191450708,
                "protectTime": 0.5
            },
            {
                "$type": "ConfigEmoSyncInterAction",
                "type": "EMO_SYNC",
                "aliasList": [
                    "1034"
                ],
                "dataPath": "Cs_Emo_Avatar_Simple_Common_Set/Cs_Emo_Avatar_Talk/Cs_Emo_Coop_Common/Cs_Emo_Coop_Shinobu_01/Cs_Emo_191450708",
                "phonemePath": "",
                "emotionPath": "",
                "mateDataPath": "",
                "matePhonemePath": "",
                "mateEmotionPath": "",
                "dataPathHashList": [
                    7292633232023059803,
                    4718060085808250997,
                    17358531149898966352,
                    5448922671974599816
                ]
            },
            {
                "$type": "ConfigBodyLangInterAction",
                "type": "BODY_LANG",
                "aliasList": [
                    "1034"
                ],
                "isContinue": true,
                "forceDoFreeStyle": true,
                "canDoRepeatFreeStyle": false
            },
            {
                "$type": "ConfigBodyLangInterAction",
                "type": "BODY_LANG",
                "delayTime": 1.2200000286102295,
                "aliasList": [
                    "1034"
                ],
                "bodyLangParam": 1220,
                "forceDoFreeStyle": true,
                "canDoRepeatFreeStyle": false
            },
            {
                "$type": "ConfigBodyLangInterAction",
                "type": "BODY_LANG",
                "delayTime": 6.073999881744385,
                "aliasList": [
                    "1034"
                ],
                "bodyLangParam": 4041,
                "forceDoFreeStyle": true,
                "canDoRepeatFreeStyle": false
            }
        ],
        [
            {
                "$type": "ConfigDialogInterAction",
                "type": "DIALOG",
                "aliasList": [
                    "1034"
                ],
                "dialogID": 191450709,
                "protectTime": 0.5
            },
            {
                "$type": "ConfigEmoSyncInterAction",
                "type": "EMO_SYNC",
                "aliasList": [
                    "1034"
                ],
                "dataPath": "Cs_Emo_Avatar_Simple_Common_Set/Cs_Emo_Avatar_Talk/Cs_Emo_Coop_Common/Cs_Emo_Coop_Shinobu_01/Cs_Emo_191450709",
                "phonemePath": "",
                "emotionPath": "",
                "mateDataPath": "",
                "matePhonemePath": "",
                "mateEmotionPath": "",
                "enableBlink": false,
                "dataPathHashList": [
                    4393567193423284276,
                    873900608268350099,
                    15064330873294687233,
                    1606609419938874243
                ]
            },
            {
                "$type": "ConfigBodyLangInterAction",
                "type": "BODY_LANG",
                "aliasList": [
                    "1034"
                ],
                "isContinue": true,
                "forceDoFreeStyle": true,
                "canDoRepeatFreeStyle": false
            },
            {
                "$type": "ConfigBodyLangInterAction",
                "type": "BODY_LANG",
                "delayTime": 0.9300000071525574,
                "aliasList": [
                    "1034"
                ],
                "bodyLangParam": 1030,
                "forceDoFreeStyle": true,
                "canDoRepeatFreeStyle": false
            },
            {
                "$type": "ConfigBodyLangInterAction",
                "type": "BODY_LANG",
                "delayTime": 2.9519999027252197,
                "aliasList": [
                    "1034"
                ],
                "isContinue": true,
                "forceDoFreeStyle": true,
                "canDoRepeatFreeStyle": false
            }
        ],
        [
            {
                "$type": "ConfigCameraMoveInterAction",
                "type": "CAMERA_MOVE",
                "duration": 1.0,
                "cameraPosType": "RELATIVE_TO_TARGET_ENTITY",
                "camTargetType": "RELATIVE_TO_TARGET_ENTITY",
                "camFov": 30.0,
                "lerpPattern": 6,
                "cameraBlendType": "EaseInOutCubic",
                "cutFrameTrans": {},
                "openCameraDither": false,
                "targetNpcAlias": "510",
                "closeTreeLeafDither": true
            },
            {
                "$type": "ConfigDialogInterAction",
                "type": "DIALOG",
                "aliasList": [
                    "510"
                ],
                "dialogID": 191450710,
                "protectTime": 0.5
            },
            {
                "$type": "ConfigEmotionTemplateAction",
                "type": "EMOTION_TEMPLATE",
                "aliasList": [
                    "510"
                ],
                "emoTemplateID": 10100
            }
        ],
        [
            {
                "$type": "ConfigCameraMoveInterAction",
                "type": "CAMERA_MOVE",
                "duration": 1.0,
                "cameraPosType": "RELATIVE_TO_TARGET_ENTITY",
                "camTargetType": "RELATIVE_TO_TARGET_ENTITY",
                "camFov": 30.0,
                "lerpPattern": 6,
                "cameraBlendType": "EaseInOutCubic",
                "cutFrameTrans": {},
                "openCameraDither": false,
                "targetNpcAlias": "1034",
                "closeTreeLeafDither": true
            },
            {
                "$type": "ConfigDialogInterAction",
                "type": "DIALOG",
                "aliasList": [
                    "1034"
                ],
                "dialogID": 191450711,
                "protectTime": 0.5
            },
            {
                "$type": "ConfigEmoSyncInterAction",
                "type": "EMO_SYNC",
                "aliasList": [
                    "1034"
                ],
                "dataPath": "Cs_Emo_Avatar_Simple_Common_Set/Cs_Emo_Avatar_Talk/Cs_Emo_Coop_Common/Cs_Emo_Coop_Shinobu_01/Cs_Emo_191450711",
                "phonemePath": "",
                "emotionPath": "",
                "mateDataPath": "",
                "matePhonemePath": "",
                "mateEmotionPath": "",
                "dataPathHashList": [
                    6324814369202478098,
                    1995612094590030392,
                    15226629768257893480,
                    15715552723424865549
                ]
            },
            {
                "$type": "ConfigBodyLangInterAction",
                "type": "BODY_LANG",
                "aliasList": [
                    "1034"
                ],
                "bodyLangParam": 1120,
                "forceDoFreeStyle": true,
                "canDoRepeatFreeStyle": false
            }
        ],
        [
            {
                "$type": "ConfigDialogInterAction",
                "type": "DIALOG",
                "aliasList": [
                    "1034"
                ],
                "dialogID": 191450712,
                "protectTime": 0.5
            },
            {
                "$type": "ConfigEmoSyncInterAction",
                "type": "EMO_SYNC",
                "aliasList": [
                    "1034"
                ],
                "dataPath": "Cs_Emo_Avatar_Simple_Common_Set/Cs_Emo_Avatar_Talk/Cs_Emo_Coop_Common/Cs_Emo_Coop_Shinobu_01/Cs_Emo_191450712",
                "phonemePath": "",
                "emotionPath": "",
                "mateDataPath": "",
                "matePhonemePath": "",
                "mateEmotionPath": "",
                "dataPathHashList": [
                    14654576976399548779,
                    16094018293606527519,
                    5326359505911147405,
                    10251339778476681785
                ]
            },
            {
                "$type": "ConfigBodyLangInterAction",
                "type": "BODY_LANG",
                "delayTime": 1.437999963760376,
                "aliasList": [
                    "1034"
                ],
                "isContinue": true,
                "forceDoFreeStyle": true,
                "canDoRepeatFreeStyle": false
            },
            {
                "$type": "ConfigBodyLangInterAction",
                "type": "BODY_LANG",
                "delayTime": 3.76200008392334,
                "aliasList": [
                    "1034"
                ],
                "bodyLangParam": 1173,
                "forceDoFreeStyle": true,
                "canDoRepeatFreeStyle": false
            }
        ],
        [
            {
                "$type": "ConfigDialogInterAction",
                "type": "DIALOG",
                "aliasList": [
                    "1034"
                ],
                "dialogID": 191450713,
                "protectTime": 0.5
            },
            {
                "$type": "ConfigEmoSyncInterAction",
                "type": "EMO_SYNC",
                "aliasList": [
                    "1034"
                ],
                "dataPath": "Cs_Emo_Avatar_Simple_Common_Set/Cs_Emo_Avatar_Talk/Cs_Emo_Coop_Common/Cs_Emo_Coop_Shinobu_01/Cs_Emo_191450713",
                "phonemePath": "",
                "emotionPath": "",
                "mateDataPath": "",
                "matePhonemePath": "",
                "mateEmotionPath": "",
                "dataPathHashList": [
                    8265810335885256235,
                    5953016462944973384,
                    12495348921187595983,
                    8016631126171480118
                ]
            },
            {
                "$type": "ConfigBodyLangInterAction",
                "type": "BODY_LANG",
                "aliasList": [
                    "1034"
                ],
                "bodyLangParam": 1190,
                "forceDoFreeStyle": true,
                "canDoRepeatFreeStyle": false
            }
        ],
        [
            {
                "$type": "ConfigCameraMoveInterAction",
                "type": "CAMERA_MOVE",
                "duration": 1.0,
                "cameraPosType": "RELATIVE_TO_TARGET_ENTITY",
                "camTargetType": "RELATIVE_TO_TARGET_ENTITY",
                "camFov": 30.0,
                "lerpPattern": 6,
                "cameraBlendType": "EaseInOutCubic",
                "cutFrameTrans": {},
                "openCameraDither": false,
                "targetNpcAlias": "510",
                "closeTreeLeafDither": true
            },
            {
                "$type": "ConfigDialogInterAction",
                "type": "DIALOG",
                "aliasList": [
                    "510"
                ],
                "dialogID": 191450714,
                "protectTime": 0.5
            },
            {
                "$type": "ConfigEmotionTemplateAction",
                "type": "EMOTION_TEMPLATE",
                "aliasList": [
                    "510"
                ],
                "emoTemplateID": 10101
            }
        ],
        [
            {
                "$type": "ConfigCameraMoveInterAction",
                "type": "CAMERA_MOVE",
                "duration": 1.0,
                "cameraPosType": "RELATIVE_TO_TARGET_ENTITY",
                "camTargetType": "RELATIVE_TO_TARGET_ENTITY",
                "camFov": 30.0,
                "lerpPattern": 6,
                "cameraBlendType": "EaseInOutCubic",
                "cutFrameTrans": {},
                "openCameraDither": false,
                "targetNpcAlias": "1034",
                "closeTreeLeafDither": true
            },
            {
                "$type": "ConfigDialogInterAction",
                "type": "DIALOG",
                "aliasList": [
                    "1034"
                ],
                "dialogID": 191450715,
                "protectTime": 0.5
            },
            {
                "$type": "ConfigEmoSyncInterAction",
                "type": "EMO_SYNC",
                "aliasList": [
                    "1034"
                ],
                "dataPath": "Cs_Emo_Avatar_Simple_Common_Set/Cs_Emo_Avatar_Talk/Cs_Emo_Coop_Common/Cs_Emo_Coop_Shinobu_01/Cs_Emo_191450715",
                "phonemePath": "",
                "emotionPath": "",
                "mateDataPath": "",
                "matePhonemePath": "",
                "mateEmotionPath": "",
                "dataPathHashList": [
                    2455551317966434291,
                    12188442717033154059,
                    13607919003481157418,
                    8084014971393020172
                ]
            },
            {
                "$type": "ConfigBodyLangInterAction",
                "type": "BODY_LANG",
                "aliasList": [
                    "1034"
                ],
                "isContinue": true,
                "forceDoFreeStyle": true,
                "canDoRepeatFreeStyle": false
            },
            {
                "$type": "ConfigDialogSelectAction",
                "type": "DIALOG_SELECT",
                "delayTime": 0.4000000059604645,
                "aliasList": [
                    "Avatar"
                ],
                "dialogIDList": [
                    191450716
                ],
                "grpIDList": [
                    1325678682
                ],
                "useGrpId": true
            },
            {
                "$type": "ConfigBodyLangInterAction",
                "type": "BODY_LANG",
                "delayTime": 1.9140000343322754,
                "aliasList": [
                    "1034"
                ],
                "bodyLangParam": 1173,
                "forceDoFreeStyle": true,
                "canDoRepeatFreeStyle": false
            }
        ],
        [
            {
                "$type": "ConfigDialogInterAction",
                "type": "DIALOG",
                "aliasList": [
                    "1034"
                ],
                "dialogID": 191450717,
                "protectTime": 0.5
            },
            {
                "$type": "ConfigEmoSyncInterAction",
                "type": "EMO_SYNC",
                "aliasList": [
                    "1034"
                ],
                "dataPath": "Cs_Emo_Avatar_Simple_Common_Set/Cs_Emo_Avatar_Talk/Cs_Emo_Coop_Common/Cs_Emo_Coop_Shinobu_01/Cs_Emo_191450717",
                "phonemePath": "",
                "emotionPath": "",
                "mateDataPath": "",
                "matePhonemePath": "",
                "mateEmotionPath": "",
                "dataPathHashList": [
                    4434905516694268379,
                    11031989686579428769,
                    1741903259250002497,
                    15303628250616756603
                ]
            },
            {
                "$type": "ConfigBodyLangInterAction",
                "type": "BODY_LANG",
                "aliasList": [
                    "1034"
                ],
                "bodyLangParam": 1171,
                "forceDoFreeStyle": true,
                "canDoRepeatFreeStyle": false
            }
        ],
        [
            {
                "$type": "ConfigDialogInterAction",
                "type": "DIALOG",
                "aliasList": [
                    "1034"
                ],
                "dialogID": 191450718,
                "protectTime": 0.5
            },
            {
                "$type": "ConfigEmoSyncInterAction",
                "type": "EMO_SYNC",
                "aliasList": [
                    "1034"
                ],
                "dataPath": "Cs_Emo_Avatar_Simple_Common_Set/Cs_Emo_Avatar_Talk/Cs_Emo_Coop_Common/Cs_Emo_Coop_Shinobu_01/Cs_Emo_191450718",
                "phonemePath": "",
                "emotionPath": "",
                "mateDataPath": "",
                "matePhonemePath": "",
                "mateEmotionPath": "",
                "dataPathHashList": [
                    8261988939354409538,
                    15358575287125377734,
                    256978558479334148,
                    10912235796459135407
                ]
            },
            {
                "$type": "ConfigBodyLangInterAction",
                "type": "BODY_LANG",
                "aliasList": [
                    "1034"
                ],
                "bodyLangParam": 1220,
                "forceDoFreeStyle": true,
                "canDoRepeatFreeStyle": false
            },
            {
                "$type": "ConfigBodyLangInterAction",
                "type": "BODY_LANG",
                "delayTime": 5.642000198364258,
                "aliasList": [
                    "1034"
                ],
                "bodyLangParam": 1221,
                "forceDoFreeStyle": true,
                "canDoRepeatFreeStyle": false
            },
            {
                "$type": "ConfigBodyLangInterAction",
                "type": "BODY_LANG",
                "delayTime": 8.069000244140625,
                "aliasList": [
                    "1034"
                ],
                "isContinue": true,
                "forceDoFreeStyle": true,
                "canDoRepeatFreeStyle": false
            }
        ],
        [
            {
                "$type": "ConfigTimeProtectAction",
                "type": "TIME_PROTECT",
                "duration": 0.699999988079071
            },
            {
                "$type": "ConfigDialogInterAction",
                "type": "DIALOG_CLEAR",
                "dialogID": 191450718
            },
            {
                "$type": "ConfigSimpleBlackScreenAction",
                "type": "SIMPLE_BLACK_SCREEN",
                "durationToBlack": 0.5,
                "durationKeepBlack": 2.0,
                "durationFromBlack": 0.5,
                "textMapID": "",
                "useTextFade": true
            },
            {
                "$type": "ConfigEmotionTemplateAction",
                "type": "EMOTION_TEMPLATE",
                "aliasList": [
                    "510"
                ],
                "emoTemplateID": 10100
            },
            {
                "$type": "ConfigCameraMoveInterAction",
                "type": "CAMERA_MOVE",
                "delayTime": 0.5,
                "duration": 0.10000000149011612,
                "camPosOffset": {
                    "x": -2467.81201171875,
                    "y": 449.4179992675781,
                    "z": -4415.91015625
                },
                "camForwardTargetOffset": {
                    "x": -2467.4560546875,
                    "y": 449.2300109863281,
                    "z": -4416.826171875
                },
                "lerpPattern": 6,
                "cameraBlendType": "EaseInOutCubic",
                "cutFrameTrans": {},
                "needZAxisRotate": true,
                "openCameraDither": false,
                "targetNpcAlias": "",
                "closeTreeLeafDither": true
            },
            {
                "$type": "ConfigVisibleInterAction",
                "type": "VISIBLE",
                "delayTime": 0.5,
                "aliasList": [
                    "Avatar"
                ],
                "isVisible": true
            },
            {
                "$type": "ConfigTeleportToAction",
                "type": "TELEPORT_TO",
                "delayTime": 0.5,
                "aliasList": [
                    "1034"
                ],
                "position": {
                    "x": -2465.679931640625,
                    "y": 448.2449951171875,
                    "z": -4420.8681640625
                },
                "forward": {
                    "x": -0.5410000085830688,
                    "z": 0.8410000205039978
                },
                "openLongDisTeleport": true
            },
            {
                "$type": "ConfigVisibleInterAction",
                "type": "VISIBLE",
                "delayTime": 0.5,
                "aliasList": [
                    "510"
                ]
            }
        ]
    ],
    "groupId": [
        {
            "grpId": 319858491,
            "nextGrpId": 319858492
        },
        {
            "index": 1,
            "grpId": 319858492,
            "nextGrpId": 319858493
        },
        {
            "index": 2,
            "grpId": 319858493,
            "nextGrpId": 319858494
        },
        {
            "index": 3,
            "grpId": 319858494,
            "nextGrpId": 319858495
        },
        {
            "index": 4,
            "grpId": 319858495,
            "nextGrpId": 319858496
        },
        {
            "index": 5,
            "grpId": 319858496,
            "nextGrpId": 319858497
        },
        {
            "index": 6,
            "grpId": 319858497,
            "nextGrpId": 319858498
        },
        {
            "index": 7,
            "grpId": 319858498,
            "nextGrpId": 319858499
        },
        {
            "index": 8,
            "grpId": 319858499,
            "nextGrpId": 1325678677
        },
        {
            "index": 9,
            "grpId": 1325678677,
            "nextGrpId": 1325678678
        },
        {
            "index": 10,
            "grpId": 1325678678,
            "nextGrpId": 1325678679
        },
        {
            "index": 11,
            "grpId": 1325678679,
            "nextGrpId": 1325678680
        },
        {
            "index": 12,
            "grpId": 1325678680,
            "nextGrpId": 1325678681
        },
        {
            "index": 13,
            "grpId": 1325678681,
            "nextGrpId": 1325678682
        },
        {
            "index": 14,
            "grpId": 1325678682,
            "nextGrpId": 1325678683
        },
        {
            "index": 15,
            "grpId": 1325678683,
            "nextGrpId": 1325678684
        },
        {
            "index": 16,
            "grpId": 1325678684,
            "nextGrpId": 1325678685
        }
    ],
    "freeStyleDic": {
        "1034": [
            1173,
            1172,
            1120,
            1220,
            4041,
            1030,
            1190,
            1171,
            1221
        ],
        "510": [
            10100,
            10601,
            10101
        ]
    }
}