{
    "HBPGBNCBOMP": "",
    "startBlackKeepTime": 1.0,
    "KENGMFPNLEP": "",
    "disableNpcLod": true,
    "startFade": {
        "startFadeInDuration": 0.5,
        "startFadeOutDuration": 0.5
    },
    "endFade": {
        "startFadeOutDuration": 0.0
    },
    "actors": [
        {
            "alias": "Avatar",
            "visible": true,
            "bornPointName": "Q19028_TalkEnd",
            "relativePosNpcAlias": ""
        },
        {
            "configID": 505,
            "alias": "505",
            "visible": true,
            "bornPointName": "Q19028_WulangEnd",
            "removeActorType": "REMOVE",
            "relativePosNpcAlias": ""
        }
    ],
    "group": [
        [
            {
                "$type": "ConfigLookAtInterAction",
                "type": "LOOK_AT",
                "delayTime": 0.30000001192092896,
                "enableAbsolute": true,
                "targetOffset": {
                    "x": 2347.527099609375,
                    "y": 261.25201416015625,
                    "z": -699.9879760742188
                },
                "targetPosition": {
                    "x": 2020.490966796875,
                    "y": 261.9219970703125,
                    "z": -359.2409973144531
                },
                "headTurnTime": 0.30000001192092896,
                "targetNpcAlias": "",
                "lookAtTargetType": "NONE"
            },
            {
                "$type": "ConfigVisibleInterAction",
                "type": "VISIBLE",
                "delayTime": 0.30000001192092896,
                "aliasList": [
                    "Avatar"
                ]
            },
            {
                "$type": "ConfigCameraDOFAction",
                "type": "CAMERA_DOF",
                "delayTime": 0.30000001192092896,
                "focusDistance": 6.0,
                "focusRange": 6.0,
                "quality": 3
            }
        ],
        [
            {
                "$type": "ConfigDialogInterAction",
                "type": "DIALOG",
                "aliasList": [
                    "505"
                ],
                "dialogID": 190280901,
                "protectTime": 0.5
            },
            {
                "$type": "ConfigCameraMoveInterAction",
                "type": "CAMERA_MOVE",
                "duration": 1.0,
                "cameraPosType": "RELATIVE_TO_TARGET_ENTITY",
                "camTargetType": "RELATIVE_TO_TARGET_ENTITY",
                "camFov": 30.0,
                "lerpPattern": 6,
                "cameraBlendType": "EaseInOutCubic",
                "cutFrameTrans": {},
                "openCameraDither": false,
                "targetNpcAlias": "505",
                "closeTreeLeafDither": true
            }
        ],
        [
            {
                "$type": "ConfigDialogInterAction",
                "type": "DIALOG",
                "aliasList": [
                    "505"
                ],
                "dialogID": 190280902,
                "protectTime": 0.5
            },
            {
                "$type": "ConfigDialogSelectAction",
                "type": "DIALOG_SELECT",
                "delayTime": 0.4000000059604645,
                "aliasList": [
                    "Avatar"
                ],
                "dialogIDList": [
                    190280903
                ],
                "grpIDList": [
                    2165284483
                ],
                "useGrpId": true
            }
        ],
        [
            {
                "$type": "ConfigDialogInterAction",
                "type": "DIALOG",
                "aliasList": [
                    "505"
                ],
                "dialogID": 190280904,
                "protectTime": 0.5
            }
        ],
        [
            {
                "$type": "ConfigDialogInterAction",
                "type": "DIALOG",
                "aliasList": [
                    "505"
                ],
                "dialogID": 190280905,
                "protectTime": 0.5
            },
            {
                "$type": "ConfigDialogSelectAction",
                "type": "DIALOG_SELECT",
                "delayTime": 0.4000000059604645,
                "aliasList": [
                    "Avatar"
                ],
                "dialogIDList": [
                    190280906
                ],
                "grpIDList": [
                    2165284485
                ],
                "useGrpId": true
            }
        ],
        [
            {
                "$type": "ConfigDialogInterAction",
                "type": "DIALOG",
                "aliasList": [
                    "505"
                ],
                "dialogID": 190280907,
                "protectTime": 0.5
            }
        ],
        [
            {
                "$type": "ConfigDialogInterAction",
                "type": "DIALOG_CLEAR"
            },
            {
                "$type": "ConfigSimpleBlackScreenAction",
                "type": "SIMPLE_BLACK_SCREEN",
                "durationToBlack": 0.5,
                "durationKeepBlack": 1.0,
                "durationFromBlack": 0.5,
                "textMapID": ""
            },
            {
                "$type": "ConfigVisibleInterAction",
                "type": "VISIBLE",
                "delayTime": 0.30000001192092896,
                "aliasList": [
                    "Avatar"
                ],
                "isVisible": true
            }
        ]
    ],
    "groupId": [
        {
            "grpId": 2165284480,
            "nextGrpId": 2165284481
        },
        {
            "index": 1,
            "grpId": 2165284481,
            "nextGrpId": 2165284482
        },
        {
            "index": 2,
            "grpId": 2165284482,
            "nextGrpId": 2165284483
        },
        {
            "index": 3,
            "grpId": 2165284483,
            "nextGrpId": 2165284484
        },
        {
            "index": 4,
            "grpId": 2165284484,
            "nextGrpId": 2165284485
        },
        {
            "index": 5,
            "grpId": 2165284485,
            "nextGrpId": 2165284486
        },
        {
            "index": 6,
            "grpId": 2165284486,
            "nextGrpId": 2165284487
        }
    ],
    "freeStyleDic": {
        "505": []
    }
}