{
    "HBPGBNCBOMP": "",
    "startBlackKeepTime": 1.0,
    "KENGMFPNLEP": "",
    "disableNpcLod": true,
    "AGMGHOIPEIH": true,
    "startFade": {
        "startFadeInDuration": 0.5,
        "startFadeOutDuration": 0.5
    },
    "endFade": {
        "startFadeOutDuration": 0.0
    },
    "actors": [
        {
            "alias": "Avatar",
            "visible": true,
            "bornPointName": "",
            "relativePosType": "AVATAR_NEW",
            "relativePosNpcAlias": ""
        },
        {
            "configID": 1050,
            "alias": "1050",
            "visible": true,
            "bornPointName": "Q1917303_N1050_01",
            "removeActorType": "REMOVE",
            "relativePosType": "AVATAR_NEW",
            "relativePosNpcAlias": ""
        },
        {
            "configID": 513,
            "alias": "513",
            "visible": true,
            "bornPointName": "Q1917303_N513_01",
            "removeActorType": "REMOVE",
            "relativePosType": "AVATAR_NEW",
            "relativePosNpcAlias": ""
        },
        {
            "configID": 1051,
            "alias": "1051",
            "visible": true,
            "bornPointName": "Q1917303_N1051_01",
            "removeActorType": "REMOVE",
            "relativePosType": "AVATAR_NEW",
            "relativePosNpcAlias": ""
        }
    ],
    "group": [
        [
            {
                "$type": "ConfigCameraDOFAction",
                "type": "CAMERA_DOF",
                "delayTime": 0.30000001192092896,
                "actionId": 103,
                "focusDistance": 6.0,
                "focusRange": 6.0,
                "quality": 3
            },
            {
                "$type": "ConfigVisibleInterAction",
                "type": "VISIBLE",
                "delayTime": 0.30000001192092896,
                "aliasList": [
                    "Avatar"
                ],
                "actionId": 106
            }
        ],
        [
            {
                "$type": "ConfigCameraMoveInterAction",
                "type": "CAMERA_MOVE",
                "duration": 1.0,
                "actionId": 122,
                "cameraPosType": "RELATIVE_TO_TARGET_ENTITY",
                "camTargetType": "RELATIVE_TO_TARGET_ENTITY",
                "camFov": 30.0,
                "lerpPattern": 6,
                "cameraBlendType": "EaseInOutCubic",
                "cutFrameTrans": {},
                "openCameraDither": false,
                "targetNpcAlias": "1051",
                "closeTreeLeafDither": true
            },
            {
                "$type": "ConfigDialogInterAction",
                "type": "DIALOG",
                "aliasList": [
                    "1051"
                ],
                "actionId": 109,
                "dialogID": 191730101,
                "protectTime": 0.5
            }
        ],
        [
            {
                "$type": "ConfigCameraMoveInterAction",
                "type": "CAMERA_MOVE",
                "duration": 1.0,
                "actionId": 123,
                "cameraPosType": "RELATIVE_TO_TARGET_ENTITY",
                "camTargetType": "RELATIVE_TO_TARGET_ENTITY",
                "camFov": 30.0,
                "lerpPattern": 6,
                "cameraBlendType": "EaseInOutCubic",
                "cutFrameTrans": {},
                "openCameraDither": false,
                "targetNpcAlias": "1050",
                "closeTreeLeafDither": true
            },
            {
                "$type": "ConfigDialogInterAction",
                "type": "DIALOG",
                "aliasList": [
                    "1050"
                ],
                "actionId": 111,
                "dialogID": 191730102,
                "protectTime": 0.5
            }
        ],
        [
            {
                "$type": "ConfigDialogInterAction",
                "type": "DIALOG",
                "aliasList": [
                    "1050"
                ],
                "actionId": 113,
                "dialogID": 191730103,
                "protectTime": 0.5
            }
        ],
        [
            {
                "$type": "ConfigCameraMoveInterAction",
                "type": "CAMERA_MOVE",
                "duration": 1.0,
                "actionId": 124,
                "cameraPosType": "RELATIVE_TO_TARGET_ENTITY",
                "camTargetType": "RELATIVE_TO_TARGET_ENTITY",
                "camFov": 30.0,
                "lerpPattern": 6,
                "cameraBlendType": "EaseInOutCubic",
                "cutFrameTrans": {},
                "openCameraDither": false,
                "targetNpcAlias": "513",
                "closeTreeLeafDither": true
            },
            {
                "$type": "ConfigDialogInterAction",
                "type": "DIALOG",
                "aliasList": [
                    "513"
                ],
                "actionId": 115,
                "dialogID": 191730104,
                "protectTime": 0.5
            },
            {
                "$type": "ConfigEmotionTemplateAction",
                "type": "EMOTION_TEMPLATE",
                "aliasList": [
                    "513"
                ],
                "actionId": 128,
                "emoTemplateID": 10100
            }
        ],
        [
            {
                "$type": "ConfigCameraMoveInterAction",
                "type": "CAMERA_MOVE",
                "duration": 1.0,
                "actionId": 125,
                "cameraPosType": "RELATIVE_TO_TARGET_ENTITY",
                "camTargetType": "RELATIVE_TO_TARGET_ENTITY",
                "camFov": 30.0,
                "lerpPattern": 6,
                "cameraBlendType": "EaseInOutCubic",
                "cutFrameTrans": {},
                "openCameraDither": false,
                "targetNpcAlias": "1050",
                "closeTreeLeafDither": true
            },
            {
                "$type": "ConfigDialogInterAction",
                "type": "DIALOG",
                "aliasList": [
                    "1050"
                ],
                "actionId": 117,
                "dialogID": 191730105,
                "protectTime": 0.5
            }
        ],
        [
            {
                "$type": "ConfigCameraMoveInterAction",
                "type": "CAMERA_MOVE",
                "duration": 1.0,
                "actionId": 126,
                "cameraPosType": "RELATIVE_TO_TARGET_ENTITY",
                "camTargetType": "RELATIVE_TO_TARGET_ENTITY",
                "camFov": 30.0,
                "lerpPattern": 6,
                "cameraBlendType": "EaseInOutCubic",
                "cutFrameTrans": {},
                "openCameraDither": false,
                "targetNpcAlias": "513",
                "closeTreeLeafDither": true
            },
            {
                "$type": "ConfigDialogInterAction",
                "type": "DIALOG",
                "aliasList": [
                    "513"
                ],
                "actionId": 119,
                "dialogID": 191730106,
                "protectTime": 0.5
            },
            {
                "$type": "ConfigEmotionTemplateAction",
                "type": "EMOTION_TEMPLATE",
                "aliasList": [
                    "513"
                ],
                "actionId": 129,
                "emoTemplateID": 10601
            }
        ],
        [
            {
                "$type": "ConfigCameraMoveInterAction",
                "type": "CAMERA_MOVE",
                "duration": 1.0,
                "actionId": 127,
                "cameraPosType": "RELATIVE_TO_TARGET_ENTITY",
                "camTargetType": "RELATIVE_TO_TARGET_ENTITY",
                "camFov": 30.0,
                "lerpPattern": 6,
                "cameraBlendType": "EaseInOutCubic",
                "cutFrameTrans": {},
                "openCameraDither": false,
                "targetNpcAlias": "1050",
                "closeTreeLeafDither": true
            },
            {
                "$type": "ConfigDialogInterAction",
                "type": "DIALOG",
                "aliasList": [
                    "1050"
                ],
                "actionId": 121,
                "dialogID": 191730107,
                "protectTime": 0.5
            }
        ],
        [
            {
                "$type": "ConfigSimpleBlackScreenAction",
                "type": "SIMPLE_BLACK_SCREEN",
                "actionId": 104,
                "durationToBlack": 0.5,
                "durationKeepBlack": 2.0,
                "durationFromBlack": 0.5,
                "textMapID": ""
            },
            {
                "$type": "ConfigDialogInterAction",
                "type": "DIALOG_CLEAR",
                "actionId": 105
            },
            {
                "$type": "ConfigVisibleInterAction",
                "type": "VISIBLE",
                "delayTime": 0.6000000238418579,
                "aliasList": [
                    "Avatar"
                ],
                "actionId": 107,
                "isVisible": true
            }
        ]
    ],
    "groupId": [
        {
            "grpId": 1405886320,
            "nextGrpId": 1405886321
        },
        {
            "index": 1,
            "grpId": 1405886321,
            "nextGrpId": 1405886322
        },
        {
            "index": 2,
            "grpId": 1405886322,
            "nextGrpId": 1405886323
        },
        {
            "index": 3,
            "grpId": 1405886323,
            "nextGrpId": 1405886324
        },
        {
            "index": 4,
            "grpId": 1405886324,
            "nextGrpId": 1405886325
        },
        {
            "index": 5,
            "grpId": 1405886325,
            "nextGrpId": 1405886326
        },
        {
            "index": 6,
            "grpId": 1405886326,
            "nextGrpId": 1405886327
        },
        {
            "index": 7,
            "grpId": 1405886327,
            "nextGrpId": 1405886328
        },
        {
            "index": 8,
            "grpId": 1405886328,
            "nextGrpId": 632803008
        }
    ],
    "freeStyleDic": {
        "1050": [],
        "513": [
            10100,
            10601
        ],
        "1051": []
    }
}