{
    "HBPGBNCBOMP": "",
    "dontUseDefaultFinish": true,
    "KENGMFPNLEP": "",
    "disableNpcLod": true,
    "startFade": {
        "startFadeOutDuration": 0.0
    },
    "endFade": {
        "startFadeOutDuration": 0.0
    },
    "actors": [
        {
            "alias": "Avatar",
            "visible": true,
            "bornPointName": "Q1913201Player",
            "relativePosNpcAlias": ""
        },
        {
            "configID": 507,
            "alias": "507",
            "visible": true,
            "bornPointName": "Q1913201Ningguang",
            "removeActorType": "REMOVE",
            "relativePosNpcAlias": ""
        }
    ],
    "group": [
        [
            {
                "$type": "ConfigDialogInterAction",
                "type": "DIALOG",
                "aliasList": [
                    "507"
                ],
                "dialogID": 191310701,
                "protectTime": 0.5
            },
            {
                "$type": "ConfigCameraMoveInterAction",
                "type": "CAMERA_MOVE",
                "duration": 1.0,
                "cameraPosType": "RELATIVE_TO_TARGET_ENTITY",
                "camTargetType": "RELATIVE_TO_TARGET_ENTITY",
                "camFov": 30.0,
                "lerpPattern": 6,
                "cameraBlendType": "EaseInOutCubic",
                "cutFrameTrans": {},
                "openCameraDither": false,
                "targetNpcAlias": "507",
                "closeTreeLeafDither": true
            }
        ],
        [
            {
                "$type": "ConfigDialogInterAction",
                "type": "DIALOG",
                "aliasList": [
                    "507"
                ],
                "dialogID": 191310702,
                "protectTime": 0.5
            }
        ],
        [
            {
                "$type": "ConfigDialogInterAction",
                "type": "DIALOG",
                "aliasList": [
                    "507"
                ],
                "dialogID": 191310703,
                "protectTime": 0.5
            }
        ],
        [
            {
                "$type": "ConfigDialogInterAction",
                "type": "DIALOG_CLEAR"
            },
            {
                "$type": "ConfigSimpleBlackScreenAction",
                "type": "SIMPLE_BLACK_SCREEN",
                "durationToBlack": 0.5,
                "durationKeepBlack": 1.0,
                "durationFromBlack": 0.5,
                "textMapID": ""
            },
            {
                "$type": "ConfigVisibleInterAction",
                "type": "VISIBLE",
                "delayTime": 0.30000001192092896,
                "aliasList": [
                    "Avatar"
                ],
                "isVisible": true
            }
        ]
    ],
    "groupId": [
        {
            "grpId": 1836145362,
            "nextGrpId": 1836145363
        },
        {
            "index": 1,
            "grpId": 1836145363,
            "nextGrpId": 1836145364
        },
        {
            "index": 2,
            "grpId": 1836145364,
            "nextGrpId": 1836145365
        },
        {
            "index": 3,
            "grpId": 1836145365,
            "nextGrpId": 1836145366
        }
    ],
    "freeStyleDic": {
        "507": []
    }
}