{
    "HBPGBNCBOMP": "",
    "startBlackKeepTime": 1.0,
    "KENGMFPNLEP": "",
    "disableNpcLod": true,
    "NIHBFFCCJJN": true,
    "startFade": {
        "startFadeInDuration": 0.5,
        "startFadeOutDuration": 0.5
    },
    "endFade": {
        "startFadeInDuration": 0.5,
        "startFadeOutDuration": 0.5
    },
    "actors": [
        {
            "alias": "Avatar",
            "visible": true,
            "bornPointName": "Q1914605_C1914605_N10000005",
            "relativePosNpcAlias": ""
        },
        {
            "configID": 510,
            "alias": "510",
            "visible": true,
            "bornPointName": "Q1914605_C1914605_N510",
            "removeActorType": "REMOVE",
            "relativePosNpcAlias": ""
        },
        {
            "configID": 12530,
            "alias": "12530",
            "visible": true,
            "bornPointName": "Q1914605_C1914605_N12530",
            "removeActorType": "REMOVE",
            "relativePosNpcAlias": ""
        }
    ],
    "group": [
        [
            {
                "$type": "ConfigTimeProtectAction",
                "type": "TIME_PROTECT",
                "duration": 0.5
            },
            {
                "$type": "ConfigBlackScreenAction",
                "type": "BLACK_SCREEN",
                "blackScreenType": "KEEP_BLACK",
                "durationKeepBlack": 0.5,
                "inteePos": "",
                "textMapID": "",
                "useTextFade": true
            },
            {
                "$type": "ConfigVisibleInterAction",
                "type": "VISIBLE",
                "aliasList": [
                    "Avatar"
                ]
            },
            {
                "$type": "ConfigTeleportToAction",
                "type": "TELEPORT_TO",
                "aliasList": [
                    "Avatar"
                ],
                "position": {
                    "x": -2511.451904296875,
                    "y": 433.2179870605469,
                    "z": -4397.35009765625
                },
                "forward": {
                    "x": 1.7869999408721924,
                    "y": 0.28999999165534973,
                    "z": 1.2300000190734863
                },
                "openLongDisTeleport": true
            },
            {
                "$type": "ConfigEmotionTemplateAction",
                "type": "EMOTION_TEMPLATE",
                "aliasList": [
                    "510"
                ],
                "emoTemplateID": 10100
            },
            {
                "$type": "ConfigTeleportToAction",
                "type": "TELEPORT_TO",
                "aliasList": [
                    "510"
                ],
                "position": {
                    "x": -2512.19189453125,
                    "y": 433.93499755859375,
                    "z": -4395.6728515625
                },
                "forward": {
                    "x": 0.9509999752044678,
                    "z": -0.30799999833106995
                },
                "openLongDisTeleport": true
            },
            {
                "$type": "ConfigLookAtInterAction",
                "type": "LOOK_AT",
                "aliasList": [
                    "510"
                ],
                "enableHead": true,
                "useTargetPos": true,
                "enableAbsolute": true,
                "targetPosition": {
                    "x": -2510.180908203125,
                    "y": 435.20001220703125,
                    "z": -4395.30322265625
                },
                "headTurnTime": 0.5,
                "targetNpcAlias": "",
                "lookAtTargetType": "NONE"
            },
            {
                "$type": "ConfigTeleportToAction",
                "type": "TELEPORT_TO",
                "aliasList": [
                    "12530"
                ],
                "position": {
                    "x": -2511.824951171875,
                    "y": 433.4949951171875,
                    "z": -4396.71923828125
                },
                "forward": {
                    "x": 0.8019999861717224,
                    "y": 0.07999999821186066,
                    "z": 1.0509999990463257
                },
                "openLongDisTeleport": true
            },
            {
                "$type": "ConfigLookAtInterAction",
                "type": "LOOK_AT",
                "aliasList": [
                    "12530"
                ],
                "enableHead": true,
                "useTargetPos": true,
                "enableAbsolute": true,
                "targetPosition": {
                    "x": -2510.126953125,
                    "y": 435.2139892578125,
                    "z": -4395.2578125
                },
                "headTurnTime": 0.5,
                "targetNpcAlias": "",
                "lookAtTargetType": "NONE"
            }
        ],
        [
            {
                "$type": "ConfigBlackScreenAction",
                "type": "BLACK_SCREEN",
                "blackScreenType": "FROM_BLACK",
                "durationFromBlack": 0.5,
                "inteePos": "",
                "textMapID": "",
                "useTextFade": true
            },
            {
                "$type": "ConfigCameraMoveInterAction",
                "type": "CAMERA_MOVE",
                "duration": 1.0,
                "camPosOffset": {
                    "x": -2509.927978515625,
                    "y": 435.2229919433594,
                    "z": -4395.19921875
                },
                "camForwardTargetOffset": {
                    "x": -2510.830078125,
                    "y": 435.1889953613281,
                    "z": -4395.62890625
                },
                "camFov": 30.0,
                "lerpPattern": 6,
                "cameraBlendType": "EaseInOutCubic",
                "cutFrameTrans": {},
                "needZAxisRotate": true,
                "openCameraDither": false,
                "targetNpcAlias": "",
                "closeTreeLeafDither": true
            },
            {
                "$type": "ConfigEmotionTemplateAction",
                "type": "EMOTION_TEMPLATE",
                "aliasList": [
                    "510"
                ],
                "emoTemplateID": 10100
            },
            {
                "$type": "ConfigDialogInterAction",
                "type": "DIALOG",
                "aliasList": [
                    "12530"
                ],
                "dialogID": 191460201,
                "protectTime": 0.5
            },
            {
                "$type": "ConfigSetModelTransform",
                "type": "SET_MODEL_TRANSFORM",
                "aliasList": [
                    "12530"
                ],
                "groudHight": 0.41999998688697815
            },
            {
                "$type": "ConfigEmoSyncInterAction",
                "type": "EMO_SYNC",
                "aliasList": [
                    "12530"
                ],
                "dataPath": "Cs_Emo_Avatar_Simple_Common_Set/Cs_Emo_Avatar_Talk/Cs_Emo_Coop_Common/Cs_Emo_Coop_Shinobu_01/Cs_Emo_191460201",
                "phonemePath": "",
                "emotionPath": "",
                "mateDataPath": "",
                "matePhonemePath": "",
                "mateEmotionPath": "",
                "dataPathHashList": [
                    11887734450113229263,
                    5383324975410963272,
                    10392788943421523229,
                    14346636107435140346
                ]
            },
            {
                "$type": "ConfigBodyLangInterAction",
                "type": "BODY_LANG",
                "delayTime": 0.40299999713897705,
                "aliasList": [
                    "12530"
                ],
                "bodyLangParam": 1060,
                "forceDoFreeStyle": true,
                "canDoRepeatFreeStyle": false
            },
            {
                "$type": "ConfigBodyLangInterAction",
                "type": "BODY_LANG",
                "delayTime": 4.453999996185303,
                "aliasList": [
                    "12530"
                ],
                "isContinue": true,
                "forceDoFreeStyle": true,
                "canDoRepeatFreeStyle": false
            }
        ],
        [
            {
                "$type": "ConfigDialogInterAction",
                "type": "DIALOG",
                "aliasList": [
                    "12530"
                ],
                "dialogID": 191460202,
                "protectTime": 0.5
            },
            {
                "$type": "ConfigBodyLangInterAction",
                "type": "BODY_LANG",
                "aliasList": [
                    "12530"
                ],
                "isContinue": true,
                "forceDoFreeStyle": true,
                "canDoRepeatFreeStyle": false
            },
            {
                "$type": "ConfigEmoSyncInterAction",
                "type": "EMO_SYNC",
                "aliasList": [
                    "12530"
                ],
                "dataPath": "Cs_Emo_Avatar_Simple_Common_Set/Cs_Emo_Avatar_Talk/Cs_Emo_Coop_Common/Cs_Emo_Coop_Shinobu_01/Cs_Emo_191460202",
                "phonemePath": "",
                "emotionPath": "",
                "mateDataPath": "",
                "matePhonemePath": "",
                "mateEmotionPath": "",
                "dataPathHashList": [
                    5784207223821759698,
                    12488636199423430771,
                    14930757147516704518,
                    1718615889618382049
                ]
            }
        ],
        [
            {
                "$type": "ConfigDialogInterAction",
                "type": "DIALOG",
                "aliasList": [
                    "510"
                ],
                "dialogID": 191460203,
                "protectTime": 0.5
            },
            {
                "$type": "ConfigEmotionTemplateAction",
                "type": "EMOTION_TEMPLATE",
                "aliasList": [
                    "510"
                ],
                "emoTemplateID": 10601
            },
            {
                "$type": "ConfigEmoSyncInterAction",
                "type": "EMO_SYNC",
                "aliasList": [
                    "12530"
                ],
                "dataPath": "",
                "phonemePath": "Cs_Emo_NPC_Common/Cs_Emo_NPC_Normal01",
                "emotionPath": "Cs_Emo_NPC_Common/Cs_Emo_NPC_Normal01_B",
                "mateDataPath": "",
                "matePhonemePath": "",
                "mateEmotionPath": "",
                "phonemePathHashList": [
                    12803840960998583578,
                    3437050431160283015,
                    6548526936325855136,
                    1274732080047098512
                ],
                "emotionPathHashList": [
                    15191155715402440098,
                    420038106395935518,
                    2651432695756251320,
                    4209314551981667660
                ]
            }
        ],
        [
            {
                "$type": "ConfigDialogInterAction",
                "type": "DIALOG",
                "aliasList": [
                    "510"
                ],
                "dialogID": 191460204,
                "protectTime": 0.5
            },
            {
                "$type": "ConfigEmotionTemplateAction",
                "type": "EMOTION_TEMPLATE",
                "aliasList": [
                    "510"
                ],
                "emoTemplateID": 10100
            }
        ],
        [
            {
                "$type": "ConfigDialogInterAction",
                "type": "DIALOG",
                "aliasList": [
                    "510"
                ],
                "dialogID": 191460205,
                "protectTime": 0.5
            },
            {
                "$type": "ConfigEmotionTemplateAction",
                "type": "EMOTION_TEMPLATE",
                "aliasList": [
                    "510"
                ],
                "emoTemplateID": 10201
            }
        ],
        [
            {
                "$type": "ConfigDialogInterAction",
                "type": "DIALOG",
                "aliasList": [
                    "12530"
                ],
                "dialogID": 191460206,
                "protectTime": 0.5
            },
            {
                "$type": "ConfigEmoSyncInterAction",
                "type": "EMO_SYNC",
                "aliasList": [
                    "12530"
                ],
                "dataPath": "Cs_Emo_Avatar_Simple_Common_Set/Cs_Emo_Avatar_Talk/Cs_Emo_Coop_Common/Cs_Emo_Coop_Shinobu_01/Cs_Emo_191460206",
                "phonemePath": "",
                "emotionPath": "",
                "mateDataPath": "",
                "matePhonemePath": "",
                "mateEmotionPath": "",
                "dataPathHashList": [
                    8188488056416986932,
                    16805244541668232869,
                    13427123280400250965,
                    16120982016768684980
                ]
            },
            {
                "$type": "ConfigBodyLangInterAction",
                "type": "BODY_LANG",
                "delayTime": 0.7129999995231628,
                "aliasList": [
                    "12530"
                ],
                "bodyLangParam": 4030,
                "forceDoFreeStyle": true,
                "canDoRepeatFreeStyle": false
            }
        ],
        [
            {
                "$type": "ConfigTimeProtectAction",
                "type": "TIME_PROTECT",
                "duration": 0.699999988079071
            },
            {
                "$type": "ConfigDialogInterAction",
                "type": "DIALOG_CLEAR",
                "dialogID": 191460206
            },
            {
                "$type": "ConfigSimpleBlackScreenAction",
                "type": "SIMPLE_BLACK_SCREEN",
                "durationToBlack": 0.5,
                "durationKeepBlack": 2.0,
                "durationFromBlack": 0.5,
                "textMapID": "",
                "useTextFade": true
            },
            {
                "$type": "ConfigEmotionTemplateAction",
                "type": "EMOTION_TEMPLATE",
                "aliasList": [
                    "510"
                ],
                "emoTemplateID": 10100
            },
            {
                "$type": "ConfigCameraMoveInterAction",
                "type": "CAMERA_MOVE",
                "delayTime": 0.5,
                "duration": 0.10000000149011612,
                "camPosOffset": {
                    "x": -2513.986083984375,
                    "y": 434.1940002441406,
                    "z": -4398.72119140625
                },
                "camForwardTargetOffset": {
                    "x": -2513.10595703125,
                    "y": 434.1629943847656,
                    "z": -4398.24609375
                },
                "lerpPattern": 6,
                "cameraBlendType": "EaseInOutCubic",
                "cutFrameTrans": {},
                "needZAxisRotate": true,
                "openCameraDither": false,
                "targetNpcAlias": "",
                "closeTreeLeafDither": true
            },
            {
                "$type": "ConfigVisibleInterAction",
                "type": "VISIBLE",
                "delayTime": 0.5,
                "aliasList": [
                    "Avatar"
                ],
                "isVisible": true
            },
            {
                "$type": "ConfigVisibleInterAction",
                "type": "VISIBLE",
                "delayTime": 0.5,
                "aliasList": [
                    "510"
                ]
            },
            {
                "$type": "ConfigVisibleInterAction",
                "type": "VISIBLE",
                "delayTime": 0.5,
                "aliasList": [
                    "12530"
                ]
            },
            {
                "$type": "ConfigSetModelTransform",
                "type": "SET_MODEL_TRANSFORM",
                "delayTime": 0.5,
                "aliasList": [
                    "12530"
                ],
                "isReset": true,
                "groudHight": 0.20000000298023224
            }
        ]
    ],
    "groupId": [
        {
            "grpId": 320777207,
            "nextGrpId": 320777208
        },
        {
            "index": 1,
            "grpId": 320777208,
            "nextGrpId": 320777209
        },
        {
            "index": 2,
            "grpId": 320777209,
            "nextGrpId": 320777210
        },
        {
            "index": 3,
            "grpId": 320777210,
            "nextGrpId": 320777211
        },
        {
            "index": 4,
            "grpId": 320777211,
            "nextGrpId": 320777212
        },
        {
            "index": 5,
            "grpId": 320777212,
            "nextGrpId": 320777213
        },
        {
            "index": 6,
            "grpId": 320777213,
            "nextGrpId": 320777214
        },
        {
            "index": 7,
            "grpId": 320777214,
            "nextGrpId": 320777215
        }
    ],
    "freeStyleDic": {
        "510": [
            10100,
            10601,
            10201
        ],
        "12530": [
            1060,
            4030
        ]
    }
}