{
    "buttonSequence": [
        {
            "button": "Left_Down",
            "time": 6046,
            "note": 74
        },
        {
            "button": "Left_Down",
            "time": 10046,
            "note": 74
        },
        {
            "button": "Left_Left",
            "time": 12046,
            "note": 90
        },
        {
            "time": 14048,
            "note": 93
        },
        {
            "button": "Left_Right",
            "time": 16050,
            "note": 88
        },
        {
            "time": 28056,
            "note": 86
        },
        {
            "button": "Left_Left",
            "time": 29054,
            "note": 74
        },
        {
            "button": "Left_Down",
            "time": 30048,
            "note": 76
        },
        {
            "button": "Right_Left",
            "time": 32046,
            "note": 78,
            "MCCFCKMLOCC": true,
            "DBJOIPMGCLJ": 1958
        },
        {
            "button": "Right_Up",
            "time": 36056,
            "note": 81
        },
        {
            "button": "Right_Right",
            "time": 37048,
            "note": 74,
            "MCCFCKMLOCC": true,
            "DBJOIPMGCLJ": 1927
        },
        {
            "button": "Right_Down",
            "time": 40046,
            "note": 78
        },
        {
            "button": "Right_Up",
            "time": 41379,
            "note": 85
        },
        {
            "button": "Right_Up",
            "time": 42050,
            "note": 86
        },
        {
            "time": 44040,
            "note": 86
        },
        {
            "button": "Left_Right",
            "time": 45056,
            "note": 74
        },
        {
            "button": "Left_Down",
            "time": 46042,
            "note": 69
        },
        {
            "button": "Right_Right",
            "time": 48046,
            "note": 74
        },
        {
            "button": "Right_Down",
            "time": 49062,
            "note": 67
        },
        {
            "button": "Right_Down",
            "time": 50079,
            "note": 66
        },
        {
            "button": "Left_Down",
            "time": 68046,
            "note": 74
        },
        {
            "button": "Right_Down",
            "time": 68046,
            "note": 74
        },
        {
            "button": "Left_Left",
            "time": 70021,
            "note": 76
        },
        {
            "button": "Right_Left",
            "time": 70021,
            "note": 76
        },
        {
            "time": 72077,
            "note": 78
        },
        {
            "button": "Right_Up",
            "time": 72077,
            "note": 78
        },
        {
            "button": "Left_Right",
            "time": 74058,
            "note": 81
        },
        {
            "button": "Right_Right",
            "time": 74058,
            "note": 81
        },
        {
            "time": 76140,
            "note": 74
        },
        {
            "button": "Right_Up",
            "time": 76140,
            "note": 74
        },
        {
            "button": "Left_Left",
            "time": 78027,
            "note": 76
        },
        {
            "button": "Right_Right",
            "time": 78027,
            "note": 76
        },
        {
            "button": "Right_Down",
            "time": 80048,
            "note": 78
        },
        {
            "button": "Left_Down",
            "time": 80048,
            "note": 78
        },
        {
            "button": "Right_Left",
            "time": 82025,
            "note": 81
        },
        {
            "button": "Left_Right",
            "time": 82025,
            "note": 81
        }
    ],
    "instrument": 1,
    "playMusicEvent": {
        "text": "Play_ui_musicgame_GoodnightLiyue"
    },
    "stopMusicEvent": {
        "text": "Stop_ui_musicgame_GoodnightLiyue"
    },
    "pauseMusicEvent": {
        "text": "Pause_ui_musicgame_GoodnightLiyue"
    },
    "resumeMusicEvent": {
        "text": "Resume_ui_musicgame_GoodnightLiyue"
    }
}