{
    "crowdSpawnInfos": [
        {
            "crowdTypeID": 164,
            "spawnPosition": {
                "x": -3240.467041015625,
                "y": 265.5650939941406,
                "z": -4478.10107421875
            },
            "spawnFaceFwd": {
                "x": 0.9968753457069397,
                "z": 0.0789915919303894
            },
            "hairColor": {
                "r": 0.25882354378700256,
                "g": 0.25882354378700256,
                "b": 0.25882354378700256,
                "a": 1.0
            },
            "bodyColors": [
                {
                    "r": 1.0,
                    "g": 1.0,
                    "b": 1.0,
                    "a": 1.0
                },
                {
                    "r": 1.0,
                    "g": 1.0,
                    "b": 1.0,
                    "a": 1.0
                },
                {
                    "r": 1.0,
                    "g": 1.0,
                    "b": 1.0,
                    "a": 1.0
                },
                {
                    "r": 1.0,
                    "g": 1.0,
                    "b": 1.0,
                    "a": 1.0
                }
            ],
            "OLLPOHKGJCA": 70001
        },
        {
            "crowdTypeID": 134,
            "spawnPosition": {
                "x": -3238.762939453125,
                "y": 271.03619384765625,
                "z": -4493.0361328125
            },
            "spawnFaceFwd": {
                "x": 0.8892839550971985,
                "z": 0.4573555588722229
            },
            "hairColor": {
                "r": 0.25882354378700256,
                "g": 0.25882354378700256,
                "b": 0.25882354378700256,
                "a": 1.0
            },
            "bodyColors": [
                {
                    "r": 1.0,
                    "g": 1.0,
                    "b": 1.0,
                    "a": 1.0
                },
                {
                    "r": 1.0,
                    "g": 1.0,
                    "b": 1.0,
                    "a": 1.0
                },
                {
                    "r": 1.0,
                    "g": 1.0,
                    "b": 1.0,
                    "a": 1.0
                },
                {
                    "r": 1.0,
                    "g": 1.0,
                    "b": 1.0,
                    "a": 1.0
                }
            ],
            "OLLPOHKGJCA": 70003
        },
        {
            "crowdTypeID": 134,
            "spawnPosition": {
                "x": -3302.659912109375,
                "y": 269.76409912109375,
                "z": -4514.13623046875
            },
            "spawnFaceFwd": {
                "x": 0.863926887512207,
                "z": -0.5036172866821289
            },
            "hairColor": {
                "r": 0.32156863808631897,
                "g": 0.21568627655506134,
                "b": 0.18039216101169586,
                "a": 1.0
            },
            "bodyColors": [
                {
                    "r": 1.0,
                    "g": 1.0,
                    "b": 1.0,
                    "a": 1.0
                },
                {
                    "r": 1.0,
                    "g": 1.0,
                    "b": 1.0,
                    "a": 1.0
                },
                {
                    "r": 1.0,
                    "g": 1.0,
                    "b": 1.0,
                    "a": 1.0
                },
                {
                    "r": 1.0,
                    "g": 1.0,
                    "b": 1.0,
                    "a": 1.0
                }
            ],
            "OLLPOHKGJCA": 70004
        },
        {
            "crowdTypeID": 134,
            "spawnPosition": {
                "x": -3314.43798828125,
                "y": 278.8092041015625,
                "z": -4532.27880859375
            },
            "spawnFaceFwd": {
                "x": 0.8816248178482056,
                "z": -0.4719507694244385
            },
            "hairColor": {
                "r": 0.32156863808631897,
                "g": 0.21568627655506134,
                "b": 0.18039216101169586,
                "a": 1.0
            },
            "bodyColors": [
                {
                    "r": 1.0,
                    "g": 1.0,
                    "b": 1.0,
                    "a": 1.0
                },
                {
                    "r": 1.0,
                    "g": 1.0,
                    "b": 1.0,
                    "a": 1.0
                },
                {
                    "r": 1.0,
                    "g": 1.0,
                    "b": 1.0,
                    "a": 1.0
                },
                {
                    "r": 1.0,
                    "g": 1.0,
                    "b": 1.0,
                    "a": 1.0
                }
            ],
            "OLLPOHKGJCA": 70005
        },
        {
            "crowdTypeID": 134,
            "spawnPosition": {
                "x": -3297.4990234375,
                "y": 278.9024963378906,
                "z": -4572.2861328125
            },
            "spawnFaceFwd": {
                "x": 0.6675701141357422,
                "z": 0.7445470094680786
            },
            "hairColor": {
                "r": 0.4274509847164154,
                "g": 0.37254902720451355,
                "b": 0.3019607961177826,
                "a": 1.0
            },
            "bodyColors": [
                {
                    "r": 1.0,
                    "g": 1.0,
                    "b": 1.0,
                    "a": 1.0
                },
                {
                    "r": 1.0,
                    "g": 1.0,
                    "b": 1.0,
                    "a": 1.0
                },
                {
                    "r": 1.0,
                    "g": 1.0,
                    "b": 1.0,
                    "a": 1.0
                },
                {
                    "r": 1.0,
                    "g": 1.0,
                    "b": 1.0,
                    "a": 1.0
                }
            ],
            "OLLPOHKGJCA": 70006
        },
        {
            "crowdTypeID": 134,
            "spawnPosition": {
                "x": -3345.27294921875,
                "y": 296.6343078613281,
                "z": -4559.283203125
            },
            "spawnFaceFwd": {
                "x": 0.7715168595314026,
                "z": 0.6362088918685913
            },
            "hairColor": {
                "r": 0.29019609093666077,
                "g": 0.3176470696926117,
                "b": 0.3529411852359772,
                "a": 1.0
            },
            "bodyColors": [
                {
                    "r": 1.0,
                    "g": 1.0,
                    "b": 1.0,
                    "a": 1.0
                },
                {
                    "r": 1.0,
                    "g": 1.0,
                    "b": 1.0,
                    "a": 1.0
                },
                {
                    "r": 1.0,
                    "g": 1.0,
                    "b": 1.0,
                    "a": 1.0
                },
                {
                    "r": 1.0,
                    "g": 1.0,
                    "b": 1.0,
                    "a": 1.0
                }
            ],
            "OLLPOHKGJCA": 70007
        },
        {
            "crowdTypeID": 164,
            "spawnPosition": {
                "x": -3349.552001953125,
                "y": 296.6343078613281,
                "z": -4553.7919921875
            },
            "spawnFaceFwd": {
                "x": 0.8128243088722229,
                "z": 0.58250892162323
            },
            "hairColor": {
                "r": 0.25882354378700256,
                "g": 0.25882354378700256,
                "b": 0.25882354378700256,
                "a": 1.0
            },
            "bodyColors": [
                {
                    "r": 1.0,
                    "g": 1.0,
                    "b": 1.0,
                    "a": 1.0
                },
                {
                    "r": 1.0,
                    "g": 1.0,
                    "b": 1.0,
                    "a": 1.0
                },
                {
                    "r": 1.0,
                    "g": 1.0,
                    "b": 1.0,
                    "a": 1.0
                },
                {
                    "r": 1.0,
                    "g": 1.0,
                    "b": 1.0,
                    "a": 1.0
                }
            ],
            "OLLPOHKGJCA": 70008
        },
        {
            "crowdTypeID": 164,
            "spawnPosition": {
                "x": -3321.406005859375,
                "y": 290.2596130371094,
                "z": -4545.22900390625
            },
            "spawnFaceFwd": {
                "x": 0.7618379592895508,
                "z": -0.6477676630020142
            },
            "hairColor": {
                "r": 0.25882354378700256,
                "g": 0.25882354378700256,
                "b": 0.25882354378700256,
                "a": 1.0
            },
            "bodyColors": [
                {
                    "r": 1.0,
                    "g": 1.0,
                    "b": 1.0,
                    "a": 1.0
                },
                {
                    "r": 1.0,
                    "g": 1.0,
                    "b": 1.0,
                    "a": 1.0
                },
                {
                    "r": 1.0,
                    "g": 1.0,
                    "b": 1.0,
                    "a": 1.0
                },
                {
                    "r": 1.0,
                    "g": 1.0,
                    "b": 1.0,
                    "a": 1.0
                }
            ],
            "OLLPOHKGJCA": 70009
        },
        {
            "crowdTypeID": 161,
            "spawnPosition": {
                "x": -3271.823974609375,
                "y": 278.0172119140625,
                "z": -4561.48486328125
            },
            "spawnFaceFwd": {
                "x": -0.08087216317653656,
                "z": 0.9967244863510132
            },
            "hairColor": {
                "r": 0.32156863808631897,
                "g": 0.21568627655506134,
                "b": 0.18039216101169586,
                "a": 1.0
            },
            "bodyColors": [
                {
                    "r": 0.9333333373069763,
                    "g": 0.8666666746139526,
                    "b": 0.843137264251709,
                    "a": 1.0
                },
                {
                    "r": 0.5803921818733215,
                    "g": 0.5803921818733215,
                    "b": 0.48627451062202454,
                    "a": 1.0
                },
                {
                    "r": 0.35686275362968445,
                    "g": 0.29411765933036804,
                    "b": 0.239215686917305,
                    "a": 1.0
                },
                {
                    "r": 0.2980392277240753,
                    "g": 0.2823529541492462,
                    "b": 0.27843138575553894,
                    "a": 1.0
                }
            ],
            "OLLPOHKGJCA": 70012
        },
        {
            "crowdTypeID": 147,
            "animConfigID": 11,
            "spawnPosition": {
                "x": -3283.6220703125,
                "y": 278.0523986816406,
                "z": -4574.6572265625
            },
            "spawnFaceFwd": {
                "x": -0.8382940292358398,
                "z": -0.5452185869216919
            },
            "hairColor": {
                "r": 0.32156863808631897,
                "g": 0.21568627655506134,
                "b": 0.18039216101169586,
                "a": 1.0
            },
            "bodyColors": [
                {
                    "r": 0.9333333373069763,
                    "g": 0.8666666746139526,
                    "b": 0.843137264251709,
                    "a": 1.0
                },
                {
                    "r": 0.5372549295425415,
                    "g": 0.364705890417099,
                    "b": 0.34117648005485535,
                    "a": 1.0
                },
                {
                    "r": 0.26274511218070984,
                    "g": 0.2078431397676468,
                    "b": 0.18039216101169586,
                    "a": 1.0
                },
                {
                    "r": 0.41960784792900085,
                    "g": 0.43529412150382996,
                    "b": 0.4941176474094391,
                    "a": 1.0
                }
            ],
            "OLLPOHKGJCA": 70013
        },
        {
            "crowdTypeID": 137,
            "animConfigID": 12,
            "spawnPosition": {
                "x": -3284.60107421875,
                "y": 278.0523986816406,
                "z": -4576.1318359375
            },
            "spawnFaceFwd": {
                "x": 0.7705488204956055,
                "z": 0.6373810172080994
            },
            "hairColor": {
                "r": 0.29019609093666077,
                "g": 0.3176470696926117,
                "b": 0.3529411852359772,
                "a": 1.0
            },
            "bodyColors": [
                {
                    "r": 0.9333333373069763,
                    "g": 0.8666666746139526,
                    "b": 0.843137264251709,
                    "a": 1.0
                },
                {
                    "r": 0.45098039507865906,
                    "g": 0.3843137323856354,
                    "b": 0.34117648005485535,
                    "a": 1.0
                },
                {
                    "r": 0.239215686917305,
                    "g": 0.2549019753932953,
                    "b": 0.3294117748737335,
                    "a": 1.0
                },
                {
                    "r": 0.4117647111415863,
                    "g": 0.40392157435417175,
                    "b": 0.4274509847164154,
                    "a": 1.0
                }
            ],
            "OLLPOHKGJCA": 70014
        },
        {
            "crowdTypeID": 139,
            "animConfigID": 12,
            "spawnPosition": {
                "x": -3285.321044921875,
                "y": 278.0523986816406,
                "z": -4575.2451171875
            },
            "spawnFaceFwd": {
                "x": 0.7763391137123108,
                "z": 0.6303154230117798
            },
            "hairColor": {
                "r": 0.25882354378700256,
                "g": 0.25882354378700256,
                "b": 0.25882354378700256,
                "a": 1.0
            },
            "bodyColors": [
                {
                    "r": 0.9333333373069763,
                    "g": 0.8666666746139526,
                    "b": 0.843137264251709,
                    "a": 1.0
                },
                {
                    "r": 0.45098039507865906,
                    "g": 0.3843137323856354,
                    "b": 0.34117648005485535,
                    "a": 1.0
                },
                {
                    "r": 0.239215686917305,
                    "g": 0.2549019753932953,
                    "b": 0.3294117748737335,
                    "a": 1.0
                },
                {
                    "r": 0.4117647111415863,
                    "g": 0.40392157435417175,
                    "b": 0.4274509847164154,
                    "a": 1.0
                }
            ],
            "OLLPOHKGJCA": 70015
        },
        {
            "crowdTypeID": 164,
            "spawnPosition": {
                "x": -3217.718017578125,
                "y": 265.2232971191406,
                "z": -4487.9677734375
            },
            "spawnFaceFwd": {
                "x": 0.6833005547523499,
                "z": 0.7301372289657593
            },
            "hairColor": {
                "r": 0.32156863808631897,
                "g": 0.21568627655506134,
                "b": 0.18039216101169586,
                "a": 1.0
            },
            "bodyColors": [
                {
                    "r": 1.0,
                    "g": 1.0,
                    "b": 1.0,
                    "a": 1.0
                },
                {
                    "r": 1.0,
                    "g": 1.0,
                    "b": 1.0,
                    "a": 1.0
                },
                {
                    "r": 1.0,
                    "g": 1.0,
                    "b": 1.0,
                    "a": 1.0
                },
                {
                    "r": 1.0,
                    "g": 1.0,
                    "b": 1.0,
                    "a": 1.0
                }
            ],
            "OLLPOHKGJCA": 70016
        },
        {
            "crowdTypeID": 134,
            "spawnPosition": {
                "x": -3233.718017578125,
                "y": 271.03619384765625,
                "z": -4499.67822265625
            },
            "spawnFaceFwd": {
                "x": 0.5625134706497192,
                "z": 0.8267881274223328
            },
            "hairColor": {
                "r": 0.32156863808631897,
                "g": 0.21568627655506134,
                "b": 0.18039216101169586,
                "a": 1.0
            },
            "bodyColors": [
                {
                    "r": 1.0,
                    "g": 1.0,
                    "b": 1.0,
                    "a": 1.0
                },
                {
                    "r": 1.0,
                    "g": 1.0,
                    "b": 1.0,
                    "a": 1.0
                },
                {
                    "r": 1.0,
                    "g": 1.0,
                    "b": 1.0,
                    "a": 1.0
                },
                {
                    "r": 1.0,
                    "g": 1.0,
                    "b": 1.0,
                    "a": 1.0
                }
            ],
            "OLLPOHKGJCA": 70017
        },
        {
            "crowdTypeID": 164,
            "spawnPosition": {
                "x": -3223.73291015625,
                "y": 265.2232971191406,
                "z": -4480.27490234375
            },
            "spawnFaceFwd": {
                "x": 0.9813699126243591,
                "z": 0.19212812185287476
            },
            "hairColor": {
                "r": 0.25882354378700256,
                "g": 0.25882354378700256,
                "b": 0.25882354378700256,
                "a": 1.0
            },
            "bodyColors": [
                {
                    "r": 1.0,
                    "g": 1.0,
                    "b": 1.0,
                    "a": 1.0
                },
                {
                    "r": 1.0,
                    "g": 1.0,
                    "b": 1.0,
                    "a": 1.0
                },
                {
                    "r": 1.0,
                    "g": 1.0,
                    "b": 1.0,
                    "a": 1.0
                },
                {
                    "r": 1.0,
                    "g": 1.0,
                    "b": 1.0,
                    "a": 1.0
                }
            ],
            "OLLPOHKGJCA": 70018
        },
        {
            "crowdTypeID": 164,
            "spawnPosition": {
                "x": -3283.822021484375,
                "y": 278.9024963378906,
                "z": -4542.5458984375
            },
            "spawnFaceFwd": {
                "x": -0.9455270767211914,
                "z": 0.3255433440208435
            },
            "hairColor": {
                "r": 0.4274509847164154,
                "g": 0.37254902720451355,
                "b": 0.3019607961177826,
                "a": 1.0
            },
            "bodyColors": [
                {
                    "r": 1.0,
                    "g": 1.0,
                    "b": 1.0,
                    "a": 1.0
                },
                {
                    "r": 1.0,
                    "g": 1.0,
                    "b": 1.0,
                    "a": 1.0
                },
                {
                    "r": 1.0,
                    "g": 1.0,
                    "b": 1.0,
                    "a": 1.0
                },
                {
                    "r": 1.0,
                    "g": 1.0,
                    "b": 1.0,
                    "a": 1.0
                }
            ],
            "OLLPOHKGJCA": 70019
        },
        {
            "crowdTypeID": 164,
            "spawnPosition": {
                "x": -3321.887939453125,
                "y": 290.2539978027344,
                "z": -4530.2080078125
            },
            "spawnFaceFwd": {
                "x": -0.8378570079803467,
                "z": -0.5458898544311523
            },
            "hairColor": {
                "r": 0.25882354378700256,
                "g": 0.25882354378700256,
                "b": 0.25882354378700256,
                "a": 1.0
            },
            "bodyColors": [
                {
                    "r": 1.0,
                    "g": 1.0,
                    "b": 1.0,
                    "a": 1.0
                },
                {
                    "r": 1.0,
                    "g": 1.0,
                    "b": 1.0,
                    "a": 1.0
                },
                {
                    "r": 1.0,
                    "g": 1.0,
                    "b": 1.0,
                    "a": 1.0
                },
                {
                    "r": 1.0,
                    "g": 1.0,
                    "b": 1.0,
                    "a": 1.0
                }
            ],
            "OLLPOHKGJCA": 70020
        },
        {
            "crowdTypeID": 134,
            "spawnPosition": {
                "x": -3320.0458984375,
                "y": 290.2554016113281,
                "z": -4532.7900390625
            },
            "spawnFaceFwd": {
                "x": -0.7917141318321228,
                "z": -0.6108916997909546
            },
            "hairColor": {
                "r": 0.32156863808631897,
                "g": 0.21568627655506134,
                "b": 0.18039216101169586,
                "a": 1.0
            },
            "bodyColors": [
                {
                    "r": 1.0,
                    "g": 1.0,
                    "b": 1.0,
                    "a": 1.0
                },
                {
                    "r": 1.0,
                    "g": 1.0,
                    "b": 1.0,
                    "a": 1.0
                },
                {
                    "r": 1.0,
                    "g": 1.0,
                    "b": 1.0,
                    "a": 1.0
                },
                {
                    "r": 1.0,
                    "g": 1.0,
                    "b": 1.0,
                    "a": 1.0
                }
            ],
            "OLLPOHKGJCA": 70021
        },
        {
            "crowdTypeID": 164,
            "spawnPosition": {
                "x": -3323.387939453125,
                "y": 290.25439453125,
                "z": -4532.52880859375
            },
            "spawnFaceFwd": {
                "x": 0.7980753183364868,
                "z": 0.6025577187538147
            },
            "hairColor": {
                "r": 0.32156863808631897,
                "g": 0.21568627655506134,
                "b": 0.18039216101169586,
                "a": 1.0
            },
            "bodyColors": [
                {
                    "r": 1.0,
                    "g": 1.0,
                    "b": 1.0,
                    "a": 1.0
                },
                {
                    "r": 1.0,
                    "g": 1.0,
                    "b": 1.0,
                    "a": 1.0
                },
                {
                    "r": 1.0,
                    "g": 1.0,
                    "b": 1.0,
                    "a": 1.0
                },
                {
                    "r": 1.0,
                    "g": 1.0,
                    "b": 1.0,
                    "a": 1.0
                }
            ],
            "OLLPOHKGJCA": 70022
        },
        {
            "crowdTypeID": 147,
            "animConfigID": 12,
            "spawnPosition": {
                "x": -3262.3720703125,
                "y": 279.08648681640625,
                "z": -4578.7421875
            },
            "spawnFaceFwd": {
                "x": -0.8879135847091675,
                "z": 0.460010290145874
            },
            "hairColor": {
                "r": 0.3960784375667572,
                "g": 0.27843138575553894,
                "b": 0.1882352977991104,
                "a": 1.0
            },
            "bodyColors": [
                {
                    "r": 0.9333333373069763,
                    "g": 0.8666666746139526,
                    "b": 0.843137264251709,
                    "a": 1.0
                },
                {
                    "r": 0.545098066329956,
                    "g": 0.3529411852359772,
                    "b": 0.37254902720451355,
                    "a": 1.0
                },
                {
                    "r": 0.7411764860153198,
                    "g": 0.686274528503418,
                    "b": 0.615686297416687,
                    "a": 1.0
                },
                {
                    "r": 0.3176470696926117,
                    "g": 0.2666666805744171,
                    "b": 0.23137255012989044,
                    "a": 1.0
                }
            ],
            "OLLPOHKGJCA": 70023
        },
        {
            "crowdTypeID": 145,
            "animConfigID": 12,
            "spawnPosition": {
                "x": -3265.48388671875,
                "y": 279.08648681640625,
                "z": -4581.0068359375
            },
            "spawnFaceFwd": {
                "x": -0.13101078569889069,
                "z": 0.9913809299468994
            },
            "hairColor": {
                "r": 0.29019609093666077,
                "g": 0.3176470696926117,
                "b": 0.3529411852359772,
                "a": 1.0
            },
            "bodyColors": [
                {
                    "r": 0.9333333373069763,
                    "g": 0.8666666746139526,
                    "b": 0.843137264251709,
                    "a": 1.0
                },
                {
                    "r": 0.5372549295425415,
                    "g": 0.364705890417099,
                    "b": 0.34117648005485535,
                    "a": 1.0
                },
                {
                    "r": 0.26274511218070984,
                    "g": 0.2078431397676468,
                    "b": 0.18039216101169586,
                    "a": 1.0
                },
                {
                    "r": 0.41960784792900085,
                    "g": 0.43529412150382996,
                    "b": 0.4941176474094391,
                    "a": 1.0
                }
            ],
            "OLLPOHKGJCA": 70024
        },
        {
            "crowdTypeID": 134,
            "spawnPosition": {
                "x": -3224.908935546875,
                "y": 265.19329833984375,
                "z": -4468.5458984375
            },
            "spawnFaceFwd": {
                "x": 0.5805610418319702,
                "z": -0.8142167329788208
            },
            "hairColor": {
                "r": 0.25882354378700256,
                "g": 0.25882354378700256,
                "b": 0.25882354378700256,
                "a": 1.0
            },
            "bodyColors": [
                {
                    "r": 1.0,
                    "g": 1.0,
                    "b": 1.0,
                    "a": 1.0
                },
                {
                    "r": 1.0,
                    "g": 1.0,
                    "b": 1.0,
                    "a": 1.0
                },
                {
                    "r": 1.0,
                    "g": 1.0,
                    "b": 1.0,
                    "a": 1.0
                },
                {
                    "r": 1.0,
                    "g": 1.0,
                    "b": 1.0,
                    "a": 1.0
                }
            ],
            "OLLPOHKGJCA": 70025
        }
    ]
}