{
    "crowdSpawnInfos": [
        {
            "crowdTypeID": 171,
            "spawnPosition": {
                "x": -771.8187255859375,
                "y": 225.56019592285156,
                "z": 428.5000915527344
            },
            "spawnFaceFwd": {
                "x": -0.3144746720790863,
                "z": 0.9492658376693726
            },
            "hairColor": {
                "r": 0.25882354378700256,
                "g": 0.25882354378700256,
                "b": 0.25882354378700256,
                "a": 1.0
            },
            "bodyColors": [
                {
                    "r": 0.9058823585510254,
                    "g": 0.7882353067398071,
                    "b": 0.7333333492279053,
                    "a": 1.0
                },
                {
                    "r": 0.42352941632270813,
                    "g": 0.4627451002597809,
                    "b": 0.5647059082984924,
                    "a": 1.0
                },
                {
                    "r": 0.6745098233222961,
                    "g": 0.6666666865348816,
                    "b": 0.6549019813537598,
                    "a": 1.0
                },
                {
                    "r": 0.2980392277240753,
                    "g": 0.27843138575553894,
                    "b": 0.3176470696926117,
                    "a": 1.0
                }
            ],
            "OLLPOHKGJCA": 540001
        },
        {
            "crowdTypeID": 172,
            "spawnPosition": {
                "x": -785.230224609375,
                "y": 230.72430419921875,
                "z": 403.8702087402344
            },
            "spawnFaceFwd": {
                "x": -0.7381445169448853,
                "z": -0.6746424436569214
            },
            "hairColor": {
                "r": 0.32156863808631897,
                "g": 0.21568627655506134,
                "b": 0.18039216101169586,
                "a": 1.0
            },
            "bodyColors": [
                {
                    "r": 0.7921568751335144,
                    "g": 0.6549019813537598,
                    "b": 0.5843137502670288,
                    "a": 1.0
                },
                {
                    "r": 0.6470588445663452,
                    "g": 0.6470588445663452,
                    "b": 0.6470588445663452,
                    "a": 1.0
                },
                {
                    "r": 0.2666666805744171,
                    "g": 0.29411765933036804,
                    "b": 0.3019607961177826,
                    "a": 1.0
                },
                {
                    "r": 0.4941176474094391,
                    "g": 0.2980392277240753,
                    "b": 0.2980392277240753,
                    "a": 1.0
                }
            ],
            "OLLPOHKGJCA": 540002
        },
        {
            "crowdTypeID": 169,
            "spawnPosition": {
                "x": -758.4185180664062,
                "y": 222.22340393066406,
                "z": 416.8208923339844
            },
            "spawnFaceFwd": {
                "x": -0.2154272347688675,
                "z": -0.9765200614929199
            },
            "hairColor": {
                "r": 0.4274509847164154,
                "g": 0.37254902720451355,
                "b": 0.3019607961177826,
                "a": 1.0
            },
            "bodyColors": [
                {
                    "r": 0.9333333373069763,
                    "g": 0.8666666746139526,
                    "b": 0.843137264251709,
                    "a": 1.0
                },
                {
                    "r": 0.239215686917305,
                    "g": 0.2666666805744171,
                    "b": 0.29411765933036804,
                    "a": 1.0
                },
                {
                    "r": 0.7568627595901489,
                    "g": 0.7568627595901489,
                    "b": 0.7254902124404907,
                    "a": 1.0
                },
                {
                    "r": 0.47843137383461,
                    "g": 0.4470588266849518,
                    "b": 0.3960784375667572,
                    "a": 1.0
                }
            ],
            "OLLPOHKGJCA": 540003
        },
        {
            "crowdTypeID": 171,
            "spawnPosition": {
                "x": -788.8900146484375,
                "y": 234.21560668945312,
                "z": 401.67510986328125
            },
            "spawnFaceFwd": {
                "x": 0.6670098900794983,
                "z": 0.7450488805770874
            },
            "hairColor": {
                "r": 0.3960784375667572,
                "g": 0.27843138575553894,
                "b": 0.1882352977991104,
                "a": 1.0
            },
            "bodyColors": [
                {
                    "r": 0.7921568751335144,
                    "g": 0.6549019813537598,
                    "b": 0.5843137502670288,
                    "a": 1.0
                },
                {
                    "r": 0.42352941632270813,
                    "g": 0.4627451002597809,
                    "b": 0.5647059082984924,
                    "a": 1.0
                },
                {
                    "r": 0.6745098233222961,
                    "g": 0.6666666865348816,
                    "b": 0.6549019813537598,
                    "a": 1.0
                },
                {
                    "r": 0.2980392277240753,
                    "g": 0.27843138575553894,
                    "b": 0.3176470696926117,
                    "a": 1.0
                }
            ],
            "OLLPOHKGJCA": 540004
        },
        {
            "crowdTypeID": 173,
            "spawnPosition": {
                "x": -758.9110717773438,
                "y": 222.0583038330078,
                "z": 415.6246032714844
            },
            "spawnFaceFwd": {
                "x": 0.14681851863861084,
                "z": 0.9891634583473206
            },
            "hairColor": {
                "r": 0.25882354378700256,
                "g": 0.25882354378700256,
                "b": 0.25882354378700256,
                "a": 1.0
            },
            "bodyColors": [
                {
                    "r": 0.9333333373069763,
                    "g": 0.8666666746139526,
                    "b": 0.843137264251709,
                    "a": 1.0
                },
                {
                    "r": 0.41960784792900085,
                    "g": 0.41960784792900085,
                    "b": 0.4117647111415863,
                    "a": 1.0
                },
                {
                    "r": 0.3764705955982208,
                    "g": 0.2823529541492462,
                    "b": 0.2823529541492462,
                    "a": 1.0
                },
                {
                    "r": 0.2549019753932953,
                    "g": 0.26274511218070984,
                    "b": 0.2705882489681244,
                    "a": 1.0
                }
            ],
            "OLLPOHKGJCA": 540005
        }
    ]
}