{
    "crowdSpawnInfos": [
        {
            "crowdTypeID": 162,
            "spawnPosition": {
                "x": 282.45269775390625,
                "y": 336.9088134765625,
                "z": 277.06658935546875
            },
            "spawnFaceFwd": {
                "x": -0.09900544583797455,
                "z": -0.9950867891311646
            },
            "hairColor": {
                "r": 0.32156863808631897,
                "g": 0.21568627655506134,
                "b": 0.18039216101169586,
                "a": 1.0
            },
            "bodyColors": [
                {
                    "r": 1.0,
                    "g": 1.0,
                    "b": 1.0,
                    "a": 1.0
                },
                {
                    "r": 1.0,
                    "g": 1.0,
                    "b": 1.0,
                    "a": 1.0
                },
                {
                    "r": 1.0,
                    "g": 1.0,
                    "b": 1.0,
                    "a": 1.0
                },
                {
                    "r": 1.0,
                    "g": 1.0,
                    "b": 1.0,
                    "a": 1.0
                }
            ],
            "OLLPOHKGJCA": 20001
        },
        {
            "crowdTypeID": 162,
            "spawnPosition": {
                "x": 268.8403015136719,
                "y": 337.6637878417969,
                "z": 249.9980926513672
            },
            "spawnFaceFwd": {
                "x": 0.9989328980445862,
                "y": -0.019040390849113464,
                "z": -0.0420771986246109
            },
            "hairColor": {
                "r": 0.3960784375667572,
                "g": 0.27843138575553894,
                "b": 0.1882352977991104,
                "a": 1.0
            },
            "bodyColors": [
                {
                    "r": 1.0,
                    "g": 1.0,
                    "b": 1.0,
                    "a": 1.0
                },
                {
                    "r": 1.0,
                    "g": 1.0,
                    "b": 1.0,
                    "a": 1.0
                },
                {
                    "r": 1.0,
                    "g": 1.0,
                    "b": 1.0,
                    "a": 1.0
                },
                {
                    "r": 1.0,
                    "g": 1.0,
                    "b": 1.0,
                    "a": 1.0
                }
            ],
            "OLLPOHKGJCA": 20002
        }
    ]
}