{
    "crowdSpawnInfos": [
        {
            "crowdTypeID": 209,
            "spawnPosition": {
                "x": -222.7187957763672,
                "y": 231.5319061279297,
                "z": 3565.117919921875
            },
            "spawnFaceFwd": {
                "x": 0.9770150780677795,
                "z": 0.21317017078399658
            },
            "bodyColors": [
                {
                    "r": 1.0,
                    "g": 1.0,
                    "b": 1.0,
                    "a": 1.0
                },
                {
                    "r": 1.0,
                    "g": 0.8156862854957581,
                    "b": 0.6196078658103943,
                    "a": 1.0
                },
                {
                    "r": 0.9137254953384399,
                    "g": 0.6431372761726379,
                    "b": 0.3686274588108063,
                    "a": 1.0
                },
                {
                    "r": 0.9882352948188782,
                    "g": 0.929411768913269,
                    "b": 0.8470588326454163,
                    "a": 1.0
                }
            ],
            "PAJIPLJODOA": [
                {
                    "r": 0.8235294222831726,
                    "g": 0.5215686559677124,
                    "b": 0.3137255012989044,
                    "a": 1.0
                },
                {
                    "r": 0.9137254953384399,
                    "g": 0.6431372761726379,
                    "b": 0.3686274588108063,
                    "a": 1.0
                },
                {
                    "r": 0.8666666746139526,
                    "g": 0.6352941393852234,
                    "b": 0.47843137383461,
                    "a": 1.0
                }
            ],
            "HMPLLNNAMEF": [
                {
                    "r": 0.5490196347236633,
                    "g": 0.5529412031173706,
                    "b": 0.08627451211214066,
                    "a": 1.0
                },
                {
                    "r": 0.5490196347236633,
                    "g": 0.5529412031173706,
                    "b": 0.08627451211214066,
                    "a": 1.0
                },
                {
                    "r": 1.0,
                    "g": 1.0,
                    "b": 1.0,
                    "a": 1.0
                }
            ],
            "OLLPOHKGJCA": 280001
        }
    ]
}