{
    "crowdSpawnInfos": [
        {
            "crowdTypeID": 194,
            "spawnPosition": {
                "x": -55.58100128173828,
                "y": 246.67579650878906,
                "z": 3456.443115234375
            },
            "spawnFaceFwd": {
                "x": -0.8050359487533569,
                "z": 0.5932260751724243
            },
            "bodyColors": [
                {
                    "r": 1.0,
                    "g": 1.0,
                    "b": 1.0,
                    "a": 1.0
                },
                {
                    "r": 1.0,
                    "g": 0.8941176533699036,
                    "b": 0.6627451181411743,
                    "a": 1.0
                },
                {
                    "r": 0.9450980424880981,
                    "g": 0.686274528503418,
                    "b": 0.529411792755127,
                    "a": 1.0
                },
                {
                    "r": 0.9843137264251709,
                    "g": 0.9647058844566345,
                    "b": 0.9215686321258545,
                    "a": 1.0
                }
            ],
            "PAJIPLJODOA": [
                {
                    "r": 0.8392156958580017,
                    "g": 0.3529411852359772,
                    "b": 0.3529411852359772,
                    "a": 1.0
                },
                {
                    "r": 0.9450980424880981,
                    "g": 0.686274528503418,
                    "b": 0.529411792755127,
                    "a": 1.0
                },
                {
                    "r": 0.8666666746139526,
                    "g": 0.5254902243614197,
                    "b": 0.4588235318660736,
                    "a": 1.0
                }
            ],
            "HMPLLNNAMEF": [
                {
                    "r": 0.6745098233222961,
                    "g": 0.32156863808631897,
                    "b": 0.3137255012989044,
                    "a": 1.0
                },
                {
                    "r": 0.6745098233222961,
                    "g": 0.32156863808631897,
                    "b": 0.3137255012989044,
                    "a": 1.0
                },
                {
                    "r": 1.0,
                    "g": 1.0,
                    "b": 1.0,
                    "a": 1.0
                }
            ],
            "OLLPOHKGJCA": 140001
        }
    ]
}