{
    "crowdSpawnInfos": [
        {
            "crowdTypeID": 164,
            "spawnPosition": {
                "x": -2365.18310546875,
                "y": 231.6199951171875,
                "z": -4275.84619140625
            },
            "spawnFaceFwd": {
                "x": 0.9043300747871399,
                "z": 0.4268338680267334
            },
            "hairColor": {
                "r": 0.25882354378700256,
                "g": 0.25882354378700256,
                "b": 0.25882354378700256,
                "a": 1.0
            },
            "bodyColors": [
                {
                    "r": 1.0,
                    "g": 1.0,
                    "b": 1.0,
                    "a": 1.0
                },
                {
                    "r": 1.0,
                    "g": 1.0,
                    "b": 1.0,
                    "a": 1.0
                },
                {
                    "r": 1.0,
                    "g": 1.0,
                    "b": 1.0,
                    "a": 1.0
                },
                {
                    "r": 1.0,
                    "g": 1.0,
                    "b": 1.0,
                    "a": 1.0
                }
            ],
            "OLLPOHKGJCA": 50005
        },
        {
            "crowdTypeID": 164,
            "spawnPosition": {
                "x": -2367.7529296875,
                "y": 231.6199951171875,
                "z": -4268.40283203125
            },
            "spawnFaceFwd": {
                "x": 0.9471128582954407,
                "z": 0.32090067863464355
            },
            "hairColor": {
                "r": 0.25882354378700256,
                "g": 0.25882354378700256,
                "b": 0.25882354378700256,
                "a": 1.0
            },
            "bodyColors": [
                {
                    "r": 1.0,
                    "g": 1.0,
                    "b": 1.0,
                    "a": 1.0
                },
                {
                    "r": 1.0,
                    "g": 1.0,
                    "b": 1.0,
                    "a": 1.0
                },
                {
                    "r": 1.0,
                    "g": 1.0,
                    "b": 1.0,
                    "a": 1.0
                },
                {
                    "r": 1.0,
                    "g": 1.0,
                    "b": 1.0,
                    "a": 1.0
                }
            ],
            "OLLPOHKGJCA": 50006
        },
        {
            "crowdTypeID": 164,
            "spawnPosition": {
                "x": -2352.989990234375,
                "y": 226.8592071533203,
                "z": -4264.02392578125
            },
            "spawnFaceFwd": {
                "x": 0.9605872631072998,
                "z": 0.27797865867614746
            },
            "hairColor": {
                "r": 0.25882354378700256,
                "g": 0.25882354378700256,
                "b": 0.25882354378700256,
                "a": 1.0
            },
            "bodyColors": [
                {
                    "r": 1.0,
                    "g": 1.0,
                    "b": 1.0,
                    "a": 1.0
                },
                {
                    "r": 1.0,
                    "g": 1.0,
                    "b": 1.0,
                    "a": 1.0
                },
                {
                    "r": 1.0,
                    "g": 1.0,
                    "b": 1.0,
                    "a": 1.0
                },
                {
                    "r": 1.0,
                    "g": 1.0,
                    "b": 1.0,
                    "a": 1.0
                }
            ],
            "OLLPOHKGJCA": 50008
        }
    ]
}