{
    "crowdSpawnInfos": [
        {
            "crowdTypeID": 63,
            "animConfigID": 6,
            "spawnPosition": {
                "x": -631.1447143554688,
                "y": 209.43099975585938,
                "z": 152.47219848632812
            },
            "spawnFaceFwd": {
                "x": -0.7625079154968262,
                "z": -0.6469788551330566
            },
            "hairColor": {
                "r": 0.25882354378700256,
                "g": 0.25882354378700256,
                "b": 0.25882354378700256,
                "a": 1.0
            },
            "bodyColors": [
                {
                    "r": 0.9058823585510254,
                    "g": 0.7882353067398071,
                    "b": 0.7333333492279053,
                    "a": 1.0
                },
                {
                    "r": 0.42352941632270813,
                    "g": 0.4627451002597809,
                    "b": 0.5647059082984924,
                    "a": 1.0
                },
                {
                    "r": 0.6745098233222961,
                    "g": 0.6666666865348816,
                    "b": 0.6549019813537598,
                    "a": 1.0
                },
                {
                    "r": 0.2980392277240753,
                    "g": 0.27843138575553894,
                    "b": 0.3176470696926117,
                    "a": 1.0
                }
            ],
            "OLLPOHKGJCA": 210001
        },
        {
            "crowdTypeID": 66,
            "animConfigID": 3,
            "spawnPosition": {
                "x": -609.7905883789062,
                "y": 205.20770263671875,
                "z": 145.14259338378906
            },
            "spawnFaceFwd": {
                "x": 0.555726945400238,
                "z": 0.8313648700714111
            },
            "hairColor": {
                "r": 0.25882354378700256,
                "g": 0.25882354378700256,
                "b": 0.25882354378700256,
                "a": 1.0
            },
            "bodyColors": [
                {
                    "r": 0.9058823585510254,
                    "g": 0.7882353067398071,
                    "b": 0.7333333492279053,
                    "a": 1.0
                },
                {
                    "r": 0.4117647111415863,
                    "g": 0.35686275362968445,
                    "b": 0.3960784375667572,
                    "a": 1.0
                },
                {
                    "r": 0.5647059082984924,
                    "g": 0.5490196347236633,
                    "b": 0.5607843399047852,
                    "a": 1.0
                },
                {
                    "r": 0.2666666805744171,
                    "g": 0.2078431397676468,
                    "b": 0.23529411852359772,
                    "a": 1.0
                }
            ],
            "OLLPOHKGJCA": 210002
        },
        {
            "crowdTypeID": 81,
            "spawnPosition": {
                "x": -624.64892578125,
                "y": 205.2091064453125,
                "z": 138.10760498046875
            },
            "spawnFaceFwd": {
                "x": -0.10271978378295898,
                "z": 0.9947103261947632
            },
            "hairColor": {
                "r": 0.25882354378700256,
                "g": 0.25882354378700256,
                "b": 0.25882354378700256,
                "a": 1.0
            },
            "bodyColors": [
                {
                    "r": 0.9058823585510254,
                    "g": 0.7882353067398071,
                    "b": 0.7333333492279053,
                    "a": 1.0
                },
                {
                    "r": 0.6745098233222961,
                    "g": 0.6666666865348816,
                    "b": 0.6549019813537598,
                    "a": 1.0
                },
                {
                    "r": 0.42352941632270813,
                    "g": 0.4627451002597809,
                    "b": 0.5647059082984924,
                    "a": 1.0
                },
                {
                    "r": 0.2980392277240753,
                    "g": 0.27843138575553894,
                    "b": 0.3176470696926117,
                    "a": 1.0
                }
            ],
            "OLLPOHKGJCA": 210003
        },
        {
            "crowdTypeID": 64,
            "animConfigID": 1,
            "spawnPosition": {
                "x": -624.2047119140625,
                "y": 205.20770263671875,
                "z": 139.0198974609375
            },
            "spawnFaceFwd": {
                "x": -0.7361443638801575,
                "z": -0.6768244504928589
            },
            "hairColor": {
                "r": 0.29019609093666077,
                "g": 0.3176470696926117,
                "b": 0.3529411852359772,
                "a": 1.0
            },
            "bodyColors": [
                {
                    "r": 0.9058823585510254,
                    "g": 0.7882353067398071,
                    "b": 0.7333333492279053,
                    "a": 1.0
                },
                {
                    "r": 0.239215686917305,
                    "g": 0.2666666805744171,
                    "b": 0.29411765933036804,
                    "a": 1.0
                },
                {
                    "r": 0.7568627595901489,
                    "g": 0.7568627595901489,
                    "b": 0.7254902124404907,
                    "a": 1.0
                },
                {
                    "r": 0.47843137383461,
                    "g": 0.4470588266849518,
                    "b": 0.3960784375667572,
                    "a": 1.0
                }
            ],
            "OLLPOHKGJCA": 210004
        },
        {
            "crowdTypeID": 64,
            "animConfigID": 3,
            "spawnPosition": {
                "x": -605.3984985351562,
                "y": 204.76170349121094,
                "z": 123.4031982421875
            },
            "spawnFaceFwd": {
                "x": 0.0329824835062027,
                "z": 0.9994559288024902
            },
            "hairColor": {
                "r": 0.32156863808631897,
                "g": 0.21568627655506134,
                "b": 0.18039216101169586,
                "a": 1.0
            },
            "bodyColors": [
                {
                    "r": 0.9058823585510254,
                    "g": 0.7882353067398071,
                    "b": 0.7333333492279053,
                    "a": 1.0
                },
                {
                    "r": 0.42352941632270813,
                    "g": 0.4627451002597809,
                    "b": 0.5647059082984924,
                    "a": 1.0
                },
                {
                    "r": 0.6745098233222961,
                    "g": 0.6666666865348816,
                    "b": 0.6549019813537598,
                    "a": 1.0
                },
                {
                    "r": 0.2980392277240753,
                    "g": 0.27843138575553894,
                    "b": 0.3176470696926117,
                    "a": 1.0
                }
            ],
            "OLLPOHKGJCA": 210006
        },
        {
            "crowdTypeID": 79,
            "spawnPosition": {
                "x": -608.688720703125,
                "y": 205.4320068359375,
                "z": 175.1842041015625
            },
            "spawnFaceFwd": {
                "x": 0.9979813098907471,
                "z": -0.0635080337524414
            },
            "hairColor": {
                "r": 0.25882354378700256,
                "g": 0.25882354378700256,
                "b": 0.25882354378700256,
                "a": 1.0
            },
            "bodyColors": [
                {
                    "r": 0.9333333373069763,
                    "g": 0.8666666746139526,
                    "b": 0.843137264251709,
                    "a": 1.0
                },
                {
                    "r": 0.4117647111415863,
                    "g": 0.35686275362968445,
                    "b": 0.3960784375667572,
                    "a": 1.0
                },
                {
                    "r": 0.5647059082984924,
                    "g": 0.5490196347236633,
                    "b": 0.5607843399047852,
                    "a": 1.0
                },
                {
                    "r": 0.2666666805744171,
                    "g": 0.2078431397676468,
                    "b": 0.23529411852359772,
                    "a": 1.0
                }
            ],
            "OLLPOHKGJCA": 210007
        },
        {
            "crowdTypeID": 79,
            "spawnPosition": {
                "x": -602.9453735351562,
                "y": 204.77699279785156,
                "z": 158.0635986328125
            },
            "spawnFaceFwd": {
                "x": 0.42930877208709717,
                "z": 0.9031577706336975
            },
            "hairColor": {
                "r": 0.25882354378700256,
                "g": 0.25882354378700256,
                "b": 0.25882354378700256,
                "a": 1.0
            },
            "bodyColors": [
                {
                    "r": 0.9333333373069763,
                    "g": 0.8666666746139526,
                    "b": 0.843137264251709,
                    "a": 1.0
                },
                {
                    "r": 0.239215686917305,
                    "g": 0.2666666805744171,
                    "b": 0.29411765933036804,
                    "a": 1.0
                },
                {
                    "r": 0.7568627595901489,
                    "g": 0.7568627595901489,
                    "b": 0.7254902124404907,
                    "a": 1.0
                },
                {
                    "r": 0.47843137383461,
                    "g": 0.4470588266849518,
                    "b": 0.3960784375667572,
                    "a": 1.0
                }
            ],
            "OLLPOHKGJCA": 210008
        },
        {
            "crowdTypeID": 65,
            "spawnPosition": {
                "x": -600.1038208007812,
                "y": 204.76170349121094,
                "z": 149.28919982910156
            },
            "spawnFaceFwd": {
                "x": 0.7958994507789612,
                "z": -0.6054286956787109
            },
            "hairColor": {
                "r": 0.25882354378700256,
                "g": 0.25882354378700256,
                "b": 0.25882354378700256,
                "a": 1.0
            },
            "bodyColors": [
                {
                    "r": 0.9058823585510254,
                    "g": 0.7882353067398071,
                    "b": 0.7333333492279053,
                    "a": 1.0
                },
                {
                    "r": 0.239215686917305,
                    "g": 0.2666666805744171,
                    "b": 0.29411765933036804,
                    "a": 1.0
                },
                {
                    "r": 0.7568627595901489,
                    "g": 0.7568627595901489,
                    "b": 0.7254902124404907,
                    "a": 1.0
                },
                {
                    "r": 0.47843137383461,
                    "g": 0.4470588266849518,
                    "b": 0.3960784375667572,
                    "a": 1.0
                }
            ],
            "OLLPOHKGJCA": 210010
        },
        {
            "crowdTypeID": 65,
            "animConfigID": 1,
            "spawnPosition": {
                "x": -563.4830932617188,
                "y": 201.4073028564453,
                "z": 148.53720092773438
            },
            "spawnFaceFwd": {
                "x": 0.9999973773956299,
                "z": 0.0022794008255004883
            },
            "hairColor": {
                "r": 0.29019609093666077,
                "g": 0.3176470696926117,
                "b": 0.3529411852359772,
                "a": 1.0
            },
            "bodyColors": [
                {
                    "r": 0.9058823585510254,
                    "g": 0.7882353067398071,
                    "b": 0.7333333492279053,
                    "a": 1.0
                },
                {
                    "r": 0.239215686917305,
                    "g": 0.2666666805744171,
                    "b": 0.29411765933036804,
                    "a": 1.0
                },
                {
                    "r": 0.7568627595901489,
                    "g": 0.7568627595901489,
                    "b": 0.7254902124404907,
                    "a": 1.0
                },
                {
                    "r": 0.47843137383461,
                    "g": 0.4470588266849518,
                    "b": 0.3960784375667572,
                    "a": 1.0
                }
            ],
            "OLLPOHKGJCA": 210011
        },
        {
            "crowdTypeID": 79,
            "animConfigID": 3,
            "spawnPosition": {
                "x": -563.0402221679688,
                "y": 201.4156951904297,
                "z": 149.15269470214844
            },
            "spawnFaceFwd": {
                "x": 0.04415116459131241,
                "z": -0.9990247488021851
            },
            "hairColor": {
                "r": 0.32156863808631897,
                "g": 0.21568627655506134,
                "b": 0.18039216101169586,
                "a": 1.0
            },
            "bodyColors": [
                {
                    "r": 0.9333333373069763,
                    "g": 0.8666666746139526,
                    "b": 0.843137264251709,
                    "a": 1.0
                },
                {
                    "r": 0.41960784792900085,
                    "g": 0.41960784792900085,
                    "b": 0.4117647111415863,
                    "a": 1.0
                },
                {
                    "r": 0.3764705955982208,
                    "g": 0.2823529541492462,
                    "b": 0.2823529541492462,
                    "a": 1.0
                },
                {
                    "r": 0.2549019753932953,
                    "g": 0.26274511218070984,
                    "b": 0.2705882489681244,
                    "a": 1.0
                }
            ],
            "OLLPOHKGJCA": 210012
        },
        {
            "crowdTypeID": 68,
            "spawnPosition": {
                "x": -599.3524169921875,
                "y": 204.76170349121094,
                "z": 148.63470458984375
            },
            "spawnFaceFwd": {
                "x": -0.807458758354187,
                "z": 0.5899240970611572
            },
            "hairColor": {
                "r": 0.32156863808631897,
                "g": 0.21568627655506134,
                "b": 0.18039216101169586,
                "a": 1.0
            },
            "bodyColors": [
                {
                    "r": 0.9058823585510254,
                    "g": 0.7882353067398071,
                    "b": 0.7333333492279053,
                    "a": 1.0
                },
                {
                    "r": 0.42352941632270813,
                    "g": 0.4627451002597809,
                    "b": 0.5647059082984924,
                    "a": 1.0
                },
                {
                    "r": 0.6745098233222961,
                    "g": 0.6666666865348816,
                    "b": 0.6549019813537598,
                    "a": 1.0
                },
                {
                    "r": 0.2980392277240753,
                    "g": 0.27843138575553894,
                    "b": 0.3176470696926117,
                    "a": 1.0
                }
            ],
            "OLLPOHKGJCA": 210013
        },
        {
            "crowdTypeID": 73,
            "spawnPosition": {
                "x": -607.622802734375,
                "y": 205.4320068359375,
                "z": 175.5124053955078
            },
            "spawnFaceFwd": {
                "x": -0.9598140716552734,
                "z": -0.28063642978668213
            },
            "hairColor": {
                "r": 0.25882354378700256,
                "g": 0.25882354378700256,
                "b": 0.25882354378700256,
                "a": 1.0
            },
            "bodyColors": [
                {
                    "r": 0.9333333373069763,
                    "g": 0.8666666746139526,
                    "b": 0.843137264251709,
                    "a": 1.0
                },
                {
                    "r": 0.2235294133424759,
                    "g": 0.2705882489681244,
                    "b": 0.3607843220233917,
                    "a": 1.0
                },
                {
                    "r": 0.5686274766921997,
                    "g": 0.572549045085907,
                    "b": 0.6117647290229797,
                    "a": 1.0
                },
                {
                    "r": 0.3137255012989044,
                    "g": 0.38823530077934265,
                    "b": 0.47843137383461,
                    "a": 1.0
                }
            ],
            "OLLPOHKGJCA": 210014
        },
        {
            "crowdTypeID": 80,
            "animConfigID": 3,
            "spawnPosition": {
                "x": -602.1224975585938,
                "y": 204.77699279785156,
                "z": 158.3686065673828
            },
            "spawnFaceFwd": {
                "x": -0.8744128942489624,
                "z": 0.4851824641227722
            },
            "hairColor": {
                "r": 0.29019609093666077,
                "g": 0.3176470696926117,
                "b": 0.3529411852359772,
                "a": 1.0
            },
            "bodyColors": [
                {
                    "r": 0.9333333373069763,
                    "g": 0.8666666746139526,
                    "b": 0.843137264251709,
                    "a": 1.0
                },
                {
                    "r": 0.41960784792900085,
                    "g": 0.41960784792900085,
                    "b": 0.4117647111415863,
                    "a": 1.0
                },
                {
                    "r": 0.3764705955982208,
                    "g": 0.2823529541492462,
                    "b": 0.2823529541492462,
                    "a": 1.0
                },
                {
                    "r": 0.2549019753932953,
                    "g": 0.26274511218070984,
                    "b": 0.2705882489681244,
                    "a": 1.0
                }
            ],
            "OLLPOHKGJCA": 210015
        },
        {
            "crowdTypeID": 76,
            "animConfigID": 9,
            "spawnPosition": {
                "x": -560.532470703125,
                "y": 202.03469848632812,
                "z": 160.5946044921875
            },
            "spawnFaceFwd": {
                "x": -0.8919821381568909,
                "z": -0.4520704746246338
            },
            "hairColor": {
                "r": 0.25882354378700256,
                "g": 0.25882354378700256,
                "b": 0.25882354378700256,
                "a": 1.0
            },
            "bodyColors": [
                {
                    "r": 0.9333333373069763,
                    "g": 0.8666666746139526,
                    "b": 0.843137264251709,
                    "a": 1.0
                },
                {
                    "r": 0.2235294133424759,
                    "g": 0.2705882489681244,
                    "b": 0.3607843220233917,
                    "a": 1.0
                },
                {
                    "r": 0.5686274766921997,
                    "g": 0.572549045085907,
                    "b": 0.6117647290229797,
                    "a": 1.0
                },
                {
                    "r": 0.3137255012989044,
                    "g": 0.38823530077934265,
                    "b": 0.47843137383461,
                    "a": 1.0
                }
            ],
            "OLLPOHKGJCA": 210016
        },
        {
            "crowdTypeID": 88,
            "spawnPosition": {
                "x": -563.3206787109375,
                "y": 202.56910705566406,
                "z": 158.7584991455078
            },
            "spawnFaceFwd": {
                "x": 0.7430117130279541,
                "z": 0.6692783832550049
            },
            "hairColor": {
                "r": 0.25882354378700256,
                "g": 0.25882354378700256,
                "b": 0.25882354378700256,
                "a": 1.0
            },
            "bodyColors": [
                {
                    "r": 0.9058823585510254,
                    "g": 0.7882353067398071,
                    "b": 0.7333333492279053,
                    "a": 1.0
                },
                {
                    "r": 0.239215686917305,
                    "g": 0.2666666805744171,
                    "b": 0.29411765933036804,
                    "a": 1.0
                },
                {
                    "r": 0.7568627595901489,
                    "g": 0.7568627595901489,
                    "b": 0.7254902124404907,
                    "a": 1.0
                },
                {
                    "r": 0.47843137383461,
                    "g": 0.4470588266849518,
                    "b": 0.3960784375667572,
                    "a": 1.0
                }
            ],
            "OLLPOHKGJCA": 210017
        },
        {
            "crowdTypeID": 91,
            "animConfigID": 1,
            "spawnPosition": {
                "x": -561.3546752929688,
                "y": 201.7279052734375,
                "z": 161.09649658203125
            },
            "spawnFaceFwd": {
                "x": -0.3049657940864563,
                "z": -0.9523632526397705
            },
            "hairColor": {
                "r": 0.8392156958580017,
                "g": 0.8392156958580017,
                "b": 0.8392156958580017,
                "a": 1.0
            },
            "bodyColors": [
                {
                    "r": 0.9058823585510254,
                    "g": 0.7882353067398071,
                    "b": 0.7333333492279053,
                    "a": 1.0
                },
                {
                    "r": 0.2235294133424759,
                    "g": 0.2705882489681244,
                    "b": 0.3607843220233917,
                    "a": 1.0
                },
                {
                    "r": 0.5686274766921997,
                    "g": 0.572549045085907,
                    "b": 0.6117647290229797,
                    "a": 1.0
                },
                {
                    "r": 0.3137255012989044,
                    "g": 0.38823530077934265,
                    "b": 0.47843137383461,
                    "a": 1.0
                }
            ],
            "OLLPOHKGJCA": 210018
        },
        {
            "crowdTypeID": 71,
            "animConfigID": 8,
            "spawnPosition": {
                "x": -632.215087890625,
                "y": 209.44219970703125,
                "z": 151.89849853515625
            },
            "spawnFaceFwd": {
                "x": 0.8830369114875793,
                "z": 0.46930354833602905
            },
            "hairColor": {
                "r": 0.25882354378700256,
                "g": 0.25882354378700256,
                "b": 0.25882354378700256,
                "a": 1.0
            },
            "bodyColors": [
                {
                    "r": 0.9058823585510254,
                    "g": 0.7882353067398071,
                    "b": 0.7333333492279053,
                    "a": 1.0
                },
                {
                    "r": 0.29411765933036804,
                    "g": 0.2666666805744171,
                    "b": 0.2078431397676468,
                    "a": 1.0
                },
                {
                    "r": 0.29411765933036804,
                    "g": 0.2666666805744171,
                    "b": 0.2078431397676468,
                    "a": 1.0
                },
                {
                    "r": 0.29411765933036804,
                    "g": 0.2666666805744171,
                    "b": 0.2078431397676468,
                    "a": 1.0
                }
            ],
            "OLLPOHKGJCA": 210019
        },
        {
            "crowdTypeID": 120,
            "spawnPosition": {
                "x": -605.1500854492188,
                "y": 204.74850463867188,
                "z": 125.11840057373047
            },
            "spawnFaceFwd": {
                "x": -0.33808258175849915,
                "z": -0.9411163330078125
            },
            "hairColor": {
                "r": 0.25882354378700256,
                "g": 0.25882354378700256,
                "b": 0.25882354378700256,
                "a": 1.0
            },
            "bodyColors": [
                {
                    "r": 0.9058823585510254,
                    "g": 0.7882353067398071,
                    "b": 0.7333333492279053,
                    "a": 1.0
                },
                {
                    "r": 0.41960784792900085,
                    "g": 0.41960784792900085,
                    "b": 0.4117647111415863,
                    "a": 1.0
                },
                {
                    "r": 0.3764705955982208,
                    "g": 0.2823529541492462,
                    "b": 0.2823529541492462,
                    "a": 1.0
                },
                {
                    "r": 0.2549019753932953,
                    "g": 0.26274511218070984,
                    "b": 0.2705882489681244,
                    "a": 1.0
                }
            ],
            "OLLPOHKGJCA": 210020
        }
    ]
}