{
    "normal": {
        "type": "VIDEO",
        "videoConfig": {
            "videoName": "Cs_Inazuma_AQ202006_InazumaEnding.usm",
            "videoNameOther": "",
            "subtitleId": 300049,
            "JJKMBKIBEMM": true,
            "bgColor": {
                "a": 1.0
            },
            "fadeInDuration": 1.5,
            "fadeOutDuration": 1.0
        }
    }
}