{
    "HBPGBNCBOMP": "",
    "KENGMFPNLEP": "",
    "group": [
        [
            {
                "$type": "ConfigBodyLangInterAction",
                "type": "BODY_LANG",
                "bodyLangParam": 8010
            }
        ]
    ]
}