{
    "HBPGBNCBOMP": "",
    "isSimpleTalk": true,
    "KENGMFPNLEP": "",
    "disableNpcLod": true,
    "AGMGHOIPEIH": true,
    "startFade": {
        "startFadeOutDuration": 0.0
    },
    "endFade": {
        "startFadeOutDuration": 0.0
    },
    "actors": [
        {
            "alias": "Avatar",
            "visible": true,
            "bornPointName": "",
            "relativePosType": "AVATAR_NEW",
            "relativePosNpcAlias": ""
        },
        {
            "configID": 4032,
            "alias": "4032",
            "visible": true,
            "bornPointName": "",
            "forceCreateDaily": true,
            "relativePosType": "AVATAR_NEW",
            "relativePosNpcAlias": ""
        },
        {
            "configID": 4031,
            "alias": "4031",
            "visible": true,
            "bornPointName": "",
            "useRelativePos": true,
            "relativePos": {
                "x": -0.800000011920929,
                "z": 0.800000011920929
            },
            "forceCreateDaily": true,
            "relativePosType": "AVATAR_NEW",
            "relativePosNpcAlias": ""
        }
    ],
    "group": [
        [
            {
                "$type": "ConfigCameraMoveInterAction",
                "type": "CAMERA_FOCUS",
                "duration": 0.10000000149011612,
                "targetNpcAlias": ""
            },
            {
                "$type": "ConfigTimeProtectAction",
                "type": "TIME_PROTECT",
                "duration": 0.10000000149011612
            },
            {
                "$type": "ConfigSteerInterAction",
                "type": "STEER_TO",
                "delayTime": 0.30000001192092896,
                "duration": 0.800000011920929,
                "aliasList": [
                    "Avatar"
                ],
                "steerType": "TO_TARGET_ADVANCED",
                "useSteerAnim": true,
                "interruptFreestyle": true,
                "forceSteer": true,
                "targetNpcAlias": "4032"
            },
            {
                "$type": "ConfigSteerInterAction",
                "type": "STEER_TO",
                "delayTime": 0.30000001192092896,
                "duration": 0.800000011920929,
                "aliasList": [
                    "4032"
                ],
                "steerType": "TO_LOCAL_AVATAR_ADVANCED",
                "useSteerAnim": true,
                "interruptFreestyle": true,
                "forceSteer": true,
                "targetNpcAlias": ""
            },
            {
                "$type": "ConfigSteerInterAction",
                "type": "STEER_TO",
                "delayTime": 0.30000001192092896,
                "duration": 0.800000011920929,
                "aliasList": [
                    "4031"
                ],
                "steerType": "TO_LOCAL_AVATAR_ADVANCED",
                "useSteerAnim": true,
                "interruptFreestyle": true,
                "forceSteer": true,
                "targetNpcAlias": ""
            }
        ],
        [
            {
                "$type": "ConfigDialogInterAction",
                "type": "DIALOG",
                "aliasList": [
                    "4032"
                ],
                "dialogID": 230210801,
                "protectTime": 0.5
            }
        ],
        [
            {
                "$type": "ConfigDialogInterAction",
                "type": "DIALOG",
                "aliasList": [
                    "4032"
                ],
                "dialogID": 230210802,
                "protectTime": 0.5
            }
        ],
        [
            {
                "$type": "ConfigDialogInterAction",
                "type": "DIALOG",
                "aliasList": [
                    "4032"
                ],
                "dialogID": 230210803,
                "protectTime": 0.5
            }
        ],
        [
            {
                "$type": "ConfigDialogInterAction",
                "type": "DIALOG",
                "aliasList": [
                    "4031"
                ],
                "dialogID": 230210804,
                "protectTime": 0.5
            }
        ],
        [
            {
                "$type": "ConfigDialogInterAction",
                "type": "DIALOG",
                "aliasList": [
                    "4031"
                ],
                "dialogID": 230210805,
                "protectTime": 0.5
            }
        ],
        [
            {
                "$type": "ConfigDialogInterAction",
                "type": "DIALOG",
                "aliasList": [
                    "4032"
                ],
                "dialogID": 230210806,
                "protectTime": 0.5
            }
        ],
        [
            {
                "$type": "ConfigDialogInterAction",
                "type": "DIALOG",
                "aliasList": [
                    "4032"
                ],
                "dialogID": 230210807,
                "protectTime": 0.5
            }
        ],
        [
            {
                "$type": "ConfigDialogInterAction",
                "type": "DIALOG",
                "aliasList": [
                    "4032"
                ],
                "dialogID": 230210808,
                "protectTime": 0.5
            }
        ],
        [
            {
                "$type": "ConfigDialogInterAction",
                "type": "DIALOG",
                "aliasList": [
                    "4031"
                ],
                "dialogID": 230210809,
                "protectTime": 0.5
            }
        ],
        [
            {
                "$type": "ConfigDialogInterAction",
                "type": "DIALOG",
                "aliasList": [
                    "4031"
                ],
                "dialogID": 230210810,
                "protectTime": 0.5
            }
        ],
        [
            {
                "$type": "ConfigTimeProtectAction",
                "type": "TIME_PROTECT",
                "duration": 0.10000000149011612
            }
        ]
    ],
    "groupId": [
        {
            "grpId": 643382203,
            "nextGrpId": 643382204
        },
        {
            "index": 1,
            "grpId": 643382204,
            "nextGrpId": 643382205
        },
        {
            "index": 2,
            "grpId": 643382205,
            "nextGrpId": 643382206
        },
        {
            "index": 3,
            "grpId": 643382206,
            "nextGrpId": 643382207
        },
        {
            "index": 4,
            "grpId": 643382207,
            "nextGrpId": 643382208
        },
        {
            "index": 5,
            "grpId": 643382208,
            "nextGrpId": 643382209
        },
        {
            "index": 6,
            "grpId": 643382209,
            "nextGrpId": 643382210
        },
        {
            "index": 7,
            "grpId": 643382210,
            "nextGrpId": 643382211
        },
        {
            "index": 8,
            "grpId": 643382211,
            "nextGrpId": 2764979157
        },
        {
            "index": 9,
            "grpId": 2764979157,
            "nextGrpId": 2764979158
        },
        {
            "index": 10,
            "grpId": 2764979158,
            "nextGrpId": 2764979159
        },
        {
            "index": 11,
            "grpId": 2764979159,
            "nextGrpId": 2764979160
        }
    ],
    "freeStyleDic": {
        "4032": [],
        "4031": []
    }
}