{
    "HBPGBNCBOMP": "",
    "startBlackKeepTime": 0.5,
    "KENGMFPNLEP": "",
    "disableNpcLod": true,
    "NIHBFFCCJJN": true,
    "MCGPBLEHELN": true,
    "AGMGHOIPEIH": true,
    "startFade": {
        "startFadeInDuration": 0.5,
        "startFadeOutDuration": 0.5
    },
    "endFade": {
        "startFadeOutDuration": 0.0
    },
    "actors": [
        {
            "alias": "Avatar",
            "visible": true,
            "bornPointName": "Q13013PlayerPosterStart",
            "relativePosType": "AVATAR_NEW",
            "relativePosNpcAlias": ""
        },
        {
            "alias": "AvatarNpc",
            "visible": true,
            "bornPointName": "Q13013PlayerPosterStart",
            "removeActorType": "REMOVE",
            "relativePosType": "AVATAR_NEW",
            "relativePosNpcAlias": ""
        },
        {
            "configID": 12839,
            "alias": "12839",
            "visible": true,
            "bornPointName": "Q13013PosterManStart",
            "relativePosType": "AVATAR_NEW",
            "relativePosNpcAlias": ""
        },
        {
            "configID": 1005,
            "alias": "1005",
            "visible": true,
            "bornPointName": "Q13013PaimonPosterStart",
            "removeActorType": "REMOVE_WITH_DISAPPEAR",
            "relativePosType": "AVATAR_NEW",
            "relativePosNpcAlias": ""
        }
    ],
    "group": [
        [
            {
                "$type": "ConfigTimeProtectAction",
                "type": "TIME_PROTECT",
                "duration": 0.5,
                "actionId": 104
            },
            {
                "$type": "ConfigBlackScreenAction",
                "type": "BLACK_SCREEN",
                "duration": 0.5,
                "actionId": 160,
                "blackScreenType": "KEEP_BLACK",
                "inteePos": "",
                "textMapID": "",
                "useTextFade": true
            },
            {
                "$type": "ConfigVisibleInterAction",
                "type": "VISIBLE",
                "aliasList": [
                    "Avatar"
                ],
                "actionId": 168
            },
            {
                "$type": "ConfigPlayerNPCEnergyTypeAction",
                "type": "SET_PLAYER_NPC_ENERGY_TYPE",
                "aliasList": [
                    "AvatarNpc"
                ],
                "actionId": 166,
                "setHeroEngergyType": true
            }
        ],
        [
            {
                "$type": "ConfigBlackScreenAction",
                "type": "BLACK_SCREEN",
                "duration": 0.5,
                "actionId": 161,
                "blackScreenType": "FROM_BLACK",
                "durationKeepBlack": 0.5,
                "durationFromBlack": 0.5,
                "inteePos": "",
                "textMapID": "",
                "useTextFade": true
            },
            {
                "$type": "ConfigDialogInterAction",
                "type": "DIALOG",
                "aliasList": [
                    "12839"
                ],
                "actionId": 107,
                "dialogID": 130130101,
                "protectTime": 0.5
            },
            {
                "$type": "ConfigDialogSelectAction",
                "type": "DIALOG_SELECT",
                "delayTime": 0.4000000059604645,
                "aliasList": [
                    "AvatarNpc"
                ],
                "actionId": 162,
                "dialogIDList": [
                    130130102,
                    130130103
                ],
                "grpIDList": [
                    1275586556,
                    1275586556
                ],
                "useGrpId": true
            }
        ],
        [
            {
                "$type": "ConfigDialogInterAction",
                "type": "DIALOG",
                "aliasList": [
                    "1005"
                ],
                "actionId": 110,
                "dialogID": 130130104,
                "protectTime": 0.5
            }
        ],
        [
            {
                "$type": "ConfigDialogInterAction",
                "type": "DIALOG",
                "aliasList": [
                    "12839"
                ],
                "actionId": 112,
                "dialogID": 130130105,
                "protectTime": 0.5
            }
        ],
        [
            {
                "$type": "ConfigDialogInterAction",
                "type": "DIALOG",
                "aliasList": [
                    "12839"
                ],
                "actionId": 114,
                "dialogID": 130130106,
                "protectTime": 0.5
            }
        ],
        [
            {
                "$type": "ConfigDialogInterAction",
                "type": "DIALOG",
                "aliasList": [
                    "12839"
                ],
                "actionId": 116,
                "dialogID": 130130107,
                "protectTime": 0.5
            }
        ],
        [
            {
                "$type": "ConfigDialogInterAction",
                "type": "DIALOG",
                "aliasList": [
                    "1005"
                ],
                "actionId": 118,
                "dialogID": 130130108,
                "protectTime": 0.5
            }
        ],
        [
            {
                "$type": "ConfigDialogInterAction",
                "type": "DIALOG",
                "aliasList": [
                    "12839"
                ],
                "actionId": 120,
                "dialogID": 130130109,
                "protectTime": 0.5
            }
        ],
        [
            {
                "$type": "ConfigDialogInterAction",
                "type": "DIALOG",
                "aliasList": [
                    "12839"
                ],
                "actionId": 122,
                "dialogID": 130130110,
                "protectTime": 0.5
            }
        ],
        [
            {
                "$type": "ConfigDialogInterAction",
                "type": "DIALOG",
                "aliasList": [
                    "1005"
                ],
                "actionId": 124,
                "dialogID": 130130111,
                "protectTime": 0.5
            }
        ],
        [
            {
                "$type": "ConfigDialogInterAction",
                "type": "DIALOG",
                "aliasList": [
                    "12839"
                ],
                "actionId": 126,
                "dialogID": 130130112,
                "protectTime": 0.5
            },
            {
                "$type": "ConfigDialogSelectAction",
                "type": "DIALOG_SELECT",
                "delayTime": 0.4000000059604645,
                "aliasList": [
                    "AvatarNpc"
                ],
                "actionId": 163,
                "dialogIDList": [
                    130130113
                ],
                "grpIDList": [
                    888477560
                ],
                "useGrpId": true
            }
        ],
        [
            {
                "$type": "ConfigDialogInterAction",
                "type": "DIALOG",
                "aliasList": [
                    "1005"
                ],
                "actionId": 129,
                "dialogID": 130130114,
                "protectTime": 0.5
            }
        ],
        [
            {
                "$type": "ConfigDialogInterAction",
                "type": "DIALOG",
                "aliasList": [
                    "1005"
                ],
                "actionId": 131,
                "dialogID": 130130115,
                "protectTime": 0.5
            }
        ],
        [
            {
                "$type": "ConfigDialogInterAction",
                "type": "DIALOG",
                "aliasList": [
                    "12839"
                ],
                "actionId": 133,
                "dialogID": 130130116,
                "protectTime": 0.5
            }
        ],
        [
            {
                "$type": "ConfigDialogInterAction",
                "type": "DIALOG",
                "aliasList": [
                    "1005"
                ],
                "actionId": 135,
                "dialogID": 130130117,
                "protectTime": 0.5
            }
        ],
        [
            {
                "$type": "ConfigDialogInterAction",
                "type": "DIALOG",
                "aliasList": [
                    "12839"
                ],
                "actionId": 137,
                "dialogID": 130130118,
                "protectTime": 0.5
            }
        ],
        [
            {
                "$type": "ConfigDialogInterAction",
                "type": "DIALOG",
                "aliasList": [
                    "12839"
                ],
                "actionId": 139,
                "dialogID": 130130119,
                "protectTime": 0.5
            },
            {
                "$type": "ConfigDialogSelectAction",
                "type": "DIALOG_SELECT",
                "delayTime": 0.4000000059604645,
                "aliasList": [
                    "AvatarNpc"
                ],
                "actionId": 164,
                "dialogIDList": [
                    130130120,
                    130130121
                ],
                "grpIDList": [
                    888477566,
                    888477566
                ],
                "useGrpId": true
            }
        ],
        [
            {
                "$type": "ConfigDialogInterAction",
                "type": "DIALOG",
                "aliasList": [
                    "1005"
                ],
                "actionId": 142,
                "dialogID": 130130122,
                "protectTime": 0.5
            }
        ],
        [
            {
                "$type": "ConfigDialogInterAction",
                "type": "DIALOG",
                "aliasList": [
                    "12839"
                ],
                "actionId": 144,
                "dialogID": 130130123,
                "protectTime": 0.5
            }
        ],
        [
            {
                "$type": "ConfigDialogInterAction",
                "type": "DIALOG",
                "aliasList": [
                    "12839"
                ],
                "actionId": 146,
                "dialogID": 130130124,
                "protectTime": 0.5
            }
        ],
        [
            {
                "$type": "ConfigDialogInterAction",
                "type": "DIALOG",
                "aliasList": [
                    "1005"
                ],
                "actionId": 148,
                "dialogID": 130130125,
                "protectTime": 0.5
            }
        ],
        [
            {
                "$type": "ConfigDialogInterAction",
                "type": "DIALOG",
                "aliasList": [
                    "1005"
                ],
                "actionId": 150,
                "dialogID": 130130126,
                "protectTime": 0.5
            }
        ],
        [
            {
                "$type": "ConfigDialogInterAction",
                "type": "DIALOG",
                "aliasList": [
                    "1005"
                ],
                "actionId": 152,
                "dialogID": 130130127,
                "protectTime": 0.5
            },
            {
                "$type": "ConfigDialogSelectAction",
                "type": "DIALOG_SELECT",
                "delayTime": 0.4000000059604645,
                "aliasList": [
                    "AvatarNpc"
                ],
                "actionId": 165,
                "dialogIDList": [
                    130130128,
                    130130129
                ],
                "grpIDList": [
                    888477593,
                    888477593
                ],
                "useGrpId": true
            }
        ],
        [
            {
                "$type": "ConfigDialogInterAction",
                "type": "DIALOG",
                "aliasList": [
                    "1005"
                ],
                "actionId": 155,
                "dialogID": 130130130,
                "protectTime": 0.5
            }
        ],
        [
            {
                "$type": "ConfigDialogInterAction",
                "type": "DIALOG",
                "aliasList": [
                    "12839"
                ],
                "actionId": 157,
                "dialogID": 130130131,
                "protectTime": 0.5
            }
        ],
        [
            {
                "$type": "ConfigTimeProtectAction",
                "type": "TIME_PROTECT",
                "duration": 0.10000000149011612,
                "actionId": 105
            },
            {
                "$type": "ConfigSimpleBlackScreenAction",
                "type": "SIMPLE_BLACK_SCREEN",
                "actionId": 158,
                "durationToBlack": 0.5,
                "durationKeepBlack": 1.0,
                "durationFromBlack": 0.5,
                "textMapID": ""
            },
            {
                "$type": "ConfigTimeProtectAction",
                "type": "TIME_PROTECT",
                "duration": 0.699999988079071,
                "actionId": 159
            },
            {
                "$type": "ConfigVisibleInterAction",
                "type": "VISIBLE",
                "delayTime": 0.6000000238418579,
                "aliasList": [
                    "Avatar"
                ],
                "actionId": 167,
                "isVisible": true
            },
            {
                "$type": "ConfigVisibleInterAction",
                "type": "VISIBLE",
                "delayTime": 0.6000000238418579,
                "aliasList": [
                    "AvatarNpc"
                ],
                "actionId": 169
            }
        ]
    ],
    "groupId": [
        {
            "grpId": 1275586554,
            "nextGrpId": 1275586555
        },
        {
            "index": 1,
            "grpId": 1275586555,
            "nextGrpId": 1275586556
        },
        {
            "index": 2,
            "grpId": 1275586556,
            "nextGrpId": 1275586557
        },
        {
            "index": 3,
            "grpId": 1275586557,
            "nextGrpId": 1275586558
        },
        {
            "index": 4,
            "grpId": 1275586558,
            "nextGrpId": 1275586559
        },
        {
            "index": 5,
            "grpId": 1275586559,
            "nextGrpId": 1275586560
        },
        {
            "index": 6,
            "grpId": 1275586560,
            "nextGrpId": 1275586561
        },
        {
            "index": 7,
            "grpId": 1275586561,
            "nextGrpId": 1275586562
        },
        {
            "index": 8,
            "grpId": 1275586562,
            "nextGrpId": 888477558
        },
        {
            "index": 9,
            "grpId": 888477558,
            "nextGrpId": 888477559
        },
        {
            "index": 10,
            "grpId": 888477559,
            "nextGrpId": 888477560
        },
        {
            "index": 11,
            "grpId": 888477560,
            "nextGrpId": 888477561
        },
        {
            "index": 12,
            "grpId": 888477561,
            "nextGrpId": 888477562
        },
        {
            "index": 13,
            "grpId": 888477562,
            "nextGrpId": 888477563
        },
        {
            "index": 14,
            "grpId": 888477563,
            "nextGrpId": 888477564
        },
        {
            "index": 15,
            "grpId": 888477564,
            "nextGrpId": 888477565
        },
        {
            "index": 16,
            "grpId": 888477565,
            "nextGrpId": 888477566
        },
        {
            "index": 17,
            "grpId": 888477566,
            "nextGrpId": 888477567
        },
        {
            "index": 18,
            "grpId": 888477567,
            "nextGrpId": 888477589
        },
        {
            "index": 19,
            "grpId": 888477589,
            "nextGrpId": 888477590
        },
        {
            "index": 20,
            "grpId": 888477590,
            "nextGrpId": 888477591
        },
        {
            "index": 21,
            "grpId": 888477591,
            "nextGrpId": 888477592
        },
        {
            "index": 22,
            "grpId": 888477592,
            "nextGrpId": 888477593
        },
        {
            "index": 23,
            "grpId": 888477593,
            "nextGrpId": 888477594
        },
        {
            "index": 24,
            "grpId": 888477594,
            "nextGrpId": 888477595
        },
        {
            "index": 25,
            "grpId": 888477595,
            "nextGrpId": 888477596
        }
    ],
    "freeStyleDic": {
        "1025": [],
        "1026": [],
        "12839": []
    }
}