{
    "HBPGBNCBOMP": "",
    "isSimpleTalk": true,
    "startBlackKeepTime": 1.0,
    "KENGMFPNLEP": "",
    "disableNpcLod": true,
    "startFade": {
        "startFadeInDuration": 0.5,
        "startFadeOutDuration": 0.5
    },
    "endFade": {
        "startFadeOutDuration": 0.0
    },
    "actors": [
        {
            "alias": "Avatar",
            "visible": true,
            "bornPointName": "",
            "relativePosNpcAlias": ""
        },
        {
            "configID": 1005,
            "alias": "1005",
            "visible": true,
            "bornPointName": "",
            "relativePosNpcAlias": ""
        },
        {
            "configID": 20322,
            "alias": "20322",
            "visible": true,
            "bornPointName": "",
            "relativePosNpcAlias": ""
        }
    ],
    "group": [
        [
            {
                "$type": "ConfigTimeProtectAction",
                "type": "TIME_PROTECT",
                "duration": 0.4000000059604645
            },
            {
                "$type": "ConfigCameraMoveInterAction",
                "type": "CAMERA_FOCUS",
                "delayTime": 0.30000001192092896,
                "duration": 0.10000000149011612,
                "targetNpcAlias": ""
            }
        ],
        [
            {
                "$type": "ConfigTimeProtectAction",
                "type": "TIME_PROTECT",
                "duration": 0.10000000149011612
            }
        ]
    ],
    "groupId": [
        {
            "grpId": 2632259707,
            "nextGrpId": 2632259708
        },
        {
            "index": 1,
            "grpId": 2632259708,
            "nextGrpId": 2632259709
        }
    ],
    "freeStyleDic": {
        "20322": []
    }
}