{
    "HBPGBNCBOMP": "",
    "startBlackKeepTime": 0.5,
    "KENGMFPNLEP": "",
    "disableNpcLod": true,
    "NIHBFFCCJJN": true,
    "MCGPBLEHELN": true,
    "AGMGHOIPEIH": true,
    "startFade": {
        "startFadeInDuration": 0.5,
        "startFadeOutDuration": 0.5
    },
    "endFade": {
        "startFadeOutDuration": 0.0
    },
    "actors": [
        {
            "alias": "Avatar",
            "visible": true,
            "bornPointName": "Q3009Day3RealBeginPlayer",
            "relativePosNpcAlias": ""
        },
        {
            "configID": 1005,
            "alias": "1005",
            "visible": true,
            "bornPointName": "Q3009Day3RealBeginDicia",
            "removeActorType": "REMOVE_WITH_DISAPPEAR",
            "relativePosNpcAlias": ""
        },
        {
            "configID": 1056,
            "alias": "1056",
            "visible": true,
            "bornPointName": "Q3009Day3RealBeginGod3",
            "relativePosNpcAlias": ""
        }
    ],
    "group": [
        [
            {
                "$type": "ConfigTimeProtectAction",
                "type": "TIME_PROTECT",
                "duration": 0.10000000149011612
            }
        ],
        [
            {
                "$type": "ConfigDialogInterAction",
                "type": "DIALOG",
                "aliasList": [
                    "1005"
                ],
                "dialogID": 30140301,
                "protectTime": 0.5
            },
            {
                "$type": "ConfigDialogSelectAction",
                "type": "DIALOG_SELECT",
                "delayTime": 0.4000000059604645,
                "aliasList": [
                    "Avatar"
                ],
                "dialogIDList": [
                    30140302
                ],
                "grpIDList": [
                    64288192
                ],
                "useGrpId": true
            }
        ],
        [
            {
                "$type": "ConfigDialogInterAction",
                "type": "DIALOG",
                "aliasList": [
                    "1005"
                ],
                "dialogID": 30140303,
                "protectTime": 0.5
            },
            {
                "$type": "ConfigDialogSelectAction",
                "type": "DIALOG_SELECT",
                "delayTime": 0.4000000059604645,
                "aliasList": [
                    "Avatar"
                ],
                "dialogIDList": [
                    30140304
                ],
                "grpIDList": [
                    64288193
                ],
                "useGrpId": true
            }
        ],
        [
            {
                "$type": "ConfigDialogInterAction",
                "type": "DIALOG",
                "aliasList": [
                    "1005"
                ],
                "dialogID": 30140305,
                "protectTime": 0.5
            }
        ],
        [
            {
                "$type": "ConfigDialogInterAction",
                "type": "DIALOG",
                "aliasList": [
                    "1005"
                ],
                "dialogID": 30140306,
                "protectTime": 0.5
            },
            {
                "$type": "ConfigDialogSelectAction",
                "type": "DIALOG_SELECT",
                "delayTime": 0.4000000059604645,
                "aliasList": [
                    "Avatar"
                ],
                "dialogIDList": [
                    30140307
                ],
                "grpIDList": [
                    64288195
                ],
                "useGrpId": true
            }
        ],
        [
            {
                "$type": "ConfigDialogInterAction",
                "type": "DIALOG",
                "aliasList": [
                    "1056"
                ],
                "dialogID": 30140308,
                "protectTime": 0.5
            }
        ],
        [
            {
                "$type": "ConfigDialogInterAction",
                "type": "DIALOG",
                "aliasList": [
                    "1005"
                ],
                "dialogID": 30140309,
                "protectTime": 0.5
            },
            {
                "$type": "ConfigDialogSelectAction",
                "type": "DIALOG_SELECT",
                "delayTime": 0.4000000059604645,
                "aliasList": [
                    "Avatar"
                ],
                "dialogIDList": [
                    30140310,
                    30140311
                ],
                "grpIDList": [
                    64288197,
                    64288197
                ],
                "useGrpId": true
            }
        ],
        [
            {
                "$type": "ConfigDialogSelectAction",
                "type": "DIALOG_SELECT",
                "delayTime": 0.4000000059604645,
                "aliasList": [
                    "Avatar"
                ],
                "dialogIDList": [
                    30140312
                ],
                "grpIDList": [
                    1992933938
                ],
                "useGrpId": true
            }
        ],
        [
            {
                "$type": "ConfigDialogSelectAction",
                "type": "DIALOG_SELECT",
                "delayTime": 0.4000000059604645,
                "aliasList": [
                    "Avatar"
                ],
                "dialogIDList": [
                    30140312
                ],
                "grpIDList": [
                    1992933938
                ],
                "useGrpId": true
            }
        ],
        [
            {
                "$type": "ConfigDialogInterAction",
                "type": "DIALOG",
                "aliasList": [
                    "1005"
                ],
                "dialogID": 30140313,
                "protectTime": 0.5
            }
        ],
        [
            {
                "$type": "ConfigDialogInterAction",
                "type": "DIALOG",
                "aliasList": [
                    "1056"
                ],
                "dialogID": 30140314,
                "protectTime": 0.5
            }
        ],
        [
            {
                "$type": "ConfigSimpleBlackScreenAction",
                "type": "SIMPLE_BLACK_SCREEN",
                "durationToBlack": 0.5,
                "durationKeepBlack": 3.0,
                "durationFromBlack": 0.5,
                "textMapID": "",
                "useTextFade": true,
                "dialogID": 30140315
            },
            {
                "$type": "ConfigDialogInterAction",
                "type": "DIALOG_CLEAR"
            }
        ],
        [
            {
                "$type": "ConfigDialogInterAction",
                "type": "DIALOG",
                "aliasList": [
                    "1056"
                ],
                "dialogID": 30140316,
                "protectTime": 0.5
            }
        ],
        [
            {
                "$type": "ConfigDialogInterAction",
                "type": "DIALOG",
                "aliasList": [
                    "1005"
                ],
                "dialogID": 30140317,
                "protectTime": 0.5
            },
            {
                "$type": "ConfigDialogSelectAction",
                "type": "DIALOG_SELECT",
                "delayTime": 0.4000000059604645,
                "aliasList": [
                    "Avatar"
                ],
                "dialogIDList": [
                    30140318
                ],
                "grpIDList": [
                    1992933943
                ],
                "useGrpId": true
            }
        ],
        [
            {
                "$type": "ConfigDialogInterAction",
                "type": "DIALOG",
                "aliasList": [
                    "1005"
                ],
                "dialogID": 30140319,
                "protectTime": 0.5
            }
        ],
        [
            {
                "$type": "ConfigDialogInterAction",
                "type": "DIALOG",
                "aliasList": [
                    "1056"
                ],
                "dialogID": 30140320,
                "protectTime": 0.5
            },
            {
                "$type": "ConfigDialogSelectAction",
                "type": "DIALOG_SELECT",
                "delayTime": 0.4000000059604645,
                "aliasList": [
                    "Avatar"
                ],
                "dialogIDList": [
                    30140321
                ],
                "grpIDList": [
                    1992933945
                ],
                "useGrpId": true
            }
        ],
        [
            {
                "$type": "ConfigDialogInterAction",
                "type": "DIALOG",
                "aliasList": [
                    "1056"
                ],
                "dialogID": 30140322,
                "protectTime": 0.5
            }
        ],
        [
            {
                "$type": "ConfigDialogInterAction",
                "type": "DIALOG",
                "aliasList": [
                    "1005"
                ],
                "dialogID": 30140323,
                "protectTime": 0.5
            },
            {
                "$type": "ConfigDialogSelectAction",
                "type": "DIALOG_SELECT",
                "delayTime": 0.4000000059604645,
                "aliasList": [
                    "Avatar"
                ],
                "dialogIDList": [
                    30140324,
                    30140325
                ],
                "grpIDList": [
                    1992933947,
                    1992933947
                ],
                "useGrpId": true
            }
        ],
        [
            {
                "$type": "ConfigDialogInterAction",
                "type": "DIALOG",
                "aliasList": [
                    "1005"
                ],
                "dialogID": 30140326,
                "protectTime": 0.5
            }
        ],
        [
            {
                "$type": "ConfigDialogInterAction",
                "type": "DIALOG",
                "aliasList": [
                    "1005"
                ],
                "dialogID": 30140327,
                "protectTime": 0.5
            },
            {
                "$type": "ConfigDialogSelectAction",
                "type": "DIALOG_SELECT",
                "delayTime": 0.4000000059604645,
                "aliasList": [
                    "Avatar"
                ],
                "dialogIDList": [
                    30140328,
                    30140329
                ],
                "grpIDList": [
                    1992933970,
                    1992933970
                ],
                "useGrpId": true
            }
        ],
        [
            {
                "$type": "ConfigDialogInterAction",
                "type": "DIALOG",
                "aliasList": [
                    "1005"
                ],
                "dialogID": 30140330,
                "protectTime": 0.5
            }
        ],
        [
            {
                "$type": "ConfigDialogInterAction",
                "type": "DIALOG",
                "aliasList": [
                    "1056"
                ],
                "dialogID": 30140331,
                "protectTime": 0.5
            }
        ],
        [
            {
                "$type": "ConfigDialogInterAction",
                "type": "DIALOG",
                "aliasList": [
                    "1056"
                ],
                "dialogID": 30140332,
                "protectTime": 0.5
            }
        ],
        [
            {
                "$type": "ConfigDialogInterAction",
                "type": "DIALOG",
                "aliasList": [
                    "1005"
                ],
                "dialogID": 30140333,
                "protectTime": 0.5
            }
        ],
        [
            {
                "$type": "ConfigDialogInterAction",
                "type": "DIALOG",
                "aliasList": [
                    "1056"
                ],
                "dialogID": 30140334,
                "protectTime": 0.5
            }
        ],
        [
            {
                "$type": "ConfigDialogInterAction",
                "type": "DIALOG",
                "aliasList": [
                    "1005"
                ],
                "dialogID": 30140335,
                "protectTime": 0.5
            }
        ],
        [
            {
                "$type": "ConfigDialogInterAction",
                "type": "DIALOG",
                "aliasList": [
                    "1056"
                ],
                "dialogID": 30140336,
                "protectTime": 0.5
            }
        ],
        [
            {
                "$type": "ConfigDialogInterAction",
                "type": "DIALOG",
                "aliasList": [
                    "1005"
                ],
                "dialogID": 30140337,
                "protectTime": 0.5
            }
        ],
        [
            {
                "$type": "ConfigDialogInterAction",
                "type": "DIALOG",
                "aliasList": [
                    "1056"
                ],
                "dialogID": 30140338,
                "protectTime": 0.5
            }
        ],
        [
            {
                "$type": "ConfigDialogInterAction",
                "type": "DIALOG",
                "aliasList": [
                    "1005"
                ],
                "dialogID": 30140339,
                "protectTime": 0.5
            },
            {
                "$type": "ConfigDialogSelectAction",
                "type": "DIALOG_SELECT",
                "delayTime": 0.4000000059604645,
                "aliasList": [
                    "Avatar"
                ],
                "dialogIDList": [
                    30140340
                ],
                "grpIDList": [
                    1992934001
                ],
                "useGrpId": true
            }
        ],
        [
            {
                "$type": "ConfigDialogInterAction",
                "type": "DIALOG",
                "aliasList": [
                    "1005"
                ],
                "dialogID": 30140341,
                "protectTime": 0.5
            },
            {
                "$type": "ConfigDialogSelectAction",
                "type": "DIALOG_SELECT",
                "delayTime": 0.4000000059604645,
                "aliasList": [
                    "Avatar"
                ],
                "dialogIDList": [
                    30140342
                ],
                "grpIDList": [
                    1992934002
                ],
                "useGrpId": true
            }
        ],
        [
            {
                "$type": "ConfigDialogInterAction",
                "type": "DIALOG",
                "aliasList": [
                    "1005"
                ],
                "dialogID": 30140343,
                "protectTime": 0.5
            },
            {
                "$type": "ConfigDialogSelectAction",
                "type": "DIALOG_SELECT",
                "delayTime": 0.4000000059604645,
                "aliasList": [
                    "Avatar"
                ],
                "dialogIDList": [
                    30140344
                ],
                "grpIDList": [
                    1992934003
                ],
                "useGrpId": true
            }
        ],
        [
            {
                "$type": "ConfigDialogInterAction",
                "type": "DIALOG",
                "aliasList": [
                    "1005"
                ],
                "dialogID": 30140345,
                "protectTime": 0.5
            }
        ],
        [
            {
                "$type": "ConfigTimeProtectAction",
                "type": "TIME_PROTECT",
                "duration": 0.10000000149011612
            },
            {
                "$type": "ConfigSimpleBlackScreenAction",
                "type": "SIMPLE_BLACK_SCREEN",
                "durationToBlack": 0.5,
                "durationKeepBlack": 1.0,
                "durationFromBlack": 0.5,
                "textMapID": ""
            },
            {
                "$type": "ConfigTimeProtectAction",
                "type": "TIME_PROTECT",
                "duration": 0.699999988079071
            }
        ]
    ],
    "groupId": [
        {
            "grpId": 64288190,
            "nextGrpId": 64288191
        },
        {
            "index": 1,
            "grpId": 64288191,
            "nextGrpId": 64288192
        },
        {
            "index": 2,
            "grpId": 64288192,
            "nextGrpId": 64288193
        },
        {
            "index": 3,
            "grpId": 64288193,
            "nextGrpId": 64288194
        },
        {
            "index": 4,
            "grpId": 64288194,
            "nextGrpId": 64288195
        },
        {
            "index": 5,
            "grpId": 64288195,
            "nextGrpId": 64288196
        },
        {
            "index": 6,
            "grpId": 64288196,
            "nextGrpId": 64288197
        },
        {
            "index": 7,
            "grpId": 64288197,
            "nextGrpId": 64288198
        },
        {
            "index": 8,
            "grpId": 64288198,
            "nextGrpId": 1992933938
        },
        {
            "index": 9,
            "grpId": 1992933938,
            "nextGrpId": 1992933939
        },
        {
            "index": 10,
            "grpId": 1992933939,
            "nextGrpId": 1992933940
        },
        {
            "index": 11,
            "grpId": 1992933940,
            "nextGrpId": 1992933941
        },
        {
            "index": 12,
            "grpId": 1992933941,
            "nextGrpId": 1992933942
        },
        {
            "index": 13,
            "grpId": 1992933942,
            "nextGrpId": 1992933943
        },
        {
            "index": 14,
            "grpId": 1992933943,
            "nextGrpId": 1992933944
        },
        {
            "index": 15,
            "grpId": 1992933944,
            "nextGrpId": 1992933945
        },
        {
            "index": 16,
            "grpId": 1992933945,
            "nextGrpId": 1992933946
        },
        {
            "index": 17,
            "grpId": 1992933946,
            "nextGrpId": 1992933947
        },
        {
            "index": 18,
            "grpId": 1992933947,
            "nextGrpId": 1992933969
        },
        {
            "index": 19,
            "grpId": 1992933969,
            "nextGrpId": 1992933970
        },
        {
            "index": 20,
            "grpId": 1992933970,
            "nextGrpId": 1992933971
        },
        {
            "index": 21,
            "grpId": 1992933971,
            "nextGrpId": 1992933972
        },
        {
            "index": 22,
            "grpId": 1992933972,
            "nextGrpId": 1992933973
        },
        {
            "index": 23,
            "grpId": 1992933973,
            "nextGrpId": 1992933974
        },
        {
            "index": 24,
            "grpId": 1992933974,
            "nextGrpId": 1992933975
        },
        {
            "index": 25,
            "grpId": 1992933975,
            "nextGrpId": 1992933976
        },
        {
            "index": 26,
            "grpId": 1992933976,
            "nextGrpId": 1992933977
        },
        {
            "index": 27,
            "grpId": 1992933977,
            "nextGrpId": 1992933978
        },
        {
            "index": 28,
            "grpId": 1992933978,
            "nextGrpId": 1992934000
        },
        {
            "index": 29,
            "grpId": 1992934000,
            "nextGrpId": 1992934001
        },
        {
            "index": 30,
            "grpId": 1992934001,
            "nextGrpId": 1992934002
        },
        {
            "index": 31,
            "grpId": 1992934002,
            "nextGrpId": 1992934003
        },
        {
            "index": 32,
            "grpId": 1992934003,
            "nextGrpId": 1992934004
        },
        {
            "index": 33,
            "grpId": 1992934004,
            "nextGrpId": 1992934005
        }
    ],
    "freeStyleDic": {
        "1056": []
    }
}