{
    "HBPGBNCBOMP": "",
    "KENGMFPNLEP": "",
    "disableNpcLod": true,
    "startFade": {
        "startFadeOutDuration": 0.0
    },
    "endFade": {
        "startFadeOutDuration": 0.0
    },
    "actors": [
        {
            "alias": "Avatar",
            "visible": true,
            "bornPointName": "",
            "relativePosNpcAlias": ""
        },
        {
            "configID": 2061,
            "alias": "2061",
            "visible": true,
            "bornPointName": "",
            "forceCreateDaily": true,
            "relativePosNpcAlias": ""
        },
        {
            "configID": 1005,
            "alias": "1005",
            "visible": true,
            "bornPointName": "",
            "useRelativePos": true,
            "relativePos": {
                "x": -0.5,
                "z": 0.5
            },
            "removeActorType": "REMOVE_WITH_DISAPPEAR",
            "relativePosNpcAlias": ""
        }
    ],
    "group": [
        [
            {
                "$type": "ConfigTimeProtectAction",
                "type": "TIME_PROTECT",
                "duration": 0.10000000149011612
            }
        ],
        [
            {
                "$type": "ConfigDialogInterAction",
                "type": "DIALOG",
                "aliasList": [
                    "2061"
                ],
                "dialogID": 710960201,
                "protectTime": 0.5
            }
        ],
        [
            {
                "$type": "ConfigDialogInterAction",
                "type": "DIALOG",
                "aliasList": [
                    "2061"
                ],
                "dialogID": 710960202,
                "protectTime": 0.5
            }
        ],
        [
            {
                "$type": "ConfigDialogInterAction",
                "type": "DIALOG",
                "aliasList": [
                    "2061"
                ],
                "dialogID": 710960203,
                "protectTime": 0.5
            }
        ],
        [
            {
                "$type": "ConfigDialogInterAction",
                "type": "DIALOG",
                "aliasList": [
                    "2061"
                ],
                "dialogID": 710960204,
                "protectTime": 0.5
            }
        ],
        [
            {
                "$type": "ConfigDialogInterAction",
                "type": "DIALOG",
                "aliasList": [
                    "1005"
                ],
                "dialogID": 710960205,
                "protectTime": 0.5
            },
            {
                "$type": "ConfigDialogSelectAction",
                "type": "DIALOG_SELECT",
                "delayTime": 0.4000000059604645,
                "aliasList": [
                    "Avatar"
                ],
                "dialogIDList": [
                    710960206,
                    710960207
                ],
                "grpIDList": [
                    61945732,
                    61945732
                ],
                "useGrpId": true
            }
        ],
        [
            {
                "$type": "ConfigDialogInterAction",
                "type": "DIALOG",
                "aliasList": [
                    "2061"
                ],
                "dialogID": 710960208,
                "protectTime": 0.5
            }
        ],
        [
            {
                "$type": "ConfigDialogInterAction",
                "type": "DIALOG",
                "aliasList": [
                    "2061"
                ],
                "dialogID": 710960209,
                "protectTime": 0.5
            }
        ],
        [
            {
                "$type": "ConfigDialogInterAction",
                "type": "DIALOG",
                "aliasList": [
                    "2061"
                ],
                "dialogID": 710960210,
                "protectTime": 0.5
            }
        ],
        [
            {
                "$type": "ConfigDialogInterAction",
                "type": "DIALOG",
                "aliasList": [
                    "1005"
                ],
                "dialogID": 710960211,
                "protectTime": 0.5
            },
            {
                "$type": "ConfigDialogSelectAction",
                "type": "DIALOG_SELECT",
                "delayTime": 0.4000000059604645,
                "aliasList": [
                    "Avatar"
                ],
                "dialogIDList": [
                    710960212
                ],
                "grpIDList": [
                    1920317555
                ],
                "useGrpId": true
            }
        ],
        [
            {
                "$type": "ConfigDialogInterAction",
                "type": "DIALOG",
                "aliasList": [
                    "2061"
                ],
                "dialogID": 710960213,
                "protectTime": 0.5
            }
        ],
        [
            {
                "$type": "ConfigDialogInterAction",
                "type": "DIALOG",
                "aliasList": [
                    "2061"
                ],
                "dialogID": 710960214,
                "protectTime": 0.5
            }
        ],
        [
            {
                "$type": "ConfigDialogInterAction",
                "type": "DIALOG",
                "aliasList": [
                    "2061"
                ],
                "dialogID": 710960215,
                "protectTime": 0.5
            }
        ],
        [
            {
                "$type": "ConfigDialogInterAction",
                "type": "DIALOG",
                "aliasList": [
                    "2061"
                ],
                "dialogID": 710960216,
                "protectTime": 0.5
            }
        ],
        [
            {
                "$type": "ConfigDialogInterAction",
                "type": "DIALOG",
                "aliasList": [
                    "2061"
                ],
                "dialogID": 710960217,
                "protectTime": 0.5
            }
        ],
        [
            {
                "$type": "ConfigDialogInterAction",
                "type": "DIALOG",
                "aliasList": [
                    "2061"
                ],
                "dialogID": 710960218,
                "protectTime": 0.5
            }
        ],
        [
            {
                "$type": "ConfigDialogInterAction",
                "type": "DIALOG",
                "aliasList": [
                    "1005"
                ],
                "dialogID": 710960219,
                "protectTime": 0.5
            }
        ],
        [
            {
                "$type": "ConfigDialogInterAction",
                "type": "DIALOG",
                "aliasList": [
                    "2061"
                ],
                "dialogID": 710960220,
                "protectTime": 0.5
            }
        ],
        [
            {
                "$type": "ConfigDialogInterAction",
                "type": "DIALOG",
                "aliasList": [
                    "2061"
                ],
                "dialogID": 710960221,
                "protectTime": 0.5
            },
            {
                "$type": "ConfigDialogSelectAction",
                "type": "DIALOG_SELECT",
                "delayTime": 0.4000000059604645,
                "aliasList": [
                    "Avatar"
                ],
                "dialogIDList": [
                    710960222,
                    710960223
                ],
                "grpIDList": [
                    1920317585,
                    1920317585
                ],
                "useGrpId": true
            }
        ],
        [
            {
                "$type": "ConfigDialogInterAction",
                "type": "DIALOG",
                "aliasList": [
                    "2061"
                ],
                "dialogID": 710960224,
                "protectTime": 0.5
            }
        ],
        [
            {
                "$type": "ConfigDialogInterAction",
                "type": "DIALOG",
                "aliasList": [
                    "2061"
                ],
                "dialogID": 710960225,
                "protectTime": 0.5
            }
        ],
        [
            {
                "$type": "ConfigTimeProtectAction",
                "type": "TIME_PROTECT",
                "duration": 0.10000000149011612
            }
        ]
    ],
    "groupId": [
        {
            "grpId": 61945726,
            "nextGrpId": 61945727
        },
        {
            "index": 1,
            "grpId": 61945727,
            "nextGrpId": 61945728
        },
        {
            "index": 2,
            "grpId": 61945728,
            "nextGrpId": 61945729
        },
        {
            "index": 3,
            "grpId": 61945729,
            "nextGrpId": 61945730
        },
        {
            "index": 4,
            "grpId": 61945730,
            "nextGrpId": 61945731
        },
        {
            "index": 5,
            "grpId": 61945731,
            "nextGrpId": 61945732
        },
        {
            "index": 6,
            "grpId": 61945732,
            "nextGrpId": 61945733
        },
        {
            "index": 7,
            "grpId": 61945733,
            "nextGrpId": 61945734
        },
        {
            "index": 8,
            "grpId": 61945734,
            "nextGrpId": 1920317554
        },
        {
            "index": 9,
            "grpId": 1920317554,
            "nextGrpId": 1920317555
        },
        {
            "index": 10,
            "grpId": 1920317555,
            "nextGrpId": 1920317556
        },
        {
            "index": 11,
            "grpId": 1920317556,
            "nextGrpId": 1920317557
        },
        {
            "index": 12,
            "grpId": 1920317557,
            "nextGrpId": 1920317558
        },
        {
            "index": 13,
            "grpId": 1920317558,
            "nextGrpId": 1920317559
        },
        {
            "index": 14,
            "grpId": 1920317559,
            "nextGrpId": 1920317560
        },
        {
            "index": 15,
            "grpId": 1920317560,
            "nextGrpId": 1920317561
        },
        {
            "index": 16,
            "grpId": 1920317561,
            "nextGrpId": 1920317562
        },
        {
            "index": 17,
            "grpId": 1920317562,
            "nextGrpId": 1920317563
        },
        {
            "index": 18,
            "grpId": 1920317563,
            "nextGrpId": 1920317585
        },
        {
            "index": 19,
            "grpId": 1920317585,
            "nextGrpId": 1920317586
        },
        {
            "index": 20,
            "grpId": 1920317586,
            "nextGrpId": 1920317587
        },
        {
            "index": 21,
            "grpId": 1920317587,
            "nextGrpId": 1920317588
        }
    ],
    "freeStyleDic": {
        "2061": []
    }
}